%!PS-Adobe-2.0 EPSF-1.2
%%Creator: MATLAB, The MathWorks, Inc. Version 8.3.0.532 (R2014a). Operating System: Linux 3.19.0-43-generic #49-Ubuntu SMP Sun Dec 27 19:43:07 UTC 2015 x86_64.
%%Title: ./timescale.eps
%%CreationDate: 01/07/2016  13:59:04
%%DocumentNeededFonts: Helvetica
%%DocumentProcessColors: Cyan Magenta Yellow Black
%%Extensions: CMYK
%%Pages: 1
%%BoundingBox:    56   199   550   609
%%EndComments

%%BeginProlog
% MathWorks dictionary
/MathWorks 160 dict begin
% definition operators
/bdef {bind def} bind def
/ldef {load def} bind def
/xdef {exch def} bdef
/xstore {exch store} bdef
% operator abbreviations
/c  /clip ldef
/cc /concat ldef
/cp /closepath ldef
/gr /grestore ldef
/gs /gsave ldef
/mt /moveto ldef
/np /newpath ldef
/cm /currentmatrix ldef
/sm /setmatrix ldef
/rm /rmoveto ldef
/rl /rlineto ldef
/s {show newpath} bdef
/sc {setcmykcolor} bdef
/sr /setrgbcolor ldef
/sg /setgray ldef
/w /setlinewidth ldef
/j /setlinejoin ldef
/cap /setlinecap ldef
/rc {rectclip} bdef
/rf {rectfill} bdef
% page state control
/pgsv () def
/bpage {/pgsv save def} bdef
/epage {pgsv restore} bdef
/bplot /gsave ldef
/eplot {stroke grestore} bdef
% orientation switch
/portraitMode 0 def /landscapeMode 1 def /rotateMode 2 def
% coordinate system mappings
/dpi2point 0 def
% font control
/FontSize 0 def
/FMS {/FontSize xstore findfont [FontSize 0 0 FontSize neg 0 0]
  makefont setfont} bdef
/reencode {exch dup where {pop load} {pop StandardEncoding} ifelse
  exch dup 3 1 roll findfont dup length dict begin
  { 1 index /FID ne {def}{pop pop} ifelse } forall
  /Encoding exch def currentdict end definefont pop} bdef
/isroman {findfont /CharStrings get /Agrave known} bdef
/FMSR {3 1 roll 1 index dup isroman {reencode} {pop pop} ifelse
  exch FMS} bdef
/csm {1 dpi2point div -1 dpi2point div scale neg translate
 dup landscapeMode eq {pop -90 rotate}
  {rotateMode eq {90 rotate} if} ifelse} bdef
% line types: solid, dotted, dashed, dotdash
/SO { [] 0 setdash } bdef
/DO { [.5 dpi2point mul 4 dpi2point mul] 0 setdash } bdef
/DA { [6 dpi2point mul] 0 setdash } bdef
/DD { [.5 dpi2point mul 4 dpi2point mul 6 dpi2point mul 4
  dpi2point mul] 0 setdash } bdef
% macros for lines and objects
/L {lineto stroke} bdef
/MP {3 1 roll moveto 1 sub {rlineto} repeat} bdef
/AP {{rlineto} repeat} bdef
/PDlw -1 def
/W {/PDlw currentlinewidth def setlinewidth} def
/PP {closepath eofill} bdef
/DP {closepath stroke} bdef
/MR {4 -2 roll moveto dup  0 exch rlineto exch 0 rlineto
  neg 0 exch rlineto closepath} bdef
/FR {MR stroke} bdef
/PR {MR fill} bdef
/L1i {{currentfile picstr readhexstring pop} image} bdef
/tMatrix matrix def
/MakeOval {newpath tMatrix currentmatrix pop translate scale
0 0 1 0 360 arc tMatrix setmatrix} bdef
/FO {MakeOval stroke} bdef
/PO {MakeOval fill} bdef
/PD {currentlinewidth 2 div 0 360 arc fill
   PDlw -1 eq not {PDlw w /PDlw -1 def} if} def
/FA {newpath tMatrix currentmatrix pop translate scale
  0 0 1 5 -2 roll arc tMatrix setmatrix stroke} bdef
/PA {newpath tMatrix currentmatrix pop	translate 0 0 moveto scale
  0 0 1 5 -2 roll arc closepath tMatrix setmatrix fill} bdef
/FAn {newpath tMatrix currentmatrix pop translate scale
  0 0 1 5 -2 roll arcn tMatrix setmatrix stroke} bdef
/PAn {newpath tMatrix currentmatrix pop translate 0 0 moveto scale
  0 0 1 5 -2 roll arcn closepath tMatrix setmatrix fill} bdef
/vradius 0 def /hradius 0 def /lry 0 def
/lrx 0 def /uly 0 def /ulx 0 def /rad 0 def
/MRR {/vradius xdef /hradius xdef /lry xdef /lrx xdef /uly xdef
  /ulx xdef newpath tMatrix currentmatrix pop ulx hradius add uly
  vradius add translate hradius vradius scale 0 0 1 180 270 arc 
  tMatrix setmatrix lrx hradius sub uly vradius add translate
  hradius vradius scale 0 0 1 270 360 arc tMatrix setmatrix
  lrx hradius sub lry vradius sub translate hradius vradius scale
  0 0 1 0 90 arc tMatrix setmatrix ulx hradius add lry vradius sub
  translate hradius vradius scale 0 0 1 90 180 arc tMatrix setmatrix
  closepath} bdef
/FRR {MRR stroke } bdef
/PRR {MRR fill } bdef
/MlrRR {/lry xdef /lrx xdef /uly xdef /ulx xdef /rad lry uly sub 2 div def
  newpath tMatrix currentmatrix pop ulx rad add uly rad add translate
  rad rad scale 0 0 1 90 270 arc tMatrix setmatrix lrx rad sub lry rad
  sub translate rad rad scale 0 0 1 270 90 arc tMatrix setmatrix
  closepath} bdef
/FlrRR {MlrRR stroke } bdef
/PlrRR {MlrRR fill } bdef
/MtbRR {/lry xdef /lrx xdef /uly xdef /ulx xdef /rad lrx ulx sub 2 div def
  newpath tMatrix currentmatrix pop ulx rad add uly rad add translate
  rad rad scale 0 0 1 180 360 arc tMatrix setmatrix lrx rad sub lry rad
  sub translate rad rad scale 0 0 1 0 180 arc tMatrix setmatrix
  closepath} bdef
/FtbRR {MtbRR stroke } bdef
/PtbRR {MtbRR fill } bdef
/stri 6 array def /dtri 6 array def
/smat 6 array def /dmat 6 array def
/tmat1 6 array def /tmat2 6 array def /dif 3 array def
/asub {/ind2 exch def /ind1 exch def dup dup
  ind1 get exch ind2 get sub exch } bdef
/tri_to_matrix {
  2 0 asub 3 1 asub 4 0 asub 5 1 asub
  dup 0 get exch 1 get 7 -1 roll astore } bdef
/compute_transform {
  dmat dtri tri_to_matrix tmat1 invertmatrix 
  smat stri tri_to_matrix tmat2 concatmatrix } bdef
/ds {stri astore pop} bdef
/dt {dtri astore pop} bdef
/db {2 copy /cols xdef /rows xdef mul dup 3 mul string
  currentfile exch readhexstring pop
  dup 0 3 index getinterval /rbmap xdef
  dup 2 index dup getinterval /gbmap xdef
  1 index dup 2 mul exch getinterval /bbmap xdef pop pop}bdef
/it {gs np dtri aload pop moveto lineto lineto cp c
  cols rows 8 compute_transform 
  rbmap gbmap bbmap true 3 colorimage gr}bdef
/il {newpath moveto lineto stroke}bdef
currentdict end def
%%EndProlog

%%BeginSetup
MathWorks begin

0 cap

end
%%EndSetup

%%Page: 1 1
%%BeginPageSetup
%%PageBoundingBox:    56   199   550   609
MathWorks begin
bpage
%%EndPageSetup

%%BeginObject: obj1
bplot

/dpi2point 12 def
portraitMode 0216 7344 csm

  462    27  5925  4928 MR c np
85 dict begin %Colortable dictionary
/c0 { 0.000000 0.000000 0.000000 sr} bdef
/c1 { 1.000000 1.000000 1.000000 sr} bdef
/c2 { 0.900000 0.000000 0.000000 sr} bdef
/c3 { 0.000000 0.820000 0.000000 sr} bdef
/c4 { 0.000000 0.000000 0.800000 sr} bdef
/c5 { 0.910000 0.820000 0.320000 sr} bdef
/c6 { 1.000000 0.260000 0.820000 sr} bdef
/c7 { 0.000000 0.820000 0.820000 sr} bdef
c0
1 j
1 sg
   0    0 6913 5186 PR
6 w
0 4226 5356 0 0 -4226 899 4615 4 MP
PP
-5356 0 0 4226 5356 0 0 -4226 899 4615 5 MP stroke
4 w
DO
SO
6 w
0 sg
 899 4615 mt 6255 4615 L
 899  389 mt 6255  389 L
 899 4615 mt  899  389 L
6255 4615 mt 6255  389 L
 899 4615 mt 6255 4615 L
 899 4615 mt  899  389 L
 899 4615 mt  899 4561 L
 899  389 mt  899  442 L
%%IncludeResource: font Helvetica
/Helvetica /ISOLatin1Encoding 120 FMSR

 866 4760 mt 
(0) s
1970 4615 mt 1970 4561 L
1970  389 mt 1970  442 L
1887 4760 mt 
(0.5) s
3041 4615 mt 3041 4561 L
3041  389 mt 3041  442 L
3008 4760 mt 
(1) s
4112 4615 mt 4112 4561 L
4112  389 mt 4112  442 L
4029 4760 mt 
(1.5) s
5183 4615 mt 5183 4561 L
5183  389 mt 5183  442 L
5150 4760 mt 
(2) s
6255 4615 mt 6255 4561 L
6255  389 mt 6255  442 L
6172 4760 mt 
(2.5) s
 899 4615 mt  952 4615 L
6255 4615 mt 6201 4615 L
 798 4659 mt 
(0) s
 899 4011 mt  952 4011 L
6255 4011 mt 6201 4011 L
 698 4055 mt 
(0.5) s
 899 3407 mt  952 3407 L
6255 3407 mt 6201 3407 L
 798 3451 mt 
(1) s
 899 2803 mt  952 2803 L
6255 2803 mt 6201 2803 L
 698 2847 mt 
(1.5) s
 899 2200 mt  952 2200 L
6255 2200 mt 6201 2200 L
 798 2244 mt 
(2) s
 899 1596 mt  952 1596 L
6255 1596 mt 6201 1596 L
 698 1640 mt 
(2.5) s
 899  992 mt  952  992 L
6255  992 mt 6201  992 L
 798 1036 mt 
(3) s
 899  389 mt  952  389 L
6255  389 mt 6201  389 L
 698  433 mt 
(3.5) s
 899 4615 mt 6255 4615 L
 899  389 mt 6255  389 L
 899 4615 mt  899  389 L
6255 4615 mt 6255  389 L
gs 899 389 5357 4227 MR c np
/c8 { 0.000000 0.000000 1.000000 sr} bdef
c8
21 -12 21 -13 22 -12 21 -12 22 -12 21 -12 22 -12 21 -12 
21 -12 22 -12 21 -12 22 -12 21 -12 22 -12 21 -12 21 -13 
22 -12 21 -12 22 -12 21 -12 21 -12 22 -12 21 -12 22 -12 
21 -12 22 -12 21 -12 21 -12 22 -13 21 -12 22 -12 21 -12 
22 -12 21 -12 21 -12 22 -12 21 -12 22 -12 21 -12 22 -12 
21 -12 21 -13 22 -12 21 -12 22 -12 21 -12 22 -12 21 -13 
21 -12 22 -14 21 -13 22 -14 21 -15 21 -14 22 -15 21 -16 
22 -16 21 -16 22 -16 21 -17 21 -17 22 -18 21 -18 22 -18 
21 -18 22 -19 21 -20 21 -19 22 -20 21 -21 22 -20 21 -21 
22 -22 21 -21 21 -23 22 -22 21 -23 22 -23 21 -23 22 -24 
21 -25 21 -24 22 -25 21 -12 22 -13 21 -12 21 -13 22 -13 
21 -14 22 -13 21 -14 22 -14 21 -14 21 -15 22 -15 21 -15 
22 -16 21 -16 22 -16 3876 2328 100 MP stroke
21 -17 21 -16 22 -13 21 -23 22 -18 21 -13 22 -12 21 -12 
21 -12 22 -12 21 -12 22 -12 21 -12 22 -12 21 -13 21 -12 
22 -12 21 -12 22 -12 21 -12 21 -12 22 -12 21 -12 22 -12 
21 -12 22 -12 21 -12 21 -13 22 -12 21 -12 22 -12 21 -12 
22 -12 21 -12 21 -12 22 -12 21 -12 22 -13 21 -16 22 -19 
21 -23 21 -13 22 -12 21 -13 22 -13 21 -13 21 -13 22 -14 
21 -13 22 -13 21 -13 22 -13 21 -12 21 -13 22 -12 21 -12 
22 -13 21 -12 22 -13 21 -14 21 -14 22 -14 21 -15 22 -16 
21 -16 22 -16 21 -17 21 -17 22 -18 21 -18 22 -18 21 -19 
22 -19 21 -20 21 -19 22 -21 21 -20 22 -21 21 -21 21 -22 
22 -21 21 -22 22 -22 21 -22 22 -22 21 -23 21 -22 22 -22 
21 -22 22 -23 21 -22 22 -22 21 -22 21 -22 22 -21 21 -22 
22 -21 21 -20 22 -21 1755 3892 100 MP stroke
21 -20 21 -20 22 -20 21 -19 22 -18 21 -19 22 -18 21 -17 
21 -17 22 -17 21 -16 22 -16 21 -15 21 -14 22 -15 21 -13 
22 -14 21 -12 22 -13 21 -23 21 -24 22 -23 21 -24 22 -23 
21 -24 22 -22 21 -23 21 -22 22 -21 21 -20 22 -20 21 -18 
22 -18 21 -16 21 -15 22 -13 21 -12 22 -12 21 -12 21 -12 
899 4602 41 MP stroke
gr

c8
0 sg
%%IncludeResource: font Helvetica
/Helvetica /ISOLatin1Encoding 192 FMSR

3354  278 mt 
(tau\(t\)) s
%%IncludeResource: font Helvetica
/Helvetica /ISOLatin1Encoding 120 FMSR

3363 4903 mt 
(Time [s]) s
 608 2711 mt  -90 rotate
(Time [) s
90 rotate
%%IncludeResource: font Symbol
/Symbol /ISOLatin1Encoding 120 FMSR

 608 2378 mt  -90 rotate
(t) s
90 rotate
%%IncludeResource: font Helvetica
/Helvetica /ISOLatin1Encoding 120 FMSR

 608 2326 mt  -90 rotate
(]) s
90 rotate

end %%Color Dict

eplot
%%EndObject

epage
end

showpage

%%Trailer
%%EOF
