Time,JointPositionNormalized
0,0.5,0.30195,0.5,0.860577,0.5,0.600287,0.5
0.1,0.5,0.30195,0.5,0.860577,0.5,0.600287,0.5
0.2,0.494924,0.310112,0.494088,0.864474,0.498317,0.601461,0.499444
0.3,0.494073,0.310339,0.493164,0.86434,0.498036,0.601271,0.499359
0.4,0.489655,0.318177,0.487688,0.862308,0.496542,0.596772,0.49881
0.5,0.487103,0.321097,0.484752,0.861407,0.495671,0.595121,0.498498
0.6,0.484588,0.327333,0.481673,0.859725,0.494628,0.591795,0.498026
0.7,0.48231,0.335827,0.478146,0.857317,0.494165,0.587168,0.497962
0.8,0.480161,0.34622,0.474502,0.854365,0.493816,0.581639,0.497951
0.9,0.480161,0.34622,0.474502,0.854365,0.493816,0.581639,0.497951
1,0.476345,0.370635,0.466602,0.847233,0.493483,0.568262,0.49798
1.1,0.475267,0.365339,0.469046,0.848752,0.488429,0.571144,0.494151
1.2,0.474311,0.368599,0.471117,0.847892,0.483257,0.570151,0.490227
1.3,0.473389,0.374129,0.472792,0.846312,0.478334,0.568042,0.486505
1.4,0.472468,0.377942,0.474408,0.845245,0.473555,0.566704,0.482898
1.5,0.472468,0.377942,0.474408,0.845245,0.473555,0.566704,0.482898
1.6,0.470546,0.377936,0.478451,0.845714,0.463281,0.56752,0.475121
1.7,0.469517,0.384588,0.479916,0.843889,0.45804,0.565075,0.47119
1.8,0.468595,0.385432,0.481634,0.843949,0.453108,0.565062,0.467467
1.9,0.467672,0.385344,0.483601,0.844504,0.447832,0.565508,0.46347
2,0.4667,0.386742,0.485381,0.844549,0.442589,0.565324,0.459514
2.1,0.468968,0.374333,0.488312,0.848067,0.44327,0.568174,0.459736
2.2,0.47198,0.362026,0.491978,0.850953,0.444153,0.570189,0.460041
2.3,0.474883,0.349915,0.495794,0.853717,0.444679,0.572222,0.460076
2.4,0.477495,0.342796,0.499025,0.854681,0.445212,0.572541,0.4602
2.5,0.480263,0.33312,0.502437,0.856582,0.445923,0.573857,0.46041
2.6,0.482864,0.329294,0.505445,0.856206,0.446528,0.572797,0.460629
2.7,0.485466,0.324099,0.508561,0.856396,0.447078,0.572341,0.460788
2.8,0.488027,0.320324,0.51165,0.856044,0.447541,0.571291,0.460903
2.9,0.490502,0.31609,0.514836,0.855901,0.447802,0.570454,0.460861
3,0.492841,0.316859,0.517652,0.853884,0.448158,0.567624,0.460966
3.1,0.493013,0.315544,0.518089,0.854288,0.448011,0.567994,0.460826
3.2,0.49293,0.316459,0.518094,0.853974,0.447852,0.567603,0.460712
3.3,0.492883,0.317372,0.518011,0.853632,0.447829,0.567217,0.460703
3.4,0.492932,0.316917,0.518018,0.853779,0.447909,0.567398,0.46076
3.5,0.492981,0.316463,0.518026,0.853926,0.447989,0.56758,0.460817
3.6,0.492981,0.316463,0.518026,0.853926,0.447989,0.56758,0.460817
3.7,0.492981,0.316463,0.518026,0.853926,0.447989,0.56758,0.460817
3.8,0.492981,0.316463,0.518026,0.853926,0.447989,0.56758,0.460817
3.9,0.492981,0.316463,0.518026,0.853926,0.447989,0.56758,0.460817
4,0.492981,0.316463,0.518026,0.853926,0.447989,0.56758,0.460817
4.1,0.48895,0.322303,0.516917,0.852619,0.442967,0.566285,0.457192
4.2,0.484556,0.32837,0.515677,0.85088,0.437373,0.564888,0.453151
4.3,0.480141,0.337792,0.513967,0.84759,0.431825,0.562187,0.449163
4.4,0.47582,0.345888,0.512397,0.844734,0.426215,0.560213,0.44511
4.5,0.471558,0.353545,0.510905,0.842,0.420496,0.558584,0.440961
4.6,0.467201,0.364126,0.509123,0.8379,0.414568,0.556041,0.436675
4.7,0.463297,0.37067,0.507576,0.83536,0.409248,0.555052,0.432807
4.8,0.459288,0.378196,0.506085,0.832559,0.403451,0.553946,0.428576
