Time,JointVelocitiesNormalized
0,0.5,0.5,0.5,0.5,0.5,0.5,0.5
0.1,0.475977,0.475444,0.484762,0.560909,0.498188,0.569108,0.500596
0.2,0.48257,0.497057,0.491622,0.500239,0.496137,0.500971,0.498442
0.3,0.482917,0.501222,0.491148,0.499705,0.49682,0.499465,0.498968
0.4,0.48289,0.505793,0.491652,0.498563,0.496185,0.497283,0.498452
0.5,0.483937,0.496712,0.491157,0.500682,0.497649,0.501558,0.499544
0.6,0.483345,0.506075,0.490639,0.498174,0.497524,0.496873,0.49951
0.7,0.482949,0.510496,0.49211,0.497313,0.495571,0.495044,0.497953
0.8,0.483412,0.506202,0.490631,0.498019,0.49756,0.496773,0.499523
0.9,0.483905,0.505903,0.490876,0.49845,0.497664,0.497282,0.49956
1,0.483039,0.515476,0.491277,0.495705,0.496235,0.492424,0.498496
1.1,0.484006,0.506298,0.490874,0.497871,0.497709,0.496707,0.499576
1.2,0.482706,0.506118,0.492568,0.498354,0.494959,0.497353,0.497446
1.3,0.484067,0.506419,0.490863,0.497708,0.497737,0.496598,0.499589
1.4,0.483711,0.520159,0.490627,0.494423,0.497038,0.490281,0.499109
1.5,0.483794,0.510922,0.492237,0.496758,0.495821,0.494798,0.498059
1.6,0.484328,0.520193,0.490835,0.494242,0.497198,0.490253,0.499176
1.7,0.483428,0.511124,0.491954,0.496539,0.495794,0.49468,0.498053
1.8,0.485374,0.5248,0.489247,0.492775,0.499367,0.487876,0.500862
1.9,0.483644,0.515757,0.492301,0.495264,0.495239,0.492582,0.497593
2,0.484569,0.520147,0.490741,0.494287,0.497362,0.490645,0.499255
2.1,0.484567,0.511375,0.491227,0.495972,0.497377,0.494244,0.499203
2.2,0.484864,0.525107,0.491046,0.49248,0.496821,0.488056,0.498817
2.3,0.484944,0.525158,0.491018,0.492346,0.496878,0.488049,0.498844
2.4,0.485312,0.520256,0.490918,0.493933,0.497631,0.490627,0.499372
2.5,0.483921,0.511515,0.491856,0.495893,0.496095,0.494485,0.498172
2.6,0.485655,0.529787,0.490314,0.490932,0.497778,0.486026,0.499525
2.7,0.485233,0.525358,0.490906,0.491877,0.497086,0.488016,0.49895
2.8,0.486438,0.520409,0.490222,0.4933,0.49929,0.490261,0.500575
2.9,0.484957,0.525298,0.491734,0.492001,0.495806,0.488441,0.497921
3,0.485579,0.53011,0.491088,0.490256,0.496642,0.485988,0.498572
3.1,0.486139,0.534677,0.490427,0.488945,0.497499,0.484022,0.499235
3.2,0.5,0.5,0.5,0.5,0.5,0.5,0.5
3.3,0.474654,0.537222,0.487101,0.487567,0.491761,0.483484,0.495405
3.4,0.494577,0.498155,0.507387,0.500826,0.485851,0.502059,0.489112
3.5,0.49318,0.493364,0.507489,0.50243,0.484976,0.504456,0.48846
3.6,0.493712,0.493525,0.507793,0.502134,0.485061,0.504053,0.488493
3.7,0.494057,0.493888,0.506964,0.502212,0.486456,0.503936,0.489574
3.8,0.493316,0.501954,0.508083,0.500241,0.483701,0.500726,0.487514
3.9,0.493249,0.49338,0.507597,0.502701,0.485021,0.50445,0.488474
4,0.494124,0.493895,0.507036,0.502419,0.486487,0.503944,0.489583
4.1,0.49383,0.497821,0.508177,0.501377,0.484457,0.502246,0.488033
4.2,0.493575,0.49807,0.507002,0.501663,0.485765,0.502437,0.489082
4.3,0.493884,0.493537,0.507996,0.502718,0.485144,0.50411,0.488519
4.4,0.494438,0.498559,0.506432,0.501442,0.487231,0.501955,0.490194
4.5,0.494041,0.507501,0.506657,0.498602,0.485817,0.497706,0.48922
4.6,0.493806,0.493331,0.507953,0.503374,0.485156,0.504559,0.488514
4.7,0.5,0.5,0.5,0.5,0.5,0.5,0.5
4.8,0.488471,0.487245,0.514802,0.50613,0.472493,0.50829,0.478713
4.9,0.49359,0.502602,0.507324,0.500575,0.485119,0.500187,0.488623
5,0.494426,0.49857,0.50646,0.501803,0.487254,0.501966,0.490203
5.1,0.4943,0.507429,0.506858,0.499233,0.485869,0.497927,0.489245
5.2,0.493775,0.498297,0.507133,0.501886,0.485817,0.501996,0.489107
5.3,0.494171,0.498217,0.507355,0.502219,0.485892,0.502176,0.489129
5.4,0.494668,0.498773,0.506557,0.501675,0.48728,0.501567,0.490217
5.5,0.5,0.5,0.5,0.5,0.5,0.5,0.5
5.6,0.488095,0.500501,0.514388,0.503206,0.471679,0.502342,0.478258
5.7,0.494142,0.502897,0.506532,0.5011,0.486548,0.500201,0.489719
5.8,0.494365,0.507775,0.505814,0.499386,0.487204,0.497818,0.490319
5.9,0.494494,0.493917,0.507223,0.503759,0.486635,0.503961,0.489621
6,0.494164,0.498217,0.507326,0.502727,0.485917,0.502227,0.489137
6.1,0.494354,0.503096,0.506622,0.501012,0.486566,0.499863,0.489734
6.2,0.493343,0.507309,0.506333,0.499919,0.485724,0.49827,0.489205
6.3,0.494906,0.503624,0.505807,0.50044,0.487943,0.49927,0.49082
6.4,0.494029,0.502889,0.506394,0.501475,0.486528,0.500255,0.489713
6.5,0.494492,0.498403,0.507404,0.502794,0.485948,0.501903,0.48915
6.6,0.492486,0.511719,0.506092,0.498582,0.484863,0.496348,0.488678
6.7,0.515649,0.475241,0.509341,0.503881,0.502558,0.503511,0.500774
6.8,0.5,0.5,0.5,0.5,0.5,0.5,0.5
6.9,0.529832,0.453596,0.519405,0.506751,0.502428,0.505,0.499569
7,0.515561,0.471208,0.511005,0.5055,0.500672,0.505246,0.499184
7.1,0.515025,0.480082,0.509201,0.502095,0.501857,0.501397,0.500345
7.2,0.51523,0.484732,0.508529,0.500292,0.502508,0.499234,0.500951
7.3,0.5,0.5,0.5,0.5,0.5,0.5,0.5
7.4,0.530722,0.454772,0.519733,0.505804,0.502674,0.504039,0.499717
7.5,0.515247,0.475937,0.510021,0.503434,0.501303,0.503091,0.499802
7.6,0.515229,0.485337,0.509591,0.500167,0.501241,0.498785,0.499941
7.7,0.515351,0.484969,0.508541,0.500163,0.50254,0.499147,0.500966
7.8,0.5,0.5,0.5,0.5,0.5,0.5,0.5
7.9,0.530767,0.468863,0.5186,0.500748,0.503289,0.497996,0.500475
8,0.515229,0.485484,0.509594,0.500072,0.501241,0.498705,0.499946
8.1,0.51399,0.49885,0.507898,0.4955,0.501585,0.493042,0.500557
8.2,0.515555,0.481173,0.509317,0.500883,0.501899,0.500212,0.500413
8.3,0.515217,0.485563,0.509589,0.500038,0.501225,0.498666,0.499943
8.4,0.514248,0.508225,0.506686,0.4919,0.502768,0.488724,0.501673
8.5,0.515166,0.48557,0.509557,0.500018,0.501187,0.498647,0.499934
8.6,0.515017,0.490339,0.508786,0.497846,0.501717,0.496241,0.500477
8.7,0.514115,0.499203,0.508146,0.495111,0.501518,0.492648,0.500514
8.8,0.515285,0.490247,0.508953,0.498227,0.50175,0.496507,0.500479
8.9,0.514041,0.499211,0.508169,0.495085,0.50148,0.492652,0.500493
9,0.515382,0.494893,0.508373,0.496423,0.502309,0.494394,0.501016
9.1,0.51395,0.499204,0.508184,0.495047,0.501435,0.492656,0.500469
9.2,0.514348,0.503755,0.507809,0.493621,0.502066,0.490818,0.501017
9.3,0.513843,0.499538,0.508199,0.494338,0.501343,0.492065,0.50044
9.4,0.514238,0.503719,0.507843,0.493584,0.502005,0.490855,0.500983
9.5,0.513869,0.503787,0.507679,0.493168,0.501914,0.490617,0.500953
9.6,0.513341,0.499417,0.509294,0.494958,0.499982,0.492286,0.499362
9.7,0.512921,0.508232,0.507934,0.491875,0.501079,0.488842,0.500391
9.8,0.514704,0.503853,0.50703,0.492641,0.50319,0.490494,0.501964
9.9,0.513958,0.503589,0.507923,0.493506,0.501847,0.490972,0.500896
10,0.504168,0.502356,0.502613,0.497465,0.500312,0.496499,0.500095
10.1,0.5,0.5,0.5,0.5,0.5,0.5,0.5
10.2,0.5,0.5,0.5,0.5,0.5,0.5,0.5
10.3,0.5,0.5,0.5,0.5,0.5,0.5,0.5
10.4,0.5,0.5,0.5,0.5,0.5,0.5,0.5
10.5,0.5,0.5,0.5,0.5,0.5,0.5,0.5
10.6,0.5,0.5,0.5,0.5,0.5,0.5,0.5
10.7,0.5,0.5,0.5,0.5,0.5,0.5,0.5
10.8,0.5,0.5,0.5,0.5,0.5,0.5,0.5
10.9,0.5,0.5,0.5,0.5,0.5,0.5,0.5
11,0.5,0.5,0.5,0.5,0.5,0.5,0.5
11.1,0.5,0.5,0.5,0.5,0.5,0.5,0.5
11.2,0.5,0.5,0.5,0.5,0.5,0.5,0.5
11.3,0.5,0.5,0.5,0.5,0.5,0.5,0.5
11.4,0.5,0.5,0.5,0.5,0.5,0.5,0.5
11.5,0.5,0.5,0.5,0.5,0.5,0.5,0.5
11.6,0.5,0.5,0.5,0.5,0.5,0.5,0.5
11.7,0.5,0.5,0.5,0.5,0.5,0.5,0.5
11.8,0.5,0.5,0.5,0.5,0.5,0.5,0.5
11.9,0.5,0.5,0.5,0.5,0.5,0.5,0.5
12,0.5,0.5,0.5,0.5,0.5,0.5,0.5
12.1,0.5,0.5,0.5,0.5,0.5,0.5,0.5
12.2,0.5,0.5,0.5,0.5,0.5,0.5,0.5
12.3,0.5,0.5,0.5,0.5,0.5,0.5,0.5
12.4,0.5,0.5,0.5,0.5,0.5,0.5,0.5
12.5,0.5,0.5,0.5,0.5,0.5,0.5,0.5
12.6,0.5,0.5,0.5,0.5,0.5,0.5,0.5
12.7,0.5,0.5,0.5,0.5,0.5,0.5,0.5
12.8,0.5,0.5,0.5,0.5,0.5,0.5,0.5
12.9,0.5,0.5,0.5,0.5,0.5,0.5,0.5
13,0.5,0.5,0.5,0.5,0.5,0.5,0.5
13.1,0.5,0.5,0.5,0.5,0.5,0.5,0.5
13.2,0.5,0.5,0.5,0.5,0.5,0.5,0.5
13.3,0.491367,0.497976,0.49998,0.501541,0.494001,0.50195,0.495612
13.4,0.5,0.5,0.5,0.5,0.5,0.5,0.5
13.5,0.448984,0.49413,0.498659,0.507117,0.46599,0.51048,0.475255
13.6,0.5,0.5,0.5,0.5,0.5,0.5,0.5
13.7,0.44876,0.504558,0.497552,0.50186,0.46682,0.504856,0.476118
13.8,0.472869,0.506258,0.498852,0.498944,0.482165,0.500044,0.487233
13.9,0.474501,0.506571,0.498454,0.499549,0.483697,0.500566,0.488346
14,0.47617,0.502649,0.497379,0.500728,0.485923,0.502588,0.489993
14.1,0.473702,0.501125,0.499828,0.502049,0.481843,0.503196,0.486791
14.2,0.5,0.5,0.5,0.5,0.5,0.5,0.5
14.3,0.450411,0.510003,0.496302,0.501472,0.469005,0.504486,0.477779
14.4,0.473073,0.525371,0.496172,0.491444,0.48429,0.492261,0.489292
14.5,0.474919,0.506353,0.498388,0.500105,0.483807,0.501426,0.488379
14.6,0.474867,0.511268,0.497667,0.497641,0.484279,0.499037,0.488882
14.7,0.474497,0.520573,0.496017,0.494235,0.485342,0.495564,0.489922
14.8,0.475412,0.506365,0.498451,0.500288,0.483878,0.501659,0.488393
14.9,0.474991,0.515961,0.496812,0.495781,0.484837,0.497404,0.489415
15,0.473942,0.529656,0.495299,0.490871,0.485074,0.492152,0.489918
15.1,0.475747,0.511277,0.497675,0.497895,0.484402,0.499517,0.48891
15.2,0.472963,0.534129,0.495022,0.48851,0.48415,0.490215,0.489356
15.3,0.474695,0.520208,0.496651,0.494524,0.484082,0.496242,0.48888
15.4,0.5,0.5,0.5,0.5,0.5,0.5,0.5
15.5,0.449347,0.55774,0.490325,0.482087,0.469965,0.485524,0.479536
15.6,0.5,0.5,0.5,0.5,0.5,0.5,0.5
15.7,0.49407,0.507771,0.498736,0.497318,0.496478,0.497858,0.497627
15.8,0.428308,0.596008,0.484421,0.468255,0.457048,0.473398,0.470945
15.9,0.476671,0.526469,0.494954,0.487742,0.485854,0.492276,0.490506
16,0.474079,0.538766,0.494626,0.485785,0.483531,0.489399,0.488895
16.1,0.473801,0.548558,0.492902,0.480252,0.484594,0.485504,0.490017
16.2,0.475078,0.539205,0.493584,0.484941,0.485056,0.489735,0.490048
16.3,0.472676,0.547575,0.493877,0.481068,0.481798,0.486329,0.48779
16.4,0.5,0.5,0.5,0.5,0.5,0.5,0.5
16.5,0.448309,0.601169,0.484015,0.458991,0.469423,0.470439,0.480059
