Time,JointVelocitiesNormalized
0,0.5,0.5,0.5,0.5,0.5,0.5,0.5
0.1,0.498536,0.481922,0.496823,0.559348,0.501333,0.566252,0.501108
0.2,0.494716,0.49612,0.496669,0.500219,0.499656,0.501153,0.500203
0.3,0.494367,0.490963,0.497111,0.502419,0.498968,0.50458,0.499673
0.4,0.49407,0.504646,0.497509,0.498913,0.498279,0.497784,0.499139
0.5,0.494697,0.495604,0.496672,0.501078,0.499649,0.502135,0.500199
0.6,0.494077,0.504661,0.497504,0.4989,0.49828,0.497775,0.49914
0.7,0.494691,0.495617,0.496677,0.501065,0.499648,0.502124,0.500198
0.8,0.493731,0.500269,0.497956,0.49977,0.497594,0.49973,0.49861
0.9,0.494684,0.495631,0.496681,0.501043,0.499645,0.502109,0.500196
1,0.494868,0.509209,0.496023,0.497755,0.500305,0.495521,0.500731
1.1,0.494271,0.495776,0.497678,0.500845,0.498324,0.501892,0.499152
1.2,0.493978,0.509141,0.496761,0.497967,0.498887,0.495773,0.499654
1.3,0.49427,0.495791,0.497684,0.500829,0.498326,0.501878,0.49915
1.4,0.495041,0.500017,0.496219,0.500144,0.50034,0.500146,0.500732
1.5,0.493704,0.504819,0.498477,0.498648,0.496959,0.497551,0.4981
1.6,0.495043,0.50003,0.496221,0.500124,0.500343,0.500129,0.500733
1.7,0.493772,0.495849,0.497441,0.500795,0.498235,0.501849,0.499119
1.8,0.495019,0.504586,0.496727,0.499026,0.49971,0.497944,0.500229
1.9,0.493767,0.495864,0.497446,0.500781,0.498234,0.50184,0.499117
2,0.494521,0.509175,0.496974,0.497909,0.498989,0.495742,0.499697
2.1,0.494254,0.495849,0.497704,0.500775,0.498325,0.50184,0.499145
2.2,0.494535,0.509191,0.496963,0.497884,0.498993,0.49573,0.499701
2.3,0.494187,0.496019,0.496474,0.500505,0.499563,0.501516,0.500161
2.4,0.495046,0.504624,0.496714,0.498982,0.49972,0.497916,0.500236
2.5,0.494162,0.504809,0.497453,0.498762,0.498303,0.497699,0.499159
2.6,0.494169,0.504818,0.49745,0.498746,0.498306,0.497691,0.49916
2.7,0.495564,0.500325,0.496487,0.499626,0.500448,0.499591,0.500767
2.8,0.493743,0.495667,0.497465,0.501172,0.49824,0.502291,0.499112
2.9,0.494606,0.504957,0.496455,0.498483,0.499643,0.497381,0.500215
3,0.494202,0.509372,0.497919,0.497627,0.49768,0.495529,0.498665
3.1,0.494598,0.504706,0.49645,0.498899,0.499651,0.497863,0.500217
3.2,0.5,0.5,0.5,0.5,0.5,0.5,0.5
3.3,0.489791,0.505459,0.493918,0.498227,0.498773,0.497125,0.499931
3.4,0.493742,0.495711,0.49748,0.501143,0.498248,0.50226,0.499109
3.5,0.494674,0.50955,0.496907,0.497322,0.499033,0.495201,0.49973
3.6,0.494225,0.495687,0.497737,0.501146,0.498337,0.502265,0.499136
3.7,0.5,0.5,0.5,0.5,0.5,0.5,0.5
3.8,0.488899,0.510197,0.493843,0.496984,0.49798,0.494872,0.499384
3.9,0.495153,0.504979,0.496695,0.498414,0.499761,0.497359,0.500259
4,0.493784,0.50026,0.497939,0.499999,0.497628,0.500101,0.498616
4.1,0.494727,0.509593,0.496879,0.497249,0.499053,0.495177,0.499744
4.2,0.495141,0.504737,0.496686,0.498827,0.499769,0.497834,0.500261
4.3,0.494272,0.504942,0.497405,0.498602,0.498348,0.497634,0.499182
4.4,0.49465,0.49584,0.496796,0.500856,0.499682,0.501906,0.500183
4.5,0.494337,0.509491,0.497832,0.49747,0.497723,0.495496,0.498696
4.6,0.5,0.5,0.5,0.5,0.5,0.5,0.5
4.7,0.489023,0.510317,0.493809,0.496798,0.498043,0.494799,0.499414
4.8,0.495174,0.504773,0.496678,0.498771,0.499789,0.497807,0.500271
4.9,0.494723,0.500401,0.497227,0.499705,0.499074,0.499759,0.499702
5,0.493907,0.509577,0.497549,0.497378,0.497657,0.495465,0.498679
5.1,0.494732,0.500414,0.497229,0.499681,0.499079,0.499742,0.499703
5.2,0.494734,0.50042,0.497229,0.499675,0.49908,0.499738,0.499704
5.3,0.494866,0.518456,0.496408,0.495429,0.499114,0.491498,0.499838
5.4,0.49525,0.505061,0.496683,0.498269,0.499818,0.497304,0.500285
5.5,0.494751,0.500433,0.497233,0.499666,0.499093,0.499733,0.499707
5.6,0.494361,0.50503,0.497372,0.49848,0.498391,0.497593,0.499202
5.7,0.494757,0.500445,0.497233,0.499648,0.499097,0.49972,0.499708
5.8,0.494413,0.509755,0.496556,0.497012,0.499044,0.495115,0.499761
5.9,0.494858,0.504999,0.497616,0.498483,0.498484,0.497612,0.499234
6,0.495623,0.504626,0.495723,0.498865,0.501183,0.497939,0.501349
6.1,0.494642,0.518912,0.497303,0.494657,0.497817,0.490906,0.498813
6.2,0.494268,0.495839,0.497796,0.501041,0.498385,0.50212,0.499129
6.3,0.495309,0.505105,0.496677,0.49819,0.499854,0.497278,0.500303
6.4,0.49442,0.505079,0.497352,0.498404,0.498423,0.497575,0.499216
6.5,0.494956,0.509743,0.496783,0.496957,0.499166,0.495141,0.499809
6.6,0.494274,0.49586,0.497805,0.501022,0.498391,0.502099,0.499128
6.7,0.4951,0.518822,0.496293,0.494715,0.499215,0.491035,0.499908
6.8,0.494812,0.500498,0.497244,0.499578,0.499136,0.499676,0.499719
6.9,0.495416,0.509465,0.49701,0.497391,0.499263,0.495641,0.499844
7,0.494466,0.505114,0.497338,0.498339,0.498449,0.497558,0.499228
7.1,0.495126,0.514356,0.497103,0.495674,0.498583,0.493047,0.499359
7.2,0.494971,0.509539,0.496749,0.497291,0.499207,0.495603,0.499829
7.3,0.495189,0.495907,0.497173,0.500787,0.499844,0.501758,0.500213
7.4,0.5,0.5,0.5,0.5,0.5,0.5,0.5
7.5,0.48971,0.524335,0.493517,0.492753,0.497725,0.488504,0.499155
7.6,0.495325,0.500473,0.497504,0.499573,0.499246,0.499681,0.499754
7.7,0.495013,0.509569,0.496731,0.497234,0.499235,0.495601,0.499844
7.8,0.494529,0.505156,0.497319,0.498255,0.49849,0.497544,0.499245
7.9,0.495028,0.509583,0.496724,0.497202,0.499247,0.495597,0.49985
8,0.495139,0.509668,0.497875,0.497056,0.497961,0.495519,0.498811
8.1,0.495097,0.50983,0.496731,0.496714,0.499267,0.495131,0.499863
8.2,0.495542,0.514024,0.496117,0.496093,0.500033,0.493655,0.500473
8.3,0.5,0.5,0.5,0.5,0.5,0.5,0.5
8.4,0.490495,0.510548,0.494219,0.496152,0.498554,0.494719,0.499624
8.5,0.494041,0.500528,0.497886,0.499691,0.497764,0.499925,0.498647
8.6,0.496267,0.523357,0.495792,0.493252,0.50023,0.489185,0.500658
8.7,0.494924,0.500564,0.497271,0.499463,0.499221,0.499608,0.499745
8.8,0.494749,0.50977,0.497577,0.496891,0.497936,0.495495,0.498811
8.9,0.495652,0.514302,0.496106,0.495511,0.5001,0.493211,0.500513
9,0.495086,0.505145,0.497543,0.498175,0.498631,0.497569,0.499297
9.1,0.495119,0.50965,0.49669,0.497014,0.499338,0.495597,0.499896
9.2,0.495098,0.505153,0.497539,0.498154,0.49864,0.497565,0.499301
9.3,0.495132,0.509662,0.496684,0.496984,0.499351,0.495594,0.499903
9.4,0.494963,0.500584,0.49728,0.499417,0.499251,0.499582,0.499754
9.5,0.496485,0.528094,0.495978,0.491697,0.499726,0.487183,0.500271
9.6,0.49498,0.500584,0.497285,0.499412,0.499266,0.499581,0.499759
9.7,0.494826,0.509815,0.497525,0.496753,0.497997,0.49551,0.498841
9.8,0.495313,0.514298,0.496912,0.495594,0.49879,0.493575,0.499475
9.9,0.495472,0.50502,0.496686,0.498256,0.500067,0.497659,0.500394
10,0.494849,0.509831,0.497508,0.496701,0.498018,0.495511,0.498852
10.1,0.498842,0.500055,0.501405,0.50003,0.497162,0.500217,0.497825
10.2,0.497475,0.490659,0.503398,0.503057,0.49422,0.504906,0.495492
10.3,0.49819,0.504644,0.50225,0.498544,0.495102,0.498142,0.496278
10.4,0.498,0.499925,0.501984,0.500277,0.495708,0.500563,0.496723
10.5,0.497677,0.499902,0.502829,0.500158,0.494323,0.500532,0.495647
10.6,0.497565,0.495418,0.502594,0.501445,0.49494,0.502494,0.4961
10.7,0.497674,0.499903,0.502836,0.50018,0.494325,0.500534,0.495648
10.8,0.497995,0.499927,0.501987,0.500299,0.495709,0.50056,0.496723
10.9,0.498528,0.500083,0.502261,0.499951,0.495781,0.500174,0.496751
11,0.497588,0.49542,0.502611,0.501472,0.494947,0.502491,0.496102
11.1,0.497188,0.495166,0.50344,0.501824,0.493565,0.502924,0.495024
11.2,0.498528,0.500083,0.502274,0.499983,0.495785,0.500182,0.496753
11.3,0.497535,0.499984,0.501751,0.500223,0.495645,0.500488,0.496703
11.4,0.498054,0.49537,0.502877,0.501601,0.495023,0.502559,0.496126
11.5,0.49767,0.499905,0.502859,0.500261,0.494332,0.500543,0.495651
11.6,0.497671,0.499905,0.502859,0.500272,0.494332,0.500544,0.495651
11.7,0.498785,0.495524,0.501221,0.501365,0.49779,0.502191,0.498276
11.8,0.497667,0.499906,0.502866,0.500289,0.494334,0.500546,0.495652
11.9,0.5,0.5,0.5,0.5,0.5,0.5,0.5
12,0.495771,0.503818,0.50517,0.499203,0.489401,0.499041,0.491906
12.1,0.497527,0.495223,0.502609,0.501976,0.49496,0.50292,0.4961
12.2,0.498118,0.504643,0.502251,0.498713,0.495086,0.498168,0.496278
12.3,0.497662,0.495427,0.502666,0.501569,0.494973,0.502481,0.496109
12.4,0.497979,0.504436,0.50219,0.499153,0.495073,0.498605,0.496269
12.5,0.498544,0.495575,0.502104,0.501343,0.496427,0.502152,0.497209
12.6,0.497675,0.495429,0.50268,0.501589,0.494979,0.502479,0.49611
12.7,0.5,0.5,0.5,0.5,0.5,0.5,0.5
12.8,0.496077,0.494762,0.504956,0.502305,0.490774,0.503376,0.49286
12.9,0.498087,0.504643,0.502253,0.498773,0.495081,0.498179,0.496278
13,0.497696,0.495431,0.502697,0.50162,0.494987,0.502476,0.496113
13.1,0.49813,0.495369,0.502939,0.501797,0.495058,0.502593,0.496135
13.2,0.497444,0.509002,0.502123,0.497832,0.494344,0.496567,0.495786
13.3,0.498594,0.495576,0.502138,0.501405,0.496443,0.502157,0.497213
13.4,0.498193,0.490894,0.502778,0.503032,0.495712,0.504509,0.496592
13.5,0.497407,0.509003,0.502114,0.497849,0.494338,0.496567,0.495785
13.6,0.498217,0.490894,0.502787,0.503054,0.495718,0.504508,0.496593
13.7,0.498051,0.504644,0.502251,0.498842,0.495075,0.498194,0.496279
13.8,0.498232,0.490896,0.502801,0.503071,0.495725,0.504509,0.496595
13.9,0.498248,0.509174,0.501521,0.497619,0.495791,0.496247,0.496893
14,0.5,0.5,0.5,0.5,0.5,0.5,0.5
14.1,0.5,0.5,0.5,0.5,0.5,0.5,0.5
14.2,0.493929,0.502961,0.506369,0.500251,0.486482,0.499984,0.489693
14.3,0.497822,0.490659,0.503607,0.503583,0.494358,0.504965,0.495521
14.4,0.498132,0.500148,0.502099,0.500084,0.495734,0.500111,0.49674
14.5,0.497657,0.499908,0.502895,0.50056,0.494348,0.500576,0.495658
14.6,0.497657,0.499908,0.502895,0.500572,0.494349,0.500577,0.495658
14.7,0.5,0.5,0.5,0.5,0.5,0.5,0.5
14.8,0.496619,0.495137,0.504221,0.502129,0.492202,0.502868,0.493953
14.9,0.498139,0.509174,0.501476,0.497659,0.495766,0.49627,0.496889
15,0.497662,0.499907,0.502887,0.500608,0.494348,0.50058,0.495658
15.1,0.498149,0.500148,0.502101,0.500129,0.495735,0.500112,0.49674
15.2,0.497891,0.490659,0.503641,0.503712,0.494387,0.504969,0.495527
15.3,0.498258,0.504655,0.501339,0.498854,0.496433,0.498176,0.497351
15.4,0.497655,0.499908,0.502892,0.500649,0.494351,0.500585,0.495659
15.5,0.497927,0.499948,0.502001,0.500529,0.49572,0.500519,0.49673
15.6,0.498733,0.495578,0.502216,0.501599,0.496485,0.502171,0.497223
15.7,0.497965,0.504643,0.502225,0.498995,0.495057,0.498239,0.496278
15.8,0.497924,0.499949,0.501998,0.500541,0.49572,0.500516,0.49673
15.9,0.498551,0.500069,0.502324,0.500451,0.495808,0.500301,0.496762
16,0.497553,0.490739,0.503458,0.503551,0.494343,0.504782,0.495512
16.1,0.498393,0.509091,0.501635,0.49798,0.495806,0.496491,0.496906
16.2,0.498166,0.500151,0.502115,0.5002,0.49574,0.500116,0.496743
16.3,0.497873,0.495445,0.502792,0.501897,0.495044,0.502444,0.496127
16.4,0.497684,0.50444,0.50209,0.499402,0.49503,0.498651,0.496264
16.5,0.498266,0.495362,0.503002,0.502206,0.495117,0.502643,0.496147
16.6,0.498441,0.500145,0.501233,0.500056,0.497108,0.500049,0.497812
16.7,0.497897,0.500111,0.503017,0.500423,0.494377,0.500209,0.495675
16.8,0.498285,0.499867,0.502199,0.500886,0.495792,0.500714,0.496751
16.9,0.498184,0.504659,0.501308,0.498887,0.496414,0.498185,0.497349
17,0.497644,0.499908,0.502883,0.500799,0.494356,0.500603,0.495661
17.1,0.498179,0.500153,0.502121,0.500259,0.495743,0.50012,0.496744
17.2,0.498554,0.495379,0.50212,0.502081,0.496488,0.502559,0.497215
17.3,0.5,0.5,0.5,0.5,0.5,0.5,0.5
17.4,0.496217,0.494774,0.50505,0.503073,0.49087,0.503398,0.492884
17.5,0.496947,0.509121,0.502971,0.497891,0.492891,0.496363,0.494711
17.6,0.5,0.5,0.5,0.5,0.5,0.5,0.5
17.7,0.496468,0.499551,0.504346,0.501389,0.49154,0.501054,0.493489
17.8,0.498812,0.500058,0.50143,0.500406,0.497179,0.50026,0.497833
17.9,0.497142,0.513774,0.501196,0.496222,0.494907,0.494293,0.496385
18,0.498419,0.486221,0.503638,0.505281,0.495169,0.506746,0.496007
18.1,0.498477,0.504568,0.50147,0.499246,0.49647,0.49843,0.497366
18.2,0.497581,0.500202,0.502827,0.500255,0.494313,0.500013,0.495658
18.3,0.5,0.5,0.5,0.5,0.5,0.5,0.5
18.4,0.496255,0.494772,0.505031,0.503246,0.490884,0.503391,0.492885
18.5,0.498448,0.504567,0.501458,0.499264,0.496465,0.498442,0.497365
18.6,0.4975,0.504736,0.501978,0.498836,0.494957,0.498079,0.496255
18.7,0.5,0.5,0.5,0.5,0.5,0.5,0.5
18.8,0.496095,0.503949,0.504359,0.500393,0.49081,0.4993,0.493007
18.9,0.498429,0.504563,0.501436,0.499272,0.496458,0.498455,0.497363
19,0.497502,0.504733,0.50196,0.49884,0.494951,0.498086,0.496253
19.1,0.498559,0.486222,0.50367,0.505455,0.49521,0.506699,0.496014
19.2,0.497682,0.509169,0.50127,0.497737,0.495658,0.496405,0.496872
19.3,0.498219,0.500154,0.502116,0.500403,0.495746,0.500134,0.496745
19.4,0.497949,0.499804,0.50301,0.501391,0.494427,0.500884,0.495679
19.5,0.497166,0.50454,0.501794,0.499138,0.494918,0.498437,0.496237
19.6,0.499134,0.50025,0.501569,0.500212,0.497205,0.499929,0.497848
19.7,0.497472,0.504436,0.501952,0.49952,0.494985,0.498699,0.496254
19.8,0.497635,0.499902,0.502822,0.501051,0.494355,0.500631,0.495659
19.9,0.498536,0.500049,0.502273,0.500833,0.495815,0.500406,0.496763
20,0.498508,0.50016,0.501238,0.500109,0.497107,0.500002,0.497813
20.1,0.504266,0.492952,0.503742,0.501222,0.499172,0.50095,0.499006
20.2,0.504896,0.493066,0.503061,0.500669,0.500562,0.500539,0.500086
20.3,0.505778,0.483734,0.504089,0.504437,0.500761,0.505053,0.499968
20.4,0.505078,0.497703,0.502363,0.498879,0.501232,0.49834,0.500705
20.5,0.50426,0.492976,0.503753,0.501208,0.499184,0.500938,0.499013
20.6,0.504909,0.493092,0.503064,0.500653,0.500571,0.50053,0.500091
20.7,0.50507,0.488698,0.503927,0.502157,0.499949,0.502376,0.4995
20.8,0.505994,0.488363,0.50339,0.502645,0.501441,0.502872,0.500592
20.9,0.504918,0.493117,0.503066,0.500631,0.50058,0.500519,0.500095
21,0.50443,0.497648,0.50307,0.499423,0.49985,0.49872,0.499627
21.1,0.504924,0.493124,0.503066,0.500633,0.500582,0.500518,0.500096
21.2,0.505083,0.488734,0.503929,0.50213,0.499966,0.502364,0.49951
21.3,0.504272,0.50208,0.502209,0.49792,0.500471,0.496854,0.500216
21.4,0.505891,0.484139,0.504076,0.503723,0.500769,0.504424,0.499999
21.5,0.504269,0.502088,0.502214,0.497916,0.50047,0.496847,0.500215
21.6,0.506411,0.479661,0.504054,0.504904,0.501503,0.506207,0.500472
21.7,0.50442,0.497684,0.503087,0.499405,0.499857,0.498696,0.499629
21.8,0.504578,0.493267,0.503954,0.500912,0.49925,0.500558,0.499048
21.9,0.505628,0.492914,0.502349,0.500714,0.502011,0.500747,0.501175
22,0.505103,0.488789,0.503927,0.502086,0.499991,0.502344,0.499526
22.1,0.504594,0.502339,0.502402,0.497643,0.500498,0.496484,0.500226
22.2,0.505949,0.484203,0.504057,0.503666,0.5008,0.504412,0.500021
22.3,0.504806,0.497587,0.502204,0.499096,0.501207,0.498641,0.500685
22.4,0.5,0.5,0.5,0.5,0.5,0.5,0.5
22.5,0.510663,0.482433,0.507244,0.502698,0.500711,0.50256,0.499687
22.6,0.504812,0.497602,0.502204,0.499086,0.501206,0.498634,0.500684
22.7,0.504556,0.493315,0.503966,0.500873,0.499266,0.500522,0.499057
22.8,0.505302,0.493448,0.503238,0.500308,0.500636,0.500136,0.500126
22.9,0.505123,0.497509,0.502372,0.499477,0.501275,0.498907,0.5007
23,0.505127,0.488847,0.503915,0.502045,0.500013,0.502318,0.499543
23.1,0.505136,0.488857,0.50392,0.502041,0.500019,0.502318,0.499546
23.2,0.503992,0.516011,0.500933,0.493186,0.500964,0.490536,0.500892
23.3,0.505855,0.479693,0.504686,0.505365,0.500209,0.506567,0.499467
23.4,0.505316,0.493481,0.503237,0.50029,0.500641,0.500123,0.50013
23.5,0.505006,0.50225,0.501528,0.497323,0.501827,0.496435,0.501266
23.6,0.505444,0.488773,0.504069,0.502414,0.500091,0.502575,0.499568
23.7,0.505315,0.493495,0.503232,0.500273,0.500641,0.500113,0.500131
23.8,0.504216,0.502176,0.502275,0.497876,0.500451,0.496782,0.500192
23.9,0.505314,0.493499,0.503228,0.500273,0.500639,0.500111,0.500131
24,0.505458,0.488794,0.504064,0.502405,0.500098,0.502567,0.499574
24.1,0.504067,0.506923,0.501441,0.495725,0.500994,0.494309,0.50075
24.2,0.50546,0.488799,0.504056,0.502407,0.500097,0.502561,0.499575
24.3,0.505489,0.498128,0.502562,0.498516,0.501252,0.497922,0.500706
24.4,0.504354,0.497782,0.503132,0.499351,0.499858,0.498623,0.499625
24.5,0.506115,0.493287,0.502474,0.50036,0.50204,0.500379,0.501197
24.6,0.503551,0.497945,0.503891,0.49927,0.498453,0.498374,0.498556
24.7,0.505473,0.497809,0.502559,0.499175,0.501288,0.498543,0.500705
24.8,0.504357,0.498118,0.503143,0.49869,0.499813,0.498002,0.49962
24.9,0.505471,0.497813,0.50256,0.499173,0.501284,0.498543,0.500703
25,0.505003,0.493306,0.503039,0.500529,0.500607,0.500445,0.500119
25.1,0.505636,0.493443,0.503385,0.500644,0.500704,0.500364,0.500149
25.2,0.504171,0.502532,0.50232,0.497189,0.500386,0.496154,0.50017
25.3,0.505485,0.48884,0.504024,0.502398,0.500102,0.502535,0.499588
25.4,0.503448,0.516131,0.500954,0.49273,0.500806,0.490267,0.500787
25.5,0.505493,0.489157,0.504015,0.501758,0.500053,0.501913,0.499585
25.6,0.505319,0.493225,0.503201,0.50092,0.500671,0.50071,0.500136
25.7,0.505333,0.493554,0.503207,0.500258,0.50063,0.500091,0.500134
25.8,0.504278,0.506843,0.501692,0.496077,0.501018,0.494591,0.500727
25.9,0.505325,0.493552,0.503199,0.500256,0.500625,0.500088,0.500133
26,0.504611,0.498031,0.503322,0.499062,0.499864,0.498255,0.499628
26.1,0.504432,0.502436,0.502518,0.497567,0.500434,0.49643,0.500172
26.2,0.505329,0.493556,0.503196,0.500264,0.500622,0.50009,0.500133
26.3,0.504421,0.502436,0.502523,0.497563,0.500429,0.496431,0.500168
26.4,0.506369,0.488998,0.503234,0.501849,0.501445,0.502185,0.500653
26.5,0.50423,0.506847,0.501727,0.49605,0.500997,0.494598,0.500709
26.6,0.504578,0.498028,0.503321,0.499051,0.499851,0.498249,0.499622
26.7,0.505324,0.493563,0.503183,0.500258,0.500615,0.500083,0.500132
26.8,0.504573,0.498033,0.503326,0.499054,0.49985,0.498248,0.499621
26.9,0.504203,0.506845,0.50175,0.496042,0.500985,0.494614,0.500699
27,0.506388,0.48901,0.503205,0.501856,0.501437,0.502179,0.500657
27.1,0.504556,0.498034,0.503325,0.499044,0.499844,0.498242,0.499619
27.2,0.504367,0.502441,0.502547,0.497539,0.500408,0.49643,0.500153
27.3,0.505324,0.49357,0.503171,0.500259,0.500608,0.50008,0.500132
27.4,0.504604,0.511717,0.501363,0.493956,0.501588,0.492119,0.501248
27.5,0.504412,0.493384,0.503903,0.500833,0.499247,0.500397,0.499072
27.6,0.505132,0.497951,0.502398,0.498754,0.501166,0.498285,0.500664
27.7,0.50464,0.502662,0.502743,0.497249,0.500415,0.496093,0.500154
27.8,0.504325,0.502429,0.502562,0.497523,0.500388,0.496442,0.500141
27.9,0.505737,0.498089,0.502756,0.498863,0.501241,0.498207,0.500684
28,0.503887,0.497872,0.502961,0.49893,0.499735,0.498331,0.499584
28.1,0.505543,0.502477,0.502005,0.497342,0.501803,0.496419,0.501213
28.2,0.5,0.5,0.5,0.5,0.5,0.5,0.5
28.3,0.50762,0.505244,0.505869,0.494802,0.499356,0.492495,0.499211
28.4,0.505614,0.49347,0.503313,0.500671,0.500643,0.500344,0.500142
28.5,0.5,0.5,0.5,0.5,0.5,0.5,0.5
28.6,0.508634,0.510102,0.504611,0.492413,0.50129,0.490107,0.500803
28.7,0.505405,0.497852,0.502574,0.499141,0.501194,0.498566,0.500664
28.8,0.504254,0.502403,0.502586,0.497497,0.500355,0.496464,0.500121
28.9,0.505289,0.493539,0.503117,0.500292,0.500569,0.500086,0.500126
29,0.504342,0.507044,0.502053,0.49567,0.500932,0.494339,0.50065
29.1,0.504232,0.502394,0.502593,0.497487,0.500344,0.49647,0.500115
29.2,0.504525,0.502614,0.502781,0.497208,0.50036,0.496135,0.50012
29.3,0.504314,0.507026,0.502072,0.495651,0.500918,0.494362,0.50064
29.4,0.504116,0.497736,0.503117,0.499317,0.499753,0.4986,0.499581
29.5,0.504503,0.502599,0.502789,0.497206,0.500348,0.49615,0.500113
29.6,0.50429,0.507013,0.502092,0.495639,0.500905,0.494382,0.500631
29.7,0.504397,0.49794,0.503299,0.499047,0.499761,0.498269,0.499584
29.8,0.504186,0.502362,0.502611,0.497482,0.500318,0.496502,0.500099
29.9,0.506335,0.497952,0.501857,0.498611,0.502516,0.498356,0.50171
30,0.5,0.5,0.5,0.5,0.5,0.5,0.5
30.1,0.504375,0.497935,0.503295,0.499035,0.499753,0.498263,0.499581
30.2,0.5,0.5,0.5,0.5,0.5,0.5,0.5
30.3,0.5,0.5,0.5,0.5,0.5,0.5,0.5
30.4,0.5,0.5,0.5,0.5,0.5,0.5,0.5
30.5,0.5,0.5,0.5,0.5,0.5,0.5,0.5
30.6,0.5,0.5,0.5,0.5,0.5,0.5,0.5
30.7,0.5,0.5,0.5,0.5,0.5,0.5,0.5
30.8,0.5,0.5,0.5,0.5,0.5,0.5,0.5
30.9,0.5,0.5,0.5,0.5,0.5,0.5,0.5
31,0.5,0.5,0.5,0.5,0.5,0.5,0.5
31.1,0.5,0.5,0.5,0.5,0.5,0.5,0.5
31.2,0.5,0.5,0.5,0.5,0.5,0.5,0.5
31.3,0.5,0.5,0.5,0.5,0.5,0.5,0.5
31.4,0.5,0.5,0.5,0.5,0.5,0.5,0.5
31.5,0.5,0.5,0.5,0.5,0.5,0.5,0.5
31.6,0.5,0.5,0.5,0.5,0.5,0.5,0.5
31.7,0.5,0.5,0.5,0.5,0.5,0.5,0.5
31.8,0.5,0.5,0.5,0.5,0.5,0.5,0.5
31.9,0.5,0.5,0.5,0.5,0.5,0.5,0.5
32,0.5,0.5,0.5,0.5,0.5,0.5,0.5
32.1,0.5,0.5,0.5,0.5,0.5,0.5,0.5
32.2,0.5,0.5,0.5,0.5,0.5,0.5,0.5
32.3,0.5,0.5,0.5,0.5,0.5,0.5,0.5
32.4,0.5,0.5,0.5,0.5,0.5,0.5,0.5
32.5,0.5,0.5,0.5,0.5,0.5,0.5,0.5
32.6,0.5,0.5,0.5,0.5,0.5,0.5,0.5
32.7,0.5,0.5,0.5,0.5,0.5,0.5,0.5
32.8,0.5,0.5,0.5,0.5,0.5,0.5,0.5
32.9,0.5,0.5,0.5,0.5,0.5,0.5,0.5
33,0.5,0.5,0.5,0.5,0.5,0.5,0.5
33.1,0.5,0.5,0.5,0.5,0.5,0.5,0.5
33.2,0.5,0.5,0.5,0.5,0.5,0.5,0.5
33.3,0.5,0.5,0.5,0.5,0.5,0.5,0.5
33.4,0.5,0.5,0.5,0.5,0.5,0.5,0.5
33.5,0.5,0.5,0.5,0.5,0.5,0.5,0.5
33.6,0.5,0.5,0.5,0.5,0.5,0.5,0.5
33.7,0.5,0.5,0.5,0.5,0.5,0.5,0.5
33.8,0.5,0.5,0.5,0.5,0.5,0.5,0.5
33.9,0.5,0.5,0.5,0.5,0.5,0.5,0.5
34,0.5,0.5,0.5,0.5,0.5,0.5,0.5
34.1,0.5,0.5,0.5,0.5,0.5,0.5,0.5
34.2,0.5,0.5,0.5,0.5,0.5,0.5,0.5
34.3,0.5,0.5,0.5,0.5,0.5,0.5,0.5
34.4,0.5,0.5,0.5,0.5,0.5,0.5,0.5
34.5,0.5,0.5,0.5,0.5,0.5,0.5,0.5
34.6,0.5,0.5,0.5,0.5,0.5,0.5,0.5
34.7,0.5,0.5,0.5,0.5,0.5,0.5,0.5
34.8,0.5,0.5,0.5,0.5,0.5,0.5,0.5
34.9,0.5,0.5,0.5,0.5,0.5,0.5,0.5
35,0.5,0.5,0.5,0.5,0.5,0.5,0.5
35.1,0.5,0.5,0.5,0.5,0.5,0.5,0.5
35.2,0.5,0.5,0.5,0.5,0.5,0.5,0.5
35.3,0.5,0.5,0.5,0.5,0.5,0.5,0.5
35.4,0.5,0.5,0.5,0.5,0.5,0.5,0.5
35.5,0.5,0.5,0.5,0.5,0.5,0.5,0.5
35.6,0.5,0.5,0.5,0.5,0.5,0.5,0.5
35.7,0.5,0.5,0.5,0.5,0.5,0.5,0.5
35.8,0.5,0.5,0.5,0.5,0.5,0.5,0.5
35.9,0.5,0.5,0.5,0.5,0.5,0.5,0.5
36,0.5,0.5,0.5,0.5,0.5,0.5,0.5
36.1,0.5,0.5,0.5,0.5,0.5,0.5,0.5
36.2,0.5,0.5,0.5,0.5,0.5,0.5,0.5
36.3,0.5,0.5,0.5,0.5,0.5,0.5,0.5
36.4,0.5,0.5,0.5,0.5,0.5,0.5,0.5
36.5,0.5,0.5,0.5,0.5,0.5,0.5,0.5
36.6,0.5,0.5,0.5,0.5,0.5,0.5,0.5
36.7,0.5,0.5,0.5,0.5,0.5,0.5,0.5
36.8,0.5,0.5,0.5,0.5,0.5,0.5,0.5
36.9,0.5,0.5,0.5,0.5,0.5,0.5,0.5
37,0.5,0.5,0.5,0.5,0.5,0.5,0.5
37.1,0.5,0.5,0.5,0.5,0.5,0.5,0.5
37.2,0.5,0.5,0.5,0.5,0.5,0.5,0.5
37.3,0.5,0.5,0.5,0.5,0.5,0.5,0.5
37.4,0.5,0.5,0.5,0.5,0.5,0.5,0.5
37.5,0.5,0.5,0.5,0.5,0.5,0.5,0.5
37.6,0.5,0.5,0.5,0.5,0.5,0.5,0.5
37.7,0.5,0.5,0.5,0.5,0.5,0.5,0.5
37.8,0.5,0.5,0.5,0.5,0.5,0.5,0.5
37.9,0.5,0.5,0.5,0.5,0.5,0.5,0.5
38,0.5,0.5,0.5,0.5,0.5,0.5,0.5
38.1,0.5,0.5,0.5,0.5,0.5,0.5,0.5
38.2,0.5,0.5,0.5,0.5,0.5,0.5,0.5
38.3,0.5,0.5,0.5,0.5,0.5,0.5,0.5
38.4,0.5,0.5,0.5,0.5,0.5,0.5,0.5
38.5,0.5,0.5,0.5,0.5,0.5,0.5,0.5
38.6,0.5,0.5,0.5,0.5,0.5,0.5,0.5
38.7,0.5,0.5,0.5,0.5,0.5,0.5,0.5
38.8,0.5,0.5,0.5,0.5,0.5,0.5,0.5
38.9,0.5,0.5,0.5,0.5,0.5,0.5,0.5
39,0.5,0.5,0.5,0.5,0.5,0.5,0.5
39.1,0.5,0.5,0.5,0.5,0.5,0.5,0.5
39.2,0.5,0.5,0.5,0.5,0.5,0.5,0.5
39.3,0.5,0.5,0.5,0.5,0.5,0.5,0.5
39.4,0.5,0.5,0.5,0.5,0.5,0.5,0.5
39.5,0.5,0.5,0.5,0.5,0.5,0.5,0.5
39.6,0.5,0.5,0.5,0.5,0.5,0.5,0.5
39.7,0.5,0.5,0.5,0.5,0.5,0.5,0.5
39.8,0.5,0.5,0.5,0.5,0.5,0.5,0.5
39.9,0.5,0.5,0.5,0.5,0.5,0.5,0.5
40,0.5,0.5,0.5,0.5,0.5,0.5,0.5
40.1,0.491365,0.497968,0.499983,0.501543,0.494001,0.501951,0.495612
40.2,0.492292,0.498315,0.499242,0.500857,0.495351,0.501557,0.496673
40.3,0.490206,0.506876,0.499485,0.498618,0.49373,0.498247,0.495557
40.4,0.492287,0.498342,0.499236,0.500766,0.495345,0.501495,0.496671
40.5,0.49044,0.502355,0.500177,0.500148,0.493186,0.500048,0.495053
40.6,0.5,0.5,0.5,0.5,0.5,0.5,0.5
40.7,0.483368,0.495813,0.499039,0.502451,0.48934,0.503853,0.492283
40.8,0.491647,0.502675,0.499593,0.499746,0.494587,0.499847,0.496129
40.9,0.490346,0.497681,0.500686,0.501863,0.492624,0.5021,0.494543
41,0.5,0.5,0.5,0.5,0.5,0.5,0.5
41.1,0.482387,0.504688,0.498625,0.499585,0.48907,0.500224,0.492221
41.2,0.49156,0.498024,0.50011,0.501455,0.494022,0.501879,0.495614
41.3,0.491598,0.502729,0.499554,0.499507,0.494567,0.499709,0.496127
41.4,0.490994,0.50708,0.498575,0.497991,0.495078,0.498143,0.496633
41.5,0.491548,0.498063,0.500094,0.501331,0.494013,0.501791,0.495611
41.6,0.493311,0.493528,0.499131,0.503126,0.496242,0.5043,0.49723
41.7,0.5,0.5,0.5,0.5,0.5,0.5,0.5
41.8,0.481609,0.509032,0.498842,0.498151,0.488251,0.498392,0.491667
41.9,0.492714,0.493686,0.5001,0.50284,0.494865,0.503707,0.496164
42,0.491471,0.502541,0.499449,0.499836,0.494579,0.500109,0.496131
42.1,0.491464,0.502552,0.49944,0.499789,0.494575,0.500083,0.496131
42.2,0.491168,0.507076,0.498633,0.498,0.495099,0.498223,0.496646
42.3,0.5,0.5,0.5,0.5,0.5,0.5,0.5
42.4,0.482956,0.499964,0.499481,0.501598,0.488618,0.502512,0.491739
42.5,0.491494,0.507284,0.498815,0.497658,0.495108,0.497875,0.496653
42.6,0.49044,0.502263,0.500089,0.500246,0.493198,0.50033,0.49506
42.7,0.492627,0.498173,0.499425,0.501209,0.495423,0.50194,0.49668
42.8,0.491352,0.50705,0.498694,0.498118,0.49513,0.498366,0.496658
42.9,0.491657,0.502552,0.499501,0.499862,0.494603,0.500168,0.496138
43,0.492564,0.493552,0.500014,0.503043,0.494869,0.50394,0.496152
43.1,0.491272,0.502399,0.499269,0.499932,0.494571,0.500387,0.49613
43.2,0.5,0.5,0.5,0.5,0.5,0.5,0.5
43.3,0.482337,0.508998,0.499091,0.498484,0.48836,0.498793,0.491708
43.4,0.491306,0.507111,0.498623,0.497796,0.495102,0.498228,0.496658
43.5,0.5,0.5,0.5,0.5,0.5,0.5,0.5
43.6,0.483175,0.509313,0.498213,0.498005,0.48973,0.498738,0.492782
43.7,0.491258,0.502475,0.499209,0.499625,0.494547,0.500221,0.496125
43.8,0.491812,0.502549,0.499535,0.499915,0.494625,0.500253,0.496143
43.9,0.5,0.5,0.5,0.5,0.5,0.5,0.5
44,0.482962,0.509156,0.49801,0.498197,0.489731,0.499091,0.492784
44.1,0.5,0.5,0.5,0.5,0.5,0.5,0.5
44.2,0.483323,0.509343,0.498195,0.49789,0.48974,0.498767,0.492789
44.3,0.492792,0.498247,0.49947,0.501015,0.495428,0.501813,0.496674
44.4,0.490466,0.511495,0.498634,0.496415,0.494294,0.496634,0.496132
44.5,0.491593,0.502361,0.499334,0.500177,0.494629,0.500631,0.496141
44.6,0.490845,0.511681,0.498832,0.49619,0.494313,0.496372,0.49614
44.7,0.492587,0.498031,0.499308,0.50141,0.495444,0.502236,0.496673
44.8,0.5,0.5,0.5,0.5,0.5,0.5,0.5
44.9,0.483275,0.513889,0.497346,0.496179,0.490305,0.497218,0.49333
45,0.491813,0.50268,0.499427,0.499383,0.494582,0.499977,0.496134
45.1,0.491822,0.511637,0.498066,0.49627,0.495757,0.4968,0.497235
45.2,0.490446,0.506903,0.499157,0.498005,0.493719,0.498501,0.495589
45.3,0.49211,0.502495,0.499552,0.500209,0.494682,0.500535,0.496152
45.4,0.491301,0.511626,0.497713,0.495657,0.495662,0.496641,0.497217
45.5,0.492114,0.502516,0.499528,0.500126,0.494675,0.500492,0.49615
45.6,0.490634,0.51152,0.498531,0.496175,0.494303,0.496742,0.496144
45.7,0.492114,0.502538,0.499502,0.500029,0.494667,0.500443,0.496148
45.8,0.491485,0.516214,0.497082,0.493791,0.49626,0.494926,0.497784
45.9,0.492086,0.497909,0.500117,0.502045,0.494115,0.502356,0.4956
46,0.5,0.5,0.5,0.5,0.5,0.5,0.5
46.1,0.482469,0.52312,0.496415,0.491841,0.48997,0.493413,0.493333
46.2,0.491135,0.506945,0.49938,0.498386,0.493816,0.498724,0.495611
46.3,0.491457,0.511619,0.497667,0.495544,0.495692,0.4968,0.497233
46.4,0.492199,0.507268,0.498771,0.497576,0.495196,0.498353,0.496694
46.5,0.489842,0.520589,0.497728,0.492488,0.494044,0.493365,0.496177
46.6,0.492888,0.498041,0.499275,0.501559,0.495489,0.502307,0.496668
46.7,0.5,0.5,0.5,0.5,0.5,0.5,0.5
46.8,0.484275,0.518736,0.496688,0.493845,0.490973,0.495557,0.493919
46.9,0.490853,0.511558,0.49839,0.495842,0.494317,0.496849,0.496155
47,0.489862,0.515947,0.498281,0.494284,0.493474,0.495247,0.495621
47.1,0.493075,0.50722,0.49799,0.497498,0.496646,0.498732,0.497792
47.2,0.4909,0.511598,0.498343,0.495631,0.494311,0.496798,0.496155
47.3,0.492368,0.50725,0.498701,0.497583,0.495225,0.498511,0.496701
47.4,0.491085,0.516054,0.497737,0.494288,0.494969,0.495527,0.496739
47.5,0.491399,0.511649,0.498563,0.495946,0.494384,0.496914,0.496172
47.6,0.491023,0.511531,0.498311,0.495845,0.494351,0.497047,0.496164
47.7,0.492417,0.507296,0.498648,0.497347,0.495216,0.498434,0.4967
47.8,0.49109,0.511436,0.498303,0.49621,0.494394,0.497333,0.496173
47.9,0.491087,0.516233,0.497631,0.493382,0.494912,0.495156,0.496735
48,0.492498,0.507211,0.498628,0.497674,0.495258,0.498698,0.496709
48.1,0.5,0.5,0.5,0.5,0.5,0.5,0.5
48.2,0.482272,0.53218,0.495214,0.48766,0.489842,0.490877,0.493419
48.3,0.491531,0.511744,0.498433,0.495397,0.494368,0.496796,0.496173
48.4,0.492193,0.511778,0.49772,0.495091,0.495798,0.496956,0.497277
48.5,0.490241,0.520595,0.497409,0.491779,0.494118,0.493882,0.496222
48.6,0.49199,0.507117,0.499233,0.498057,0.493864,0.498727,0.495614
48.7,0.491254,0.516221,0.497527,0.493212,0.494958,0.49539,0.496754
48.8,0.491278,0.516237,0.497512,0.493123,0.49496,0.49538,0.496756
48.9,0.492665,0.511845,0.49789,0.495294,0.495874,0.49708,0.497297
49,0.490719,0.5114,0.498768,0.496082,0.492984,0.497275,0.495076
49.1,0.49268,0.511867,0.497864,0.495149,0.495871,0.497055,0.497299
49.2,0.49,0.525273,0.496446,0.488626,0.494681,0.492193,0.496815
49.3,0.492142,0.511748,0.498485,0.495756,0.494476,0.497159,0.496198
49.4,0.492355,0.5118,0.497599,0.494818,0.495847,0.497119,0.497299
49.5,0.49028,0.515928,0.498704,0.494101,0.492158,0.495607,0.49455
49.6,0.492359,0.511713,0.497556,0.495141,0.495889,0.497396,0.497309
49.7,0.490876,0.525578,0.496838,0.488272,0.494753,0.492008,0.496843
49.8,0.5,0.5,0.5,0.5,0.5,0.5,0.5
49.9,0.483297,0.527668,0.495485,0.488717,0.489433,0.493071,0.492916
