Time,JointVelocitiesNormalized
0,0.5,0.5,0.5,0.5,0.5,0.5,0.5
0.1,0.475285,0.548837,0.485138,0.54509,0.497299,0.531978,0.499923
0.2,0.483615,0.498337,0.490389,0.498661,0.498251,0.499132,0.500002
0.3,0.5,0.5,0.5,0.5,0.5,0.5,0.5
0.4,0.466764,0.499498,0.480485,0.50013,0.49645,0.500328,0.500002
0.5,0.484309,0.49967,0.490787,0.499825,0.498324,0.499981,0.500001
0.6,0.483604,0.499984,0.490369,0.500114,0.498248,0.500202,0.5
0.7,0.483841,0.499652,0.490513,0.499811,0.498274,0.500004,0.500001
0.8,0.483842,0.499647,0.490514,0.499804,0.498274,0.500014,0.500001
0.9,0.48361,0.499638,0.490377,0.499796,0.498249,0.500027,0.500001
1,0.484079,0.499644,0.490652,0.499791,0.498299,0.500032,0.500001
1.1,0.484082,0.499473,0.490657,0.499636,0.4983,0.499939,0.500001
1.2,0.483851,0.499297,0.490525,0.49948,0.498276,0.499849,0.500001
1.3,0.48385,0.499958,0.490504,0.500067,0.498274,0.500272,0.500001
1.4,0.484321,0.499466,0.490797,0.499617,0.498326,0.499966,0.500001
1.5,0.48409,0.49929,0.490666,0.499461,0.498302,0.499875,0.500002
1.6,0.484093,0.499452,0.49066,0.499603,0.498302,0.499988,0.500001
1.7,0.484096,0.499281,0.490668,0.499448,0.498303,0.499895,0.500002
1.8,0.484333,0.499282,0.490806,0.499443,0.498329,0.499901,0.500002
1.9,0.484337,0.499278,0.490806,0.499437,0.498329,0.499911,0.500002
2,0.484807,0.499451,0.491074,0.499583,0.498379,0.500015,0.500001
2.1,0.484576,0.499275,0.490946,0.499427,0.498355,0.499925,0.500002
2.2,0.484346,0.499266,0.490809,0.499419,0.498331,0.499939,0.500002
2.3,0.484817,0.499272,0.491085,0.499416,0.498381,0.499939,0.500002
2.4,0.5,0.5,0.5,0.5,0.5,0.5,0.5
2.5,0.469677,0.49794,0.482224,0.498533,0.496777,0.49976,0.500009
2.6,0.485063,0.499431,0.491214,0.49955,0.498407,0.500065,0.500002
2.7,0.484598,0.498919,0.49097,0.499093,0.498361,0.499773,0.500002
2.8,0.485303,0.499098,0.491373,0.499244,0.498435,0.49987,0.500002
2.9,0.485074,0.499088,0.491236,0.499236,0.498411,0.499884,0.500002
3,0.485544,0.49893,0.491523,0.499087,0.498462,0.499778,0.500002
3.1,0.485317,0.499085,0.491375,0.499228,0.498437,0.499895,0.500002
3.2,0.485788,0.499258,0.49164,0.499377,0.498486,0.499997,0.500002
3.3,0.490444,0.499198,0.494401,0.499281,0.498984,0.49979,0.500001
3.4,0.499304,0.500158,0.499576,0.50014,0.499924,0.500119,0.5
3.5,0.5,0.5,0.5,0.5,0.5,0.5,0.5
3.6,0.499528,0.499666,0.499746,0.499695,0.499952,0.499801,0.5
3.7,0.500003,0.500165,0.499989,0.500149,0.499999,0.500104,0.5
3.8,0.499997,0.499835,0.500011,0.499851,0.500001,0.499896,0.5
3.9,0.49977,0.500163,0.499851,0.500146,0.499974,0.500109,0.5
4,0.499531,0.49983,0.499735,0.499845,0.499951,0.499906,0.5
4.1,0.49977,0.500163,0.499851,0.500146,0.499974,0.500109,0.5
4.2,0.499997,0.499835,0.500011,0.499851,0.500001,0.499896,0.5
4.3,0.49977,0.500163,0.499851,0.500146,0.499974,0.500109,0.5
4.4,0.50023,0.499837,0.500149,0.499854,0.500026,0.499891,0.5
4.5,0.5,0.5,0.5,0.5,0.5,0.5,0.5
4.6,0.499767,0.499998,0.499862,0.499997,0.499975,0.500005,0.5
4.7,0.499764,0.499833,0.499873,0.499848,0.499976,0.499901,0.5
4.8,0.499764,0.499833,0.499873,0.499848,0.499976,0.499901,0.5
4.9,0.5,0.5,0.5,0.5,0.5,0.5,0.5
5,0.49977,0.500163,0.499851,0.500146,0.499974,0.500109,0.5
5.1,0.50023,0.499837,0.500149,0.499854,0.500026,0.499891,0.5
5.2,0.499997,0.499835,0.500011,0.499851,0.500001,0.499896,0.5
5.3,0.49977,0.500163,0.499851,0.500146,0.499974,0.500109,0.5
5.4,0.499767,0.499998,0.499862,0.499997,0.499975,0.500005,0.5
5.5,0.499997,0.499835,0.500011,0.499851,0.500001,0.499896,0.5
5.6,0.5,0.5,0.5,0.5,0.5,0.5,0.5
5.7,0.499997,0.499835,0.500011,0.499851,0.500001,0.499896,0.5
5.8,0.499997,0.499835,0.500011,0.499851,0.500001,0.499896,0.5
5.9,0.5,0.5,0.5,0.5,0.5,0.5,0.5
6,0.5,0.5,0.5,0.5,0.5,0.5,0.5
6.1,0.500227,0.499672,0.50016,0.499705,0.500027,0.499787,0.5
6.2,0.500003,0.500165,0.499989,0.500149,0.499999,0.500104,0.5
6.3,0.499764,0.499833,0.499873,0.499848,0.499976,0.499901,0.5
6.4,0.5,0.5,0.5,0.5,0.5,0.5,0.5
6.5,0.500236,0.500167,0.500127,0.500152,0.500024,0.500099,0.5
6.6,0.499761,0.499668,0.499884,0.499699,0.499977,0.499797,0.5
6.7,0.514085,0.49639,0.508635,0.496917,0.501533,0.497458,0.499998
6.8,0.5,0.5,0.5,0.5,0.5,0.5,0.5
6.9,0.529175,0.49218,0.517942,0.493581,0.503169,0.494806,0.49999
7,0.511684,0.497122,0.507188,0.497557,0.501265,0.498004,0.499998
7.1,0.518822,0.495171,0.511608,0.495934,0.502036,0.496717,0.499996
7.2,0.5,0.5,0.5,0.5,0.5,0.5,0.5
7.3,0.529695,0.491803,0.51839,0.493279,0.503204,0.494693,0.499988
7.4,0.515551,0.49602,0.509641,0.496623,0.501674,0.497313,0.499997
7.5,0.515067,0.495853,0.509374,0.496469,0.50162,0.49723,0.499997
7.6,0.515045,0.495848,0.509377,0.496468,0.501615,0.497243,0.499997
7.7,0.515248,0.495675,0.509526,0.496322,0.501635,0.497153,0.499997
7.8,0.515229,0.495837,0.509523,0.496468,0.501629,0.497268,0.499997
7.9,0.515203,0.495665,0.509533,0.496321,0.501624,0.497181,0.499996
8,0.514953,0.495661,0.509397,0.496318,0.501595,0.497197,0.499996
8.1,0.515388,0.49582,0.509674,0.496467,0.501638,0.497307,0.499996
8.2,0.515135,0.495649,0.509543,0.49632,0.501609,0.497223,0.499996
8.3,0.515561,0.495471,0.509831,0.496178,0.501652,0.497134,0.499996
8.4,0.515086,0.49547,0.509555,0.496175,0.501599,0.497151,0.499996
8.5,0.515066,0.495632,0.509554,0.49632,0.501594,0.497266,0.499996
8.6,0.515262,0.495288,0.509706,0.496034,0.501612,0.49708,0.499995
8.7,0.515243,0.495618,0.509703,0.496324,0.501607,0.497294,0.499996
8.8,0.515218,0.495443,0.50971,0.49618,0.501602,0.497209,0.499996
8.9,0.515191,0.495268,0.509717,0.496038,0.501597,0.497125,0.499995
9,0.515169,0.49543,0.509718,0.496184,0.501592,0.49724,0.499995
9.1,0.515143,0.495255,0.509725,0.496042,0.501586,0.497156,0.499995
9.2,0.514897,0.49525,0.509587,0.496043,0.501558,0.497172,0.499995
9.3,0.514651,0.495246,0.50945,0.496044,0.50153,0.497187,0.499995
9.4,0.515072,0.495403,0.509737,0.496192,0.501571,0.497301,0.499995
9.5,0.5,0.5,0.5,0.5,0.5,0.5,0.5
9.6,0.529527,0.490196,0.519131,0.49217,0.503061,0.494552,0.499979
9.7,0.515218,0.49504,0.509894,0.495917,0.501579,0.497152,0.499994
9.8,0.5,0.5,0.5,0.5,0.5,0.5,0.5
9.9,0.528946,0.490167,0.518872,0.492188,0.502986,0.494642,0.499978
10,0.50572,0.498312,0.503741,0.49859,0.500593,0.499022,0.499999
10.1,0.50044,0.500002,0.500288,0.500001,0.500046,0.5,0.5
10.2,0.499561,0.499829,0.499712,0.499856,0.499954,0.499901,0.5
10.3,0.500219,0.50017,0.500144,0.500144,0.500023,0.500099,0.5
10.4,0.499781,0.49983,0.499856,0.499856,0.499977,0.499901,0.5
10.5,0.500219,0.50017,0.500144,0.500144,0.500023,0.500099,0.5
10.6,0.499781,0.49983,0.499856,0.499856,0.499977,0.499901,0.5
10.7,0.500219,0.50017,0.500144,0.500144,0.500023,0.500099,0.5
10.8,0.499781,0.49983,0.499856,0.499856,0.499977,0.499901,0.5
10.9,0.500219,0.50017,0.500144,0.500144,0.500023,0.500099,0.5
11,0.499781,0.49983,0.499856,0.499856,0.499977,0.499901,0.5
11.1,0.499999,0.500169,0.5,0.500143,0.5,0.500099,0.5
11.2,0.50044,0.500002,0.500288,0.500001,0.500046,0.5,0.5
11.3,0.499561,0.499829,0.499712,0.499856,0.499954,0.499901,0.5
11.4,0.499999,0.500169,0.5,0.500143,0.5,0.500099,0.5
11.5,0.50044,0.500002,0.500288,0.500001,0.500046,0.5,0.5
11.6,0.499561,0.499829,0.499712,0.499856,0.499954,0.499901,0.5
11.7,0.5,0.5,0.5,0.5,0.5,0.5,0.5
11.8,0.499999,0.500169,0.5,0.500143,0.5,0.500099,0.5
11.9,0.50044,0.500002,0.500288,0.500001,0.500046,0.5,0.5
12,0.499561,0.499829,0.499712,0.499856,0.499954,0.499901,0.5
12.1,0.499999,0.500169,0.5,0.500143,0.5,0.500099,0.5
12.2,0.50044,0.500002,0.500288,0.500001,0.500046,0.5,0.5
12.3,0.499561,0.499829,0.499712,0.499856,0.499954,0.499901,0.5
12.4,0.499999,0.500169,0.5,0.500143,0.5,0.500099,0.5
12.5,0.50044,0.500002,0.500288,0.500001,0.500046,0.5,0.5
12.6,0.5,0.5,0.5,0.5,0.5,0.5,0.5
12.7,0.499561,0.499829,0.499712,0.499856,0.499954,0.499901,0.5
12.8,0.499999,0.500169,0.5,0.500143,0.5,0.500099,0.5
12.9,0.50044,0.500002,0.500288,0.500001,0.500046,0.5,0.5
13,0.499561,0.499829,0.499712,0.499856,0.499954,0.499901,0.5
13.1,0.499999,0.500169,0.5,0.500143,0.5,0.500099,0.5
13.2,0.50044,0.500002,0.500288,0.500001,0.500046,0.5,0.5
13.3,0.494725,0.499963,0.496544,0.499987,0.499452,0.500002,0.5
13.4,0.485498,0.499813,0.490499,0.499975,0.498493,0.500039,0.5
13.5,0.485498,0.499807,0.490499,0.499974,0.498493,0.500051,0.5
13.6,0.485276,0.499965,0.490353,0.500117,0.49847,0.500163,0.5
13.7,0.485061,0.499615,0.490215,0.49983,0.498448,0.49998,0.500001
13.8,0.485279,0.499783,0.490356,0.499972,0.49847,0.500089,0.5
13.9,0.485719,0.499787,0.490644,0.499972,0.498516,0.500097,0.500001
14,0.48506,0.499765,0.490213,0.499971,0.498448,0.500116,0.500001
14.1,0.4855,0.499769,0.490501,0.49997,0.498493,0.500124,0.500001
14.2,0.485503,0.499425,0.490509,0.499683,0.498495,0.499938,0.500001
14.3,0.485503,0.499757,0.4905,0.499969,0.498493,0.500148,0.500001
14.4,0.485505,0.499413,0.49051,0.499682,0.498495,0.499962,0.500001
14.5,0.5,0.5,0.5,0.5,0.5,0.5,0.5
14.6,0.471691,0.499094,0.481458,0.499827,0.497062,0.500317,0.500005
14.7,0.48507,0.499383,0.490225,0.49968,0.498449,0.500004,0.500001
14.8,0.5,0.5,0.5,0.5,0.5,0.5,0.5
14.9,0.472142,0.49874,0.481761,0.499536,0.497111,0.500178,0.500006
15,0.485076,0.499532,0.490219,0.499821,0.498449,0.50014,0.500001
15.1,0.5,0.5,0.5,0.5,0.5,0.5,0.5
15.2,0.472589,0.498725,0.482052,0.499532,0.497157,0.500234,0.500006
15.3,0.485519,0.499358,0.490515,0.499676,0.498495,0.500067,0.500002
15.4,0.486179,0.499372,0.490947,0.499676,0.498564,0.500064,0.500002
15.5,0.486181,0.499366,0.490947,0.499675,0.498564,0.500075,0.500002
15.6,0.486404,0.499535,0.491083,0.499819,0.498586,0.50018,0.500002
15.7,0.486185,0.499355,0.490949,0.499674,0.498564,0.500096,0.500002
15.8,0.486625,0.499362,0.491237,0.499674,0.49861,0.500096,0.500002
15.9,0.486409,0.49935,0.491094,0.499673,0.498587,0.500112,0.500002
16,0.486411,0.499344,0.491095,0.499672,0.498587,0.500122,0.500002
16.1,0.486853,0.499521,0.491372,0.499816,0.498632,0.50022,0.500002
16.2,0.486631,0.499173,0.491251,0.499527,0.498611,0.500037,0.500002
16.3,0.486853,0.499174,0.491396,0.499527,0.498634,0.50004,0.500002
16.4,0.48664,0.499329,0.491241,0.49967,0.498611,0.500156,0.500002
16.5,0.487298,0.499346,0.491673,0.499671,0.498679,0.500147,0.500002
