Time,x,y,z,R,P,Y
0,-0.00339048,-0.269943,1.67702,3.13414,0.00332004,-1.62135
1,-0.00774467,-0.268537,1.6771,3.12347,0.00165931,-1.62143
2,-0.0122734,-0.269237,1.67703,3.11273,0.000739364,-1.62144
3,-0.0168103,-0.270029,1.67696,3.10202,-0.000180978,-1.62146
4,-0.021362,-0.270911,1.67688,3.09131,-0.00112898,-1.62146
5,-0.0259304,-0.271883,1.67678,3.0806,-0.00210462,-1.62146
6,-0.0305174,-0.272943,1.67668,3.0699,-0.00310775,-1.62144
7,-0.0351247,-0.274091,1.67656,3.0592,-0.00413818,-1.62141
8,-0.0397541,-0.275326,1.67644,3.04851,-0.00519576,-1.62137
9,-0.0444072,-0.276648,1.6763,3.03782,-0.00628029,-1.62131
10,-0.0490857,-0.278054,1.67615,3.02714,-0.00739158,-1.62124
11,-0.0537911,-0.279545,1.67599,3.01647,-0.00852942,-1.62116
12,-0.0585249,-0.281119,1.67581,3.00581,-0.00969358,-1.62105
13,-0.0632886,-0.282775,1.67562,2.99515,-0.0108838,-1.62093
14,-0.0680836,-0.284513,1.67542,2.98449,-0.0120999,-1.62079
15,-0.0729112,-0.28633,1.6752,2.97385,-0.0133415,-1.62062
16,-0.0777726,-0.288226,1.67497,2.96321,-0.0146084,-1.62044
17,-0.0826691,-0.2902,1.67472,2.95259,-0.0159003,-1.62023
18,-0.0876017,-0.292251,1.67445,2.94196,-0.0172168,-1.61999
19,-0.0925715,-0.294376,1.67417,2.93135,-0.0185575,-1.61973
20,-0.0975796,-0.296576,1.67386,2.92074,-0.0199222,-1.61944
21,-0.102627,-0.298849,1.67354,2.91015,-0.0213104,-1.61911
22,-0.107714,-0.301194,1.67319,2.89955,-0.0227217,-1.61876
23,-0.112842,-0.303609,1.67283,2.88897,-0.0241556,-1.61837
24,-0.118012,-0.306093,1.67244,2.87839,-0.0256117,-1.61794
25,-0.123224,-0.308646,1.67203,2.86781,-0.0270895,-1.61747
26,-0.128479,-0.311266,1.67159,2.85724,-0.0285884,-1.61697
27,-0.133778,-0.313951,1.67113,2.84668,-0.0301079,-1.61642
28,-0.139121,-0.316701,1.67065,2.83611,-0.0316474,-1.61582
29,-0.144509,-0.319514,1.67013,2.82555,-0.0332063,-1.61518
30,-0.149942,-0.32239,1.66959,2.815,-0.0347839,-1.61449
31,-0.15542,-0.325327,1.66902,2.80444,-0.0363795,-1.61374
32,-0.160945,-0.328324,1.66842,2.79388,-0.0379924,-1.61294
33,-0.164138,-0.330289,1.6681,2.78656,-0.0485864,-1.61254
34,-0.162749,-0.330348,1.6684,2.78548,-0.0773083,-1.61277
35,-0.161628,-0.331226,1.66852,2.78411,-0.106772,-1.61307
36,-0.160519,-0.332089,1.66863,2.78274,-0.136086,-1.61335
37,-0.159413,-0.332941,1.66873,2.78139,-0.165316,-1.61363
38,-0.158312,-0.333785,1.66881,2.78005,-0.194462,-1.6139
39,-0.157215,-0.334622,1.66889,2.77873,-0.223526,-1.61418
40,-0.156122,-0.335452,1.66895,2.77743,-0.252508,-1.61445
41,-0.155034,-0.336275,1.66899,2.77613,-0.281411,-1.61472
42,-0.153949,-0.337091,1.66903,2.77485,-0.310234,-1.61499
43,-0.152869,-0.337902,1.66905,2.77358,-0.338981,-1.61526
44,-0.151793,-0.338707,1.66906,2.77232,-0.367653,-1.61553
45,-0.150721,-0.339506,1.66906,2.77107,-0.396251,-1.6158
46,-0.149652,-0.3403,1.66905,2.76983,-0.424779,-1.61608
47,-0.148588,-0.341089,1.66902,2.76859,-0.453239,-1.61635
48,-0.147527,-0.341874,1.66898,2.76737,-0.481633,-1.61663
49,-0.14647,-0.342653,1.66893,2.76616,-0.509964,-1.6169
50,-0.145416,-0.343428,1.66887,2.76496,-0.538234,-1.61719
51,-0.144366,-0.3442,1.66879,2.76376,-0.566448,-1.61747
52,-0.143319,-0.344967,1.6687,2.76258,-0.594606,-1.61776
53,-0.142276,-0.34573,1.6686,2.7614,-0.622714,-1.61806
54,-0.141235,-0.346489,1.66849,2.76023,-0.650774,-1.61837
55,-0.140198,-0.347245,1.66836,2.75907,-0.67879,-1.61868
56,-0.139164,-0.347998,1.66822,2.75792,-0.706765,-1.619
57,-0.138133,-0.348747,1.66807,2.75678,-0.734703,-1.61933
58,-0.137105,-0.349494,1.6679,2.75565,-0.762607,-1.61968
59,-0.13608,-0.350237,1.66772,2.75453,-0.790482,-1.62003
60,-0.135058,-0.350978,1.66753,2.75342,-0.81833,-1.6204
61,-0.134038,-0.351717,1.66732,2.75232,-0.846157,-1.62079
62,-0.133022,-0.352452,1.6671,2.75124,-0.873965,-1.6212
63,-0.132008,-0.353186,1.66687,2.75017,-0.901759,-1.62163
64,-0.130997,-0.353918,1.66662,2.74913,-0.929543,-1.62209
65,-0.12999,-0.354648,1.66635,2.7481,-0.957322,-1.62258
66,-0.128985,-0.355376,1.66607,2.7471,-0.985098,-1.6231
67,-0.122436,-0.351678,1.66799,2.74977,-0.985486,-1.61425
68,-0.116241,-0.348439,1.66981,2.75227,-0.985853,-1.60537
69,-0.110103,-0.345231,1.6716,2.75473,-0.986208,-1.5964
70,-0.104033,-0.342077,1.67335,2.75714,-0.986545,-1.58732
71,-0.0980323,-0.338979,1.67507,2.75952,-0.986866,-1.57816
72,-0.0921002,-0.33594,1.67676,2.76185,-0.98717,-1.5689
73,-0.0862369,-0.332961,1.67841,2.76416,-0.987456,-1.55956
74,-0.0804423,-0.330045,1.68004,2.76644,-0.987723,-1.55015
75,-0.0747162,-0.327195,1.68165,2.7687,-0.987973,-1.54067
76,-0.0690584,-0.324412,1.68323,2.77095,-0.988204,-1.53112
77,-0.0634685,-0.321699,1.68479,2.77318,-0.988416,-1.52151
78,-0.0579461,-0.319058,1.68633,2.77541,-0.988609,-1.51184
79,-0.0524907,-0.316492,1.68785,2.77764,-0.988783,-1.50213
80,-0.0471017,-0.314002,1.68935,2.77987,-0.988938,-1.49237
81,-0.0417782,-0.311592,1.69084,2.78211,-0.989074,-1.48257
82,-0.0365195,-0.309262,1.69231,2.78435,-0.989191,-1.47273
83,-0.0313246,-0.307016,1.69378,2.78662,-0.989288,-1.46286
84,-0.0261925,-0.304855,1.69523,2.7889,-0.989366,-1.45296
85,-0.0211221,-0.302781,1.69668,2.7912,-0.989426,-1.44304
86,-0.0161121,-0.300798,1.69812,2.79352,-0.989466,-1.4331
87,-0.0111613,-0.298905,1.69955,2.79588,-0.989487,-1.42314
88,-0.00626828,-0.297107,1.70098,2.79826,-0.989489,-1.41317
89,-0.00143153,-0.295404,1.70241,2.80068,-0.989473,-1.40319
90,0.0033505,-0.293798,1.70385,2.80314,-0.989438,-1.3932
91,0.00807944,-0.292292,1.70528,2.80563,-0.989384,-1.38321
92,0.012757,-0.290886,1.70671,2.80816,-0.989312,-1.37322
93,0.017385,-0.289584,1.70815,2.81074,-0.989222,-1.36323
94,0.0219652,-0.288385,1.7096,2.81335,-0.989114,-1.35324
95,0.0264996,-0.287293,1.71105,2.81602,-0.988988,-1.34326
96,0.0309902,-0.286309,1.7125,2.81873,-0.988844,-1.33328
97,0.0354389,-0.285434,1.71397,2.82148,-0.988683,-1.32331
98,0.0398478,-0.28467,1.71545,2.82429,-0.988504,-1.31335
99,0.0442191,-0.284018,1.71694,2.82715,-0.988307,-1.3034
100,0.0457236,-0.28365,1.71738,2.82766,-0.988928,-1.29986
101,0.0457455,-0.283596,1.71736,2.82746,-0.989262,-1.29976
102,0.045745,-0.283598,1.71736,2.82746,-0.989263,-1.29976
103,0.045745,-0.283598,1.71736,2.82746,-0.989263,-1.29976
104,0.045745,-0.283598,1.71736,2.82746,-0.989263,-1.29976
105,0.045745,-0.283598,1.71736,2.82746,-0.989263,-1.29976
106,0.045745,-0.283598,1.71736,2.82746,-0.989263,-1.29976
107,0.045745,-0.283598,1.71736,2.82746,-0.989263,-1.29976
108,0.045745,-0.283598,1.71736,2.82746,-0.989263,-1.29976
109,0.045745,-0.283598,1.71736,2.82746,-0.989263,-1.29976
110,0.045745,-0.283598,1.71736,2.82746,-0.989263,-1.29976
111,0.045745,-0.283598,1.71736,2.82746,-0.989263,-1.29976
112,0.045745,-0.283598,1.71736,2.82746,-0.989263,-1.29976
113,0.045745,-0.283598,1.71736,2.82746,-0.989263,-1.29976
114,0.045745,-0.283598,1.71736,2.82746,-0.989263,-1.29976
115,0.045745,-0.283598,1.71736,2.82746,-0.989263,-1.29976
116,0.045745,-0.283598,1.71736,2.82746,-0.989263,-1.29976
117,0.045745,-0.283598,1.71736,2.82746,-0.989263,-1.29976
118,0.045745,-0.283598,1.71736,2.82746,-0.989263,-1.29976
119,0.045745,-0.283598,1.71736,2.82746,-0.989263,-1.29976
120,0.045745,-0.283598,1.71736,2.82746,-0.989263,-1.29976
121,0.045745,-0.283598,1.71736,2.82746,-0.989263,-1.29976
122,0.045745,-0.283598,1.71736,2.82746,-0.989263,-1.29976
123,0.045745,-0.283598,1.71736,2.82746,-0.989263,-1.29976
124,0.045745,-0.283598,1.71736,2.82746,-0.989263,-1.29976
125,0.045745,-0.283598,1.71736,2.82746,-0.989263,-1.29976
126,0.045745,-0.283598,1.71736,2.82746,-0.989263,-1.29976
127,0.045745,-0.283598,1.71736,2.82746,-0.989263,-1.29976
128,0.045745,-0.283598,1.71736,2.82746,-0.989263,-1.29976
129,0.045745,-0.283598,1.71736,2.82746,-0.989263,-1.29976
130,0.045745,-0.283598,1.71736,2.82746,-0.989263,-1.29976
131,0.045745,-0.283598,1.71736,2.82746,-0.989263,-1.29976
132,0.045745,-0.283598,1.71736,2.82746,-0.989263,-1.29976
133,0.0446242,-0.284191,1.7173,2.81787,-0.998761,-1.29543
134,0.0412436,-0.285957,1.71708,2.78868,-1.02686,-1.28202
135,0.0377356,-0.287939,1.71702,2.75802,-1.05411,-1.26678
136,0.0341718,-0.289979,1.71696,2.72579,-1.08104,-1.24988
137,0.0305404,-0.292098,1.71691,2.69171,-1.10764,-1.23103
138,0.0268387,-0.294295,1.71687,2.65547,-1.13387,-1.20993
139,0.0230639,-0.296569,1.71685,2.6167,-1.15971,-1.18621
140,0.0192136,-0.298919,1.71684,2.57493,-1.1851,-1.15938
141,0.0152855,-0.301344,1.71684,2.52961,-1.21,-1.12891
142,0.0112771,-0.303843,1.71685,2.48003,-1.23435,-1.09407
143,0.00718641,-0.306414,1.71688,2.42533,-1.25805,-1.05401
144,0.00301144,-0.309056,1.71691,2.36443,-1.28101,-1.00765
145,-0.00124967,-0.311768,1.71697,2.29604,-1.3031,-0.953689
146,-0.0055986,-0.314548,1.71703,2.21853,-1.32412,-0.890515
147,-0.0100369,-0.317394,1.7171,2.13004,-1.34385,-0.816255
148,-0.0145661,-0.320304,1.71719,2.02849,-1.36198,-0.728821
149,-0.0191875,-0.323277,1.71728,1.9118,-1.37811,-0.626157
150,-0.0239022,-0.326311,1.71739,1.77845,-1.39178,-0.506737
151,-0.0287114,-0.329404,1.7175,1.6283,-1.40243,-0.370415
152,-0.0336161,-0.332553,1.71762,1.46361,-1.40952,-0.219453
153,-0.0386173,-0.335757,1.71774,1.28966,-1.41262,-0.059144
154,-0.0437159,-0.339014,1.71788,1.1142,-1.41152,0.102777
155,-0.0489127,-0.342322,1.71801,0.945398,-1.40634,0.258115
156,-0.0542084,-0.345678,1.71815,0.789654,-1.39747,0.400485
157,-0.059604,-0.349082,1.71829,0.650357,-1.38544,0.52649
158,-0.0651,-0.35253,1.71843,0.528162,-1.37082,0.635471
159,-0.0706974,-0.356022,1.71857,0.421951,-1.35413,0.728543
160,-0.0763967,-0.359556,1.7187,0.32979,-1.33579,0.807634
161,-0.0821988,-0.363128,1.71883,0.249562,-1.31615,0.874861
162,-0.0881042,-0.366738,1.71896,0.179288,-1.29545,0.932194
163,-0.0941136,-0.370384,1.71908,0.11726,-1.2739,0.98134
164,-0.101934,-0.371202,1.72177,0.265774,-1.33129,0.832897
165,-0.103884,-0.374299,1.71821,0.00589657,-1.22689,1.06673
