Time,q0,q1,q2,q3,q4,q5,q6
0,0,-0.65,0,1.8,0,0.42,0
1,-0.000279862,-0.649136,-0.000692884,1.82663,0.00147664,0.443887,0.00190826
2,-0.00210977,-0.653197,-0.00215268,1.82799,0.000151473,0.4466,0.00119947
3,-0.00386852,-0.652813,-0.00398179,1.82786,-0.000857318,0.446349,0.000731794
4,-0.00562313,-0.652395,-0.00581164,1.82772,-0.00185997,0.446077,0.000268512
5,-0.00737643,-0.651942,-0.00764231,1.82756,-0.00286295,0.445781,-0.000196431
6,-0.00912833,-0.651455,-0.00947385,1.82739,-0.00386616,0.445463,-0.000662971
7,-0.0108787,-0.650934,-0.0113063,1.82721,-0.00486951,0.445121,-0.00113103
8,-0.0126276,-0.650378,-0.0131397,1.82701,-0.00587291,0.444755,-0.00160055
9,-0.0143747,-0.649789,-0.0149741,1.8268,-0.00687626,0.444367,-0.00207144
10,-0.0161202,-0.649165,-0.0168096,1.82658,-0.00787948,0.443955,-0.00254364
11,-0.0178638,-0.648507,-0.0186461,1.82634,-0.00888245,0.44352,-0.00301706
12,-0.0196055,-0.647816,-0.0204838,1.82608,-0.0098851,0.443061,-0.00349165
13,-0.0213452,-0.64709,-0.0223226,1.82582,-0.0108873,0.44258,-0.00396731
14,-0.0230828,-0.64633,-0.0241626,1.82554,-0.011889,0.442076,-0.00444399
15,-0.0248183,-0.645536,-0.0260039,1.82524,-0.0128901,0.441548,-0.00492159
16,-0.0265515,-0.644708,-0.0278465,1.82493,-0.0138905,0.440998,-0.00540006
17,-0.0282824,-0.643847,-0.0296904,1.82461,-0.0148901,0.440425,-0.00587931
18,-0.030011,-0.642951,-0.0315356,1.82427,-0.0158888,0.439828,-0.00635926
19,-0.031737,-0.642022,-0.0333823,1.82392,-0.0168866,0.439209,-0.00683984
20,-0.0334606,-0.641059,-0.0352303,1.82355,-0.0178832,0.438567,-0.00732098
21,-0.0351815,-0.640062,-0.0370799,1.82317,-0.0188786,0.437903,-0.0078026
22,-0.0368997,-0.639032,-0.038931,1.82277,-0.0198728,0.437215,-0.00828461
23,-0.0386151,-0.637968,-0.0407837,1.82236,-0.0208656,0.436506,-0.00876695
24,-0.0403277,-0.63687,-0.0426379,1.82194,-0.021857,0.435773,-0.00924954
25,-0.0420374,-0.635739,-0.0444937,1.8215,-0.0228468,0.435018,-0.00973229
26,-0.0437441,-0.634575,-0.0463513,1.82105,-0.0238349,0.434241,-0.0102151
27,-0.0454477,-0.633377,-0.0482105,1.82058,-0.0248213,0.433441,-0.010698
28,-0.0471482,-0.632145,-0.0500715,1.8201,-0.0258058,0.432619,-0.0111808
29,-0.0488455,-0.630881,-0.0519342,1.8196,-0.0267884,0.431774,-0.0116634
30,-0.0505396,-0.629583,-0.0537987,1.81909,-0.0277689,0.430908,-0.0121458
31,-0.0522303,-0.628252,-0.0556651,1.81856,-0.0287473,0.430019,-0.0126279
32,-0.0539176,-0.626888,-0.0575333,1.81802,-0.0297235,0.429108,-0.0131096
33,-0.0556015,-0.62549,-0.0594034,1.81747,-0.0306973,0.428176,-0.0135908
34,-0.0572818,-0.62406,-0.0612755,1.8169,-0.0316687,0.427221,-0.0140715
35,-0.0589586,-0.622597,-0.0631495,1.81631,-0.0326376,0.426245,-0.0145515
36,-0.0606317,-0.6211,-0.0650256,1.81571,-0.0336038,0.425246,-0.0150309
37,-0.0623011,-0.619571,-0.0669036,1.8151,-0.0345674,0.424226,-0.0155094
38,-0.0639668,-0.618009,-0.0687837,1.81447,-0.035528,0.423185,-0.015987
39,-0.0656287,-0.616415,-0.0706659,1.81383,-0.0364858,0.422122,-0.0164637
40,-0.0672867,-0.614787,-0.0725502,1.81317,-0.0374405,0.421037,-0.0169393
41,-0.0689407,-0.613127,-0.0744367,1.81249,-0.0383922,0.419932,-0.0174138
42,-0.0705908,-0.611435,-0.0763253,1.8118,-0.0393405,0.418804,-0.0178871
43,-0.0722369,-0.60971,-0.0782161,1.8111,-0.0402856,0.417656,-0.018359
44,-0.0738788,-0.607952,-0.0801091,1.81038,-0.0412272,0.416487,-0.0188296
45,-0.0755167,-0.606163,-0.0820044,1.80964,-0.0421654,0.415296,-0.0192987
46,-0.0771504,-0.60434,-0.0839019,1.80889,-0.0430998,0.414085,-0.0197662
47,-0.0787799,-0.602486,-0.0858018,1.80813,-0.0440306,0.412852,-0.0202321
48,-0.0804051,-0.6006,-0.0877039,1.80734,-0.0449575,0.411599,-0.0206962
49,-0.082026,-0.598681,-0.0896084,1.80655,-0.0458805,0.410325,-0.0211586
50,-0.0836426,-0.59673,-0.0915153,1.80573,-0.0467995,0.409031,-0.021619
51,-0.0852548,-0.594748,-0.0934246,1.80491,-0.0477143,0.407716,-0.0220773
52,-0.0868625,-0.592733,-0.0953362,1.80406,-0.0486249,0.406381,-0.0225336
53,-0.0884658,-0.590687,-0.0972503,1.8032,-0.0495311,0.405025,-0.0229877
54,-0.0900647,-0.588609,-0.0991669,1.80233,-0.0504329,0.403649,-0.0234396
55,-0.091659,-0.586499,-0.101086,1.80144,-0.0513301,0.402253,-0.0238891
56,-0.0932487,-0.584358,-0.103007,1.80053,-0.0522227,0.400837,-0.0243361
57,-0.0948339,-0.582185,-0.104931,1.79961,-0.0531105,0.399401,-0.0247805
58,-0.0964145,-0.57998,-0.106858,1.79867,-0.0539934,0.397945,-0.0252224
59,-0.0979904,-0.577744,-0.108787,1.79772,-0.0548714,0.396469,-0.0256615
60,-0.0995617,-0.575477,-0.110719,1.79675,-0.0557442,0.394974,-0.0260977
61,-0.101128,-0.573178,-0.112653,1.79576,-0.0566119,0.393459,-0.0265311
62,-0.10269,-0.570848,-0.11459,1.79476,-0.0574743,0.391925,-0.0269614
63,-0.104247,-0.568487,-0.116529,1.79374,-0.0583313,0.390371,-0.0273886
64,-0.1058,-0.566095,-0.118471,1.7927,-0.0591828,0.388798,-0.0278126
65,-0.107348,-0.563672,-0.120415,1.79165,-0.0600286,0.387205,-0.0282333
66,-0.10889,-0.561218,-0.122363,1.79058,-0.0608688,0.385594,-0.0286506
67,-0.110429,-0.558733,-0.124313,1.7895,-0.0617031,0.383964,-0.0290645
68,-0.111962,-0.556218,-0.126265,1.7884,-0.0625314,0.382315,-0.0294747
69,-0.113491,-0.553671,-0.12822,1.78728,-0.0633537,0.380647,-0.0298812
70,-0.115014,-0.551094,-0.130178,1.78615,-0.0641698,0.37896,-0.030284
71,-0.116533,-0.548486,-0.132139,1.78499,-0.0649797,0.377254,-0.0306828
72,-0.118048,-0.545848,-0.134102,1.78383,-0.0657832,0.375531,-0.0310777
73,-0.119557,-0.543179,-0.136068,1.78264,-0.0665801,0.373789,-0.0314685
74,-0.121062,-0.54048,-0.138036,1.78144,-0.0673705,0.372028,-0.0318551
75,-0.122562,-0.53775,-0.140008,1.78022,-0.0681541,0.370249,-0.0322374
76,-0.124057,-0.53499,-0.141982,1.77899,-0.0689309,0.368453,-0.0326153
77,-0.125547,-0.5322,-0.143958,1.77773,-0.0697007,0.366638,-0.0329887
78,-0.127033,-0.52938,-0.145938,1.77646,-0.0704635,0.364805,-0.0333576
79,-0.128513,-0.526529,-0.14792,1.77518,-0.0712191,0.362955,-0.0337217
80,-0.129989,-0.523649,-0.149905,1.77387,-0.0719674,0.361087,-0.034081
81,-0.131461,-0.520738,-0.151892,1.77255,-0.0727083,0.359201,-0.0344355
82,-0.132928,-0.517798,-0.153883,1.77121,-0.0734417,0.357298,-0.0347849
83,-0.13439,-0.514828,-0.155876,1.76986,-0.0741674,0.355377,-0.0351292
84,-0.135847,-0.511828,-0.157871,1.76848,-0.0748854,0.353439,-0.0354682
85,-0.1373,-0.508798,-0.15987,1.76709,-0.0755955,0.351484,-0.035802
86,-0.138748,-0.505739,-0.161871,1.76568,-0.0762976,0.349512,-0.0361303
87,-0.140192,-0.50265,-0.163875,1.76426,-0.0769916,0.347523,-0.0364531
88,-0.141631,-0.499531,-0.165881,1.76281,-0.0776774,0.345517,-0.0367702
89,-0.143066,-0.496383,-0.16789,1.76135,-0.0783549,0.343495,-0.0370815
90,-0.144496,-0.493205,-0.169902,1.75987,-0.0790238,0.341455,-0.037387
91,-0.145922,-0.489998,-0.171916,1.75837,-0.0796842,0.339399,-0.0376865
92,-0.147344,-0.486762,-0.173933,1.75685,-0.0803359,0.337327,-0.0379799
93,-0.148761,-0.483496,-0.175953,1.75532,-0.0809787,0.335238,-0.0382671
94,-0.150174,-0.480202,-0.177975,1.75377,-0.0816126,0.333133,-0.038548
95,-0.151583,-0.476878,-0.18,1.75219,-0.0822375,0.331011,-0.0388225
96,-0.152988,-0.473524,-0.182028,1.75061,-0.0828531,0.328874,-0.0390904
97,-0.154388,-0.470142,-0.184058,1.749,-0.0834594,0.326721,-0.0393517
98,-0.155785,-0.466731,-0.186091,1.74737,-0.0840563,0.324551,-0.0396062
99,-0.157178,-0.46329,-0.188126,1.74573,-0.0846436,0.322366,-0.0398538
100,-0.158567,-0.459821,-0.190163,1.74406,-0.0852213,0.320166,-0.0400944
101,-0.159952,-0.456323,-0.192204,1.74238,-0.0857891,0.317949,-0.040328
102,-0.160514,-0.45668,-0.19078,1.74247,-0.0903035,0.318422,-0.0449427
103,-0.161096,-0.456263,-0.189443,1.74224,-0.094945,0.318437,-0.0496755
104,-0.161678,-0.455864,-0.188108,1.74202,-0.0995783,0.318463,-0.0543997
105,-0.16226,-0.455468,-0.186775,1.74181,-0.104208,0.31849,-0.0591199
106,-0.162841,-0.455074,-0.185444,1.74159,-0.108834,0.318518,-0.063836
107,-0.163421,-0.454683,-0.184115,1.74139,-0.113456,0.318548,-0.0685481
108,-0.164001,-0.454294,-0.182787,1.74118,-0.118075,0.318579,-0.073256
109,-0.16458,-0.453907,-0.181461,1.74098,-0.12269,0.318611,-0.0779599
110,-0.165158,-0.453523,-0.180137,1.74079,-0.127301,0.318644,-0.0826597
111,-0.165736,-0.45314,-0.178815,1.7406,-0.131908,0.318679,-0.0873555
112,-0.166313,-0.45276,-0.177494,1.74041,-0.136511,0.318714,-0.0920471
113,-0.166889,-0.452382,-0.176176,1.74022,-0.141111,0.318751,-0.0967347
114,-0.167464,-0.452006,-0.174859,1.74004,-0.145707,0.318788,-0.101418
115,-0.168039,-0.451632,-0.173543,1.73987,-0.1503,0.318827,-0.106098
116,-0.168613,-0.451261,-0.17223,1.73969,-0.154888,0.318867,-0.110773
117,-0.169187,-0.450891,-0.170918,1.73952,-0.159473,0.318908,-0.115444
118,-0.16976,-0.450523,-0.169607,1.73936,-0.164054,0.318949,-0.120112
119,-0.170332,-0.450157,-0.168299,1.73919,-0.168632,0.318992,-0.124775
120,-0.170904,-0.449793,-0.166992,1.73903,-0.173205,0.319036,-0.129435
121,-0.171475,-0.449431,-0.165687,1.73888,-0.177775,0.31908,-0.13409
122,-0.172045,-0.44907,-0.164383,1.73873,-0.182342,0.319126,-0.138741
123,-0.172614,-0.448712,-0.163081,1.73858,-0.186905,0.319172,-0.143389
124,-0.173184,-0.448355,-0.161781,1.73843,-0.191464,0.319219,-0.148032
125,-0.173752,-0.448,-0.160483,1.73829,-0.196019,0.319267,-0.152672
126,-0.17432,-0.447647,-0.159186,1.73815,-0.200571,0.319316,-0.157308
127,-0.174887,-0.447295,-0.15789,1.73802,-0.20512,0.319366,-0.161939
128,-0.175454,-0.446946,-0.156597,1.73789,-0.209664,0.319417,-0.166567
129,-0.176019,-0.446597,-0.155305,1.73776,-0.214206,0.319468,-0.171192
130,-0.176585,-0.446251,-0.154014,1.73763,-0.218743,0.31952,-0.175812
131,-0.17715,-0.445906,-0.152725,1.73751,-0.223278,0.319573,-0.180429
132,-0.177714,-0.445562,-0.151438,1.7374,-0.227809,0.319626,-0.185041
133,-0.178278,-0.445221,-0.150152,1.73728,-0.232336,0.319681,-0.189651
134,-0.178841,-0.44488,-0.148868,1.73717,-0.23686,0.319736,-0.194256
135,-0.179403,-0.444542,-0.147585,1.73706,-0.241381,0.319791,-0.198858
136,-0.179965,-0.444204,-0.146304,1.73696,-0.245898,0.319848,-0.203456
137,-0.180526,-0.443868,-0.145024,1.73686,-0.250412,0.319905,-0.208051
138,-0.181087,-0.443534,-0.143745,1.73676,-0.254922,0.319963,-0.212642
139,-0.181648,-0.443201,-0.142469,1.73667,-0.25943,0.320021,-0.21723
140,-0.182207,-0.44287,-0.141193,1.73658,-0.263934,0.320081,-0.221814
141,-0.182767,-0.44254,-0.139919,1.73649,-0.268435,0.32014,-0.226395
142,-0.183325,-0.442211,-0.138647,1.73641,-0.272933,0.320201,-0.230972
143,-0.183884,-0.441884,-0.137376,1.73633,-0.277428,0.320262,-0.235547
144,-0.184441,-0.441558,-0.136106,1.73625,-0.28192,0.320324,-0.240117
145,-0.184999,-0.441233,-0.134838,1.73618,-0.286409,0.320386,-0.244685
146,-0.185556,-0.44091,-0.133571,1.7361,-0.290894,0.320449,-0.249249
147,-0.186112,-0.440588,-0.132306,1.73604,-0.295377,0.320513,-0.25381
148,-0.186668,-0.440267,-0.131041,1.73597,-0.299857,0.320578,-0.258368
149,-0.187223,-0.439947,-0.129779,1.73591,-0.304334,0.320643,-0.262923
150,-0.187778,-0.439629,-0.128517,1.73585,-0.308808,0.320708,-0.267475
151,-0.188333,-0.439312,-0.127257,1.7358,-0.31328,0.320774,-0.272024
152,-0.188887,-0.438997,-0.125998,1.73575,-0.317749,0.320841,-0.27657
153,-0.189441,-0.438682,-0.12474,1.7357,-0.322215,0.320909,-0.281113
154,-0.189994,-0.438369,-0.123484,1.73566,-0.326679,0.320977,-0.285653
155,-0.190547,-0.438057,-0.122229,1.73562,-0.33114,0.321045,-0.290191
156,-0.191099,-0.437746,-0.120975,1.73558,-0.335598,0.321115,-0.294726
157,-0.191652,-0.437436,-0.119722,1.73554,-0.340054,0.321185,-0.299258
158,-0.192203,-0.437128,-0.11847,1.73551,-0.344507,0.321255,-0.303787
159,-0.192755,-0.43682,-0.11722,1.73549,-0.348959,0.321326,-0.308314
160,-0.193306,-0.436514,-0.115971,1.73546,-0.353408,0.321398,-0.312838
161,-0.193857,-0.436209,-0.114723,1.73544,-0.357854,0.32147,-0.31736
162,-0.194407,-0.435905,-0.113476,1.73542,-0.362298,0.321543,-0.32188
163,-0.194957,-0.435602,-0.11223,1.73541,-0.366741,0.321617,-0.326397
164,-0.195507,-0.4353,-0.110985,1.73539,-0.371181,0.321691,-0.330912
165,-0.196057,-0.434999,-0.109742,1.73539,-0.375619,0.321766,-0.335424
166,-0.196606,-0.4347,-0.108499,1.73538,-0.380055,0.321842,-0.339935
167,-0.197155,-0.434401,-0.107258,1.73538,-0.384489,0.321918,-0.344443
168,-0.197704,-0.434104,-0.106017,1.73538,-0.388921,0.321994,-0.34895
169,-0.198252,-0.433807,-0.104778,1.73539,-0.393352,0.322072,-0.353454
170,-0.1988,-0.433512,-0.103539,1.73539,-0.397781,0.32215,-0.357956
171,-0.199348,-0.433217,-0.102302,1.73541,-0.402208,0.322229,-0.362457
172,-0.199896,-0.432924,-0.101065,1.73542,-0.406633,0.322308,-0.366955
173,-0.200444,-0.432631,-0.0998299,1.73544,-0.411057,0.322388,-0.371452
174,-0.200991,-0.43234,-0.0985953,1.73546,-0.415479,0.322468,-0.375948
175,-0.201539,-0.432049,-0.0973617,1.73549,-0.4199,0.32255,-0.380441
176,-0.202086,-0.43176,-0.0961289,1.73552,-0.424319,0.322632,-0.384933
177,-0.202633,-0.431471,-0.094897,1.73555,-0.428737,0.322714,-0.389424
178,-0.20318,-0.431184,-0.0936661,1.73558,-0.433154,0.322797,-0.393913
179,-0.203727,-0.430897,-0.0924359,1.73562,-0.437569,0.322881,-0.398401
180,-0.204273,-0.430611,-0.0912067,1.73566,-0.441984,0.322966,-0.402887
181,-0.20482,-0.430327,-0.0899782,1.73571,-0.446397,0.323051,-0.407373
182,-0.205366,-0.430043,-0.0887506,1.73576,-0.450809,0.323137,-0.411857
183,-0.205913,-0.42976,-0.0875238,1.73581,-0.455221,0.323224,-0.41634
184,-0.206459,-0.429477,-0.0862978,1.73586,-0.459631,0.323311,-0.420822
185,-0.207006,-0.429196,-0.0850725,1.73592,-0.464041,0.323399,-0.425303
186,-0.207552,-0.428916,-0.083848,1.73598,-0.46845,0.323488,-0.429783
187,-0.208098,-0.428636,-0.0826243,1.73605,-0.472858,0.323577,-0.434263
188,-0.208645,-0.428357,-0.0814013,1.73612,-0.477265,0.323668,-0.438741
189,-0.209191,-0.428079,-0.080179,1.73619,-0.481672,0.323758,-0.443219
190,-0.209737,-0.427802,-0.0789574,1.73627,-0.486079,0.32385,-0.447696
191,-0.210284,-0.427526,-0.0777366,1.73635,-0.490485,0.323942,-0.452173
192,-0.210831,-0.42725,-0.0765164,1.73643,-0.494891,0.324035,-0.45665
193,-0.211377,-0.426976,-0.0752968,1.73652,-0.499296,0.324129,-0.461125
194,-0.211924,-0.426702,-0.0740779,1.73661,-0.503702,0.324224,-0.465601
195,-0.212471,-0.426428,-0.0728597,1.7367,-0.508107,0.324319,-0.470076
196,-0.213018,-0.426156,-0.0716421,1.7368,-0.512512,0.324415,-0.474552
197,-0.213565,-0.425884,-0.0704251,1.7369,-0.516917,0.324512,-0.479027
198,-0.214113,-0.425613,-0.0692087,1.737,-0.521322,0.324609,-0.483502
199,-0.21466,-0.425342,-0.0679929,1.73711,-0.525727,0.324707,-0.487977
200,-0.215208,-0.425072,-0.0667777,1.73722,-0.530132,0.324806,-0.492452
201,-0.215756,-0.424803,-0.0655631,1.73733,-0.534538,0.324906,-0.496927
202,-0.214151,-0.428691,-0.063205,1.73869,-0.534198,0.32604,-0.496986
203,-0.212596,-0.432082,-0.0609763,1.73978,-0.533864,0.326922,-0.497021
204,-0.211039,-0.435463,-0.0587461,1.74086,-0.533522,0.327798,-0.497051
205,-0.209481,-0.438811,-0.0565195,1.74192,-0.533173,0.328654,-0.497074
206,-0.207922,-0.442126,-0.0542967,1.74296,-0.532819,0.329491,-0.497091
207,-0.206363,-0.445408,-0.0520776,1.74397,-0.532459,0.330309,-0.497101
208,-0.204802,-0.448657,-0.0498624,1.74497,-0.532092,0.331107,-0.497106
209,-0.203241,-0.451873,-0.0476511,1.74594,-0.53172,0.331886,-0.497104
210,-0.201679,-0.455055,-0.0454439,1.74689,-0.531343,0.332645,-0.497097
211,-0.200116,-0.458204,-0.0432407,1.74782,-0.53096,0.333385,-0.497084
212,-0.198552,-0.461319,-0.0410418,1.74872,-0.530571,0.334105,-0.497065
213,-0.196988,-0.464401,-0.0388472,1.7496,-0.530178,0.334806,-0.497041
214,-0.195422,-0.467449,-0.0366569,1.75047,-0.529779,0.335486,-0.497011
215,-0.193856,-0.470463,-0.0344711,1.75131,-0.529376,0.336147,-0.496976
216,-0.192288,-0.473443,-0.0322898,1.75212,-0.528968,0.336787,-0.496935
217,-0.19072,-0.476389,-0.030113,1.75292,-0.528555,0.337408,-0.49689
218,-0.189152,-0.4793,-0.027941,1.7537,-0.528138,0.338008,-0.496839
219,-0.187582,-0.482178,-0.0257736,1.75445,-0.527716,0.338588,-0.496783
220,-0.186011,-0.485021,-0.0236111,1.75518,-0.52729,0.339148,-0.496722
221,-0.18444,-0.487829,-0.0214534,1.75589,-0.52686,0.339688,-0.496656
222,-0.182868,-0.490603,-0.0193007,1.75658,-0.526426,0.340207,-0.496586
223,-0.181295,-0.493342,-0.0171529,1.75724,-0.525988,0.340705,-0.496511
224,-0.179722,-0.496046,-0.0150102,1.75789,-0.525547,0.341183,-0.496431
225,-0.178148,-0.498715,-0.0128727,1.75851,-0.525101,0.34164,-0.496347
226,-0.176573,-0.501349,-0.0107403,1.75911,-0.524653,0.342077,-0.496259
227,-0.174997,-0.503948,-0.00861313,1.75969,-0.524201,0.342492,-0.496166
228,-0.173421,-0.506512,-0.00649126,1.76025,-0.523746,0.342887,-0.496069
229,-0.171844,-0.509041,-0.00437474,1.76079,-0.523288,0.343261,-0.495968
230,-0.170267,-0.511534,-0.00226361,1.7613,-0.522826,0.343614,-0.495863
231,-0.16869,-0.513991,-0.000157925,1.76179,-0.522362,0.343946,-0.495753
232,-0.167111,-0.516413,0.00194227,1.76227,-0.521896,0.344256,-0.49564
233,-0.165533,-0.518799,0.00403692,1.76272,-0.521426,0.344546,-0.495524
234,-0.163954,-0.521149,0.00612599,1.76315,-0.520955,0.344814,-0.495403
235,-0.162375,-0.523464,0.00820943,1.76355,-0.520481,0.345061,-0.495279
236,-0.160795,-0.525742,0.0102872,1.76394,-0.520004,0.345287,-0.495152
237,-0.159215,-0.527985,0.0123593,1.7643,-0.519526,0.345491,-0.495021
238,-0.157635,-0.530191,0.0144256,1.76465,-0.519045,0.345674,-0.494887
239,-0.156055,-0.532361,0.0164861,1.76497,-0.518563,0.345835,-0.494749
240,-0.154475,-0.534494,0.0185408,1.76527,-0.518079,0.345975,-0.494608
241,-0.152894,-0.536592,0.0205897,1.76555,-0.517593,0.346093,-0.494465
242,-0.151314,-0.538652,0.0226327,1.76581,-0.517106,0.346189,-0.494318
243,-0.149734,-0.540676,0.0246697,1.76605,-0.516618,0.346264,-0.494168
244,-0.148154,-0.542664,0.0267009,1.76626,-0.516128,0.346317,-0.494015
245,-0.146574,-0.544614,0.028726,1.76646,-0.515636,0.346348,-0.49386
246,-0.144994,-0.546528,0.0307452,1.76663,-0.515144,0.346358,-0.493702
247,-0.143414,-0.548405,0.0327583,1.76678,-0.514651,0.346345,-0.493542
248,-0.141835,-0.550245,0.0347655,1.76691,-0.514157,0.346311,-0.493378
249,-0.140257,-0.552048,0.0367665,1.76702,-0.513662,0.346255,-0.493213
250,-0.138678,-0.553813,0.0387615,1.76711,-0.513167,0.346177,-0.493045
251,-0.137101,-0.555542,0.0407504,1.76718,-0.512671,0.346076,-0.492875
252,-0.135524,-0.557233,0.0427332,1.76722,-0.512174,0.345954,-0.492703
253,-0.133947,-0.558887,0.0447098,1.76725,-0.511678,0.34581,-0.492528
254,-0.132371,-0.560503,0.0466804,1.76725,-0.511181,0.345644,-0.492351
255,-0.130797,-0.562082,0.0486448,1.76724,-0.510684,0.345455,-0.492173
256,-0.129223,-0.563623,0.050603,1.7672,-0.510186,0.345245,-0.491993
257,-0.127649,-0.565127,0.0525552,1.76714,-0.509689,0.345012,-0.49181
258,-0.126077,-0.566593,0.0545011,1.76706,-0.509192,0.344757,-0.491626
259,-0.124506,-0.568021,0.0564409,1.76696,-0.508696,0.34448,-0.491441
260,-0.122936,-0.569412,0.0583745,1.76683,-0.508199,0.344181,-0.491254
261,-0.121368,-0.570764,0.060302,1.76669,-0.507703,0.343859,-0.491065
262,-0.1198,-0.572079,0.0622233,1.76652,-0.507208,0.343515,-0.490875
263,-0.118234,-0.573356,0.0641384,1.76634,-0.506713,0.343149,-0.490683
264,-0.11667,-0.574594,0.0660474,1.76613,-0.50622,0.342761,-0.49049
265,-0.115107,-0.575795,0.0679503,1.7659,-0.505726,0.342351,-0.490296
266,-0.113545,-0.576957,0.069847,1.76565,-0.505234,0.341918,-0.490101
267,-0.111985,-0.578081,0.0717376,1.76538,-0.504743,0.341463,-0.489905
268,-0.110427,-0.579167,0.0736221,1.76509,-0.504253,0.340986,-0.489708
269,-0.108871,-0.580215,0.0755005,1.76478,-0.503764,0.340486,-0.48951
270,-0.107316,-0.581224,0.0773728,1.76444,-0.503277,0.339964,-0.489311
271,-0.105764,-0.582195,0.079239,1.76409,-0.50279,0.33942,-0.489111
272,-0.104214,-0.583127,0.0810992,1.76371,-0.502305,0.338854,-0.48891
273,-0.102665,-0.584021,0.0829534,1.76331,-0.501822,0.338265,-0.488709
274,-0.101119,-0.584877,0.0848015,1.7629,-0.501341,0.337654,-0.488507
275,-0.0995751,-0.585694,0.0866437,1.76246,-0.500861,0.337021,-0.488305
276,-0.0980335,-0.586472,0.0884799,1.762,-0.500382,0.336366,-0.488102
277,-0.0964943,-0.587211,0.0903102,1.76151,-0.499906,0.335688,-0.487899
278,-0.0949576,-0.587912,0.0921346,1.76101,-0.499432,0.334988,-0.487696
279,-0.0934234,-0.588574,0.0939531,1.76049,-0.498959,0.334266,-0.487493
280,-0.0918919,-0.589198,0.0957658,1.75994,-0.498489,0.333522,-0.487289
281,-0.0903631,-0.589782,0.0975726,1.75937,-0.498021,0.332755,-0.487085
282,-0.0888371,-0.590328,0.0993737,1.75879,-0.497555,0.331967,-0.486881
283,-0.087314,-0.590835,0.101169,1.75818,-0.497092,0.331156,-0.486677
284,-0.0857938,-0.591303,0.102959,1.75755,-0.496631,0.330323,-0.486474
285,-0.0842766,-0.591732,0.104743,1.75689,-0.496172,0.329468,-0.48627
286,-0.0827625,-0.592122,0.106521,1.75622,-0.495716,0.328591,-0.486067
287,-0.0812515,-0.592473,0.108294,1.75553,-0.495263,0.327692,-0.485864
288,-0.0797438,-0.592785,0.110061,1.75481,-0.494812,0.326771,-0.485662
289,-0.0782394,-0.593058,0.111823,1.75407,-0.494364,0.325828,-0.48546
290,-0.0767384,-0.593292,0.113579,1.75331,-0.493919,0.324864,-0.485258
291,-0.0752409,-0.593487,0.11533,1.75253,-0.493477,0.323877,-0.485057
292,-0.0737468,-0.593642,0.117076,1.75173,-0.493038,0.322868,-0.484857
293,-0.0722564,-0.593759,0.118816,1.75091,-0.492602,0.321838,-0.484658
294,-0.0707697,-0.593836,0.120551,1.75006,-0.492169,0.320785,-0.484459
295,-0.0692867,-0.593875,0.122281,1.7492,-0.491739,0.319711,-0.484261
296,-0.0678075,-0.593874,0.124005,1.74831,-0.491313,0.318615,-0.484064
297,-0.0663323,-0.593834,0.125725,1.7474,-0.490889,0.317498,-0.483868
298,-0.0648609,-0.593754,0.12744,1.74647,-0.49047,0.316359,-0.483674
299,-0.0633936,-0.593635,0.129149,1.74551,-0.490054,0.315198,-0.48348
300,-0.0619304,-0.593477,0.130854,1.74454,-0.489641,0.314016,-0.483287
301,-0.0604714,-0.59328,0.132554,1.74354,-0.489232,0.312812,-0.483096
302,-0.0605045,-0.593417,0.13262,1.74364,-0.489383,0.312905,-0.483257
303,-0.0605051,-0.593413,0.132619,1.74364,-0.489384,0.312902,-0.483258
304,-0.0605051,-0.593413,0.132619,1.74364,-0.489384,0.312902,-0.483258
305,-0.0605051,-0.593413,0.132619,1.74364,-0.489384,0.312902,-0.483258
306,-0.0605051,-0.593413,0.132619,1.74364,-0.489384,0.312902,-0.483258
307,-0.0605051,-0.593413,0.132619,1.74364,-0.489384,0.312902,-0.483258
308,-0.0605051,-0.593413,0.132619,1.74364,-0.489384,0.312902,-0.483258
309,-0.0605051,-0.593413,0.132619,1.74364,-0.489384,0.312902,-0.483258
310,-0.0605051,-0.593413,0.132619,1.74364,-0.489384,0.312902,-0.483258
311,-0.0605051,-0.593413,0.132619,1.74364,-0.489384,0.312902,-0.483258
312,-0.0605051,-0.593413,0.132619,1.74364,-0.489384,0.312902,-0.483258
313,-0.0605051,-0.593413,0.132619,1.74364,-0.489384,0.312902,-0.483258
314,-0.0605051,-0.593413,0.132619,1.74364,-0.489384,0.312902,-0.483258
315,-0.0605051,-0.593413,0.132619,1.74364,-0.489384,0.312902,-0.483258
316,-0.0605051,-0.593413,0.132619,1.74364,-0.489384,0.312902,-0.483258
317,-0.0605051,-0.593413,0.132619,1.74364,-0.489384,0.312902,-0.483258
318,-0.0605051,-0.593413,0.132619,1.74364,-0.489384,0.312902,-0.483258
319,-0.0605051,-0.593413,0.132619,1.74364,-0.489384,0.312902,-0.483258
320,-0.0605051,-0.593413,0.132619,1.74364,-0.489384,0.312902,-0.483258
321,-0.0605051,-0.593413,0.132619,1.74364,-0.489384,0.312902,-0.483258
322,-0.0605051,-0.593413,0.132619,1.74364,-0.489384,0.312902,-0.483258
323,-0.0605051,-0.593413,0.132619,1.74364,-0.489384,0.312902,-0.483258
324,-0.0605051,-0.593413,0.132619,1.74364,-0.489384,0.312902,-0.483258
325,-0.0605051,-0.593413,0.132619,1.74364,-0.489384,0.312902,-0.483258
326,-0.0605051,-0.593413,0.132619,1.74364,-0.489384,0.312902,-0.483258
327,-0.0605051,-0.593413,0.132619,1.74364,-0.489384,0.312902,-0.483258
328,-0.0605051,-0.593413,0.132619,1.74364,-0.489384,0.312902,-0.483258
329,-0.0605051,-0.593413,0.132619,1.74364,-0.489384,0.312902,-0.483258
330,-0.0605051,-0.593413,0.132619,1.74364,-0.489384,0.312902,-0.483258
331,-0.0605051,-0.593413,0.132619,1.74364,-0.489384,0.312902,-0.483258
332,-0.0605051,-0.593413,0.132619,1.74364,-0.489384,0.312902,-0.483258
333,-0.0605051,-0.593413,0.132619,1.74364,-0.489384,0.312902,-0.483258
334,-0.0605051,-0.593413,0.132619,1.74364,-0.489384,0.312902,-0.483258
335,-0.0605051,-0.593413,0.132619,1.74364,-0.489384,0.312902,-0.483258
336,-0.0605051,-0.593413,0.132619,1.74364,-0.489384,0.312902,-0.483258
337,-0.0605051,-0.593413,0.132619,1.74364,-0.489384,0.312902,-0.483258
338,-0.0605051,-0.593413,0.132619,1.74364,-0.489384,0.312902,-0.483258
339,-0.0605051,-0.593413,0.132619,1.74364,-0.489384,0.312902,-0.483258
340,-0.0605051,-0.593413,0.132619,1.74364,-0.489384,0.312902,-0.483258
341,-0.0605051,-0.593413,0.132619,1.74364,-0.489384,0.312902,-0.483258
342,-0.0605051,-0.593413,0.132619,1.74364,-0.489384,0.312902,-0.483258
343,-0.0605051,-0.593413,0.132619,1.74364,-0.489384,0.312902,-0.483258
344,-0.0605051,-0.593413,0.132619,1.74364,-0.489384,0.312902,-0.483258
345,-0.0605051,-0.593413,0.132619,1.74364,-0.489384,0.312902,-0.483258
346,-0.0605051,-0.593413,0.132619,1.74364,-0.489384,0.312902,-0.483258
347,-0.0605051,-0.593413,0.132619,1.74364,-0.489384,0.312902,-0.483258
348,-0.0605051,-0.593413,0.132619,1.74364,-0.489384,0.312902,-0.483258
349,-0.0605051,-0.593413,0.132619,1.74364,-0.489384,0.312902,-0.483258
350,-0.0605051,-0.593413,0.132619,1.74364,-0.489384,0.312902,-0.483258
351,-0.0605051,-0.593413,0.132619,1.74364,-0.489384,0.312902,-0.483258
352,-0.0605051,-0.593413,0.132619,1.74364,-0.489384,0.312902,-0.483258
353,-0.0605051,-0.593413,0.132619,1.74364,-0.489384,0.312902,-0.483258
354,-0.0605051,-0.593413,0.132619,1.74364,-0.489384,0.312902,-0.483258
355,-0.0605051,-0.593413,0.132619,1.74364,-0.489384,0.312902,-0.483258
356,-0.0605051,-0.593413,0.132619,1.74364,-0.489384,0.312902,-0.483258
357,-0.0605051,-0.593413,0.132619,1.74364,-0.489384,0.312902,-0.483258
358,-0.0605051,-0.593413,0.132619,1.74364,-0.489384,0.312902,-0.483258
359,-0.0605051,-0.593413,0.132619,1.74364,-0.489384,0.312902,-0.483258
360,-0.0605051,-0.593413,0.132619,1.74364,-0.489384,0.312902,-0.483258
361,-0.0605051,-0.593413,0.132619,1.74364,-0.489384,0.312902,-0.483258
362,-0.0605051,-0.593413,0.132619,1.74364,-0.489384,0.312902,-0.483258
363,-0.0605051,-0.593413,0.132619,1.74364,-0.489384,0.312902,-0.483258
364,-0.0605051,-0.593413,0.132619,1.74364,-0.489384,0.312902,-0.483258
365,-0.0605051,-0.593413,0.132619,1.74364,-0.489384,0.312902,-0.483258
366,-0.0605051,-0.593413,0.132619,1.74364,-0.489384,0.312902,-0.483258
367,-0.0605051,-0.593413,0.132619,1.74364,-0.489384,0.312902,-0.483258
368,-0.0605051,-0.593413,0.132619,1.74364,-0.489384,0.312902,-0.483258
369,-0.0605051,-0.593413,0.132619,1.74364,-0.489384,0.312902,-0.483258
370,-0.0605051,-0.593413,0.132619,1.74364,-0.489384,0.312902,-0.483258
371,-0.0605051,-0.593413,0.132619,1.74364,-0.489384,0.312902,-0.483258
372,-0.0605051,-0.593413,0.132619,1.74364,-0.489384,0.312902,-0.483258
373,-0.0605051,-0.593413,0.132619,1.74364,-0.489384,0.312902,-0.483258
374,-0.0605051,-0.593413,0.132619,1.74364,-0.489384,0.312902,-0.483258
375,-0.0605051,-0.593413,0.132619,1.74364,-0.489384,0.312902,-0.483258
376,-0.0605051,-0.593413,0.132619,1.74364,-0.489384,0.312902,-0.483258
377,-0.0605051,-0.593413,0.132619,1.74364,-0.489384,0.312902,-0.483258
378,-0.0605051,-0.593413,0.132619,1.74364,-0.489384,0.312902,-0.483258
379,-0.0605051,-0.593413,0.132619,1.74364,-0.489384,0.312902,-0.483258
380,-0.0605051,-0.593413,0.132619,1.74364,-0.489384,0.312902,-0.483258
381,-0.0605051,-0.593413,0.132619,1.74364,-0.489384,0.312902,-0.483258
382,-0.0605051,-0.593413,0.132619,1.74364,-0.489384,0.312902,-0.483258
383,-0.0605051,-0.593413,0.132619,1.74364,-0.489384,0.312902,-0.483258
384,-0.0605051,-0.593413,0.132619,1.74364,-0.489384,0.312902,-0.483258
385,-0.0605051,-0.593413,0.132619,1.74364,-0.489384,0.312902,-0.483258
386,-0.0605051,-0.593413,0.132619,1.74364,-0.489384,0.312902,-0.483258
387,-0.0605051,-0.593413,0.132619,1.74364,-0.489384,0.312902,-0.483258
388,-0.0605051,-0.593413,0.132619,1.74364,-0.489384,0.312902,-0.483258
389,-0.0605051,-0.593413,0.132619,1.74364,-0.489384,0.312902,-0.483258
390,-0.0605051,-0.593413,0.132619,1.74364,-0.489384,0.312902,-0.483258
391,-0.0605051,-0.593413,0.132619,1.74364,-0.489384,0.312902,-0.483258
392,-0.0605051,-0.593413,0.132619,1.74364,-0.489384,0.312902,-0.483258
393,-0.0605051,-0.593413,0.132619,1.74364,-0.489384,0.312902,-0.483258
394,-0.0605051,-0.593413,0.132619,1.74364,-0.489384,0.312902,-0.483258
395,-0.0605051,-0.593413,0.132619,1.74364,-0.489384,0.312902,-0.483258
396,-0.0605051,-0.593413,0.132619,1.74364,-0.489384,0.312902,-0.483258
397,-0.0605051,-0.593413,0.132619,1.74364,-0.489384,0.312902,-0.483258
398,-0.0605051,-0.593413,0.132619,1.74364,-0.489384,0.312902,-0.483258
399,-0.0605051,-0.593413,0.132619,1.74364,-0.489384,0.312902,-0.483258
400,-0.0605051,-0.593413,0.132619,1.74364,-0.489384,0.312902,-0.483258
401,-0.0605051,-0.593413,0.132619,1.74364,-0.489384,0.312902,-0.483258
402,-0.0632467,-0.592505,0.13226,1.74341,-0.494773,0.312921,-0.488445
403,-0.0659583,-0.591512,0.131848,1.7431,-0.500038,0.312872,-0.4935
404,-0.0686669,-0.590499,0.13143,1.74278,-0.505295,0.312818,-0.498546
405,-0.0713737,-0.589458,0.131004,1.74244,-0.510544,0.312752,-0.503584
406,-0.0740787,-0.588388,0.130571,1.74209,-0.515786,0.312676,-0.508613
407,-0.0767816,-0.58729,0.130129,1.74172,-0.521021,0.312589,-0.513634
408,-0.0794824,-0.586163,0.129679,1.74134,-0.526247,0.312491,-0.518646
409,-0.082181,-0.585008,0.129222,1.74094,-0.531467,0.312382,-0.52365
410,-0.0848774,-0.583824,0.128756,1.74052,-0.536678,0.312262,-0.528644
411,-0.0875714,-0.582611,0.128281,1.74008,-0.541881,0.312132,-0.53363
412,-0.090263,-0.581369,0.127799,1.73963,-0.547076,0.31199,-0.538606
413,-0.0929521,-0.580099,0.127307,1.73916,-0.552263,0.311838,-0.543574
414,-0.0956385,-0.5788,0.126807,1.73868,-0.557442,0.311674,-0.548532
415,-0.0983223,-0.577472,0.126299,1.73818,-0.562612,0.3115,-0.55348
416,-0.101003,-0.576114,0.125782,1.73765,-0.567774,0.311314,-0.558419
417,-0.103681,-0.574728,0.125256,1.73712,-0.572928,0.311118,-0.563348
418,-0.106357,-0.573313,0.124721,1.73656,-0.578073,0.31091,-0.568268
419,-0.109029,-0.571868,0.124178,1.73598,-0.58321,0.310692,-0.573179
420,-0.111698,-0.570394,0.123625,1.73539,-0.588338,0.310462,-0.578079
421,-0.114365,-0.568891,0.123063,1.73478,-0.593458,0.310222,-0.58297
422,-0.117028,-0.567358,0.122493,1.73415,-0.598568,0.30997,-0.587851
423,-0.119688,-0.565796,0.121913,1.7335,-0.603671,0.309708,-0.592722
424,-0.122344,-0.564204,0.121324,1.73283,-0.608764,0.309434,-0.597583
425,-0.124997,-0.562583,0.120726,1.73214,-0.613849,0.30915,-0.602435
426,-0.127647,-0.560932,0.120119,1.73144,-0.618926,0.308855,-0.607276
427,-0.130294,-0.559252,0.119502,1.73071,-0.623993,0.308548,-0.612108
428,-0.132936,-0.557542,0.118877,1.72996,-0.629052,0.308231,-0.61693
429,-0.135576,-0.555803,0.118242,1.7292,-0.634103,0.307903,-0.621742
430,-0.138212,-0.554033,0.117597,1.72841,-0.639145,0.307564,-0.626544
431,-0.140844,-0.552235,0.116944,1.7276,-0.644178,0.307214,-0.631337
432,-0.143472,-0.550406,0.116281,1.72677,-0.649203,0.306854,-0.63612
433,-0.146097,-0.548548,0.115609,1.72593,-0.65422,0.306482,-0.640893
434,-0.148718,-0.54666,0.114927,1.72506,-0.659228,0.3061,-0.645657
435,-0.151335,-0.544742,0.114236,1.72417,-0.664228,0.305708,-0.650411
436,-0.153949,-0.542795,0.113536,1.72326,-0.669219,0.305304,-0.655155
437,-0.156558,-0.540818,0.112827,1.72232,-0.674203,0.30489,-0.65989
438,-0.159164,-0.538811,0.112108,1.72137,-0.679178,0.304466,-0.664616
439,-0.161765,-0.536774,0.11138,1.72039,-0.684145,0.304031,-0.669332
440,-0.164363,-0.534708,0.110642,1.7194,-0.689104,0.303586,-0.674039
441,-0.166956,-0.532612,0.109896,1.71838,-0.694056,0.303131,-0.678737
442,-0.169546,-0.530487,0.10914,1.71734,-0.699,0.302665,-0.683426
443,-0.172132,-0.528332,0.108375,1.71627,-0.703936,0.30219,-0.688106
444,-0.174713,-0.526147,0.107601,1.71519,-0.708864,0.301704,-0.692777
445,-0.177291,-0.523933,0.106818,1.71408,-0.713786,0.301208,-0.697439
446,-0.179864,-0.521689,0.106025,1.71295,-0.718699,0.300702,-0.702093
447,-0.182433,-0.519415,0.105224,1.7118,-0.723606,0.300186,-0.706738
448,-0.184998,-0.517112,0.104414,1.71062,-0.728506,0.299661,-0.711375
449,-0.187559,-0.51478,0.103594,1.70942,-0.733398,0.299126,-0.716004
450,-0.190115,-0.512419,0.102766,1.7082,-0.738284,0.298581,-0.720625
451,-0.192667,-0.510028,0.101929,1.70696,-0.743164,0.298027,-0.725237
452,-0.195216,-0.507607,0.101083,1.70569,-0.748036,0.297463,-0.729842
453,-0.197759,-0.505158,0.100228,1.7044,-0.752903,0.29689,-0.734439
454,-0.200299,-0.502679,0.0993643,1.70308,-0.757763,0.296308,-0.739029
455,-0.202834,-0.500171,0.0984921,1.70174,-0.762617,0.295717,-0.743611
456,-0.205365,-0.497634,0.0976112,1.70038,-0.767465,0.295117,-0.748186
457,-0.207892,-0.495068,0.0967217,1.699,-0.772308,0.294507,-0.752754
458,-0.210414,-0.492473,0.0958237,1.69759,-0.777144,0.293889,-0.757315
459,-0.212932,-0.489849,0.0949173,1.69615,-0.781976,0.293262,-0.76187
460,-0.215446,-0.487196,0.0940024,1.69469,-0.786802,0.292627,-0.766417
461,-0.217956,-0.484515,0.0930792,1.69321,-0.791623,0.291983,-0.770959
462,-0.220461,-0.481804,0.0921476,1.6917,-0.79644,0.29133,-0.775494
463,-0.222962,-0.479065,0.0912078,1.69017,-0.801251,0.290669,-0.780023
464,-0.225458,-0.476297,0.0902599,1.68861,-0.806058,0.29,-0.784547
465,-0.22795,-0.473501,0.0893038,1.68703,-0.810861,0.289323,-0.789064
466,-0.230438,-0.470676,0.0883396,1.68543,-0.81566,0.288637,-0.793577
467,-0.232921,-0.467822,0.0873675,1.6838,-0.820454,0.287944,-0.798084
468,-0.2354,-0.464941,0.0863873,1.68214,-0.825245,0.287243,-0.802585
469,-0.237875,-0.46203,0.0853993,1.68046,-0.830033,0.286534,-0.807083
470,-0.240345,-0.459092,0.0844035,1.67875,-0.834816,0.285817,-0.811575
471,-0.242811,-0.456125,0.0833998,1.67702,-0.839597,0.285093,-0.816063
472,-0.245273,-0.45313,0.0823885,1.67527,-0.844375,0.284361,-0.820546
473,-0.24773,-0.450107,0.0813695,1.67348,-0.84915,0.283622,-0.825026
474,-0.250183,-0.447055,0.0803428,1.67168,-0.853923,0.282876,-0.829501
475,-0.252631,-0.443976,0.0793086,1.66984,-0.858693,0.282123,-0.833973
476,-0.255076,-0.440868,0.0782669,1.66798,-0.863461,0.281362,-0.838442
477,-0.257515,-0.437733,0.0772177,1.6661,-0.868227,0.280595,-0.842907
478,-0.259951,-0.43457,0.0761612,1.66418,-0.872992,0.279821,-0.847369
479,-0.262382,-0.431379,0.0750972,1.66225,-0.877755,0.27904,-0.851829
480,-0.264809,-0.42816,0.074026,1.66028,-0.882517,0.278252,-0.856286
481,-0.267231,-0.424913,0.0729475,1.65829,-0.887277,0.277458,-0.86074
482,-0.26965,-0.421638,0.0718617,1.65627,-0.892037,0.276657,-0.865193
483,-0.272063,-0.418336,0.0707688,1.65423,-0.896797,0.27585,-0.869643
484,-0.274473,-0.415006,0.0696688,1.65216,-0.901556,0.275036,-0.874092
485,-0.276878,-0.411649,0.0685617,1.65006,-0.906314,0.274217,-0.878539
486,-0.279279,-0.408264,0.0674475,1.64794,-0.911073,0.273391,-0.882985
487,-0.281675,-0.404852,0.0663263,1.64578,-0.915832,0.272559,-0.88743
488,-0.284067,-0.401412,0.0651981,1.6436,-0.920592,0.271721,-0.891874
489,-0.286455,-0.397944,0.0640629,1.6414,-0.925353,0.270877,-0.896317
490,-0.288838,-0.39445,0.0629209,1.63916,-0.930114,0.270028,-0.90076
491,-0.291218,-0.390927,0.0617719,1.6369,-0.934877,0.269173,-0.905203
492,-0.293592,-0.387378,0.0606161,1.63461,-0.939641,0.268312,-0.909646
493,-0.295963,-0.383801,0.0594534,1.6323,-0.944407,0.267446,-0.91409
494,-0.298329,-0.380197,0.0582839,1.62995,-0.949174,0.266574,-0.918533
495,-0.300691,-0.376566,0.0571076,1.62758,-0.953944,0.265697,-0.922978
496,-0.303048,-0.372908,0.0559246,1.62518,-0.958716,0.264815,-0.927424
497,-0.305401,-0.369222,0.0547347,1.62275,-0.963491,0.263927,-0.93187
498,-0.307749,-0.365509,0.0535382,1.62029,-0.968269,0.263035,-0.936319
499,-0.310094,-0.36177,0.0523349,1.6178,-0.97305,0.262137,-0.940768
