Time,x,y,z,R,P,Y
0,-0.000402318,-0.269698,1.67705,3.14123,0.00368856,-1.62138
1,-0.00173183,-0.26772,1.67719,3.13777,0.00264594,-1.62139
2,-0.0032344,-0.267897,1.67717,3.13419,0.00235843,-1.6214
3,-0.00473685,-0.268084,1.67716,3.13062,0.00207993,-1.62141
4,-0.00624031,-0.268281,1.67714,3.12705,0.0017983,-1.62142
5,-0.00774483,-0.268488,1.67712,3.12348,0.00151354,-1.62143
6,-0.0092505,-0.268706,1.6771,3.11991,0.00122564,-1.62144
7,-0.0107574,-0.268933,1.67708,3.11633,0.000934622,-1.62144
8,-0.0122656,-0.269171,1.67705,3.11276,0.000640481,-1.62145
9,-0.0137751,-0.269419,1.67703,3.10919,0.000343227,-1.62145
10,-0.015286,-0.269677,1.67701,3.10562,4.28638e-05,-1.62146
11,-0.0167985,-0.269945,1.67698,3.10205,-0.000260601,-1.62146
12,-0.0183126,-0.270223,1.67696,3.09848,-0.000567162,-1.62146
13,-0.0198282,-0.270511,1.67693,3.09491,-0.000876814,-1.62146
14,-0.0213456,-0.270809,1.6769,3.09134,-0.00118955,-1.62146
15,-0.0228648,-0.271117,1.67687,3.08777,-0.00150536,-1.62146
16,-0.0243859,-0.271435,1.67684,3.0842,-0.00182425,-1.62146
17,-0.0259088,-0.271763,1.67681,3.08063,-0.0021462,-1.62145
18,-0.0274338,-0.2721,1.67677,3.07706,-0.00247121,-1.62145
19,-0.0289608,-0.272448,1.67674,3.0735,-0.00279927,-1.62144
20,-0.0304899,-0.272805,1.6767,3.06993,-0.00313038,-1.62143
21,-0.0320212,-0.273172,1.67667,3.06636,-0.00346453,-1.62142
22,-0.0335548,-0.273549,1.67663,3.0628,-0.00380171,-1.62141
23,-0.0350907,-0.273936,1.67659,3.05923,-0.00414192,-1.6214
24,-0.036629,-0.274332,1.67655,3.05567,-0.00448514,-1.62139
25,-0.0381697,-0.274738,1.67651,3.0521,-0.00483138,-1.62137
26,-0.039713,-0.275154,1.67647,3.04854,-0.00518061,-1.62136
27,-0.0412588,-0.275579,1.67642,3.04498,-0.00553285,-1.62134
28,-0.0428072,-0.276014,1.67638,3.04141,-0.00588807,-1.62132
29,-0.0443584,-0.276458,1.67633,3.03785,-0.00624627,-1.6213
30,-0.0459123,-0.276912,1.67628,3.03429,-0.00660744,-1.62128
31,-0.047469,-0.277376,1.67623,3.03073,-0.00697158,-1.62125
32,-0.0490287,-0.277848,1.67618,3.02717,-0.00733867,-1.62122
33,-0.0505912,-0.278331,1.67613,3.02361,-0.00770871,-1.6212
34,-0.0521567,-0.278822,1.67608,3.02006,-0.00808169,-1.62117
35,-0.0537253,-0.279323,1.67602,3.0165,-0.00845759,-1.62114
36,-0.055297,-0.279833,1.67597,3.01294,-0.00883642,-1.6211
37,-0.0568719,-0.280352,1.67591,3.00939,-0.00921815,-1.62107
38,-0.05845,-0.280881,1.67585,3.00583,-0.00960279,-1.62103
39,-0.0600313,-0.281419,1.67579,3.00228,-0.00999031,-1.62099
40,-0.061616,-0.281966,1.67572,2.99872,-0.0103807,-1.62095
41,-0.063204,-0.282522,1.67566,2.99517,-0.010774,-1.6209
42,-0.0647955,-0.283087,1.6756,2.99162,-0.0111701,-1.62086
43,-0.0663904,-0.283661,1.67553,2.98807,-0.0115691,-1.62081
44,-0.0679889,-0.284244,1.67546,2.98452,-0.011971,-1.62076
45,-0.069591,-0.284836,1.67539,2.98097,-0.0123756,-1.62071
46,-0.0711967,-0.285436,1.67532,2.97742,-0.0127831,-1.62065
47,-0.072806,-0.286046,1.67524,2.97387,-0.0131934,-1.62059
48,-0.0744191,-0.286665,1.67517,2.97033,-0.0136064,-1.62053
49,-0.0760359,-0.287292,1.67509,2.96678,-0.0140223,-1.62047
50,-0.0776566,-0.287928,1.67501,2.96324,-0.0144409,-1.62041
51,-0.0792811,-0.288572,1.67493,2.95969,-0.0148623,-1.62034
52,-0.0809096,-0.289225,1.67485,2.95615,-0.0152864,-1.62027
53,-0.0825419,-0.289887,1.67476,2.95261,-0.0157132,-1.62019
54,-0.0841783,-0.290558,1.67468,2.94907,-0.0161428,-1.62012
55,-0.0858187,-0.291236,1.67459,2.94553,-0.0165751,-1.62004
56,-0.0874631,-0.291924,1.6745,2.94199,-0.01701,-1.61996
57,-0.0891117,-0.292619,1.6744,2.93845,-0.0174477,-1.61987
58,-0.0907644,-0.293324,1.67431,2.93491,-0.017888,-1.61978
59,-0.0924213,-0.294036,1.67421,2.93137,-0.0183309,-1.61969
60,-0.0940824,-0.294757,1.67411,2.92784,-0.0187765,-1.6196
61,-0.0957478,-0.295485,1.67401,2.9243,-0.0192247,-1.6195
62,-0.0974175,-0.296223,1.67391,2.92077,-0.0196754,-1.6194
63,-0.0990915,-0.296968,1.67381,2.91723,-0.0201288,-1.6193
64,-0.10077,-0.297721,1.6737,2.9137,-0.0205848,-1.61919
65,-0.102453,-0.298483,1.67359,2.91017,-0.0210433,-1.61908
66,-0.10414,-0.299252,1.67348,2.90664,-0.0215043,-1.61896
67,-0.105832,-0.300029,1.67336,2.90311,-0.0219678,-1.61884
68,-0.107528,-0.300815,1.67325,2.89958,-0.0224339,-1.61872
69,-0.109228,-0.301608,1.67313,2.89605,-0.0229024,-1.61859
70,-0.110934,-0.302409,1.67301,2.89252,-0.0233734,-1.61846
71,-0.112644,-0.303217,1.67289,2.88899,-0.0238468,-1.61833
72,-0.114358,-0.304034,1.67276,2.88546,-0.0243227,-1.61819
73,-0.116077,-0.304858,1.67263,2.88194,-0.024801,-1.61805
74,-0.117801,-0.30569,1.6725,2.87841,-0.0252816,-1.6179
75,-0.11953,-0.30653,1.67237,2.87489,-0.0257647,-1.61775
76,-0.121263,-0.307377,1.67223,2.87136,-0.0262501,-1.6176
77,-0.123001,-0.308231,1.67209,2.86784,-0.0267378,-1.61744
78,-0.124743,-0.309093,1.67195,2.86432,-0.0272278,-1.61727
79,-0.126491,-0.309963,1.67181,2.86079,-0.0277201,-1.6171
80,-0.128243,-0.31084,1.67166,2.85727,-0.0282146,-1.61693
81,-0.130001,-0.311724,1.67151,2.85375,-0.0287115,-1.61675
82,-0.131763,-0.312615,1.67136,2.85023,-0.0292105,-1.61657
83,-0.13353,-0.313514,1.6712,2.84671,-0.0297117,-1.61638
84,-0.135302,-0.31442,1.67104,2.84319,-0.0302151,-1.61619
85,-0.137079,-0.315333,1.67088,2.83967,-0.0307206,-1.61599
86,-0.13886,-0.316254,1.67072,2.83615,-0.0312283,-1.61579
87,-0.140647,-0.317181,1.67055,2.83263,-0.0317381,-1.61558
88,-0.142439,-0.318115,1.67038,2.82911,-0.0322499,-1.61537
89,-0.144236,-0.319057,1.67021,2.82559,-0.0327638,-1.61515
90,-0.146038,-0.320005,1.67003,2.82207,-0.0332797,-1.61492
91,-0.147845,-0.320961,1.66985,2.81855,-0.0337976,-1.61469
92,-0.149657,-0.321923,1.66967,2.81504,-0.0343175,-1.61446
93,-0.151474,-0.322892,1.66949,2.81152,-0.0348393,-1.61422
94,-0.153296,-0.323868,1.6693,2.808,-0.035363,-1.61397
95,-0.155123,-0.32485,1.6691,2.80448,-0.0358886,-1.61372
96,-0.156956,-0.32584,1.66891,2.80097,-0.0364161,-1.61346
97,-0.158793,-0.326836,1.66871,2.79745,-0.0369453,-1.61319
98,-0.160636,-0.327838,1.66851,2.79393,-0.0374764,-1.61292
99,-0.162484,-0.328847,1.6683,2.79042,-0.0380093,-1.61264
100,-0.164337,-0.329863,1.66809,2.7869,-0.0385438,-1.61236
101,-0.163843,-0.329816,1.6682,2.78658,-0.0480452,-1.61246
102,-0.163472,-0.330116,1.66824,2.78612,-0.0578921,-1.61256
103,-0.1631,-0.330407,1.66829,2.78565,-0.0677176,-1.61265
104,-0.162728,-0.330697,1.66833,2.78519,-0.0775338,-1.61274
105,-0.162357,-0.330986,1.66837,2.78473,-0.0873405,-1.61284
106,-0.161987,-0.331274,1.66841,2.78427,-0.0971377,-1.61293
107,-0.161617,-0.331561,1.66845,2.78381,-0.106926,-1.61302
108,-0.161247,-0.331847,1.66849,2.78335,-0.116704,-1.61311
109,-0.160878,-0.332132,1.66852,2.7829,-0.126473,-1.61321
110,-0.160509,-0.332416,1.66856,2.78245,-0.136232,-1.6133
111,-0.160141,-0.332699,1.66859,2.782,-0.145983,-1.61339
112,-0.159773,-0.332982,1.66862,2.78155,-0.155723,-1.61348
113,-0.159406,-0.333263,1.66865,2.7811,-0.165455,-1.61357
114,-0.159039,-0.333544,1.66868,2.78065,-0.175177,-1.61366
115,-0.158673,-0.333823,1.66871,2.78021,-0.18489,-1.61375
116,-0.158307,-0.334102,1.66874,2.77977,-0.194594,-1.61384
117,-0.157942,-0.33438,1.66876,2.77933,-0.204288,-1.61393
118,-0.157577,-0.334658,1.66879,2.77889,-0.213973,-1.61402
119,-0.157213,-0.334934,1.66881,2.77845,-0.22365,-1.61411
120,-0.156849,-0.33521,1.66883,2.77801,-0.233317,-1.6142
121,-0.156486,-0.335485,1.66885,2.77758,-0.242975,-1.61428
122,-0.156123,-0.335759,1.66887,2.77714,-0.252624,-1.61437
123,-0.15576,-0.336033,1.66888,2.77671,-0.262264,-1.61446
124,-0.155398,-0.336305,1.6689,2.77628,-0.271895,-1.61455
125,-0.155037,-0.336577,1.66891,2.77585,-0.281518,-1.61464
126,-0.154676,-0.336849,1.66892,2.77542,-0.291132,-1.61473
127,-0.154315,-0.337119,1.66894,2.77499,-0.300737,-1.61481
128,-0.153955,-0.337389,1.66895,2.77457,-0.310333,-1.6149
129,-0.153596,-0.337659,1.66895,2.77414,-0.319921,-1.61499
130,-0.153236,-0.337928,1.66896,2.77372,-0.3295,-1.61508
131,-0.152878,-0.338196,1.66897,2.7733,-0.339071,-1.61517
132,-0.152519,-0.338463,1.66897,2.77288,-0.348634,-1.61525
133,-0.152162,-0.33873,1.66897,2.77246,-0.358188,-1.61534
134,-0.151804,-0.338996,1.66898,2.77204,-0.367734,-1.61543
135,-0.151447,-0.339262,1.66898,2.77162,-0.377272,-1.61552
136,-0.151091,-0.339527,1.66897,2.7712,-0.386802,-1.61561
137,-0.150735,-0.339791,1.66897,2.77079,-0.396324,-1.61569
138,-0.150379,-0.340055,1.66897,2.77037,-0.405838,-1.61578
139,-0.150024,-0.340318,1.66896,2.76996,-0.415345,-1.61587
140,-0.149669,-0.340581,1.66896,2.76955,-0.424843,-1.61596
141,-0.149315,-0.340843,1.66895,2.76914,-0.434334,-1.61605
142,-0.148961,-0.341105,1.66894,2.76873,-0.443818,-1.61614
143,-0.148607,-0.341366,1.66893,2.76832,-0.453294,-1.61623
144,-0.148254,-0.341627,1.66892,2.76791,-0.462762,-1.61632
145,-0.147902,-0.341887,1.6689,2.7675,-0.472224,-1.61641
146,-0.147549,-0.342146,1.66889,2.7671,-0.481678,-1.6165
147,-0.147198,-0.342406,1.66887,2.76669,-0.491125,-1.61659
148,-0.146846,-0.342664,1.66886,2.76629,-0.500566,-1.61668
149,-0.146495,-0.342922,1.66884,2.76588,-0.509999,-1.61677
150,-0.146145,-0.34318,1.66882,2.76548,-0.519426,-1.61686
151,-0.145794,-0.343437,1.66879,2.76508,-0.528846,-1.61695
152,-0.145445,-0.343694,1.66877,2.76468,-0.53826,-1.61704
153,-0.145095,-0.34395,1.66875,2.76428,-0.547667,-1.61713
154,-0.144746,-0.344206,1.66872,2.76388,-0.557068,-1.61723
155,-0.144397,-0.344461,1.66869,2.76348,-0.566463,-1.61732
156,-0.144049,-0.344716,1.66867,2.76308,-0.575852,-1.61741
157,-0.143701,-0.344971,1.66864,2.76269,-0.585235,-1.61751
158,-0.143354,-0.345225,1.66861,2.76229,-0.594612,-1.6176
159,-0.143006,-0.345479,1.66857,2.7619,-0.603984,-1.6177
160,-0.14266,-0.345732,1.66854,2.7615,-0.61335,-1.6178
161,-0.142313,-0.345985,1.6685,2.76111,-0.62271,-1.61789
162,-0.141967,-0.346238,1.66847,2.76072,-0.632065,-1.61799
163,-0.141622,-0.34649,1.66843,2.76033,-0.641415,-1.61809
164,-0.141276,-0.346741,1.66839,2.75994,-0.65076,-1.61819
165,-0.140931,-0.346993,1.66835,2.75955,-0.6601,-1.61829
166,-0.140587,-0.347244,1.66831,2.75916,-0.669435,-1.61839
167,-0.140242,-0.347494,1.66826,2.75877,-0.678765,-1.61849
168,-0.139898,-0.347745,1.66822,2.75839,-0.688091,-1.61859
169,-0.139555,-0.347995,1.66817,2.758,-0.697413,-1.6187
170,-0.139211,-0.348244,1.66812,2.75762,-0.70673,-1.6188
171,-0.138868,-0.348493,1.66807,2.75724,-0.716043,-1.61891
172,-0.138526,-0.348742,1.66802,2.75685,-0.725352,-1.61902
173,-0.138184,-0.348991,1.66797,2.75647,-0.734657,-1.61912
174,-0.137842,-0.349239,1.66791,2.75609,-0.743959,-1.61923
175,-0.1375,-0.349487,1.66786,2.75571,-0.753256,-1.61934
176,-0.137159,-0.349734,1.6678,2.75533,-0.762551,-1.61946
177,-0.136818,-0.349982,1.66774,2.75496,-0.771842,-1.61957
178,-0.136477,-0.350229,1.66768,2.75458,-0.78113,-1.61968
179,-0.136137,-0.350475,1.66762,2.75421,-0.790414,-1.6198
180,-0.135797,-0.350722,1.66756,2.75383,-0.799696,-1.61992
181,-0.135458,-0.350968,1.66749,2.75346,-0.808975,-1.62004
182,-0.135118,-0.351214,1.66743,2.75309,-0.818252,-1.62016
183,-0.134779,-0.351459,1.66736,2.75272,-0.827526,-1.62028
184,-0.134441,-0.351705,1.66729,2.75235,-0.836798,-1.62041
185,-0.134102,-0.35195,1.66722,2.75199,-0.846067,-1.62054
186,-0.133764,-0.352194,1.66715,2.75162,-0.855335,-1.62067
187,-0.133427,-0.352439,1.66707,2.75126,-0.864601,-1.6208
188,-0.133089,-0.352683,1.667,2.75089,-0.873864,-1.62093
189,-0.132752,-0.352927,1.66692,2.75053,-0.883127,-1.62107
190,-0.132416,-0.353171,1.66684,2.75018,-0.892388,-1.62121
191,-0.132079,-0.353415,1.66676,2.74982,-0.901647,-1.62135
192,-0.131743,-0.353658,1.66668,2.74946,-0.910906,-1.62149
193,-0.131408,-0.353901,1.6666,2.74911,-0.920163,-1.62164
194,-0.131072,-0.354144,1.66651,2.74876,-0.92942,-1.62179
195,-0.130737,-0.354387,1.66643,2.74841,-0.938676,-1.62194
196,-0.130403,-0.35463,1.66634,2.74806,-0.947932,-1.6221
197,-0.130068,-0.354872,1.66625,2.74772,-0.957187,-1.62226
198,-0.129734,-0.355114,1.66616,2.74738,-0.966442,-1.62242
199,-0.129401,-0.355356,1.66607,2.74704,-0.975696,-1.62259
200,-0.129068,-0.355598,1.66597,2.7467,-0.984951,-1.62276
201,-0.126839,-0.354309,1.66663,2.74761,-0.985086,-1.61984
202,-0.124745,-0.353215,1.66726,2.74848,-0.985222,-1.61694
203,-0.122653,-0.352116,1.66788,2.74934,-0.985355,-1.61403
204,-0.120568,-0.351023,1.6685,2.75019,-0.985487,-1.6111
205,-0.118491,-0.349935,1.66912,2.75104,-0.985617,-1.60817
206,-0.116422,-0.348853,1.66973,2.75188,-0.985746,-1.60522
207,-0.114361,-0.347776,1.67034,2.75272,-0.985872,-1.60226
208,-0.112306,-0.346705,1.67094,2.75355,-0.985997,-1.59929
209,-0.11026,-0.34564,1.67154,2.75438,-0.986121,-1.59631
210,-0.108221,-0.344581,1.67213,2.7552,-0.986242,-1.59331
211,-0.10619,-0.343527,1.67272,2.75601,-0.986362,-1.59031
212,-0.104166,-0.34248,1.67331,2.75682,-0.98648,-1.58729
213,-0.10215,-0.341439,1.67389,2.75762,-0.986597,-1.58426
214,-0.100142,-0.340404,1.67447,2.75842,-0.986711,-1.58123
215,-0.0981415,-0.339375,1.67505,2.75922,-0.986824,-1.57818
216,-0.0961485,-0.338352,1.67562,2.76001,-0.986935,-1.57512
217,-0.0941632,-0.337336,1.67619,2.7608,-0.987044,-1.57205
218,-0.0921856,-0.336327,1.67675,2.76158,-0.987151,-1.56898
219,-0.0902156,-0.335324,1.67732,2.76236,-0.987256,-1.56589
220,-0.0882533,-0.334328,1.67787,2.76314,-0.987359,-1.5628
221,-0.0862986,-0.333339,1.67843,2.76391,-0.987461,-1.55969
222,-0.0843516,-0.332356,1.67898,2.76468,-0.98756,-1.55658
223,-0.0824123,-0.331381,1.67953,2.76545,-0.987658,-1.55346
224,-0.0804807,-0.330412,1.68008,2.76621,-0.987754,-1.55033
225,-0.0785567,-0.329451,1.68062,2.76698,-0.987847,-1.54719
226,-0.0766403,-0.328497,1.68116,2.76774,-0.987939,-1.54404
227,-0.0747316,-0.32755,1.6817,2.76849,-0.988028,-1.54089
228,-0.0728305,-0.326611,1.68223,2.76925,-0.988116,-1.53772
229,-0.0709371,-0.325679,1.68276,2.77,-0.988202,-1.53455
230,-0.0690512,-0.324755,1.68329,2.77076,-0.988285,-1.53138
231,-0.067173,-0.323838,1.68382,2.77151,-0.988367,-1.52819
232,-0.0653023,-0.322929,1.68434,2.77226,-0.988447,-1.525
233,-0.0634392,-0.322028,1.68486,2.77301,-0.988524,-1.52181
234,-0.0615837,-0.321135,1.68538,2.77375,-0.9886,-1.5186
235,-0.0597357,-0.32025,1.6859,2.7745,-0.988673,-1.51539
236,-0.0578952,-0.319373,1.68642,2.77525,-0.988744,-1.51218
237,-0.0560622,-0.318504,1.68693,2.77599,-0.988814,-1.50895
238,-0.0542367,-0.317644,1.68744,2.77674,-0.988881,-1.50573
239,-0.0524187,-0.316791,1.68795,2.77748,-0.988946,-1.50249
240,-0.0506081,-0.315947,1.68845,2.77823,-0.989009,-1.49925
241,-0.0488049,-0.315112,1.68896,2.77897,-0.98907,-1.49601
242,-0.0470091,-0.314285,1.68946,2.77972,-0.989129,-1.49276
243,-0.0452206,-0.313467,1.68996,2.78047,-0.989185,-1.48951
244,-0.0434395,-0.312658,1.69046,2.78121,-0.98924,-1.48625
245,-0.0416657,-0.311857,1.69096,2.78196,-0.989292,-1.48299
246,-0.0398991,-0.311066,1.69145,2.78271,-0.989343,-1.47972
247,-0.0381398,-0.310283,1.69195,2.78346,-0.989391,-1.47645
248,-0.0363877,-0.30951,1.69244,2.78421,-0.989437,-1.47317
249,-0.0346428,-0.308746,1.69293,2.78496,-0.989481,-1.46989
250,-0.032905,-0.30799,1.69342,2.78572,-0.989523,-1.46661
251,-0.0311743,-0.307245,1.69391,2.78647,-0.989563,-1.46332
252,-0.0294507,-0.306508,1.6944,2.78723,-0.9896,-1.46003
253,-0.0277341,-0.305782,1.69489,2.78799,-0.989636,-1.45673
254,-0.0260244,-0.305064,1.69537,2.78875,-0.989669,-1.45344
255,-0.0243218,-0.304357,1.69586,2.78951,-0.989701,-1.45014
256,-0.022626,-0.303659,1.69634,2.79028,-0.98973,-1.44683
257,-0.020937,-0.302971,1.69683,2.79105,-0.989757,-1.44353
258,-0.0192549,-0.302292,1.69731,2.79182,-0.989782,-1.44022
259,-0.0175796,-0.301624,1.69779,2.79259,-0.989804,-1.43691
260,-0.015911,-0.300966,1.69827,2.79336,-0.989825,-1.4336
261,-0.014249,-0.300317,1.69875,2.79414,-0.989844,-1.43028
262,-0.0125937,-0.29968,1.69923,2.79492,-0.98986,-1.42696
263,-0.0109449,-0.299052,1.69971,2.79571,-0.989874,-1.42364
264,-0.00930265,-0.298434,1.70019,2.7965,-0.989887,-1.42032
265,-0.00766687,-0.297827,1.70067,2.79729,-0.989897,-1.417
266,-0.00603751,-0.297231,1.70114,2.79808,-0.989905,-1.41368
267,-0.00441451,-0.296645,1.70162,2.79888,-0.989911,-1.41035
268,-0.00279781,-0.29607,1.7021,2.79968,-0.989914,-1.40702
269,-0.00118736,-0.295505,1.70258,2.80049,-0.989916,-1.4037
270,0.000416901,-0.294951,1.70305,2.80129,-0.989916,-1.40037
271,0.00201503,-0.294408,1.70353,2.80211,-0.989913,-1.39704
272,0.00360709,-0.293876,1.70401,2.80292,-0.989909,-1.3937
273,0.00519313,-0.293355,1.70448,2.80374,-0.989902,-1.39037
274,0.00677323,-0.292844,1.70496,2.80457,-0.989893,-1.38704
275,0.00834744,-0.292345,1.70544,2.8054,-0.989883,-1.38371
276,0.00991582,-0.291858,1.70591,2.80623,-0.98987,-1.38037
277,0.0114784,-0.291381,1.70639,2.80707,-0.989855,-1.37704
278,0.0130354,-0.290916,1.70687,2.80791,-0.989838,-1.3737
279,0.0145867,-0.290462,1.70735,2.80876,-0.989819,-1.37037
280,0.0161324,-0.290019,1.70783,2.80961,-0.989798,-1.36704
281,0.0176727,-0.289588,1.70831,2.81046,-0.989775,-1.3637
282,0.0192075,-0.289169,1.70879,2.81132,-0.989749,-1.36037
283,0.0207369,-0.288761,1.70927,2.81219,-0.989722,-1.35703
284,0.0222611,-0.288365,1.70975,2.81305,-0.989693,-1.3537
285,0.0237801,-0.287981,1.71023,2.81393,-0.989662,-1.35036
286,0.0252939,-0.287609,1.71071,2.81481,-0.989628,-1.34703
287,0.0268026,-0.287248,1.71119,2.81569,-0.989593,-1.3437
288,0.0283064,-0.286899,1.71168,2.81658,-0.989556,-1.34036
289,0.0298052,-0.286563,1.71216,2.81747,-0.989516,-1.33703
290,0.0312992,-0.286238,1.71265,2.81837,-0.989475,-1.3337
291,0.0327884,-0.285926,1.71313,2.81928,-0.989431,-1.33037
292,0.0342728,-0.285626,1.71362,2.82019,-0.989386,-1.32704
293,0.0357527,-0.285338,1.71411,2.8211,-0.989338,-1.32371
294,0.037228,-0.285062,1.7146,2.82202,-0.989289,-1.32038
295,0.0386989,-0.284799,1.71509,2.82295,-0.989238,-1.31705
296,0.0401654,-0.284548,1.71558,2.82388,-0.989184,-1.31372
297,0.0416275,-0.28431,1.71607,2.82481,-0.989129,-1.31039
298,0.0430854,-0.284084,1.71656,2.82575,-0.989071,-1.30707
299,0.0445392,-0.28387,1.71706,2.8267,-0.989012,-1.30374
300,0.0459889,-0.28367,1.71755,2.82765,-0.98895,-1.30042
301,0.0460113,-0.283612,1.71753,2.82745,-0.989281,-1.30031
302,0.0460108,-0.283614,1.71753,2.82744,-0.989282,-1.30031
303,0.0460108,-0.283614,1.71753,2.82744,-0.989282,-1.30031
304,0.0460108,-0.283614,1.71753,2.82744,-0.989282,-1.30031
305,0.0460108,-0.283614,1.71753,2.82744,-0.989282,-1.30031
306,0.0460108,-0.283614,1.71753,2.82744,-0.989282,-1.30031
307,0.0460108,-0.283614,1.71753,2.82744,-0.989282,-1.30031
308,0.0460108,-0.283614,1.71753,2.82744,-0.989282,-1.30031
309,0.0460108,-0.283614,1.71753,2.82744,-0.989282,-1.30031
310,0.0460108,-0.283614,1.71753,2.82744,-0.989282,-1.30031
311,0.0460108,-0.283614,1.71753,2.82744,-0.989282,-1.30031
312,0.0460108,-0.283614,1.71753,2.82744,-0.989282,-1.30031
313,0.0460108,-0.283614,1.71753,2.82744,-0.989282,-1.30031
314,0.0460108,-0.283614,1.71753,2.82744,-0.989282,-1.30031
315,0.0460108,-0.283614,1.71753,2.82744,-0.989282,-1.30031
316,0.0460108,-0.283614,1.71753,2.82744,-0.989282,-1.30031
317,0.0460108,-0.283614,1.71753,2.82744,-0.989282,-1.30031
318,0.0460108,-0.283614,1.71753,2.82744,-0.989282,-1.30031
319,0.0460108,-0.283614,1.71753,2.82744,-0.989282,-1.30031
320,0.0460108,-0.283614,1.71753,2.82744,-0.989282,-1.30031
321,0.0460108,-0.283614,1.71753,2.82744,-0.989282,-1.30031
322,0.0460108,-0.283614,1.71753,2.82744,-0.989282,-1.30031
323,0.0460108,-0.283614,1.71753,2.82744,-0.989282,-1.30031
324,0.0460108,-0.283614,1.71753,2.82744,-0.989282,-1.30031
325,0.0460108,-0.283614,1.71753,2.82744,-0.989282,-1.30031
326,0.0460108,-0.283614,1.71753,2.82744,-0.989282,-1.30031
327,0.0460108,-0.283614,1.71753,2.82744,-0.989282,-1.30031
328,0.0460108,-0.283614,1.71753,2.82744,-0.989282,-1.30031
329,0.0460108,-0.283614,1.71753,2.82744,-0.989282,-1.30031
330,0.0460108,-0.283614,1.71753,2.82744,-0.989282,-1.30031
331,0.0460108,-0.283614,1.71753,2.82744,-0.989282,-1.30031
332,0.0460108,-0.283614,1.71753,2.82744,-0.989282,-1.30031
333,0.0460108,-0.283614,1.71753,2.82744,-0.989282,-1.30031
334,0.0460108,-0.283614,1.71753,2.82744,-0.989282,-1.30031
335,0.0460108,-0.283614,1.71753,2.82744,-0.989282,-1.30031
336,0.0460108,-0.283614,1.71753,2.82744,-0.989282,-1.30031
337,0.0460108,-0.283614,1.71753,2.82744,-0.989282,-1.30031
338,0.0460108,-0.283614,1.71753,2.82744,-0.989282,-1.30031
339,0.0460108,-0.283614,1.71753,2.82744,-0.989282,-1.30031
340,0.0460108,-0.283614,1.71753,2.82744,-0.989282,-1.30031
341,0.0460108,-0.283614,1.71753,2.82744,-0.989282,-1.30031
342,0.0460108,-0.283614,1.71753,2.82744,-0.989282,-1.30031
343,0.0460108,-0.283614,1.71753,2.82744,-0.989282,-1.30031
344,0.0460108,-0.283614,1.71753,2.82744,-0.989282,-1.30031
345,0.0460108,-0.283614,1.71753,2.82744,-0.989282,-1.30031
346,0.0460108,-0.283614,1.71753,2.82744,-0.989282,-1.30031
347,0.0460108,-0.283614,1.71753,2.82744,-0.989282,-1.30031
348,0.0460108,-0.283614,1.71753,2.82744,-0.989282,-1.30031
349,0.0460108,-0.283614,1.71753,2.82744,-0.989282,-1.30031
350,0.0460108,-0.283614,1.71753,2.82744,-0.989282,-1.30031
351,0.0460108,-0.283614,1.71753,2.82744,-0.989282,-1.30031
352,0.0460108,-0.283614,1.71753,2.82744,-0.989282,-1.30031
353,0.0460108,-0.283614,1.71753,2.82744,-0.989282,-1.30031
354,0.0460108,-0.283614,1.71753,2.82744,-0.989282,-1.30031
355,0.0460108,-0.283614,1.71753,2.82744,-0.989282,-1.30031
356,0.0460108,-0.283614,1.71753,2.82744,-0.989282,-1.30031
357,0.0460108,-0.283614,1.71753,2.82744,-0.989282,-1.30031
358,0.0460108,-0.283614,1.71753,2.82744,-0.989282,-1.30031
359,0.0460108,-0.283614,1.71753,2.82744,-0.989282,-1.30031
360,0.0460108,-0.283614,1.71753,2.82744,-0.989282,-1.30031
361,0.0460108,-0.283614,1.71753,2.82744,-0.989282,-1.30031
362,0.0460108,-0.283614,1.71753,2.82744,-0.989282,-1.30031
363,0.0460108,-0.283614,1.71753,2.82744,-0.989282,-1.30031
364,0.0460108,-0.283614,1.71753,2.82744,-0.989282,-1.30031
365,0.0460108,-0.283614,1.71753,2.82744,-0.989282,-1.30031
366,0.0460108,-0.283614,1.71753,2.82744,-0.989282,-1.30031
367,0.0460108,-0.283614,1.71753,2.82744,-0.989282,-1.30031
368,0.0460108,-0.283614,1.71753,2.82744,-0.989282,-1.30031
369,0.0460108,-0.283614,1.71753,2.82744,-0.989282,-1.30031
370,0.0460108,-0.283614,1.71753,2.82744,-0.989282,-1.30031
371,0.0460108,-0.283614,1.71753,2.82744,-0.989282,-1.30031
372,0.0460108,-0.283614,1.71753,2.82744,-0.989282,-1.30031
373,0.0460108,-0.283614,1.71753,2.82744,-0.989282,-1.30031
374,0.0460108,-0.283614,1.71753,2.82744,-0.989282,-1.30031
375,0.0460108,-0.283614,1.71753,2.82744,-0.989282,-1.30031
376,0.0460108,-0.283614,1.71753,2.82744,-0.989282,-1.30031
377,0.0460108,-0.283614,1.71753,2.82744,-0.989282,-1.30031
378,0.0460108,-0.283614,1.71753,2.82744,-0.989282,-1.30031
379,0.0460108,-0.283614,1.71753,2.82744,-0.989282,-1.30031
380,0.0460108,-0.283614,1.71753,2.82744,-0.989282,-1.30031
381,0.0460108,-0.283614,1.71753,2.82744,-0.989282,-1.30031
382,0.0460108,-0.283614,1.71753,2.82744,-0.989282,-1.30031
383,0.0460108,-0.283614,1.71753,2.82744,-0.989282,-1.30031
384,0.0460108,-0.283614,1.71753,2.82744,-0.989282,-1.30031
385,0.0460108,-0.283614,1.71753,2.82744,-0.989282,-1.30031
386,0.0460108,-0.283614,1.71753,2.82744,-0.989282,-1.30031
387,0.0460108,-0.283614,1.71753,2.82744,-0.989282,-1.30031
388,0.0460108,-0.283614,1.71753,2.82744,-0.989282,-1.30031
389,0.0460108,-0.283614,1.71753,2.82744,-0.989282,-1.30031
390,0.0460108,-0.283614,1.71753,2.82744,-0.989282,-1.30031
391,0.0460108,-0.283614,1.71753,2.82744,-0.989282,-1.30031
392,0.0460108,-0.283614,1.71753,2.82744,-0.989282,-1.30031
393,0.0460108,-0.283614,1.71753,2.82744,-0.989282,-1.30031
394,0.0460108,-0.283614,1.71753,2.82744,-0.989282,-1.30031
395,0.0460108,-0.283614,1.71753,2.82744,-0.989282,-1.30031
396,0.0460108,-0.283614,1.71753,2.82744,-0.989282,-1.30031
397,0.0460108,-0.283614,1.71753,2.82744,-0.989282,-1.30031
398,0.0460108,-0.283614,1.71753,2.82744,-0.989282,-1.30031
399,0.0460108,-0.283614,1.71753,2.82744,-0.989282,-1.30031
400,0.0460108,-0.283614,1.71753,2.82744,-0.989282,-1.30031
401,0.04489,-0.284208,1.71747,2.81786,-0.99878,-1.296
402,0.0437499,-0.284829,1.71744,2.80825,-1.00799,-1.29156
403,0.0426044,-0.285455,1.71741,2.79851,-1.01716,-1.28699
404,0.0414522,-0.286089,1.71738,2.78862,-1.02631,-1.28225
405,0.0402932,-0.286733,1.71736,2.77857,-1.03543,-1.27735
406,0.0391273,-0.287385,1.71733,2.76837,-1.04451,-1.27229
407,0.0379544,-0.288046,1.7173,2.758,-1.05356,-1.26704
408,0.0367744,-0.288716,1.71728,2.74744,-1.06258,-1.26161
409,0.0355871,-0.289394,1.71726,2.73671,-1.07156,-1.25598
410,0.0343926,-0.290081,1.71724,2.72578,-1.08051,-1.25014
411,0.0331907,-0.290776,1.71722,2.71464,-1.08941,-1.2441
412,0.0319812,-0.291481,1.7172,2.70329,-1.09829,-1.23782
413,0.0307641,-0.292193,1.71718,2.69171,-1.10712,-1.23131
414,0.0295393,-0.292915,1.71716,2.67989,-1.11591,-1.22455
415,0.0283067,-0.293645,1.71715,2.66782,-1.12466,-1.21753
416,0.0270661,-0.294383,1.71713,2.65548,-1.13337,-1.21023
417,0.0258176,-0.295129,1.71712,2.64287,-1.14203,-1.20264
418,0.024561,-0.295885,1.71711,2.62995,-1.15065,-1.19474
419,0.0232962,-0.296648,1.7171,2.61673,-1.15922,-1.18652
420,0.0220231,-0.29742,1.71709,2.60317,-1.16774,-1.17796
421,0.0207417,-0.2982,1.71709,2.58926,-1.17622,-1.16903
422,0.0194518,-0.298988,1.71708,2.57498,-1.18463,-1.15972
423,0.0181534,-0.299785,1.71708,2.56031,-1.193,-1.15001
424,0.0168463,-0.300589,1.71708,2.54522,-1.20131,-1.13987
425,0.0155306,-0.301402,1.71708,2.52969,-1.20956,-1.12928
426,0.0142061,-0.302223,1.71708,2.51368,-1.21774,-1.1182
427,0.0128727,-0.303052,1.71708,2.49718,-1.22587,-1.10661
428,0.0115305,-0.303889,1.71708,2.48014,-1.23392,-1.09448
429,0.0101792,-0.304733,1.71709,2.46254,-1.24191,-1.08177
430,0.0088188,-0.305586,1.71709,2.44434,-1.24982,-1.06845
431,0.00744928,-0.306447,1.7171,2.42549,-1.25765,-1.05447
432,0.00607054,-0.307315,1.71711,2.40596,-1.2654,-1.0398
433,0.00468252,-0.308191,1.71712,2.3857,-1.27307,-1.02439
434,0.00328515,-0.309075,1.71714,2.36465,-1.28064,-1.00818
435,0.00187836,-0.309966,1.71715,2.34278,-1.28811,-0.991139
436,0.000462094,-0.310865,1.71716,2.32003,-1.29549,-0.973197
437,-0.000963712,-0.311771,1.71718,2.29633,-1.30275,-0.954299
438,-0.00239912,-0.312685,1.7172,2.27162,-1.30989,-0.934382
439,-0.00384417,-0.313606,1.71722,2.24584,-1.31691,-0.91338
440,-0.00529895,-0.314535,1.71724,2.21891,-1.3238,-0.891223
441,-0.00676348,-0.31547,1.71726,2.19077,-1.33054,-0.867838
442,-0.00823784,-0.316413,1.71728,2.16134,-1.33713,-0.84315
443,-0.00972206,-0.317363,1.71731,2.13053,-1.34356,-0.81708
444,-0.0112162,-0.31832,1.71733,2.09828,-1.34981,-0.789548
445,-0.0127203,-0.319285,1.71736,2.06449,-1.35587,-0.760476
446,-0.0142345,-0.320256,1.71739,2.0291,-1.36172,-0.729784
447,-0.0157586,-0.321234,1.71742,1.99203,-1.36735,-0.697398
448,-0.0172929,-0.322218,1.71745,1.9532,-1.37275,-0.663249
449,-0.0188374,-0.32321,1.71748,1.91256,-1.37789,-0.627275
450,-0.020392,-0.324208,1.71751,1.87006,-1.38276,-0.58943
451,-0.0219569,-0.325212,1.71755,1.82566,-1.38734,-0.549681
452,-0.023532,-0.326223,1.71758,1.77936,-1.3916,-0.508018
453,-0.0251175,-0.327241,1.71762,1.73118,-1.39553,-0.464455
454,-0.0267132,-0.328265,1.71765,1.68115,-1.3991,-0.419037
455,-0.0283194,-0.329295,1.71769,1.62935,-1.4023,-0.371844
456,-0.029936,-0.330332,1.71773,1.57591,-1.4051,-0.322993
457,-0.031563,-0.331374,1.71777,1.52098,-1.40748,-0.272642
458,-0.0332006,-0.332423,1.71781,1.46475,-1.40944,-0.220986
459,-0.0348486,-0.333478,1.71785,1.40747,-1.41095,-0.168262
460,-0.0365072,-0.334538,1.71789,1.34939,-1.412,-0.114737
461,-0.0381764,-0.335605,1.71793,1.29082,-1.41258,-0.0607073
462,-0.0398562,-0.336677,1.71798,1.23207,-1.4127,-0.00648399
463,-0.0415466,-0.337755,1.71802,1.17345,-1.41235,0.0476138
464,-0.0432477,-0.338839,1.71806,1.11528,-1.41154,0.101272
465,-0.0449595,-0.339928,1.71811,1.05786,-1.41027,0.154191
466,-0.046682,-0.341023,1.71815,1.00147,-1.40856,0.206095
467,-0.0484153,-0.342123,1.7182,0.946336,-1.40641,0.256744
468,-0.0501594,-0.343229,1.71825,0.892677,-1.40386,0.305931
469,-0.0519143,-0.34434,1.71829,0.840655,-1.40091,0.35349
470,-0.0536801,-0.345456,1.71834,0.790395,-1.39758,0.399296
471,-0.0554567,-0.346577,1.71838,0.741985,-1.39391,0.443262
472,-0.0572442,-0.347704,1.71843,0.695475,-1.3899,0.485336
473,-0.0590426,-0.348835,1.71848,0.650887,-1.38559,0.525497
474,-0.060852,-0.349971,1.71852,0.608215,-1.38099,0.563751
475,-0.0626724,-0.351113,1.71857,0.56743,-1.37612,0.600126
476,-0.0645037,-0.352259,1.71862,0.528489,-1.37101,0.634667
477,-0.0663461,-0.35341,1.71867,0.491332,-1.36566,0.66743
478,-0.0681996,-0.354565,1.71871,0.455892,-1.3601,0.698485
479,-0.0700641,-0.355725,1.71876,0.422095,-1.35435,0.727906
480,-0.0719397,-0.35689,1.7188,0.389863,-1.34841,0.755768
481,-0.0738265,-0.35806,1.71885,0.359116,-1.3423,0.782154
482,-0.0757244,-0.359233,1.7189,0.329774,-1.33604,0.807141
483,-0.0776335,-0.360411,1.71894,0.30176,-1.32963,0.830809
484,-0.0795539,-0.361594,1.71899,0.274996,-1.32309,0.853233
485,-0.0814854,-0.36278,1.71903,0.249409,-1.31643,0.874488
486,-0.0834282,-0.363971,1.71907,0.224928,-1.30965,0.894644
487,-0.0853823,-0.365166,1.71912,0.201485,-1.30276,0.913768
488,-0.0873477,-0.366365,1.71916,0.179018,-1.29577,0.931923
489,-0.0893245,-0.367568,1.7192,0.157467,-1.28868,0.949169
490,-0.0913126,-0.368775,1.71924,0.136774,-1.28151,0.965562
491,-0.0933121,-0.369986,1.71928,0.116888,-1.27425,0.981154
492,-0.0953229,-0.3712,1.71932,0.0977596,-1.26692,0.995996
493,-0.0973453,-0.372418,1.71936,0.0793418,-1.25951,1.01013
494,-0.099379,-0.37364,1.7194,0.061592,-1.25203,1.02361
495,-0.101424,-0.374866,1.71943,0.0444701,-1.24448,1.03646
496,-0.103481,-0.376095,1.71947,0.0279387,-1.23687,1.04872
497,-0.105549,-0.377327,1.7195,0.011963,-1.2292,1.06044
498,-0.107629,-0.378563,1.71953,-0.0034895,-1.22147,1.07163
499,-0.10972,-0.379802,1.71956,-0.0184489,-1.21368,1.08234
