Time,dq0,dq1,dq2,dq3,dq4,dq5,dq6
0,-0.033375,-0.00686065,-0.0011813,0.0535385,-0.0118887,-0.0118873,0.00939611
1,-0.0175606,0.0074803,-0.0186664,-0.00284751,-0.00994385,-0.00467493,-0.00519106
2,-0.0171227,0.0127236,-0.0189391,-0.00497557,-0.00981196,-0.00804511,-0.00535853
3,-0.0167156,0.0160905,-0.0191671,-0.00653849,-0.0095665,-0.0102113,-0.00535518
4,-0.0162647,0.0193747,-0.0194222,-0.00813389,-0.00924176,-0.0122858,-0.00527875
5,-0.0157706,0.0225777,-0.0196915,-0.00977619,-0.00881583,-0.0142685,-0.00510789
6,-0.01525,0.0256995,-0.0199683,-0.0114699,-0.0082862,-0.0161526,-0.0048381
7,-0.0147219,0.0287405,-0.0202459,-0.0132183,-0.00764965,-0.0179339,-0.00446436
8,-0.0142075,0.0317048,-0.0205171,-0.0150239,-0.00690281,-0.0196107,-0.00398178
9,-0.0137303,0.0345999,-0.0207743,-0.0168891,-0.00604208,-0.0211842,-0.0033855
10,-0.00695799,-0.00465615,0.0108778,0.00133344,-0.0408165,0.00481143,-0.0411267
11,-0.00635457,0.00203469,0.0133653,-0.00119759,-0.0462961,0.00131112,-0.0469053
12,-0.00629532,0.00369532,0.0128914,-0.00155031,-0.0457683,0.000436842,-0.0463311
13,-0.00623921,0.00346219,0.0126819,-0.00123046,-0.0453309,0.000540468,-0.0458653
14,-0.00617353,0.00325931,0.0125485,-0.000905522,-0.0450101,0.000641899,-0.0455265
15,-0.00611736,0.00310783,0.0124256,-0.000596282,-0.0447285,0.000721041,-0.0452292
16,-0.00607136,0.00296992,0.0123184,-0.000286702,-0.0444935,0.000798358,-0.0449811
17,-0.00603691,0.00284358,0.0122287,2.73346e-05,-0.0443142,0.000877079,-0.0447913
18,-0.00601582,0.00272941,0.0121558,0.000347991,-0.0441964,0.000958441,-0.0446656
19,-0.00600991,0.0026284,0.0120983,0.00067664,-0.0441447,0.00104313,-0.0446084
20,0.0136438,-0.0280947,0.0199523,0.00921612,-0.000730998,0.0050204,-0.00385499
21,0.0159632,-0.0299467,0.0208229,0.00932753,0.0041946,0.00471198,0.000693658
22,0.0160082,-0.0262106,0.0202978,0.00665638,0.00466201,0.00263367,0.00129617
23,0.0160456,-0.0225687,0.0198575,0.00433038,0.00489134,0.00073156,0.00165829
24,0.0160312,-0.0188041,0.0193836,0.00199966,0.00502269,-0.00122772,0.00195453
25,0.0159467,-0.0149549,0.0188956,-0.000328147,0.00504827,-0.00321896,0.00217207
26,0.0157837,-0.0110382,0.0184096,-0.00265683,0.00497745,-0.00522609,0.00231463
27,0.0155377,-0.00707145,0.0179408,-0.00499257,0.00481949,-0.00723272,0.00238553
28,0.0152083,-0.00307154,0.0175042,-0.0073433,0.0045827,-0.00922261,0.002387
29,0.0147986,0.000946531,0.0171142,-0.00971872,0.00427395,-0.0111806,0.00231994
30,0.00120577,-0.00314871,0.00259144,0.00107156,-0.00119971,0.000728002,-0.00152758
31,-4.2525e-05,-9.94788e-05,7.04674e-05,8.95416e-05,-0.000181275,7.30625e-05,-0.000189326
32,-9.76851e-07,6.14519e-06,-6.65801e-07,-3.59351e-06,-1.59009e-06,-3.40851e-06,-1.3618e-06
33,1.50307e-08,-8.18859e-08,7.12172e-09,4.74493e-08,2.7962e-08,4.51792e-08,2.50006e-08
34,-1.90499e-10,1.03353e-09,-8.89605e-11,-5.98907e-10,-3.55963e-10,-5.7031e-10,-3.18629e-10
35,2.39919e-12,-1.30566e-11,1.12978e-12,7.56876e-12,4.47293e-12,7.20648e-12,4.00097e-12
36,-3.05384e-14,1.67932e-13,-1.47125e-14,-9.73385e-14,-5.65877e-14,-9.2691e-14,-5.05187e-14
37,6.90783e-16,-5.70566e-15,8.12582e-16,3.21241e-15,7.15439e-16,3.07543e-15,5.04693e-16
38,-1.64355e-16,1.59018e-15,-2.87066e-16,-9.1609e-16,-5.28125e-17,-8.63944e-16,1.1443e-17
39,1.6006e-16,-1.8552e-15,2.97584e-16,1.10303e-15,5.56838e-17,1.04128e-15,-1.59623e-17
40,-0.0248113,0.00616921,-0.00307278,-2.78361e-05,-0.0476115,0.00313789,-0.0461453
41,-0.0275726,0.0136911,-0.00539324,-0.00569996,-0.0516616,-0.000936305,-0.0497029
42,-0.0271161,0.0171266,-0.00641079,-0.00829876,-0.0505349,-0.00269612,-0.0484543
43,-0.026675,0.020094,-0.00730782,-0.0102868,-0.0496422,-0.00387125,-0.0474841
44,-0.0262518,0.0231821,-0.00824983,-0.0125213,-0.0488783,-0.00506696,-0.0466259
45,-0.025814,0.0262317,-0.0091553,-0.0148959,-0.0482474,-0.00618808,-0.0458961
46,-0.0253762,0.029225,-0.010004,-0.017389,-0.047797,-0.00721349,-0.0453445
47,-0.0249463,0.0321562,-0.0107914,-0.0199959,-0.0475561,-0.00813807,-0.0450013
48,-0.024527,0.0350252,-0.0115227,-0.0227176,-0.0475442,-0.00896362,-0.0448862
