Time,q0,q1,q2,q3,q4,q5,q6
0,0,-0.65,0,1.8,0,0.42,0
1,-0.033375,-0.656861,-0.0011813,1.85354,-0.0118887,0.408113,0.00939611
2,-0.0509356,-0.64938,-0.0198477,1.85069,-0.0218326,0.403438,0.00420505
3,-0.0680583,-0.636657,-0.0387867,1.84572,-0.0316446,0.395393,-0.00115348
4,-0.0847739,-0.620566,-0.0579539,1.83918,-0.0412111,0.385181,-0.00650867
5,-0.101039,-0.601192,-0.0773761,1.83104,-0.0504528,0.372895,-0.0117874
6,-0.116809,-0.578614,-0.0970676,1.82127,-0.0592686,0.358627,-0.0168953
7,-0.132059,-0.552914,-0.117036,1.8098,-0.0675548,0.342474,-0.0217334
8,-0.146781,-0.524174,-0.137282,1.79658,-0.0752045,0.324541,-0.0261978
9,-0.160989,-0.492469,-0.157799,1.78155,-0.0821073,0.30493,-0.0301795
10,-0.174719,-0.457869,-0.178573,1.76467,-0.0881494,0.283746,-0.033565
11,-0.181677,-0.462525,-0.167695,1.766,-0.128966,0.288557,-0.0746917
12,-0.188031,-0.460491,-0.15433,1.7648,-0.175262,0.289868,-0.121597
13,-0.194327,-0.456795,-0.141439,1.76325,-0.22103,0.290305,-0.167928
14,-0.200566,-0.453333,-0.128757,1.76202,-0.266361,0.290846,-0.213793
15,-0.20674,-0.450074,-0.116208,1.76112,-0.311371,0.291487,-0.25932
16,-0.212857,-0.446966,-0.103783,1.76052,-0.3561,0.292208,-0.304549
17,-0.218928,-0.443996,-0.0914642,1.76023,-0.400593,0.293007,-0.34953
18,-0.224965,-0.441153,-0.0792356,1.76026,-0.444907,0.293884,-0.394321
19,-0.230981,-0.438423,-0.0670798,1.76061,-0.489104,0.294842,-0.438987
20,-0.236991,-0.435795,-0.0549815,1.76128,-0.533248,0.295885,-0.483595
21,-0.223347,-0.463889,-0.0350292,1.7705,-0.533979,0.300906,-0.48745
22,-0.207384,-0.493836,-0.0142063,1.77983,-0.529785,0.305618,-0.486757
23,-0.191376,-0.520047,0.00609152,1.78648,-0.525123,0.308252,-0.485461
24,-0.17533,-0.542615,0.025949,1.79081,-0.520232,0.308983,-0.483802
25,-0.159299,-0.56142,0.0453326,1.79281,-0.515209,0.307755,-0.481848
26,-0.143352,-0.576375,0.0642282,1.79249,-0.510161,0.304536,-0.479676
27,-0.127568,-0.587413,0.0826377,1.78983,-0.505183,0.29931,-0.477361
28,-0.112031,-0.594484,0.100579,1.78484,-0.500364,0.292078,-0.474976
29,-0.0968224,-0.597556,0.118083,1.77749,-0.495781,0.282855,-0.472589
30,-0.0820239,-0.596609,0.135197,1.76777,-0.491507,0.271674,-0.470269
31,-0.0808181,-0.599758,0.137788,1.76885,-0.492707,0.272402,-0.471796
32,-0.0808606,-0.599857,0.137859,1.76894,-0.492888,0.272475,-0.471986
33,-0.0808616,-0.599851,0.137858,1.76893,-0.49289,0.272472,-0.471987
34,-0.0808616,-0.599851,0.137858,1.76893,-0.49289,0.272472,-0.471987
35,-0.0808616,-0.599851,0.137858,1.76893,-0.49289,0.272472,-0.471987
36,-0.0808616,-0.599851,0.137858,1.76893,-0.49289,0.272472,-0.471987
37,-0.0808616,-0.599851,0.137858,1.76893,-0.49289,0.272472,-0.471987
38,-0.0808616,-0.599851,0.137858,1.76893,-0.49289,0.272472,-0.471987
39,-0.0808616,-0.599851,0.137858,1.76893,-0.49289,0.272472,-0.471987
40,-0.0808616,-0.599851,0.137858,1.76893,-0.49289,0.272472,-0.471987
41,-0.105673,-0.593682,0.134785,1.7689,-0.540501,0.27561,-0.518132
42,-0.133245,-0.579991,0.129392,1.7632,-0.592163,0.274674,-0.567835
43,-0.160362,-0.562864,0.122981,1.75491,-0.642698,0.271978,-0.616289
44,-0.187036,-0.542771,0.115674,1.74462,-0.69234,0.268106,-0.663773
45,-0.213288,-0.519588,0.107424,1.7321,-0.741218,0.263039,-0.710399
46,-0.239102,-0.493357,0.0982684,1.7172,-0.789466,0.256851,-0.756295
47,-0.264478,-0.464132,0.0882643,1.69981,-0.837263,0.249638,-0.80164
48,-0.289425,-0.431976,0.0774729,1.67982,-0.884819,0.2415,-0.846641
