Time,JointVelocitiesNormalized
0.5,0.5,0.5,0.5,0.5,0.5,0.5
0.398467,0.581638,0.440875,0.538971,0.483174,0.511739,0.494444
0.445358,0.507288,0.470329,0.495692,0.490979,0.493924,0.497243
0.447043,0.547864,0.469595,0.488065,0.489244,0.474222,0.495456
0.449784,0.56627,0.467688,0.482587,0.491181,0.463899,0.496625
0.451454,0.56636,0.466816,0.481688,0.493188,0.463905,0.497984
0.454449,0.58489,0.464804,0.475953,0.495478,0.453954,0.499408
0.455238,0.595036,0.465946,0.472805,0.493573,0.449947,0.497659
0.456299,0.585712,0.464901,0.47322,0.49716,0.454034,0.500248
0.459976,0.619011,0.463326,0.463539,0.49812,0.438242,0.500552
0.477853,0.489204,0.521113,0.503071,0.449834,0.509851,0.462049
0.482047,0.536123,0.518935,0.48992,0.451183,0.487719,0.462959
0.481197,0.536418,0.51779,0.490059,0.450909,0.487617,0.462852
0.48052,0.542191,0.518202,0.488444,0.447669,0.485144,0.460448
0.5,0.5,0.5,0.5,0.5,0.5,0.5
0.462815,0.504417,0.538504,0.50326,0.401068,0.505949,0.425102
0.479582,0.566383,0.514718,0.481923,0.44757,0.475476,0.460659
0.48152,0.512224,0.517259,0.499249,0.44987,0.498114,0.462155
0.481657,0.504645,0.518822,0.50339,0.447824,0.501941,0.460514
0.483,0.49351,0.518872,0.507737,0.450326,0.506261,0.462311
0.5,0.5,0.5,0.5,0.5,0.5,0.5
0.553308,0.373166,0.530649,0.536384,0.50814,0.522926,0.502233
0.559412,0.372359,0.534218,0.53336,0.508043,0.519849,0.501794
0.574054,0.371154,0.543053,0.527111,0.508497,0.51294,0.501579
0.586051,0.369511,0.551088,0.522157,0.509307,0.50887,0.501872
0.5,0.5,0.5,0.5,0.5,0.5,0.5
0.608772,0.384059,0.562389,0.509211,0.511085,0.491317,0.502376
0.552127,0.460806,0.535695,0.496043,0.500205,0.487915,0.497601
0.549518,0.47976,0.529701,0.490553,0.504265,0.483,0.501156
0.549993,0.475431,0.529606,0.491719,0.504816,0.484504,0.501579
0.499826,0.523423,0.50261,0.490577,0.496286,0.488014,0.497216
0.499011,0.504559,0.499927,0.498522,0.499196,0.498188,0.499429
0.50197,0.490883,0.500152,0.502965,0.501597,0.503623,0.501133
0.500656,0.495386,0.499879,0.50169,0.500781,0.502075,0.500564
0.5,0.5,0.5,0.5,0.5,0.5,0.5
0.5,0.5,0.5,0.5,0.5,0.5,0.5
0.5,0.5,0.5,0.5,0.5,0.5,0.5
0.5,0.5,0.5,0.5,0.5,0.5,0.5
0.5,0.5,0.5,0.5,0.5,0.5,0.5
0.5,0.5,0.5,0.5,0.5,0.5,0.5
0.419431,0.564095,0.48814,0.484142,0.450279,0.484369,0.464166
0.411683,0.561117,0.487295,0.482454,0.444097,0.486254,0.459609
0.4117,0.588937,0.483769,0.46931,0.444147,0.475543,0.459778
0.414319,0.583166,0.483451,0.469647,0.445353,0.479282,0.460598
0.413152,0.578542,0.485935,0.472592,0.440544,0.483504,0.456764
0.414314,0.604511,0.481285,0.458323,0.443145,0.474985,0.458996
0.418387,0.575082,0.484848,0.471405,0.442622,0.487428,0.458193
0.422102,0.575921,0.483632,0.469502,0.445867,0.488266,0.460653
0.424832,0.561774,0.485497,0.476871,0.445258,0.494407,0.459942
