Time,JointPositionNormalized
0,-0.3961,0,0.721154,0,0.200573,0
0,-0.3961,0,0.721154,0,0.200573,0
-0.000622282,-0.397473,0.00036265,0.732347,-0.000744446,0.213216,-0.000432123
-0.00109793,-0.398092,-0.000719427,0.732284,-0.00029016,0.213337,2.69562e-05
-0.00158605,-0.396068,-0.00153739,0.731835,-0.000221472,0.212259,0.000161278
-0.0023019,-0.397552,-0.0017551,0.732206,-0.000974105,0.213094,-0.000315624
-0.0023019,-0.397552,-0.0017551,0.732206,-0.000974105,0.213094,-0.000315624
-0.00329476,-0.394343,-0.00327864,0.731481,-0.000963647,0.211369,-0.000144205
-0.00382621,-0.394086,-0.00384275,0.731421,-0.00115543,0.211233,-0.00020644
-0.00440394,-0.396029,-0.00407805,0.731853,-0.00166571,0.212269,-0.000510052
-0.00503214,-0.395718,-0.00474598,0.731775,-0.0018932,0.2121,-0.000583679
-0.00503214,-0.395718,-0.00474598,0.731775,-0.0018932,0.2121,-0.000583679
-0.00609083,-0.393353,-0.00619623,0.731227,-0.00202853,0.210826,-0.000514456
-0.00663805,-0.392201,-0.00669429,0.731,-0.00235439,0.210256,-0.000686426
-0.00720857,-0.394566,-0.00731073,0.731444,-0.00242634,0.211424,-0.000635255
-0.00787163,-0.394287,-0.00753308,0.731451,-0.0031679,0.211365,-0.0011213
-0.0083497,-0.392248,-0.0083644,0.730976,-0.00309371,0.21027,-0.00098218
-0.00892731,-0.391953,-0.00898137,0.730894,-0.00330115,0.210108,-0.00104939
-0.00935493,-0.389938,-0.00976139,0.730424,-0.00320719,0.209029,-0.000903275
-0.00991661,-0.390532,-0.0104405,0.730505,-0.00327945,0.209296,-0.000861504
-0.0105775,-0.390244,-0.0106659,0.730506,-0.00401941,0.209236,-0.00134719
-0.0105775,-0.390244,-0.0106659,0.730506,-0.00401941,0.209236,-0.00134719
-0.0116519,-0.388738,-0.0119895,0.730124,-0.00427839,0.208416,-0.00137328
-0.0116519,-0.388738,-0.0119895,0.730124,-0.00427839,0.208416,-0.00137328
-0.0127778,-0.386304,-0.01306,0.729538,-0.00493731,0.207128,-0.00171833
-0.0133466,-0.386025,-0.0134319,0.729492,-0.00539137,0.207022,-0.00198862
-0.0137861,-0.383086,-0.0144081,0.728785,-0.0051724,0.205443,-0.00174072
-0.0143882,-0.383665,-0.0148897,0.728894,-0.00550781,0.205744,-0.00190816
-0.0148713,-0.383395,-0.0156479,0.728764,-0.00542477,0.205541,-0.00175841
-0.0154738,-0.383971,-0.0161289,0.728872,-0.00576037,0.205842,-0.00192603
-0.0159927,-0.381004,-0.0167213,0.728239,-0.00607768,0.204353,-0.00209847
-0.0164646,-0.378016,-0.0175085,0.727477,-0.00612193,0.202729,-0.00205837
-0.0170757,-0.381269,-0.0179586,0.728207,-0.00632542,0.204424,-0.0021157
-0.0175877,-0.378271,-0.0185559,0.727484,-0.00663938,0.202846,-0.00228628
-0.018048,-0.376208,-0.0193994,0.726965,-0.00654751,0.201738,-0.00213679
-0.0186798,-0.377666,-0.019741,0.727281,-0.00701488,0.202505,-0.00240747
-0.0191702,-0.376488,-0.0204465,0.726969,-0.00705921,0.201868,-0.00236198
-0.0196699,-0.374408,-0.0211016,0.726485,-0.00723528,0.200805,-0.0024223
-0.0196699,-0.374408,-0.0211016,0.726485,-0.00723528,0.200805,-0.0024223
-0.0207495,-0.370131,-0.0222861,0.725452,-0.00786936,0.198594,-0.00276022
-0.0212591,-0.370733,-0.0228989,0.725519,-0.00791387,0.198848,-0.0027127
-0.0217074,-0.369591,-0.0237934,0.725239,-0.00768274,0.19825,-0.00245345
-0.0223542,-0.369246,-0.0240346,0.725129,-0.00841369,0.198092,-0.00293741
-0.0227972,-0.368079,-0.0249286,0.724764,-0.00818044,0.197404,-0.00267759
-0.0234181,-0.365939,-0.0252648,0.724257,-0.00890703,0.19635,-0.00316265
-0.0238891,-0.366578,-0.02606,0.724361,-0.00868043,0.196639,-0.00290468
-0.0245082,-0.364435,-0.0263995,0.723848,-0.0094058,0.195583,-0.00338883
-0.0248644,-0.363344,-0.0274267,0.723528,-0.00888191,0.194952,-0.00291024
-0.0255076,-0.362992,-0.0276722,0.723409,-0.00961012,0.194792,-0.00339349
-0.0258375,-0.359161,-0.028761,0.722422,-0.00920246,0.192747,-0.00301162
-0.0264678,-0.360607,-0.029094,0.722738,-0.00966584,0.1935,-0.00328564
-0.0271168,-0.35936,-0.0292991,0.722435,-0.0105258,0.192924,-0.00387372
-0.0274352,-0.357387,-0.030469,0.721884,-0.00985378,0.191819,-0.00328287
-0.0280396,-0.356127,-0.0308616,0.721533,-0.0104398,0.191182,-0.00365832
-0.0284876,-0.353127,-0.0316773,0.720775,-0.0104547,0.189639,-0.0035987
-0.0289579,-0.352834,-0.0324225,0.72061,-0.0103484,0.189411,-0.00344142
-0.0294752,-0.351623,-0.0329498,0.720301,-0.0106443,0.188818,-0.00359844
-0.0299502,-0.350422,-0.0336587,0.719949,-0.0106665,0.18817,-0.00354289
-0.0303932,-0.347416,-0.0344773,0.71918,-0.0106744,0.18663,-0.00347919
-0.0310572,-0.34975,-0.034663,0.719727,-0.0112761,0.187844,-0.00386342
-0.0314939,-0.34672,-0.0354837,0.718871,-0.0112821,0.186217,-0.00379856
-0.0319339,-0.343709,-0.0363057,0.718092,-0.0112855,0.184676,-0.00373205
-0.0324419,-0.343395,-0.0368696,0.717961,-0.0114451,0.184497,-0.0037843
-0.0329127,-0.342188,-0.0375789,0.717599,-0.0114602,0.183847,-0.00372547
-0.033424,-0.340967,-0.0381109,0.717276,-0.0117482,0.183254,-0.00387884
-0.0338589,-0.33608,-0.0388707,0.715932,-0.0120045,0.18071,-0.00401272
-0.0344054,-0.336676,-0.0392905,0.71611,-0.0123049,0.18108,-0.00417486
-0.0348353,-0.333636,-0.0401156,0.715224,-0.0122966,0.179458,-0.0041019
-0.0353025,-0.332424,-0.040824,0.714849,-0.0123037,0.178807,-0.00403967
-0.035769,-0.331211,-0.0415325,0.714474,-0.0123098,0.178157,-0.00397688
-0.0363577,-0.329933,-0.0419439,0.714088,-0.0128788,0.177524,-0.00434482
-0.0367083,-0.325115,-0.0428436,0.712838,-0.0128299,0.175116,-0.0042489
-0.037167,-0.325725,-0.0435996,0.71286,-0.0125762,0.175292,-0.00398583
-0.0378312,-0.325365,-0.0436965,0.712758,-0.013564,0.175202,-0.00467835
-0.038177,-0.321463,-0.0446256,0.711694,-0.0133801,0.173212,-0.00447788
-0.0387566,-0.32291,-0.0451156,0.711979,-0.0135603,0.173882,-0.00454504
-0.0390999,-0.319005,-0.0460464,0.71091,-0.0133722,0.171894,-0.00434195
-0.0395612,-0.315938,-0.0467079,0.710027,-0.0136217,0.170339,-0.00447242
-0.0400221,-0.314717,-0.0474149,0.709632,-0.0136141,0.169687,-0.00440351
-0.0405199,-0.314394,-0.0479757,0.709484,-0.0137559,0.169502,-0.00444981
-0.0410167,-0.31223,-0.0484937,0.70884,-0.0141511,0.168419,-0.00469324
-0.0414402,-0.311968,-0.0493864,0.708693,-0.0137383,0.168207,-0.00431156
-0.0418985,-0.307976,-0.0500345,0.707585,-0.0141073,0.166246,-0.00453603
-0.0423957,-0.306738,-0.0505766,0.707222,-0.0143711,0.165652,-0.00467859
-0.0428875,-0.305484,-0.0511171,0.706776,-0.0146334,0.164978,-0.00482063
-0.043187,-0.301589,-0.0522163,0.705625,-0.0141416,0.162948,-0.00438707
-0.0436434,-0.300363,-0.0529217,0.705219,-0.0141217,0.162299,-0.00431246
-0.0441367,-0.300036,-0.0534807,0.705068,-0.0142546,0.162115,-0.00435562
-0.0441367,-0.300036,-0.0534807,0.705068,-0.0142546,0.162115,-0.00435562
-0.0450403,-0.295669,-0.0548743,0.703726,-0.0144571,0.159887,-0.00439721
-0.0454092,-0.291702,-0.0556472,0.702549,-0.0145132,0.157896,-0.00438882
-0.0459008,-0.290458,-0.0561927,0.702174,-0.0147653,0.157307,-0.00452602
-0.0462739,-0.287428,-0.0569812,0.701288,-0.0146916,0.155806,-0.00441818
-0.0468768,-0.287957,-0.0572851,0.701342,-0.0152629,0.156051,-0.00479685
-0.0472115,-0.28588,-0.0582413,0.700638,-0.0147814,0.154904,-0.00437561
-0.0476641,-0.283723,-0.0589354,0.699993,-0.0148713,0.153852,-0.0043895
-0.0480645,-0.278798,-0.059545,0.698519,-0.0153209,0.15145,-0.00468638
-0.0485206,-0.2785,-0.060256,0.6984,-0.0151609,0.151283,-0.00450927
-0.048932,-0.274484,-0.0610879,0.697165,-0.0152069,0.149285,-0.00449165
-0.0493349,-0.272342,-0.0617289,0.696439,-0.0152757,0.148178,-0.00449699
-0.0497507,-0.270197,-0.0625745,0.695738,-0.0150704,0.147073,-0.00428741
-0.0502675,-0.268933,-0.0629709,0.695308,-0.0155893,0.146478,-0.00463452
-0.0504463,-0.269827,-0.0624258,0.695614,-0.0166042,0.147043,-0.00541003
-0.0504859,-0.264233,-0.0624299,0.693952,-0.0173573,0.144405,-0.0059815
-0.050667,-0.267811,-0.0621072,0.694981,-0.0177353,0.146128,-0.00626467
-0.0508914,-0.26505,-0.0615776,0.6942,-0.0192646,0.144973,-0.00742866
-0.0510458,-0.263142,-0.0613667,0.693623,-0.0200988,0.144126,-0.00805882
-0.0512975,-0.263132,-0.0607204,0.693669,-0.0215339,0.14429,-0.00915166
-0.0515024,-0.265803,-0.0602366,0.69444,-0.0223109,0.145608,-0.00974224
-0.0515969,-0.26023,-0.0601112,0.692811,-0.0233593,0.14306,-0.0105363
-0.0515969,-0.26023,-0.0601112,0.692811,-0.0233593,0.14306,-0.0105363
-0.0515969,-0.26023,-0.0601112,0.692811,-0.0233593,0.14306,-0.0105363
-0.0521726,-0.26215,-0.058925,0.693408,-0.0259946,0.144211,-0.0125342
-0.0522982,-0.258433,-0.0586676,0.692298,-0.027077,0.142533,-0.0133549
-0.0524842,-0.257457,-0.0583239,0.692008,-0.0280732,0.142153,-0.014109
-0.0526956,-0.257413,-0.057835,0.692013,-0.0292267,0.142236,-0.0149854
-0.0529068,-0.25737,-0.057346,0.692021,-0.0303802,0.142318,-0.0158618
-0.0530236,-0.256414,-0.0571077,0.691779,-0.0310836,0.141962,-0.0163949
-0.0531739,-0.255418,-0.0569119,0.691432,-0.0317961,0.141507,-0.016931
-0.0534198,-0.25541,-0.0562821,0.691508,-0.0332348,0.141671,-0.018026
-0.0535045,-0.253515,-0.0561876,0.690889,-0.0337804,0.140782,-0.018436
-0.0537775,-0.254376,-0.0556053,0.691179,-0.0351005,0.1413,-0.0194377
-0.0538964,-0.253421,-0.0553729,0.690938,-0.0358054,0.140945,-0.0199714
-0.0540834,-0.252444,-0.0550395,0.690651,-0.0368046,0.140566,-0.0207267
-0.0541868,-0.24963,-0.0549597,0.689782,-0.0374809,0.139292,-0.0212331
-0.0544731,-0.251428,-0.0542334,0.69039,-0.038956,0.140267,-0.0223567
-0.0544731,-0.251428,-0.0542334,0.69039,-0.038956,0.140267,-0.0223567
-0.0547882,-0.246816,-0.0538266,0.689016,-0.04078,0.138281,-0.0237283
-0.0547882,-0.246816,-0.0538266,0.689016,-0.04078,0.138281,-0.0237283
-0.0551602,-0.246834,-0.0530098,0.689043,-0.0428108,0.138424,-0.0252685
-0.0553838,-0.24589,-0.0525498,0.688827,-0.0440993,0.138128,-0.0262443
-0.0555705,-0.244915,-0.0522296,0.688541,-0.0451019,0.137751,-0.027001
-0.0557003,-0.243034,-0.0520148,0.687974,-0.0459397,0.136947,-0.027632
-0.0558561,-0.24389,-0.0516798,0.688264,-0.0466836,0.1374,-0.0281971
-0.0560429,-0.242915,-0.0513633,0.687979,-0.0476872,0.137023,-0.0289541
-0.056243,-0.242876,-0.0508964,0.688018,-0.0488456,0.137105,-0.0298335
-0.0563757,-0.240995,-0.0506872,0.687449,-0.0496853,0.136304,-0.030465
-0.0566529,-0.240964,-0.0501366,0.687526,-0.0511401,0.136436,-0.0315669
-0.0567375,-0.238135,-0.0502177,0.686557,-0.051537,0.135109,-0.0318548
-0.0569088,-0.240846,-0.0495829,0.687511,-0.0525884,0.136458,-0.0326641
-0.0570445,-0.238965,-0.0493792,0.686941,-0.0534299,0.135662,-0.0332962
-0.0572925,-0.239834,-0.0488128,0.687276,-0.0547519,0.136162,-0.0343008
-0.0574198,-0.237016,-0.0487668,0.686372,-0.0554396,0.134913,-0.0348099
-0.0576355,-0.235131,-0.0484854,0.685829,-0.0565802,0.134164,-0.0356661
-0.0578379,-0.236033,-0.0478781,0.686219,-0.0578939,0.134698,-0.0366687
-0.0580171,-0.234121,-0.0477306,0.685596,-0.0587475,0.13387,-0.0373046
-0.0582037,-0.233148,-0.0474314,0.685312,-0.0597555,0.133497,-0.0380635
-0.0583967,-0.233114,-0.0469802,0.685369,-0.060917,0.133577,-0.0389448
-0.0585388,-0.233973,-0.0466484,0.685682,-0.0616603,0.134017,-0.0395107
-0.0587325,-0.233937,-0.0461961,0.685742,-0.0628216,0.134097,-0.0403918
-0.0589149,-0.232024,-0.0460543,0.685114,-0.0636773,0.133272,-0.0410283
-0.0590973,-0.230171,-0.0457426,0.684618,-0.0648131,0.132569,-0.041883
-0.0593001,-0.232881,-0.0450054,0.685591,-0.0661521,0.133873,-0.0429124
-0.0593922,-0.231914,-0.0449375,0.685271,-0.0665793,0.133456,-0.0432297
-0.0597129,-0.230073,-0.0444435,0.684778,-0.0683105,0.132784,-0.0445317
-0.0598131,-0.231845,-0.0440795,0.68537,-0.0689189,0.133588,-0.0450011
-0.0599612,-0.229963,-0.0438995,0.684791,-0.0697681,0.132809,-0.0456354
-0.0600972,-0.230823,-0.0435672,0.685116,-0.0705104,0.133242,-0.0462013
-0.0603447,-0.229916,-0.0430044,0.684947,-0.0720954,0.132978,-0.0474011
-0.0605148,-0.227994,-0.0430191,0.684289,-0.0726689,0.132146,-0.047819
-0.060761,-0.227088,-0.0424633,0.684123,-0.0742554,0.131884,-0.0490196
-0.0608926,-0.227019,-0.0422881,0.684095,-0.0748459,0.131869,-0.0494633
-0.0611223,-0.226079,-0.0418824,0.683904,-0.0761472,0.131584,-0.0504445
-0.0611924,-0.226033,-0.0416403,0.683874,-0.076726,0.131551,-0.0508844
-0.0614582,-0.226006,-0.0411234,0.683989,-0.0781866,0.13167,-0.0519899
-0.0616558,-0.223207,-0.0409946,0.683124,-0.0791787,0.130535,-0.0527244
-0.0616558,-0.223207,-0.0409946,0.683124,-0.0791787,0.130535,-0.0527244
-0.0619557,-0.226893,-0.0399198,0.68454,-0.0812455,0.132283,-0.0543139
-0.0621136,-0.22501,-0.0397553,0.683955,-0.0821002,0.131519,-0.0549498
-0.062382,-0.224037,-0.0393997,0.683702,-0.0834127,0.131188,-0.0559344
-0.0625273,-0.223977,-0.0390823,0.683703,-0.0842886,0.131186,-0.0565971
-0.0627148,-0.223944,-0.0386479,0.683799,-0.0854527,0.131264,-0.0574801
-0.062836,-0.225736,-0.0381586,0.68452,-0.0863418,0.132122,-0.0581674
-0.0630289,-0.224762,-0.0378809,0.684241,-0.087357,0.131757,-0.0589286
-0.0632128,-0.22567,-0.0372872,0.684722,-0.0886681,0.132277,-0.0599321
-0.0634597,-0.222835,-0.0372139,0.683775,-0.0896762,0.131108,-0.0606711
-0.0635585,-0.221866,-0.0371583,0.683439,-0.0901086,0.130701,-0.0609898
-0.063831,-0.222834,-0.0363487,0.684007,-0.0920015,0.131288,-0.0624352
-0.0638855,-0.221864,-0.0364057,0.683582,-0.0921455,0.130812,-0.0625335
-0.0641718,-0.221885,-0.0358271,0.683806,-0.0937756,0.131,-0.0637693
-0.0643206,-0.220888,-0.0356698,0.683431,-0.0945036,0.13056,-0.0643103
-0.0645434,-0.221843,-0.0349691,0.684036,-0.0961026,0.131162,-0.0655345
-0.0646924,-0.220845,-0.034812,0.68366,-0.0968311,0.130723,-0.0660755
-0.0648789,-0.220813,-0.0343845,0.683775,-0.0979958,0.130801,-0.0669589
-0.0648789,-0.220813,-0.0343845,0.683775,-0.0979958,0.130801,-0.0669589
-0.0648789,-0.220813,-0.0343845,0.683775,-0.0979958,0.130801,-0.0669589
-0.0653099,-0.222856,-0.0331237,0.684791,-0.100911,0.131859,-0.0691866
-0.0655376,-0.221888,-0.0328869,0.684565,-0.101934,0.131555,-0.0699504
-0.0657505,-0.220939,-0.0324756,0.684341,-0.103238,0.131226,-0.0709322
-0.0658621,-0.219037,-0.0325848,0.683599,-0.103526,0.130395,-0.071129
-0.0659877,-0.22173,-0.0319709,0.684691,-0.104563,0.131602,-0.0719381
-0.0662383,-0.218953,-0.0317365,0.683845,-0.105859,0.130543,-0.0728977
-0.0664287,-0.219803,-0.0313312,0.684241,-0.106893,0.130967,-0.0736856
-0.0665969,-0.218863,-0.0310326,0.684046,-0.107904,0.130668,-0.0744458
-0.0667907,-0.220684,-0.0303258,0.684912,-0.109365,0.131551,-0.0755715
-0.0669898,-0.219708,-0.0300623,0.684636,-0.110385,0.131198,-0.0763342
-0.0671776,-0.219676,-0.0296395,0.684771,-0.11155,0.131275,-0.0772177
-0.0672288,-0.221451,-0.029249,0.685465,-0.112142,0.132023,-0.0776837
-0.067402,-0.221397,-0.0289661,0.685542,-0.113022,0.132071,-0.0783479
-0.0676809,-0.219537,-0.0286137,0.685024,-0.114476,0.131406,-0.0794317
-0.0677296,-0.221313,-0.0282214,0.685726,-0.115067,0.13215,-0.0798973
-0.0680442,-0.219461,-0.0279065,0.685251,-0.116525,0.131536,-0.0809832
-0.0674171,-0.222168,-0.0272686,0.685821,-0.116036,0.132065,-0.0806687
-0.0667427,-0.227617,-0.026299,0.687552,-0.115698,0.133811,-0.0805022
-0.0663718,-0.225692,-0.0258791,0.686552,-0.115911,0.132574,-0.0806704
-0.0656237,-0.233841,-0.02471,0.689266,-0.115444,0.135414,-0.0804344
-0.0653356,-0.231888,-0.0242123,0.688278,-0.115957,0.134183,-0.0808267
-0.0647237,-0.236406,-0.0232981,0.689677,-0.11575,0.135579,-0.0807507
-0.0641199,-0.240015,-0.0225416,0.690665,-0.1154,0.136564,-0.0805534
-0.0636105,-0.241762,-0.0218594,0.690974,-0.115331,0.13679,-0.0805491
-0.0631012,-0.243509,-0.0211769,0.691283,-0.115261,0.137016,-0.0805445
-0.0624913,-0.248013,-0.0202625,0.692656,-0.115045,0.138411,-0.0804629
-0.0624913,-0.248013,-0.0202625,0.692656,-0.115045,0.138411,-0.0804629
-0.0613194,-0.25329,-0.0187737,0.69395,-0.114605,0.139581,-0.0802558
-0.060915,-0.253202,-0.0183416,0.693578,-0.114544,0.139081,-0.0802323
-0.0603414,-0.255859,-0.0176064,0.694183,-0.114324,0.139655,-0.0801259
-0.0598297,-0.258506,-0.0167602,0.694874,-0.114386,0.14029,-0.0802352
-0.0593177,-0.261149,-0.0159126,0.695564,-0.114446,0.140924,-0.0803435
-0.0587552,-0.262035,-0.0155067,0.695498,-0.113942,0.140781,-0.0799994
-0.0582621,-0.267374,-0.0142045,0.697287,-0.114413,0.142599,-0.0804537
-0.0577988,-0.265468,-0.0140317,0.696163,-0.114062,0.141264,-0.0801914
-0.0571216,-0.270857,-0.0130712,0.697798,-0.113682,0.143007,-0.0799989
-0.0565445,-0.274401,-0.0121722,0.698773,-0.113587,0.14399,-0.0800022
-0.0565445,-0.274401,-0.0121722,0.698773,-0.113587,0.14399,-0.0800022
-0.0565445,-0.274401,-0.0121722,0.698773,-0.113587,0.14399,-0.0800022
-0.0565445,-0.274401,-0.0121722,0.698773,-0.113587,0.14399,-0.0800022
-0.0542326,-0.281842,-0.00958431,0.70003,-0.112549,0.144933,-0.0794453
-0.0538903,-0.283546,-0.00888493,0.70039,-0.112766,0.145249,-0.0796545
-0.0533824,-0.287073,-0.0078671,0.701438,-0.112943,0.146289,-0.0798671
-0.0527731,-0.287024,-0.00759934,0.70092,-0.112298,0.145668,-0.0794059
-0.052406,-0.288737,-0.00666955,0.701375,-0.112774,0.146,-0.0798231
-0.0518265,-0.291358,-0.00593682,0.701937,-0.112536,0.146563,-0.0797062
-0.051218,-0.29311,-0.00533687,0.702192,-0.112156,0.14677,-0.0794731
-0.0507531,-0.293932,-0.00465988,0.70224,-0.112208,0.146674,-0.0795581
-0.0502732,-0.296506,-0.003841,0.702802,-0.112259,0.147234,-0.0796572
-0.0496643,-0.299154,-0.00307587,0.70344,-0.112007,0.147854,-0.0795352
-0.0491232,-0.299074,-0.00268865,0.703004,-0.111646,0.147281,-0.0792919
-0.0486082,-0.303467,-0.00169934,0.704279,-0.111675,0.148662,-0.0793977
-0.0486082,-0.303467,-0.00169934,0.704279,-0.111675,0.148662,-0.0793977
-0.0473501,-0.306864,-0.000479088,0.704707,-0.11091,0.148982,-0.0789326
-0.0469519,-0.308568,0.000297541,0.705089,-0.111101,0.149292,-0.0791309
-0.046557,-0.308416,0.000940768,0.704707,-0.111309,0.148714,-0.079321
-0.0459019,-0.311085,0.00154103,0.705282,-0.110778,0.149332,-0.0789834
-0.0455132,-0.312761,0.0025207,0.705675,-0.111237,0.149593,-0.0793917
-0.0448111,-0.317197,0.00329195,0.706833,-0.11069,0.150923,-0.0790622
-0.0448111,-0.317197,0.00329195,0.706833,-0.11069,0.150923,-0.0790622
-0.0438768,-0.316871,0.004321,0.705976,-0.11054,0.149729,-0.0790119
-0.0435173,-0.31951,0.00479665,0.706771,-0.110326,0.150615,-0.0789004
-0.0427834,-0.3184,0.00543957,0.705801,-0.110079,0.149339,-0.0787508
-0.042277,-0.320983,0.00629001,0.706419,-0.110106,0.149945,-0.0788388
-0.0417699,-0.323565,0.00714159,0.707036,-0.110133,0.150551,-0.0789259
-0.0411087,-0.32711,0.00789912,0.707972,-0.109721,0.151577,-0.0786927
-0.0406063,-0.326074,0.00828646,0.707187,-0.109513,0.150569,-0.0785573
-0.0400995,-0.32865,0.00913699,0.707795,-0.109537,0.151172,-0.0786429
-0.0396017,-0.328521,0.00969338,0.707393,-0.109454,0.150583,-0.0786161
-0.0391279,-0.331111,0.0105069,0.708046,-0.109481,0.151241,-0.0787021
-0.0386302,-0.330981,0.0110646,0.707644,-0.109398,0.150651,-0.0786756
-0.0380012,-0.331797,0.0114877,0.707482,-0.108887,0.150432,-0.0783302
-0.0375263,-0.335236,0.0124645,0.708382,-0.109041,0.151387,-0.0785218
-0.037067,-0.336028,0.0131526,0.708405,-0.109084,0.151268,-0.0786033
-0.0363579,-0.338648,0.0137731,0.708904,-0.10854,0.151825,-0.078258
-0.036146,-0.337587,0.0145387,0.708333,-0.109183,0.150926,-0.0787727
-0.0355997,-0.338382,0.0150943,0.708262,-0.108949,0.150755,-0.0786408
-0.0348828,-0.340108,0.0155488,0.708386,-0.108283,0.150902,-0.0781889
-0.0343743,-0.34267,0.016395,0.708983,-0.108301,0.151498,-0.0782696
-0.0340447,-0.339793,0.0167315,0.707621,-0.108415,0.14975,-0.0783581
-0.0333267,-0.341517,0.0171834,0.707743,-0.107751,0.149897,-0.0779064
-0.0328254,-0.345879,0.0183498,0.709096,-0.108004,0.151317,-0.0781923
-0.0323152,-0.348436,0.0191954,0.70969,-0.108019,0.151911,-0.078271
-0.0318662,-0.344684,0.0192709,0.707936,-0.107725,0.149748,-0.0780384
-0.0312744,-0.349037,0.0203003,0.709191,-0.107702,0.151112,-0.0781113
-0.0307187,-0.348021,0.0205272,0.708352,-0.10723,0.150107,-0.0777712
-0.0302095,-0.350576,0.0213676,0.708942,-0.107245,0.150697,-0.0778491
-0.0298053,-0.349524,0.021907,0.708245,-0.107325,0.14973,-0.0779362
-0.0292624,-0.351209,0.022622,0.708542,-0.10721,0.149966,-0.0779079
-0.0292624,-0.351209,0.022622,0.708542,-0.10721,0.149966,-0.0779079
-0.0281738,-0.354454,0.0240401,0.708985,-0.106992,0.150285,-0.0778567
-0.0277157,-0.354327,0.0245697,0.708617,-0.106918,0.14974,-0.0778356
-0.0270744,-0.355119,0.0249873,0.70844,-0.106411,0.149517,-0.0774923
-0.0266755,-0.354067,0.0255317,0.707739,-0.106493,0.148548,-0.0775817
-0.0261645,-0.356616,0.0263658,0.708327,-0.106506,0.149134,-0.077657
-0.0256169,-0.357395,0.0269191,0.708241,-0.106275,0.148954,-0.0775262
-0.0252231,-0.357252,0.0276266,0.707923,-0.106474,0.148401,-0.077718
-0.0245832,-0.358936,0.0282021,0.708122,-0.106085,0.148588,-0.077477
-0.024125,-0.357902,0.0285748,0.707369,-0.105897,0.147628,-0.0773562
-0.0235181,-0.360448,0.0292678,0.707859,-0.105636,0.148164,-0.0772191
-0.0232215,-0.359405,0.0299585,0.707256,-0.105997,0.147244,-0.0775242
-0.0225801,-0.361086,0.0305314,0.707455,-0.105609,0.147431,-0.0772831
-0.0221888,-0.360032,0.0310844,0.706751,-0.105696,0.14646,-0.0773761
-0.0215439,-0.360818,0.0315003,0.706571,-0.105192,0.14624,-0.0770343
-0.0210948,-0.361594,0.0321893,0.706576,-0.105238,0.146103,-0.0771166
-0.0207395,-0.362331,0.033018,0.706553,-0.105566,0.145903,-0.0774126
-0.0200927,-0.363114,0.0334341,0.706373,-0.105063,0.145683,-0.0770712
-0.0198045,-0.362073,0.0341311,0.705768,-0.105428,0.144762,-0.0773791
-0.01916,-0.363751,0.0347003,0.705969,-0.105041,0.14495,-0.0771378
-0.0187765,-0.363609,0.0354136,0.705647,-0.105245,0.144393,-0.0773327
-0.018357,-0.364354,0.0360665,0.705574,-0.105302,0.144201,-0.077418
-0.018357,-0.364354,0.0360665,0.705574,-0.105302,0.144201,-0.077418
-0.0172281,-0.364916,0.037056,0.704961,-0.104736,0.143357,-0.0770635
-0.0167811,-0.365691,0.0377454,0.704969,-0.104784,0.143221,-0.0771463
-0.0164304,-0.36552,0.0384236,0.704565,-0.105,0.142607,-0.0773453
-0.0158818,-0.366292,0.0389765,0.704481,-0.104775,0.14243,-0.0772167
-0.0158513,-0.36542,0.0388614,0.704182,-0.104651,0.142077,-0.0771158
-0.0157827,-0.367188,0.0389896,0.704764,-0.104613,0.142795,-0.0771018
-0.0161208,-0.362677,0.0388594,0.703281,-0.105138,0.140909,-0.0774632
-0.01602,-0.362679,0.0387224,0.703184,-0.104863,0.140869,-0.0772507
-0.01602,-0.362679,0.0387224,0.703184,-0.104863,0.140869,-0.0772507
-0.01602,-0.362679,0.0387224,0.703184,-0.104863,0.140869,-0.0772507
-0.01602,-0.362679,0.0387224,0.703184,-0.104863,0.140869,-0.0772507
-0.01602,-0.362679,0.0387224,0.703184,-0.104863,0.140869,-0.0772507
-0.01602,-0.362679,0.0387224,0.703184,-0.104863,0.140869,-0.0772507
-0.01602,-0.362679,0.0387224,0.703184,-0.104863,0.140869,-0.0772507
-0.01602,-0.362679,0.0387224,0.703184,-0.104863,0.140869,-0.0772507
-0.01602,-0.362679,0.0387224,0.703184,-0.104863,0.140869,-0.0772507
-0.01602,-0.362679,0.0387224,0.703184,-0.104863,0.140869,-0.0772507
-0.01602,-0.362679,0.0387224,0.703184,-0.104863,0.140869,-0.0772507
-0.01602,-0.362679,0.0387224,0.703184,-0.104863,0.140869,-0.0772507
-0.01602,-0.362679,0.0387224,0.703184,-0.104863,0.140869,-0.0772507
-0.01602,-0.362679,0.0387224,0.703184,-0.104863,0.140869,-0.0772507
-0.01602,-0.362679,0.0387224,0.703184,-0.104863,0.140869,-0.0772507
-0.01602,-0.362679,0.0387224,0.703184,-0.104863,0.140869,-0.0772507
-0.01602,-0.362679,0.0387224,0.703184,-0.104863,0.140869,-0.0772507
-0.01602,-0.362679,0.0387224,0.703184,-0.104863,0.140869,-0.0772507
-0.01602,-0.362679,0.0387224,0.703184,-0.104863,0.140869,-0.0772507
-0.01602,-0.362679,0.0387224,0.703184,-0.104863,0.140869,-0.0772507
-0.01602,-0.362679,0.0387224,0.703184,-0.104863,0.140869,-0.0772507
-0.01602,-0.362679,0.0387224,0.703184,-0.104863,0.140869,-0.0772507
-0.01602,-0.362679,0.0387224,0.703184,-0.104863,0.140869,-0.0772507
-0.01602,-0.362679,0.0387224,0.703184,-0.104863,0.140869,-0.0772507
-0.01602,-0.362679,0.0387224,0.703184,-0.104863,0.140869,-0.0772507
-0.01602,-0.362679,0.0387224,0.703184,-0.104863,0.140869,-0.0772507
-0.01602,-0.362679,0.0387224,0.703184,-0.104863,0.140869,-0.0772507
-0.01602,-0.362679,0.0387224,0.703184,-0.104863,0.140869,-0.0772507
-0.01602,-0.362679,0.0387224,0.703184,-0.104863,0.140869,-0.0772507
-0.01602,-0.362679,0.0387224,0.703184,-0.104863,0.140869,-0.0772507
-0.01602,-0.362679,0.0387224,0.703184,-0.104863,0.140869,-0.0772507
-0.01602,-0.362679,0.0387224,0.703184,-0.104863,0.140869,-0.0772507
-0.01602,-0.362679,0.0387224,0.703184,-0.104863,0.140869,-0.0772507
-0.01602,-0.362679,0.0387224,0.703184,-0.104863,0.140869,-0.0772507
-0.01602,-0.362679,0.0387224,0.703184,-0.104863,0.140869,-0.0772507
-0.01602,-0.362679,0.0387224,0.703184,-0.104863,0.140869,-0.0772507
-0.01602,-0.362679,0.0387224,0.703184,-0.104863,0.140869,-0.0772507
-0.01602,-0.362679,0.0387224,0.703184,-0.104863,0.140869,-0.0772507
-0.01602,-0.362679,0.0387224,0.703184,-0.104863,0.140869,-0.0772507
-0.01602,-0.362679,0.0387224,0.703184,-0.104863,0.140869,-0.0772507
-0.01602,-0.362679,0.0387224,0.703184,-0.104863,0.140869,-0.0772507
-0.01602,-0.362679,0.0387224,0.703184,-0.104863,0.140869,-0.0772507
-0.01602,-0.362679,0.0387224,0.703184,-0.104863,0.140869,-0.0772507
-0.01602,-0.362679,0.0387224,0.703184,-0.104863,0.140869,-0.0772507
-0.01602,-0.362679,0.0387224,0.703184,-0.104863,0.140869,-0.0772507
-0.01602,-0.362679,0.0387224,0.703184,-0.104863,0.140869,-0.0772507
-0.01602,-0.362679,0.0387224,0.703184,-0.104863,0.140869,-0.0772507
-0.01602,-0.362679,0.0387224,0.703184,-0.104863,0.140869,-0.0772507
-0.01602,-0.362679,0.0387224,0.703184,-0.104863,0.140869,-0.0772507
-0.01602,-0.362679,0.0387224,0.703184,-0.104863,0.140869,-0.0772507
-0.01602,-0.362679,0.0387224,0.703184,-0.104863,0.140869,-0.0772507
-0.01602,-0.362679,0.0387224,0.703184,-0.104863,0.140869,-0.0772507
-0.01602,-0.362679,0.0387224,0.703184,-0.104863,0.140869,-0.0772507
-0.01602,-0.362679,0.0387224,0.703184,-0.104863,0.140869,-0.0772507
-0.01602,-0.362679,0.0387224,0.703184,-0.104863,0.140869,-0.0772507
-0.01602,-0.362679,0.0387224,0.703184,-0.104863,0.140869,-0.0772507
-0.01602,-0.362679,0.0387224,0.703184,-0.104863,0.140869,-0.0772507
-0.01602,-0.362679,0.0387224,0.703184,-0.104863,0.140869,-0.0772507
-0.01602,-0.362679,0.0387224,0.703184,-0.104863,0.140869,-0.0772507
-0.01602,-0.362679,0.0387224,0.703184,-0.104863,0.140869,-0.0772507
-0.01602,-0.362679,0.0387224,0.703184,-0.104863,0.140869,-0.0772507
-0.01602,-0.362679,0.0387224,0.703184,-0.104863,0.140869,-0.0772507
-0.01602,-0.362679,0.0387224,0.703184,-0.104863,0.140869,-0.0772507
-0.01602,-0.362679,0.0387224,0.703184,-0.104863,0.140869,-0.0772507
-0.01602,-0.362679,0.0387224,0.703184,-0.104863,0.140869,-0.0772507
-0.01602,-0.362679,0.0387224,0.703184,-0.104863,0.140869,-0.0772507
-0.01602,-0.362679,0.0387224,0.703184,-0.104863,0.140869,-0.0772507
-0.01602,-0.362679,0.0387224,0.703184,-0.104863,0.140869,-0.0772507
-0.01602,-0.362679,0.0387224,0.703184,-0.104863,0.140869,-0.0772507
-0.01602,-0.362679,0.0387224,0.703184,-0.104863,0.140869,-0.0772507
-0.01602,-0.362679,0.0387224,0.703184,-0.104863,0.140869,-0.0772507
-0.01602,-0.362679,0.0387224,0.703184,-0.104863,0.140869,-0.0772507
-0.01602,-0.362679,0.0387224,0.703184,-0.104863,0.140869,-0.0772507
-0.01602,-0.362679,0.0387224,0.703184,-0.104863,0.140869,-0.0772507
-0.01602,-0.362679,0.0387224,0.703184,-0.104863,0.140869,-0.0772507
-0.01602,-0.362679,0.0387224,0.703184,-0.104863,0.140869,-0.0772507
-0.01602,-0.362679,0.0387224,0.703184,-0.104863,0.140869,-0.0772507
-0.01602,-0.362679,0.0387224,0.703184,-0.104863,0.140869,-0.0772507
-0.01602,-0.362679,0.0387224,0.703184,-0.104863,0.140869,-0.0772507
-0.01602,-0.362679,0.0387224,0.703184,-0.104863,0.140869,-0.0772507
-0.01602,-0.362679,0.0387224,0.703184,-0.104863,0.140869,-0.0772507
-0.01602,-0.362679,0.0387224,0.703184,-0.104863,0.140869,-0.0772507
-0.01602,-0.362679,0.0387224,0.703184,-0.104863,0.140869,-0.0772507
-0.01602,-0.362679,0.0387224,0.703184,-0.104863,0.140869,-0.0772507
-0.01602,-0.362679,0.0387224,0.703184,-0.104863,0.140869,-0.0772507
-0.01602,-0.362679,0.0387224,0.703184,-0.104863,0.140869,-0.0772507
-0.01602,-0.362679,0.0387224,0.703184,-0.104863,0.140869,-0.0772507
-0.01602,-0.362679,0.0387224,0.703184,-0.104863,0.140869,-0.0772507
-0.01602,-0.362679,0.0387224,0.703184,-0.104863,0.140869,-0.0772507
-0.01602,-0.362679,0.0387224,0.703184,-0.104863,0.140869,-0.0772507
-0.01602,-0.362679,0.0387224,0.703184,-0.104863,0.140869,-0.0772507
-0.01602,-0.362679,0.0387224,0.703184,-0.104863,0.140869,-0.0772507
-0.01602,-0.362679,0.0387224,0.703184,-0.104863,0.140869,-0.0772507
-0.01602,-0.362679,0.0387224,0.703184,-0.104863,0.140869,-0.0772507
-0.01602,-0.362679,0.0387224,0.703184,-0.104863,0.140869,-0.0772507
-0.01602,-0.362679,0.0387224,0.703184,-0.104863,0.140869,-0.0772507
-0.01602,-0.362679,0.0387224,0.703184,-0.104863,0.140869,-0.0772507
-0.0170097,-0.36171,0.0386521,0.703012,-0.106237,0.14068,-0.0782476
-0.017901,-0.360695,0.0384376,0.702709,-0.107338,0.140423,-0.079032
-0.0185303,-0.364164,0.0385357,0.704062,-0.108174,0.142111,-0.0796585
-0.0195962,-0.35954,0.0380098,0.70247,-0.109375,0.140341,-0.0804836
-0.0204593,-0.358554,0.0378265,0.702223,-0.110467,0.140129,-0.0812653
-0.0213221,-0.356642,0.0374846,0.701564,-0.111448,0.139495,-0.0819508
-0.0223106,-0.356587,0.0375528,0.701731,-0.112936,0.139693,-0.083044
-0.0228442,-0.35916,0.0373625,0.702678,-0.113385,0.140986,-0.0833655
-0.0239783,-0.354556,0.0369952,0.701085,-0.114862,0.139221,-0.0844027
-0.024849,-0.352679,0.0366369,0.700503,-0.115839,0.13868,-0.0850864
-0.0258108,-0.350792,0.0364174,0.6999,-0.117099,0.138086,-0.0859857
-0.0266454,-0.347977,0.0359379,0.698841,-0.11796,0.137077,-0.08657
-0.0274989,-0.350598,0.036106,0.700019,-0.11924,0.138437,-0.0875307
-0.0283082,-0.345965,0.0353377,0.698197,-0.119866,0.13666,-0.0879135
-0.029341,-0.344153,0.0352715,0.69776,-0.121394,0.136177,-0.0890247
-0.0301325,-0.345878,0.0353559,0.698563,-0.122552,0.13712,-0.0898875
-0.0309018,-0.344878,0.0350055,0.698193,-0.123367,0.136901,-0.0904549
-0.031873,-0.34302,0.0347552,0.697628,-0.124625,0.136387,-0.0913528
-0.0328077,-0.341152,0.0345446,0.697018,-0.125879,0.135824,-0.0922495
-0.0335109,-0.341962,0.0343316,0.697374,-0.126647,0.136385,-0.092802
-0.0344235,-0.338266,0.0338303,0.695978,-0.127668,0.135062,-0.0934977
-0.0353919,-0.336397,0.0335664,0.69536,-0.128927,0.134531,-0.0943956
-0.0362364,-0.334528,0.0332033,0.694702,-0.129898,0.134,-0.0950756
-0.0373487,-0.329965,0.0327861,0.693056,-0.131366,0.132386,-0.0961037
-0.0379249,-0.331692,0.0326274,0.693786,-0.131963,0.133318,-0.0965413
-0.0388879,-0.331678,0.0326641,0.693995,-0.133447,0.133575,-0.0976374
-0.0397115,-0.327984,0.0320041,0.692501,-0.134183,0.132293,-0.0981126
-0.040719,-0.324306,0.0316036,0.691106,-0.135484,0.131016,-0.0990225
-0.041594,-0.324282,0.031489,0.691279,-0.136688,0.131296,-0.0999041
-0.041594,-0.324282,0.031489,0.691279,-0.136688,0.131296,-0.0999041
-0.0434542,-0.319771,0.0308415,0.689724,-0.139084,0.130003,-0.101607
-0.0441897,-0.319699,0.030648,0.689723,-0.140007,0.130168,-0.102273
-0.0451117,-0.316016,0.0300911,0.688239,-0.141023,0.128928,-0.102963
-0.0457642,-0.316875,0.0299121,0.688675,-0.141777,0.129522,-0.103515
-0.0466818,-0.315987,0.0298159,0.688541,-0.143137,0.129462,-0.104509
-0.0476012,-0.314165,0.0295617,0.687933,-0.144383,0.129003,-0.105402
-0.0485211,-0.311406,0.0291489,0.686845,-0.145516,0.128147,-0.106193
-0.049438,-0.309578,0.0288873,0.686206,-0.146763,0.12768,-0.107087
-0.0503541,-0.307749,0.0286222,0.685551,-0.148011,0.127207,-0.10798
-0.0512551,-0.305021,0.0282223,0.684515,-0.149135,0.126408,-0.108768
-0.0520529,-0.303189,0.0278624,0.683813,-0.150093,0.125939,-0.109442
-0.0528884,-0.301359,0.0274527,0.683109,-0.151056,0.125499,-0.110116
-0.0528884,-0.301359,0.0274527,0.683109,-0.151056,0.125499,-0.110116
-0.0528884,-0.301359,0.0274527,0.683109,-0.151056,0.125499,-0.110116
-0.0556042,-0.298236,0.026963,0.68243,-0.155037,0.125186,-0.113027
-0.0563118,-0.297253,0.02662,0.681915,-0.15584,0.124962,-0.113589
-0.0571983,-0.293614,0.0260664,0.680393,-0.156841,0.123829,-0.114268
-0.058018,-0.291811,0.0256609,0.679709,-0.157797,0.123433,-0.11494
-0.0590709,-0.289156,0.0254913,0.678783,-0.159486,0.122692,-0.116163
-0.0596952,-0.290953,0.0254576,0.67967,-0.160355,0.123612,-0.116822
-0.0605458,-0.287837,0.025059,0.678402,-0.161465,0.122675,-0.117596
-0.0615058,-0.285128,0.0245458,0.677286,-0.162593,0.121967,-0.118382
-0.0619224,-0.283845,0.0243521,0.676794,-0.163126,0.121631,-0.118756
-0.0631045,-0.28208,0.0239224,0.676164,-0.164677,0.121362,-0.119871
-0.0639801,-0.280299,0.0236463,0.675503,-0.165915,0.120962,-0.12076
-0.0646846,-0.279421,0.023288,0.675193,-0.166699,0.120922,-0.121317
-0.0658246,-0.274946,0.0229031,0.673368,-0.168435,0.119536,-0.122545
-0.0658246,-0.274946,0.0229031,0.673368,-0.168435,0.119536,-0.122545
-0.0673256,-0.273262,0.0222744,0.672852,-0.170294,0.119509,-0.123884
-0.0673256,-0.273262,0.0222744,0.672852,-0.170294,0.119509,-0.123884
-0.0692202,-0.266175,0.0213761,0.669888,-0.17287,0.117461,-0.125691
-0.0696187,-0.270702,0.0215824,0.672103,-0.173534,0.11933,-0.126242
-0.0706842,-0.267152,0.0211901,0.670658,-0.1751,0.118344,-0.127354
-0.0713425,-0.267191,0.0210092,0.670775,-0.176003,0.118602,-0.128018
-0.0724663,-0.261821,0.0204675,0.668486,-0.177607,0.11698,-0.129132
-0.0730583,-0.26187,0.0201558,0.668563,-0.178223,0.117272,-0.129576
-0.073911,-0.261051,0.0200008,0.668371,-0.179577,0.117253,-0.130571
-0.0745615,-0.261127,0.0198208,0.66856,-0.180474,0.117557,-0.131234
-0.0755213,-0.255699,0.0190465,0.666036,-0.181497,0.115932,-0.131899
-0.0762646,-0.255811,0.0189446,0.666328,-0.182679,0.116269,-0.132782
-0.0771172,-0.253139,0.0185021,0.665132,-0.183787,0.115595,-0.133556
-0.0778597,-0.253249,0.018395,0.665404,-0.18497,0.115921,-0.13444
-0.0787688,-0.250618,0.01808,0.664319,-0.186361,0.11527,-0.135434
-0.079352,-0.251629,0.0179024,0.664959,-0.187095,0.115931,-0.135989
-0.0803618,-0.248094,0.017525,0.663429,-0.188653,0.114974,-0.137094
-0.0803618,-0.248094,0.017525,0.663429,-0.188653,0.114974,-0.137094
-0.0819435,-0.245722,0.0169757,0.662687,-0.190941,0.114779,-0.138759
-0.0825542,-0.243957,0.0165523,0.661831,-0.191586,0.114404,-0.139198
-0.0833955,-0.242259,0.0162347,0.661172,-0.19281,0.114122,-0.14008
-0.0842866,-0.241563,0.0161774,0.6612,-0.194439,0.114205,-0.141293
-0.084936,-0.239835,0.0157044,0.660388,-0.195081,0.113907,-0.141732
-0.085676,-0.239036,0.0154398,0.660121,-0.196142,0.113911,-0.142504
-0.0865382,-0.236473,0.0151482,0.65914,-0.197518,0.113358,-0.143493
-0.0872821,-0.23477,0.0147441,0.658401,-0.198449,0.113087,-0.144152
-0.0879259,-0.233974,0.0144,0.658095,-0.199216,0.113109,-0.144702
-0.0887178,-0.233218,0.0142474,0.657936,-0.200562,0.113124,-0.145695
-0.0895122,-0.232503,0.0140915,0.657874,-0.201901,0.1132,-0.146687
-0.0900535,-0.233551,0.0139388,0.65854,-0.202631,0.113827,-0.147244
-0.0911297,-0.22728,0.0132345,0.655554,-0.204089,0.11209,-0.148222
-0.0916684,-0.228327,0.0130765,0.656205,-0.20482,0.112703,-0.148779
-0.092357,-0.229456,0.0131031,0.657118,-0.206119,0.113373,-0.149776
-0.09327,-0.225008,0.0124704,0.654941,-0.207249,0.112238,-0.150534
-0.09327,-0.225008,0.0124704,0.654941,-0.207249,0.112238,-0.150534
-0.0949344,-0.220021,0.0117187,0.652863,-0.209725,0.111261,-0.1523
-0.0954172,-0.222903,0.0118578,0.654548,-0.21071,0.112393,-0.153087
-0.0961348,-0.220324,0.0113408,0.653336,-0.211501,0.111898,-0.153625
-0.0967218,-0.222351,0.0114123,0.654662,-0.212642,0.112808,-0.154518
-0.0975397,-0.218852,0.0108278,0.652958,-0.2136,0.112029,-0.155163
