Time,JointVelocitiesNormalized
0.5,0.5,0.5,0.5,0.5,0.5,0.5
0.493776,0.493131,0.501813,0.555969,0.496278,0.563202,0.497839
0.495243,0.496909,0.494589,0.499687,0.502271,0.500607,0.502295
0.495118,0.51012,0.49591,0.497752,0.500343,0.494609,0.500672
0.492841,0.492579,0.498911,0.501855,0.496237,0.504175,0.497616
0.5,0.5,0.5,0.5,0.5,0.5,0.5
0.49007,0.516049,0.492381,0.496377,0.500052,0.491376,0.500857
0.494685,0.501282,0.497179,0.499698,0.499041,0.499321,0.499689
0.494222,0.490285,0.498823,0.502163,0.497449,0.505176,0.498482
0.493717,0.501555,0.49666,0.499609,0.498863,0.499159,0.499632
0.5,0.5,0.5,0.5,0.5,0.5,0.5
0.489412,0.51183,0.492748,0.49726,0.499323,0.493628,0.500346
0.494527,0.505762,0.497509,0.498862,0.498371,0.49715,0.49914
0.494294,0.48817,0.496917,0.502224,0.49964,0.505839,0.500256
0.493369,0.501393,0.498888,0.500036,0.496293,0.499707,0.49757
0.495219,0.5102,0.495843,0.497624,0.500371,0.494523,0.500696
0.494223,0.501474,0.496915,0.499592,0.498963,0.499194,0.499664
0.495723,0.51008,0.496099,0.497646,0.50047,0.494602,0.500731
0.494383,0.49703,0.496604,0.500404,0.499639,0.501335,0.500209
0.49339,0.501436,0.498873,0.500007,0.496301,0.499701,0.497572
0.5,0.5,0.5,0.5,0.5,0.5,0.5
0.489255,0.507533,0.493382,0.498089,0.498705,0.495903,0.49987
0.5,0.5,0.5,0.5,0.5,0.5,0.5
0.48874,0.512173,0.494647,0.497068,0.496706,0.493561,0.498275
0.494311,0.501394,0.49814,0.49977,0.49773,0.499468,0.498649
0.495604,0.5147,0.495118,0.496464,0.501095,0.492106,0.50124
0.493978,0.497103,0.497592,0.500548,0.498323,0.501507,0.499163
0.495168,0.501353,0.496209,0.49935,0.500415,0.498986,0.500749
0.493974,0.497116,0.497594,0.500542,0.498322,0.501504,0.499162
0.49481,0.514843,0.497038,0.496834,0.498414,0.492557,0.499138
0.495281,0.51494,0.496064,0.496188,0.499779,0.491879,0.500201
0.493888,0.483734,0.497749,0.503651,0.498983,0.508474,0.499713
0.494879,0.51499,0.497013,0.496386,0.49843,0.492115,0.499147
0.495397,0.510318,0.495782,0.497406,0.500459,0.494459,0.500747
0.493681,0.492708,0.498291,0.501576,0.497663,0.503836,0.498647
0.495096,0.505892,0.496472,0.498443,0.499778,0.496814,0.500227
0.495002,0.510401,0.496724,0.49758,0.49912,0.494686,0.499698
0.5,0.5,0.5,0.5,0.5,0.5,0.5
0.489203,0.52139,0.494076,0.494833,0.49683,0.488948,0.49831
0.494903,0.49699,0.496936,0.500336,0.499777,0.501269,0.500238
0.495517,0.505715,0.495527,0.4986,0.501156,0.49701,0.501296
0.493531,0.501724,0.498794,0.499449,0.496346,0.499212,0.49758
0.495569,0.505838,0.495529,0.498175,0.501166,0.49656,0.501299
0.493791,0.5107,0.498319,0.497465,0.496367,0.49473,0.497575
0.495289,0.496804,0.496023,0.500519,0.501133,0.501444,0.50129
0.493808,0.510719,0.498302,0.497437,0.496373,0.494724,0.497579
0.496438,0.505454,0.494863,0.498398,0.502619,0.496846,0.502393
0.493567,0.501764,0.498772,0.499405,0.496359,0.4992,0.497584
0.496701,0.519159,0.494556,0.495066,0.502038,0.489775,0.501909
0.493696,0.492767,0.498334,0.50158,0.497683,0.503765,0.49863
0.493509,0.506235,0.498974,0.498486,0.495701,0.49712,0.49706
0.496816,0.509871,0.49415,0.497243,0.50336,0.494477,0.502954
0.493955,0.506297,0.498037,0.498243,0.49707,0.496814,0.498123
0.495519,0.515003,0.495921,0.496209,0.499925,0.492286,0.500298
0.495297,0.501466,0.496273,0.499177,0.500532,0.49886,0.500786
0.494826,0.506057,0.497363,0.498455,0.498521,0.497034,0.499215
0.495249,0.506009,0.496455,0.498238,0.499889,0.49676,0.500278
0.49557,0.515032,0.495907,0.496158,0.49996,0.492303,0.500318
0.493359,0.48833,0.499071,0.502733,0.496992,0.50607,0.498079
0.495632,0.515153,0.495896,0.495722,0.49997,0.491864,0.500324
0.4956,0.515057,0.495889,0.496101,0.499983,0.492298,0.500333
0.494919,0.501571,0.49718,0.499346,0.499202,0.499104,0.499739
0.495292,0.506038,0.496453,0.498187,0.499925,0.496754,0.500294
0.494886,0.506102,0.49734,0.498386,0.49856,0.497031,0.499233
0.495651,0.524442,0.4962,0.493281,0.498719,0.487284,0.499331
0.494534,0.497022,0.497901,0.500891,0.498498,0.501848,0.499189
0.495701,0.515203,0.495874,0.495571,0.500042,0.491892,0.500365
0.495327,0.506061,0.496457,0.498125,0.499964,0.496748,0.500311
0.495334,0.506065,0.496457,0.498124,0.49997,0.496751,0.500314
0.494113,0.506389,0.497943,0.498069,0.497155,0.496837,0.49816
0.496493,0.524098,0.495501,0.49375,0.500244,0.487958,0.50048
0.495413,0.496947,0.49622,0.500108,0.501268,0.50088,0.501315
0.493357,0.501804,0.499515,0.499491,0.495061,0.49955,0.496538
0.496542,0.519513,0.495354,0.494679,0.500919,0.490054,0.501002
0.494202,0.492762,0.49755,0.501426,0.499099,0.503349,0.499664
0.496567,0.51953,0.495346,0.494656,0.50094,0.490063,0.501015
0.495386,0.515339,0.496692,0.495583,0.498753,0.492224,0.499348
0.49539,0.506105,0.496464,0.498026,0.500038,0.496744,0.500345
0.495021,0.501619,0.497196,0.49926,0.499291,0.499075,0.499768
0.495032,0.510819,0.497409,0.496779,0.498024,0.494587,0.498783
0.495764,0.501312,0.495536,0.499264,0.502064,0.498938,0.501908
0.495417,0.519963,0.496759,0.49446,0.498155,0.490195,0.498878
0.495027,0.506191,0.497289,0.498185,0.498681,0.497035,0.499287
0.495081,0.506276,0.497297,0.497772,0.498689,0.49663,0.49929
0.497005,0.519476,0.494504,0.494242,0.502459,0.489851,0.502168
0.495435,0.506135,0.496473,0.497971,0.500099,0.496757,0.500373
0.495066,0.501632,0.497204,0.499244,0.499336,0.49908,0.499784
0.5,0.5,0.5,0.5,0.5,0.5,0.5
0.490963,0.52184,0.493031,0.493292,0.498988,0.488863,0.499792
0.496311,0.519842,0.496135,0.494115,0.499719,0.490043,0.500042
0.495083,0.506219,0.497272,0.498125,0.49874,0.497059,0.499314
0.496269,0.515155,0.496057,0.495567,0.500368,0.492492,0.500539
0.49397,0.497355,0.49848,0.50027,0.497144,0.501228,0.498107
0.496653,0.510385,0.495219,0.496479,0.502407,0.494265,0.502106
0.495473,0.510787,0.496529,0.496778,0.499551,0.49474,0.499931
0.495996,0.524635,0.496952,0.49263,0.497752,0.487991,0.498516
0.495438,0.501488,0.496444,0.499404,0.5008,0.499169,0.500885
0.495885,0.520085,0.49584,0.493822,0.49977,0.490012,0.500088
0.495971,0.510715,0.496795,0.496371,0.499656,0.494465,0.499973
0.495842,0.510725,0.495771,0.496495,0.501026,0.494473,0.501048
0.494832,0.506323,0.498018,0.49785,0.497406,0.497029,0.498264
0.498211,0.495529,0.502726,0.50153,0.494926,0.502821,0.496123
0.499604,0.527977,0.49998,0.491687,0.496235,0.486814,0.497143
0.498189,0.482103,0.501614,0.505147,0.49811,0.508615,0.498584
0.497756,0.51381,0.502648,0.496093,0.492354,0.494224,0.49418
0.498455,0.50954,0.501055,0.497118,0.495829,0.495769,0.496849
0.497483,0.50005,0.503232,0.500229,0.492825,0.500817,0.494536
0.497951,0.486644,0.502419,0.503857,0.496116,0.506592,0.497047
0.499054,0.527873,0.500627,0.491854,0.494758,0.487258,0.49603
0.5,0.5,0.5,0.5,0.5,0.5,0.5
0.5,0.5,0.5,0.5,0.5,0.5,0.5
0.494243,0.490397,0.505931,0.502986,0.486825,0.505754,0.490011
0.498744,0.518587,0.501287,0.494446,0.494588,0.491612,0.495897
0.498139,0.504883,0.501718,0.498549,0.495019,0.4981,0.49623
0.497886,0.500218,0.502445,0.500028,0.494233,0.500414,0.495618
0.497888,0.500219,0.502445,0.500038,0.494233,0.500413,0.495618
0.498832,0.504778,0.501192,0.498791,0.496484,0.498217,0.497334
0.498497,0.504984,0.500979,0.498266,0.496438,0.497727,0.49732
0.497541,0.500037,0.50315,0.500378,0.492807,0.500822,0.494525
0.499153,0.509478,0.500472,0.496904,0.497272,0.495554,0.49795
0.497269,0.495692,0.502912,0.50145,0.4934,0.502591,0.494991
0.498811,0.50478,0.501162,0.498797,0.496476,0.498225,0.497331
0.498129,0.504884,0.501667,0.498566,0.495004,0.498105,0.496224
0.498966,0.514076,0.500399,0.495652,0.496619,0.493632,0.497468
0.497137,0.491008,0.503632,0.503041,0.492625,0.504872,0.494383
0.5,0.5,0.5,0.5,0.5,0.5,0.5
0.496848,0.523066,0.502034,0.493129,0.490881,0.49007,0.493142
0.5,0.5,0.5,0.5,0.5,0.5,0.5
0.49628,0.499908,0.504085,0.500134,0.489847,0.500717,0.492299
0.497763,0.504722,0.5023,0.498922,0.493558,0.49852,0.495121
0.498133,0.504878,0.501601,0.498572,0.494987,0.498116,0.496217
0.498702,0.509405,0.501075,0.497163,0.495811,0.495982,0.496845
0.498442,0.495721,0.501675,0.501453,0.496281,0.502262,0.497175
0.498132,0.504876,0.501583,0.498573,0.494983,0.498119,0.496215
0.497998,0.500193,0.502335,0.500192,0.494209,0.500406,0.495603
0.498672,0.509406,0.501046,0.497157,0.495802,0.496,0.496842
0.497228,0.500159,0.502753,0.500383,0.492726,0.500659,0.494491
0.499154,0.514145,0.499595,0.495158,0.498016,0.493366,0.49856
0.498287,0.486443,0.503174,0.504766,0.494743,0.506743,0.495954
0.498643,0.509408,0.501018,0.49715,0.495793,0.496019,0.49684
0.497519,0.495653,0.502833,0.501676,0.493391,0.502503,0.494978
0.498727,0.514096,0.50023,0.49548,0.496562,0.493752,0.497454
0.497843,0.509426,0.501407,0.497286,0.494297,0.496258,0.495719
0.497976,0.495486,0.503037,0.501951,0.493432,0.502668,0.494987
0.498207,0.509562,0.500738,0.496886,0.495732,0.495863,0.49682
0.498134,0.504868,0.501496,0.498576,0.49496,0.498135,0.496206
0.49807,0.500173,0.502257,0.500288,0.494193,0.5004,0.495594
0.498579,0.495704,0.501659,0.501561,0.496284,0.502199,0.497171
0.498063,0.500177,0.502262,0.500304,0.494194,0.500399,0.495595
0.498176,0.509566,0.500709,0.496857,0.495722,0.495877,0.496817
0.498176,0.50927,0.501559,0.49752,0.494322,0.496486,0.495727
0.497972,0.486448,0.503687,0.504866,0.493306,0.506517,0.494853
0.49908,0.504835,0.500339,0.498402,0.497864,0.497918,0.498413
0.496792,0.509205,0.50247,0.497533,0.491345,0.496639,0.49349
0.498999,0.491138,0.50182,0.502959,0.496958,0.504017,0.497653
0.498518,0.509411,0.5009,0.497107,0.495754,0.496108,0.496828
0.498641,0.495701,0.501662,0.501622,0.496289,0.502163,0.497171
0.497525,0.504538,0.502815,0.499158,0.492076,0.49868,0.494001
0.498298,0.509613,0.499926,0.496709,0.497133,0.495843,0.497911
0.497538,0.504529,0.502779,0.49917,0.492068,0.498688,0.493997
0.498684,0.500346,0.500876,0.49986,0.497048,0.499927,0.497782
0.497703,0.504702,0.502029,0.499042,0.493494,0.498574,0.495094
0.499299,0.500227,0.501211,0.499854,0.497106,0.499837,0.497801
0.497342,0.500134,0.502584,0.500574,0.492697,0.500592,0.494472
0.498024,0.514001,0.500644,0.495674,0.49504,0.494328,0.496328
0.5,0.5,0.5,0.5,0.5,0.5,0.5
0.497,0.481567,0.505375,0.50708,0.489667,0.508738,0.492053
0.498421,0.509415,0.500823,0.497073,0.495727,0.496179,0.496821
0.497315,0.504868,0.501778,0.498736,0.493438,0.498348,0.495077
0.498548,0.500301,0.501587,0.500007,0.495621,0.499987,0.496687
0.498125,0.500161,0.502172,0.500479,0.49418,0.50039,0.495585
0.498788,0.491038,0.502447,0.503605,0.495555,0.504288,0.496563
0.49807,0.504875,0.501389,0.498605,0.494925,0.498177,0.496194
0.498161,0.495457,0.502969,0.502402,0.493445,0.5026,0.494983
0.497531,0.51418,0.500367,0.495266,0.49496,0.494155,0.496305
0.499012,0.504842,0.500278,0.498321,0.497838,0.497965,0.498406
0.497276,0.495161,0.504048,0.502838,0.490536,0.502938,0.492773
0.499454,0.504853,0.499715,0.497878,0.49928,0.497621,0.499509
0.497137,0.499893,0.502893,0.501119,0.49185,0.500937,0.493821
0.498512,0.504988,0.500787,0.498123,0.49636,0.4978,0.497295
0.497772,0.495223,0.503504,0.503028,0.492006,0.503013,0.493879
0.49851,0.50499,0.500786,0.498121,0.496358,0.497805,0.497295
0.498135,0.500158,0.502138,0.500574,0.494177,0.500387,0.495583
0.5,0.5,0.5,0.5,0.5,0.5,0.5
0.5,0.5,0.5,0.5,0.5,0.5,0.5
0.49569,0.489783,0.506305,0.505081,0.485424,0.505289,0.488862
0.497722,0.50484,0.501184,0.49887,0.494889,0.498482,0.496181
0.497871,0.504749,0.502057,0.49888,0.493478,0.498357,0.495091
0.498884,0.50951,0.499454,0.496288,0.498562,0.495843,0.499016
0.498744,0.486533,0.50307,0.505461,0.494816,0.506036,0.495954
0.497493,0.513889,0.501172,0.495769,0.493519,0.494703,0.495202
0.498096,0.495746,0.502027,0.501979,0.494829,0.502119,0.496061
0.498318,0.504703,0.501493,0.499026,0.494945,0.498508,0.496199
0.498061,0.490895,0.503534,0.504332,0.492697,0.504414,0.494371
0.498009,0.504881,0.501317,0.498618,0.494898,0.498232,0.496187
0.498122,0.50016,0.502115,0.500677,0.494177,0.500388,0.495583
0.499488,0.49112,0.501953,0.503471,0.497039,0.503739,0.49767
0.498268,0.500272,0.501415,0.500384,0.495602,0.500239,0.496679
0.49721,0.5093,0.501763,0.497412,0.492733,0.496674,0.494581
0.499514,0.49112,0.501962,0.503507,0.497046,0.503719,0.497672
0.496853,0.50926,0.501575,0.497625,0.492707,0.496935,0.494571
0.506271,0.486464,0.50319,0.50285,0.502445,0.502642,0.501573
0.506745,0.47275,0.504849,0.508659,0.501692,0.50873,0.500832
0.503709,0.509624,0.502099,0.494997,0.498932,0.493812,0.499159
0.507483,0.459247,0.505847,0.51357,0.502337,0.5142,0.50118
0.502881,0.509765,0.502489,0.495059,0.497437,0.493844,0.498038
0.50612,0.477405,0.504571,0.506999,0.501032,0.506978,0.50038
0.506039,0.481955,0.503783,0.504937,0.501754,0.504925,0.500986
0.505094,0.491259,0.503412,0.501549,0.500344,0.501133,0.500021
0.505094,0.491266,0.503413,0.501544,0.500348,0.50113,0.500023
0.5061,0.477475,0.504573,0.506866,0.501078,0.506969,0.500408
0.5,0.5,0.5,0.5,0.5,0.5,0.5
0.51172,0.473605,0.507445,0.50647,0.502202,0.505851,0.501036
0.504045,0.50044,0.502161,0.498139,0.500306,0.497499,0.500117
0.505737,0.486713,0.503677,0.503023,0.5011,0.502871,0.500532
0.505118,0.486765,0.504232,0.503457,0.499689,0.503172,0.499453
0.50512,0.486778,0.504238,0.503452,0.499699,0.503171,0.499458
0.505626,0.495571,0.50203,0.499668,0.50252,0.499283,0.501721
0.504932,0.4733,0.506512,0.508947,0.497646,0.509093,0.497728
0.504633,0.50953,0.500864,0.494375,0.501753,0.493324,0.501312
0.506773,0.473048,0.504803,0.50818,0.501899,0.508712,0.500962
0.505771,0.482276,0.504496,0.504871,0.500476,0.504914,0.499983
0.5,0.5,0.5,0.5,0.5,0.5,0.5
0.5,0.5,0.5,0.5,0.5,0.5,0.5
0.5,0.5,0.5,0.5,0.5,0.5,0.5
0.523122,0.462786,0.512941,0.506289,0.50519,0.504715,0.502785
0.503423,0.49148,0.503497,0.5018,0.498915,0.501582,0.498954
0.505079,0.482362,0.50509,0.505241,0.499117,0.505199,0.498937
0.506094,0.500242,0.501339,0.497408,0.503223,0.496894,0.502306
0.503671,0.491437,0.50465,0.502276,0.49762,0.50166,0.497914
0.505796,0.486888,0.503664,0.50281,0.501189,0.502816,0.500584
0.506086,0.491239,0.503,0.501276,0.5019,0.501035,0.501166
0.50465,0.495888,0.503385,0.500239,0.499741,0.499521,0.499575
0.504799,0.487127,0.504095,0.50281,0.499747,0.502798,0.499505
0.50609,0.486758,0.503826,0.50319,0.50126,0.5031,0.50061
0.505412,0.500399,0.501936,0.497818,0.501803,0.497134,0.501217
0.505151,0.478029,0.504947,0.506378,0.499854,0.506906,0.499471
0.5,0.5,0.5,0.5,0.5,0.5,0.5
0.512583,0.48301,0.506102,0.502142,0.503823,0.501598,0.502326
0.503983,0.49148,0.503884,0.501908,0.499046,0.501549,0.499009
0.503949,0.500762,0.503217,0.498089,0.49896,0.497112,0.499049
0.506552,0.486651,0.503002,0.502877,0.502655,0.503087,0.501688
0.503888,0.491619,0.504899,0.501965,0.497708,0.501308,0.497959
0.507022,0.477815,0.503857,0.50579,0.502735,0.506649,0.501647
0.5,0.5,0.5,0.5,0.5,0.5,0.5
0.509345,0.501629,0.505146,0.495716,0.500746,0.494026,0.500251
0.503595,0.4868,0.502379,0.503973,0.501073,0.504432,0.500558
0.50734,0.505554,0.503215,0.495152,0.501236,0.493619,0.500748
0.505065,0.487079,0.504253,0.503091,0.49986,0.503031,0.49956
0.505072,0.487091,0.504258,0.503084,0.499869,0.50303,0.499564
0.506613,0.48227,0.503788,0.504678,0.50206,0.505131,0.501166
0.505025,0.505182,0.501937,0.496075,0.501038,0.494961,0.500677
0.505068,0.487117,0.504253,0.503043,0.49988,0.503014,0.499572
0.504979,0.500645,0.502782,0.497988,0.500415,0.497054,0.500134
0.504738,0.487044,0.504068,0.503265,0.499865,0.503289,0.49957
0.504978,0.500653,0.502789,0.497991,0.500414,0.497052,0.500132
0.506291,0.495915,0.502116,0.499188,0.502555,0.498903,0.501727
0.504749,0.482802,0.504885,0.5045,0.499234,0.504776,0.499042
0.504594,0.496042,0.503441,0.500115,0.499783,0.499406,0.499593
0.507092,0.486895,0.503103,0.502498,0.502719,0.502784,0.501727
0.502119,0.505308,0.503829,0.497141,0.496788,0.495504,0.497426
0.505464,0.496023,0.502778,0.499649,0.501169,0.499146,0.50066
0.507169,0.491369,0.502273,0.500617,0.503328,0.500735,0.502259
0.505086,0.487186,0.504231,0.502984,0.499912,0.502977,0.499597
0.503297,0.514387,0.501683,0.493194,0.499427,0.491264,0.499557
0.507181,0.491381,0.50226,0.500606,0.503323,0.500734,0.502259
0.505014,0.47818,0.505833,0.50677,0.498733,0.507099,0.49857
0.505102,0.487214,0.504228,0.502967,0.499927,0.502967,0.499607
0.504491,0.518767,0.500378,0.49123,0.501468,0.489189,0.501163
0.505918,0.47823,0.505148,0.506279,0.500114,0.506817,0.499636
0.505558,0.50508,0.501134,0.495803,0.50236,0.494974,0.5017
0.505092,0.487223,0.504202,0.502948,0.499925,0.50295,0.499611
0.504043,0.505261,0.502697,0.496516,0.499603,0.495169,0.499565
0.50543,0.491571,0.503576,0.501487,0.500571,0.501178,0.500141
0.5,0.5,0.5,0.5,0.5,0.5,0.5
0.510887,0.483774,0.507091,0.502215,0.50109,0.501595,0.500256
0.504581,0.500636,0.502648,0.498161,0.500371,0.497275,0.500106
0.506414,0.496035,0.502088,0.499111,0.502537,0.498886,0.501717
0.50399,0.505265,0.502722,0.496495,0.499589,0.495155,0.499553
0.505111,0.48725,0.504171,0.502944,0.499935,0.502929,0.499623
0.505476,0.496106,0.502767,0.499568,0.501156,0.499102,0.500654
0.503939,0.500714,0.503538,0.498409,0.499003,0.497235,0.499041
0.5064,0.491578,0.502878,0.500998,0.501945,0.500937,0.501205
0.504583,0.505172,0.501864,0.496237,0.500939,0.495198,0.500604
0.506069,0.487265,0.503465,0.502449,0.501306,0.502682,0.500685
0.502967,0.50522,0.503454,0.496985,0.498194,0.495399,0.498474
0.506414,0.491592,0.502865,0.500993,0.501941,0.500934,0.501205
0.503914,0.505268,0.502765,0.496481,0.499568,0.495149,0.499535
0.50645,0.496072,0.50208,0.499097,0.502517,0.498896,0.501709
0.504491,0.496119,0.503445,0.500026,0.499769,0.499318,0.499589
0.503553,0.496312,0.504144,0.499887,0.498364,0.498999,0.49852
0.506469,0.496086,0.502081,0.499101,0.502514,0.498902,0.501707
0.502882,0.505203,0.503485,0.496972,0.498176,0.495394,0.49846
0.506445,0.491612,0.502846,0.501005,0.501934,0.500939,0.501206
0.503836,0.500708,0.503567,0.498391,0.49898,0.497216,0.499026
0.504196,0.496276,0.503265,0.499637,0.499712,0.49904,0.499573
0.5,0.5,0.5,0.5,0.5,0.5,0.5
0.51129,0.497189,0.504948,0.496932,0.502833,0.495784,0.501772
0.504471,0.496123,0.503447,0.500043,0.49976,0.499316,0.499586
0.503508,0.500854,0.503392,0.497977,0.498918,0.496934,0.499005
0.505486,0.496142,0.502765,0.499582,0.501128,0.499114,0.500643
0.500305,0.504361,0.499424,0.498503,0.500619,0.498236,0.500504
0.500685,0.491157,0.500641,0.502913,0.500189,0.503587,0.50007
0.496619,0.522559,0.499349,0.492583,0.497376,0.490575,0.498193
0.501008,0.499989,0.499315,0.499513,0.501375,0.499797,0.501062
0.5,0.5,0.5,0.5,0.5,0.5,0.5
0.5,0.5,0.5,0.5,0.5,0.5,0.5
0.5,0.5,0.5,0.5,0.5,0.5,0.5
0.5,0.5,0.5,0.5,0.5,0.5,0.5
0.5,0.5,0.5,0.5,0.5,0.5,0.5
0.5,0.5,0.5,0.5,0.5,0.5,0.5
0.5,0.5,0.5,0.5,0.5,0.5,0.5
0.5,0.5,0.5,0.5,0.5,0.5,0.5
0.5,0.5,0.5,0.5,0.5,0.5,0.5
0.5,0.5,0.5,0.5,0.5,0.5,0.5
0.5,0.5,0.5,0.5,0.5,0.5,0.5
0.5,0.5,0.5,0.5,0.5,0.5,0.5
0.5,0.5,0.5,0.5,0.5,0.5,0.5
0.5,0.5,0.5,0.5,0.5,0.5,0.5
0.5,0.5,0.5,0.5,0.5,0.5,0.5
0.5,0.5,0.5,0.5,0.5,0.5,0.5
0.5,0.5,0.5,0.5,0.5,0.5,0.5
0.5,0.5,0.5,0.5,0.5,0.5,0.5
0.5,0.5,0.5,0.5,0.5,0.5,0.5
0.5,0.5,0.5,0.5,0.5,0.5,0.5
0.5,0.5,0.5,0.5,0.5,0.5,0.5
0.5,0.5,0.5,0.5,0.5,0.5,0.5
0.5,0.5,0.5,0.5,0.5,0.5,0.5
0.5,0.5,0.5,0.5,0.5,0.5,0.5
0.5,0.5,0.5,0.5,0.5,0.5,0.5
0.5,0.5,0.5,0.5,0.5,0.5,0.5
0.5,0.5,0.5,0.5,0.5,0.5,0.5
0.5,0.5,0.5,0.5,0.5,0.5,0.5
0.5,0.5,0.5,0.5,0.5,0.5,0.5
0.5,0.5,0.5,0.5,0.5,0.5,0.5
0.5,0.5,0.5,0.5,0.5,0.5,0.5
0.5,0.5,0.5,0.5,0.5,0.5,0.5
0.5,0.5,0.5,0.5,0.5,0.5,0.5
0.5,0.5,0.5,0.5,0.5,0.5,0.5
0.5,0.5,0.5,0.5,0.5,0.5,0.5
0.5,0.5,0.5,0.5,0.5,0.5,0.5
0.5,0.5,0.5,0.5,0.5,0.5,0.5
0.5,0.5,0.5,0.5,0.5,0.5,0.5
0.5,0.5,0.5,0.5,0.5,0.5,0.5
0.5,0.5,0.5,0.5,0.5,0.5,0.5
0.5,0.5,0.5,0.5,0.5,0.5,0.5
0.5,0.5,0.5,0.5,0.5,0.5,0.5
0.5,0.5,0.5,0.5,0.5,0.5,0.5
0.5,0.5,0.5,0.5,0.5,0.5,0.5
0.5,0.5,0.5,0.5,0.5,0.5,0.5
0.5,0.5,0.5,0.5,0.5,0.5,0.5
0.5,0.5,0.5,0.5,0.5,0.5,0.5
0.5,0.5,0.5,0.5,0.5,0.5,0.5
0.5,0.5,0.5,0.5,0.5,0.5,0.5
0.5,0.5,0.5,0.5,0.5,0.5,0.5
0.5,0.5,0.5,0.5,0.5,0.5,0.5
0.5,0.5,0.5,0.5,0.5,0.5,0.5
0.5,0.5,0.5,0.5,0.5,0.5,0.5
0.5,0.5,0.5,0.5,0.5,0.5,0.5
0.5,0.5,0.5,0.5,0.5,0.5,0.5
0.5,0.5,0.5,0.5,0.5,0.5,0.5
0.5,0.5,0.5,0.5,0.5,0.5,0.5
0.5,0.5,0.5,0.5,0.5,0.5,0.5
0.5,0.5,0.5,0.5,0.5,0.5,0.5
0.5,0.5,0.5,0.5,0.5,0.5,0.5
0.5,0.5,0.5,0.5,0.5,0.5,0.5
0.5,0.5,0.5,0.5,0.5,0.5,0.5
0.5,0.5,0.5,0.5,0.5,0.5,0.5
0.5,0.5,0.5,0.5,0.5,0.5,0.5
0.5,0.5,0.5,0.5,0.5,0.5,0.5
0.5,0.5,0.5,0.5,0.5,0.5,0.5
0.5,0.5,0.5,0.5,0.5,0.5,0.5
0.5,0.5,0.5,0.5,0.5,0.5,0.5
0.5,0.5,0.5,0.5,0.5,0.5,0.5
0.5,0.5,0.5,0.5,0.5,0.5,0.5
0.5,0.5,0.5,0.5,0.5,0.5,0.5
0.5,0.5,0.5,0.5,0.5,0.5,0.5
0.5,0.5,0.5,0.5,0.5,0.5,0.5
0.5,0.5,0.5,0.5,0.5,0.5,0.5
0.5,0.5,0.5,0.5,0.5,0.5,0.5
0.5,0.5,0.5,0.5,0.5,0.5,0.5
0.5,0.5,0.5,0.5,0.5,0.5,0.5
0.5,0.5,0.5,0.5,0.5,0.5,0.5
0.5,0.5,0.5,0.5,0.5,0.5,0.5
0.5,0.5,0.5,0.5,0.5,0.5,0.5
0.5,0.5,0.5,0.5,0.5,0.5,0.5
0.5,0.5,0.5,0.5,0.5,0.5,0.5
0.5,0.5,0.5,0.5,0.5,0.5,0.5
0.5,0.5,0.5,0.5,0.5,0.5,0.5
0.5,0.5,0.5,0.5,0.5,0.5,0.5
0.5,0.5,0.5,0.5,0.5,0.5,0.5
0.5,0.5,0.5,0.5,0.5,0.5,0.5
0.5,0.5,0.5,0.5,0.5,0.5,0.5
0.5,0.5,0.5,0.5,0.5,0.5,0.5
0.5,0.5,0.5,0.5,0.5,0.5,0.5
0.5,0.5,0.5,0.5,0.5,0.5,0.5
0.5,0.5,0.5,0.5,0.5,0.5,0.5
0.5,0.5,0.5,0.5,0.5,0.5,0.5
0.5,0.5,0.5,0.5,0.5,0.5,0.5
0.5,0.5,0.5,0.5,0.5,0.5,0.5
0.5,0.5,0.5,0.5,0.5,0.5,0.5
0.490102,0.504849,0.499648,0.499139,0.493129,0.499056,0.495016
0.491086,0.505075,0.498927,0.498484,0.494498,0.498713,0.496079
0.493706,0.482651,0.500491,0.506767,0.495822,0.508439,0.496868
0.48934,0.523126,0.49737,0.492038,0.493993,0.491151,0.495875
0.491368,0.50493,0.499083,0.498766,0.494541,0.49894,0.496091
0.491371,0.509564,0.498291,0.496704,0.495094,0.496832,0.496573
0.490114,0.500276,0.500341,0.500834,0.492564,0.50099,0.494534
0.494663,0.487128,0.499048,0.504739,0.497756,0.506465,0.498393
0.488658,0.523028,0.498163,0.492034,0.492612,0.491173,0.494814
0.491292,0.509385,0.498209,0.497091,0.495114,0.497297,0.496582
0.490381,0.509438,0.498902,0.496981,0.493702,0.497031,0.495504
0.491653,0.514079,0.497602,0.494707,0.495695,0.494955,0.497078
0.491464,0.486895,0.500841,0.505888,0.493602,0.506799,0.495197
0.491905,0.523167,0.496158,0.490892,0.496871,0.49112,0.498086
0.48967,0.509065,0.499669,0.497814,0.49236,0.497584,0.494444
0.492084,0.491373,0.500422,0.504012,0.494211,0.504713,0.495686
0.492306,0.504997,0.498248,0.49815,0.495925,0.498906,0.497163
0.490287,0.509294,0.498748,0.497177,0.493712,0.49743,0.495511
0.490652,0.509344,0.498947,0.496948,0.493731,0.497184,0.495516
0.492967,0.495946,0.498935,0.501781,0.496159,0.502806,0.497238
0.490872,0.518488,0.497493,0.49302,0.494897,0.493388,0.496522
0.490315,0.509343,0.498681,0.496907,0.493704,0.497345,0.495511
0.491553,0.50935,0.498184,0.496713,0.495142,0.497347,0.4966
0.488876,0.522818,0.497914,0.491769,0.492662,0.491928,0.49486
0.494238,0.491364,0.499206,0.503649,0.497018,0.504659,0.497812
0.490368,0.500073,0.500184,0.501045,0.492579,0.501288,0.49452
0.491763,0.518472,0.4967,0.492531,0.496322,0.493587,0.497624
0.489924,0.518394,0.497997,0.493025,0.493495,0.49362,0.495451
0.491248,0.500121,0.499427,0.500864,0.493981,0.501397,0.495592
0.5,0.5,0.5,0.5,0.5,0.5,0.5
0.481396,0.52256,0.496762,0.492223,0.488017,0.493538,0.491485
0.492644,0.500359,0.499032,0.499997,0.495388,0.500826,0.496669
0.49078,0.518421,0.497215,0.492577,0.494919,0.493799,0.496552
0.493474,0.495703,0.499105,0.502184,0.496229,0.502971,0.497241
0.490823,0.504438,0.499519,0.499329,0.493203,0.499698,0.495028
0.490804,0.509116,0.498729,0.496957,0.493767,0.497706,0.495534
0.4908,0.513798,0.497936,0.494561,0.494338,0.495723,0.496045
0.49083,0.509139,0.498692,0.496804,0.493764,0.497661,0.495534
0.490838,0.50915,0.498675,0.496727,0.493761,0.497639,0.495534
0.490988,0.51364,0.498,0.494818,0.494379,0.496004,0.49606
0.492022,0.509163,0.4982,0.49649,0.495211,0.497654,0.496632
0.491644,0.509154,0.497952,0.496479,0.495187,0.497804,0.496627
0.5,0.5,0.5,0.5,0.5,0.5,0.5
0.5,0.5,0.5,0.5,0.5,0.5,0.5
0.472838,0.515618,0.497551,0.496608,0.480096,0.498435,0.485449
0.492924,0.504914,0.498285,0.497422,0.495985,0.498877,0.497188
0.491134,0.518201,0.497232,0.492389,0.494997,0.494338,0.496603
0.491802,0.509018,0.497972,0.496579,0.495221,0.498018,0.496641
0.489469,0.513275,0.499152,0.495371,0.491558,0.496297,0.493888
0.493757,0.491016,0.499831,0.504439,0.495653,0.504603,0.496704
0.491493,0.515584,0.498007,0.493658,0.494451,0.495314,0.496129
0.490399,0.513548,0.497434,0.494419,0.494359,0.496461,0.496072
0.495833,0.506418,0.499031,0.49754,0.497338,0.49832,0.498128
0.488178,0.508823,0.497851,0.496849,0.492242,0.498652,0.494426
0.491243,0.50891,0.498619,0.496693,0.493814,0.498,0.495556
0.492953,0.504391,0.498208,0.498453,0.496076,0.499803,0.497215
0.488599,0.52238,0.498075,0.490873,0.491323,0.493071,0.493859
0.5,0.5,0.5,0.5,0.5,0.5,0.5
0.484988,0.508419,0.496856,0.497419,0.490706,0.499863,0.493306
0.5,0.5,0.5,0.5,0.5,0.5,0.5
0.481052,0.535446,0.495508,0.485178,0.487119,0.489766,0.490966
0.496014,0.477362,0.501032,0.511078,0.496684,0.50934,0.497243
0.489344,0.517752,0.498038,0.492776,0.492167,0.495072,0.494442
0.493416,0.499804,0.499096,0.500583,0.495487,0.501289,0.496679
0.48876,0.526857,0.497291,0.488554,0.491981,0.491893,0.494434
0.494079,0.499754,0.498442,0.500384,0.496921,0.501461,0.497776
0.491472,0.504098,0.499225,0.499041,0.493232,0.499903,0.495027
0.493494,0.499621,0.4991,0.500946,0.495516,0.501521,0.496684
0.490401,0.527147,0.496128,0.48738,0.494884,0.491874,0.496677
0.492566,0.49944,0.49949,0.501457,0.494087,0.501686,0.495586
0.491473,0.513364,0.497787,0.494021,0.494465,0.49663,0.496127
0.492574,0.499448,0.499464,0.50136,0.494081,0.501632,0.495584
0.490908,0.513159,0.498425,0.494574,0.493047,0.496742,0.495028
0.494167,0.494941,0.499112,0.503201,0.496333,0.503304,0.497228
0.4899,0.517679,0.498113,0.49235,0.492207,0.495219,0.494473
0.5,0.5,0.5,0.5,0.5,0.5,0.5
0.484181,0.511863,0.497253,0.49629,0.488562,0.499022,0.491678
0.493893,0.508829,0.497883,0.495718,0.496779,0.498129,0.497802
0.491586,0.508492,0.498412,0.496703,0.493879,0.498591,0.495589
0.491088,0.503478,0.499713,0.500143,0.491858,0.500415,0.493935
0.493505,0.508644,0.497635,0.495939,0.496787,0.498506,0.497809
0.4926,0.503995,0.498677,0.498664,0.494696,0.500023,0.496136
0.491377,0.512818,0.498542,0.495097,0.493124,0.497236,0.495058
0.49256,0.508519,0.497979,0.496306,0.495343,0.498646,0.496706
0.493561,0.503978,0.498279,0.498469,0.496164,0.500107,0.497248
0.49208,0.503783,0.499237,0.499202,0.493273,0.500074,0.495034
0.492056,0.503575,0.49922,0.499691,0.493305,0.500381,0.495041
0.494586,0.494759,0.499236,0.503332,0.496352,0.503135,0.497217
0.489237,0.531362,0.496478,0.485067,0.492709,0.491316,0.495108
0.494612,0.494766,0.49921,0.503259,0.496346,0.503066,0.497214
0.493113,0.494351,0.500133,0.504562,0.493503,0.50335,0.495016
0.49087,0.522246,0.496836,0.489117,0.494353,0.494324,0.496211
0.5,0.5,0.5,0.5,0.5,0.5,0.5
0.483353,0.524941,0.496241,0.489606,0.487619,0.495115,0.49117
0.495171,0.485589,0.500696,0.508425,0.495079,0.505663,0.496063
0.492823,0.512898,0.497415,0.493941,0.496041,0.497523,0.49731
0.494129,0.489861,0.500357,0.506631,0.494296,0.504549,0.495535
0.49182,0.517499,0.497077,0.491478,0.495211,0.496105,0.496776
0.491777,0.512699,0.498526,0.49478,0.493149,0.49743,0.495084
