Time,q0,q1,q2,q3,q4,q5,q6
0,0,-0.65,0,1.8,0,0.42,0
1,-4.08423e-17,-0.633946,-4.87402e-17,1.82237,-1.40126e-17,0.433273,-4.85662e-19
2,-0.00173957,-0.634155,-0.00204213,1.8221,-0.00055748,0.433115,2.86295e-07
3,-0.0034568,-0.634159,-0.00405865,1.8221,-0.00110795,0.433119,2.97738e-07
4,-0.00517402,-0.634167,-0.00607513,1.8221,-0.00165842,0.43312,3.16406e-07
5,-0.00689106,-0.634176,-0.00809142,1.82209,-0.00220883,0.433122,3.39223e-07
6,-0.00860788,-0.634186,-0.0101074,1.82209,-0.00275916,0.433122,3.66218e-07
7,-0.0103244,-0.634197,-0.0121231,1.82208,-0.0033094,0.433123,3.97386e-07
8,-0.0120407,-0.63421,-0.0141385,1.82207,-0.00385954,0.433123,4.32721e-07
9,-0.0137565,-0.634224,-0.0161534,1.82206,-0.00440955,0.433123,4.72216e-07
10,-0.015472,-0.63424,-0.0181678,1.82204,-0.00495942,0.433122,5.15865e-07
11,-0.017187,-0.634256,-0.0201816,1.82203,-0.00550913,0.433121,5.63659e-07
12,-0.0189014,-0.634274,-0.0221948,1.82201,-0.00605867,0.433119,6.15589e-07
13,-0.0206153,-0.634293,-0.0242074,1.82199,-0.00660802,0.433117,6.71645e-07
14,-0.0223286,-0.634313,-0.0262193,1.82197,-0.00715717,0.433115,7.31816e-07
15,-0.0240412,-0.634335,-0.0282304,1.82194,-0.0077061,0.433112,7.9609e-07
16,-0.0257532,-0.634358,-0.0302406,1.82192,-0.00825479,0.433109,8.64455e-07
17,-0.0274643,-0.634382,-0.03225,1.82189,-0.00880322,0.433106,9.36898e-07
18,-0.0291747,-0.634407,-0.0342584,1.82186,-0.00935139,0.433102,1.0134e-06
19,-0.0308842,-0.634434,-0.0362659,1.82183,-0.00989927,0.433098,1.09396e-06
20,-0.0325928,-0.634462,-0.0382722,1.8218,-0.0104468,0.433094,1.17855e-06
21,-0.0343004,-0.634491,-0.0402775,1.82177,-0.0109941,0.433089,1.26715e-06
22,-0.0360071,-0.634521,-0.0422816,1.82173,-0.011541,0.433084,1.35976e-06
23,-0.0377127,-0.634552,-0.0442845,1.82169,-0.0120876,0.433078,1.45634e-06
24,-0.0394172,-0.634585,-0.046286,1.82165,-0.0126338,0.433072,1.55689e-06
25,-0.0411206,-0.634619,-0.0482863,1.82161,-0.0131797,0.433066,1.66138e-06
26,-0.0428228,-0.634654,-0.0502852,1.82157,-0.0137251,0.433059,1.76979e-06
27,-0.0445238,-0.63469,-0.0522826,1.82152,-0.0142702,0.433052,1.88211e-06
28,-0.0462235,-0.634728,-0.0542786,1.82147,-0.0148148,0.433044,1.9983e-06
29,-0.0479218,-0.634767,-0.056273,1.82142,-0.0153589,0.433036,2.11835e-06
30,-0.0496188,-0.634807,-0.0582658,1.82137,-0.0159026,0.433028,2.24224e-06
31,-0.0513144,-0.634848,-0.0602569,1.82132,-0.0164459,0.433019,2.36993e-06
32,-0.0530085,-0.63489,-0.0622463,1.82127,-0.0169886,0.433011,2.50141e-06
33,-0.0547012,-0.634934,-0.064234,1.82121,-0.0175309,0.433001,2.63665e-06
34,-0.0563922,-0.634978,-0.0662199,1.82115,-0.0180726,0.432992,2.77563e-06
35,-0.0580817,-0.635024,-0.0682039,1.82109,-0.0186138,0.432981,2.91831e-06
36,-0.0597695,-0.635071,-0.0701859,1.82103,-0.0191544,0.432971,3.06468e-06
37,-0.0614557,-0.63512,-0.0721661,1.82097,-0.0196945,0.43296,3.2147e-06
38,-0.0631401,-0.635169,-0.0741442,1.8209,-0.020234,0.432949,3.36834e-06
39,-0.0648228,-0.63522,-0.0761202,1.82084,-0.020773,0.432938,3.52557e-06
40,-0.0665036,-0.635271,-0.0780941,1.82077,-0.0213113,0.432926,3.68638e-06
41,-0.0681826,-0.635324,-0.0800659,1.8207,-0.021849,0.432914,3.85071e-06
42,-0.0698597,-0.635378,-0.0820354,1.82063,-0.0223861,0.432901,4.01856e-06
43,-0.0715348,-0.635433,-0.0840027,1.82055,-0.0229225,0.432888,4.18987e-06
44,-0.073208,-0.63549,-0.0859676,1.82048,-0.0234583,0.432875,4.36463e-06
45,-0.0748792,-0.635547,-0.0879302,1.8204,-0.0239934,0.432861,4.5428e-06
46,-0.0765482,-0.635605,-0.0898904,1.82032,-0.0245278,0.432848,4.72435e-06
47,-0.0782152,-0.635665,-0.0918481,1.82024,-0.0250615,0.432833,4.90923e-06
48,-0.07988,-0.635726,-0.0938033,1.82016,-0.0255945,0.432819,5.09743e-06
49,-0.0815427,-0.635788,-0.0957559,1.82008,-0.0261267,0.432804,5.2889e-06
50,-0.0832031,-0.635851,-0.097706,1.81999,-0.0266582,0.432789,5.48362e-06
51,-0.0848613,-0.635915,-0.0996534,1.8199,-0.027189,0.432773,5.68154e-06
52,-0.0865171,-0.63598,-0.101598,1.81981,-0.027719,0.432757,5.88263e-06
53,-0.0881706,-0.636046,-0.10354,1.81972,-0.0282482,0.432741,6.08685e-06
54,-0.0898217,-0.636113,-0.105479,1.81963,-0.0287767,0.432724,6.29417e-06
55,-0.0914704,-0.636181,-0.107416,1.81954,-0.0293043,0.432707,6.50455e-06
56,-0.0931167,-0.636251,-0.109349,1.81945,-0.0298311,0.43269,6.71796e-06
57,-0.0947605,-0.636321,-0.11128,1.81935,-0.0303571,0.432673,6.93435e-06
58,-0.0964017,-0.636393,-0.113207,1.81925,-0.0308822,0.432655,7.15369e-06
59,-0.0980403,-0.636465,-0.115132,1.81915,-0.0314065,0.432636,7.37594e-06
60,-0.0996764,-0.636539,-0.117054,1.81905,-0.0319299,0.432618,7.60106e-06
61,-0.10131,-0.636613,-0.118972,1.81895,-0.0324524,0.432599,7.82902e-06
62,-0.102941,-0.636689,-0.120888,1.81884,-0.0329741,0.43258,8.05977e-06
63,-0.104569,-0.636765,-0.1228,1.81874,-0.0334949,0.432561,8.29328e-06
64,-0.106194,-0.636843,-0.124709,1.81863,-0.0340147,0.432541,8.52951e-06
65,-0.107816,-0.636921,-0.126615,1.81852,-0.0345336,0.432521,8.76841e-06
66,-0.109436,-0.637001,-0.128517,1.81841,-0.0350516,0.432501,9.00995e-06
67,-0.111053,-0.637081,-0.130416,1.8183,-0.0355686,0.43248,9.25408e-06
68,-0.112667,-0.637163,-0.132312,1.81819,-0.0360847,0.432459,9.50078e-06
69,-0.114278,-0.637245,-0.134205,1.81807,-0.0365999,0.432438,9.74999e-06
70,-0.115886,-0.637328,-0.136094,1.81796,-0.037114,0.432416,1.00017e-05
71,-0.117491,-0.637413,-0.137979,1.81784,-0.0376272,0.432395,1.02558e-05
72,-0.119094,-0.637498,-0.139861,1.81772,-0.0381393,0.432372,1.05123e-05
73,-0.120693,-0.637584,-0.14174,1.8176,-0.0386505,0.43235,1.07712e-05
74,-0.122289,-0.637671,-0.143614,1.81748,-0.0391606,0.432327,1.10324e-05
75,-0.123882,-0.637759,-0.145486,1.81736,-0.0396697,0.432305,1.12958e-05
76,-0.125472,-0.637848,-0.147353,1.81724,-0.0401778,0.432281,1.15615e-05
77,-0.127058,-0.637938,-0.149217,1.81711,-0.0406848,0.432258,1.18294e-05
78,-0.128642,-0.638029,-0.151078,1.81698,-0.0411908,0.432234,1.20994e-05
79,-0.130222,-0.63812,-0.152934,1.81686,-0.0416957,0.43221,1.23715e-05
80,-0.131799,-0.638213,-0.154787,1.81673,-0.0421996,0.432186,1.26457e-05
81,-0.133373,-0.638306,-0.156636,1.8166,-0.0427024,0.432161,1.29219e-05
82,-0.134944,-0.6384,-0.158481,1.81646,-0.043204,0.432137,1.32001e-05
83,-0.136511,-0.638495,-0.160322,1.81633,-0.0437046,0.432112,1.34803e-05
84,-0.138075,-0.638591,-0.16216,1.8162,-0.0442041,0.432086,1.37623e-05
85,-0.139635,-0.638688,-0.163993,1.81606,-0.0447024,0.432061,1.40462e-05
86,-0.141193,-0.638785,-0.165822,1.81592,-0.0451996,0.432035,1.4332e-05
87,-0.142746,-0.638884,-0.167648,1.81579,-0.0456957,0.432009,1.46195e-05
88,-0.144297,-0.638983,-0.169469,1.81565,-0.0461907,0.431983,1.49087e-05
89,-0.145844,-0.639083,-0.171287,1.81551,-0.0466845,0.431956,1.51997e-05
90,-0.147387,-0.639183,-0.1731,1.81537,-0.0471772,0.431929,1.54922e-05
91,-0.148927,-0.639285,-0.174909,1.81522,-0.0476687,0.431902,1.57865e-05
92,-0.150463,-0.639387,-0.176714,1.81508,-0.048159,0.431875,1.60822e-05
93,-0.151996,-0.63949,-0.178515,1.81493,-0.0486482,0.431848,1.63795e-05
94,-0.153525,-0.639594,-0.180312,1.81479,-0.0491361,0.43182,1.66784e-05
95,-0.155051,-0.639698,-0.182105,1.81464,-0.0496229,0.431792,1.69786e-05
96,-0.156573,-0.639804,-0.183893,1.81449,-0.0501085,0.431764,1.72803e-05
97,-0.158091,-0.63991,-0.185677,1.81434,-0.0505929,0.431736,1.75834e-05
98,-0.159606,-0.640016,-0.187457,1.81419,-0.0510761,0.431707,1.78877e-05
99,-0.161117,-0.640124,-0.189233,1.81404,-0.051558,0.431678,1.81934e-05
100,-0.162624,-0.640232,-0.191004,1.81389,-0.0520388,0.431649,1.85004e-05
101,-0.164128,-0.640341,-0.192771,1.81374,-0.0525183,0.43162,1.88085e-05
102,-0.164205,-0.640345,-0.192862,1.81373,-0.0525429,0.43162,1.88092e-05
103,-0.164209,-0.640345,-0.192866,1.81373,-0.0525442,0.43162,1.88092e-05
104,-0.164209,-0.640345,-0.192867,1.81373,-0.0525443,0.43162,1.88092e-05
105,-0.164209,-0.640345,-0.192867,1.81373,-0.0525443,0.43162,1.88092e-05
106,-0.164209,-0.640345,-0.192867,1.81373,-0.0525443,0.43162,1.88092e-05
107,-0.164209,-0.640345,-0.192867,1.81373,-0.0525443,0.43162,1.88092e-05
108,-0.164209,-0.640345,-0.192867,1.81373,-0.0525443,0.43162,1.88092e-05
109,-0.164209,-0.640345,-0.192867,1.81373,-0.0525443,0.43162,1.88092e-05
110,-0.164209,-0.640345,-0.192867,1.81373,-0.0525443,0.43162,1.88092e-05
111,-0.164209,-0.640345,-0.192867,1.81373,-0.0525443,0.43162,1.88092e-05
112,-0.164209,-0.640345,-0.192867,1.81373,-0.0525443,0.43162,1.88092e-05
113,-0.164209,-0.640345,-0.192867,1.81373,-0.0525443,0.43162,1.88092e-05
114,-0.164209,-0.640345,-0.192867,1.81373,-0.0525443,0.43162,1.88092e-05
115,-0.164209,-0.640345,-0.192867,1.81373,-0.0525443,0.43162,1.88092e-05
116,-0.164209,-0.640345,-0.192867,1.81373,-0.0525443,0.43162,1.88092e-05
117,-0.164209,-0.640345,-0.192867,1.81373,-0.0525443,0.43162,1.88092e-05
118,-0.164209,-0.640345,-0.192867,1.81373,-0.0525443,0.43162,1.88092e-05
119,-0.164209,-0.640345,-0.192867,1.81373,-0.0525443,0.43162,1.88092e-05
120,-0.164209,-0.640345,-0.192867,1.81373,-0.0525443,0.43162,1.88092e-05
121,-0.164209,-0.640345,-0.192867,1.81373,-0.0525443,0.43162,1.88092e-05
122,-0.164209,-0.640345,-0.192867,1.81373,-0.0525443,0.43162,1.88092e-05
123,-0.164209,-0.640345,-0.192867,1.81373,-0.0525443,0.43162,1.88092e-05
124,-0.164209,-0.640345,-0.192867,1.81373,-0.0525443,0.43162,1.88092e-05
125,-0.164209,-0.640345,-0.192867,1.81373,-0.0525443,0.43162,1.88092e-05
126,-0.164209,-0.640345,-0.192867,1.81373,-0.0525443,0.43162,1.88092e-05
127,-0.164209,-0.640345,-0.192867,1.81373,-0.0525443,0.43162,1.88092e-05
128,-0.164209,-0.640345,-0.192867,1.81373,-0.0525443,0.43162,1.88092e-05
129,-0.164209,-0.640345,-0.192867,1.81373,-0.0525443,0.43162,1.88092e-05
130,-0.164209,-0.640345,-0.192867,1.81373,-0.0525443,0.43162,1.88092e-05
131,-0.164209,-0.640345,-0.192867,1.81373,-0.0525443,0.43162,1.88092e-05
132,-0.164209,-0.640345,-0.192867,1.81373,-0.0525443,0.43162,1.88092e-05
133,-0.164209,-0.640345,-0.192867,1.81373,-0.0525443,0.43162,1.88092e-05
134,-0.164209,-0.640345,-0.192867,1.81373,-0.0525443,0.43162,1.88092e-05
135,-0.164209,-0.640345,-0.192867,1.81373,-0.0525443,0.43162,1.88092e-05
136,-0.164209,-0.640345,-0.192867,1.81373,-0.0525443,0.43162,1.88092e-05
137,-0.164209,-0.640345,-0.192867,1.81373,-0.0525443,0.43162,1.88092e-05
138,-0.164209,-0.640345,-0.192867,1.81373,-0.0525443,0.43162,1.88092e-05
139,-0.164209,-0.640345,-0.192867,1.81373,-0.0525443,0.43162,1.88092e-05
140,-0.164209,-0.640345,-0.192867,1.81373,-0.0525443,0.43162,1.88092e-05
141,-0.164209,-0.640345,-0.192867,1.81373,-0.0525443,0.43162,1.88092e-05
142,-0.164209,-0.640345,-0.192867,1.81373,-0.0525443,0.43162,1.88092e-05
143,-0.164209,-0.640345,-0.192867,1.81373,-0.0525443,0.43162,1.88092e-05
144,-0.164209,-0.640345,-0.192867,1.81373,-0.0525443,0.43162,1.88092e-05
145,-0.164209,-0.640345,-0.192867,1.81373,-0.0525443,0.43162,1.88092e-05
146,-0.164209,-0.640345,-0.192867,1.81373,-0.0525443,0.43162,1.88092e-05
147,-0.164209,-0.640345,-0.192867,1.81373,-0.0525443,0.43162,1.88092e-05
148,-0.164209,-0.640345,-0.192867,1.81373,-0.0525443,0.43162,1.88092e-05
149,-0.164209,-0.640345,-0.192867,1.81373,-0.0525443,0.43162,1.88092e-05
150,-0.164209,-0.640345,-0.192867,1.81373,-0.0525443,0.43162,1.88092e-05
151,-0.164209,-0.640345,-0.192867,1.81373,-0.0525443,0.43162,1.88092e-05
152,-0.164209,-0.640345,-0.192867,1.81373,-0.0525443,0.43162,1.88092e-05
153,-0.164209,-0.640345,-0.192867,1.81373,-0.0525443,0.43162,1.88092e-05
154,-0.164209,-0.640345,-0.192867,1.81373,-0.0525443,0.43162,1.88092e-05
155,-0.164209,-0.640345,-0.192867,1.81373,-0.0525443,0.43162,1.88092e-05
156,-0.164209,-0.640345,-0.192867,1.81373,-0.0525443,0.43162,1.88092e-05
157,-0.164209,-0.640345,-0.192867,1.81373,-0.0525443,0.43162,1.88092e-05
158,-0.164209,-0.640345,-0.192867,1.81373,-0.0525443,0.43162,1.88092e-05
159,-0.164209,-0.640345,-0.192867,1.81373,-0.0525443,0.43162,1.88092e-05
160,-0.164209,-0.640345,-0.192867,1.81373,-0.0525443,0.43162,1.88092e-05
161,-0.164209,-0.640345,-0.192867,1.81373,-0.0525443,0.43162,1.88092e-05
162,-0.164209,-0.640345,-0.192867,1.81373,-0.0525443,0.43162,1.88092e-05
163,-0.164209,-0.640345,-0.192867,1.81373,-0.0525443,0.43162,1.88092e-05
164,-0.164209,-0.640345,-0.192867,1.81373,-0.0525443,0.43162,1.88092e-05
165,-0.164209,-0.640345,-0.192867,1.81373,-0.0525443,0.43162,1.88092e-05
166,-0.164209,-0.640345,-0.192867,1.81373,-0.0525443,0.43162,1.88092e-05
167,-0.164209,-0.640345,-0.192867,1.81373,-0.0525443,0.43162,1.88092e-05
168,-0.164209,-0.640345,-0.192867,1.81373,-0.0525443,0.43162,1.88092e-05
169,-0.164209,-0.640345,-0.192867,1.81373,-0.0525443,0.43162,1.88092e-05
170,-0.164209,-0.640345,-0.192867,1.81373,-0.0525443,0.43162,1.88092e-05
171,-0.164209,-0.640345,-0.192867,1.81373,-0.0525443,0.43162,1.88092e-05
172,-0.164209,-0.640345,-0.192867,1.81373,-0.0525443,0.43162,1.88092e-05
173,-0.164209,-0.640345,-0.192867,1.81373,-0.0525443,0.43162,1.88092e-05
174,-0.164209,-0.640345,-0.192867,1.81373,-0.0525443,0.43162,1.88092e-05
175,-0.164209,-0.640345,-0.192867,1.81373,-0.0525443,0.43162,1.88092e-05
176,-0.164209,-0.640345,-0.192867,1.81373,-0.0525443,0.43162,1.88092e-05
177,-0.164209,-0.640345,-0.192867,1.81373,-0.0525443,0.43162,1.88092e-05
178,-0.164209,-0.640345,-0.192867,1.81373,-0.0525443,0.43162,1.88092e-05
179,-0.164209,-0.640345,-0.192867,1.81373,-0.0525443,0.43162,1.88092e-05
180,-0.164209,-0.640345,-0.192867,1.81373,-0.0525443,0.43162,1.88092e-05
181,-0.164209,-0.640345,-0.192867,1.81373,-0.0525443,0.43162,1.88092e-05
182,-0.164209,-0.640345,-0.192867,1.81373,-0.0525443,0.43162,1.88092e-05
183,-0.164209,-0.640345,-0.192867,1.81373,-0.0525443,0.43162,1.88092e-05
184,-0.164209,-0.640345,-0.192867,1.81373,-0.0525443,0.43162,1.88092e-05
185,-0.164209,-0.640345,-0.192867,1.81373,-0.0525443,0.43162,1.88092e-05
186,-0.164209,-0.640345,-0.192867,1.81373,-0.0525443,0.43162,1.88092e-05
187,-0.164209,-0.640345,-0.192867,1.81373,-0.0525443,0.43162,1.88092e-05
188,-0.164209,-0.640345,-0.192867,1.81373,-0.0525443,0.43162,1.88092e-05
189,-0.164209,-0.640345,-0.192867,1.81373,-0.0525443,0.43162,1.88092e-05
190,-0.164209,-0.640345,-0.192867,1.81373,-0.0525443,0.43162,1.88092e-05
191,-0.164209,-0.640345,-0.192867,1.81373,-0.0525443,0.43162,1.88092e-05
192,-0.164209,-0.640345,-0.192867,1.81373,-0.0525443,0.43162,1.88092e-05
193,-0.164209,-0.640345,-0.192867,1.81373,-0.0525443,0.43162,1.88092e-05
194,-0.164209,-0.640345,-0.192867,1.81373,-0.0525443,0.43162,1.88092e-05
195,-0.164209,-0.640345,-0.192867,1.81373,-0.0525443,0.43162,1.88092e-05
196,-0.164209,-0.640345,-0.192867,1.81373,-0.0525443,0.43162,1.88092e-05
197,-0.164209,-0.640345,-0.192867,1.81373,-0.0525443,0.43162,1.88092e-05
198,-0.164209,-0.640345,-0.192867,1.81373,-0.0525443,0.43162,1.88092e-05
199,-0.164209,-0.640345,-0.192867,1.81373,-0.0525443,0.43162,1.88092e-05
200,-0.164209,-0.640345,-0.192867,1.81373,-0.0525443,0.43162,1.88092e-05
201,-0.164209,-0.640345,-0.192867,1.81373,-0.0525443,0.43162,1.88092e-05
202,-0.162747,-0.640728,-0.191075,1.81322,-0.0520673,0.431264,1.85374e-05
203,-0.161208,-0.641129,-0.18919,1.81269,-0.0515659,0.430892,1.82358e-05
204,-0.159664,-0.641532,-0.187296,1.81215,-0.0510628,0.430518,1.79284e-05
205,-0.158117,-0.641938,-0.185399,1.81161,-0.0505593,0.430144,1.76162e-05
206,-0.156569,-0.642346,-0.183498,1.81106,-0.0500555,0.429768,1.72992e-05
207,-0.155019,-0.642755,-0.181594,1.81052,-0.0495512,0.429392,1.69775e-05
208,-0.153467,-0.643166,-0.179686,1.80997,-0.0490467,0.429014,1.6651e-05
209,-0.151913,-0.643579,-0.177775,1.80942,-0.0485418,0.428636,1.63196e-05
210,-0.150357,-0.643994,-0.17586,1.80887,-0.0480365,0.428257,1.59834e-05
211,-0.1488,-0.644411,-0.173943,1.80831,-0.047531,0.427877,1.56424e-05
212,-0.147241,-0.644829,-0.172021,1.80776,-0.0470252,0.427496,1.52964e-05
213,-0.14568,-0.645249,-0.170097,1.8072,-0.0465191,0.427115,1.49455e-05
214,-0.144118,-0.645671,-0.168169,1.80663,-0.0460128,0.426732,1.45897e-05
215,-0.142554,-0.646095,-0.166238,1.80607,-0.0455062,0.426349,1.4229e-05
216,-0.140988,-0.646521,-0.164304,1.8055,-0.0449993,0.425965,1.38633e-05
217,-0.139421,-0.646948,-0.162367,1.80493,-0.0444923,0.42558,1.34926e-05
218,-0.137853,-0.647378,-0.160427,1.80436,-0.043985,0.425195,1.31169e-05
219,-0.136283,-0.647809,-0.158484,1.80379,-0.0434776,0.424808,1.27362e-05
220,-0.134712,-0.648241,-0.156538,1.80321,-0.04297,0.424421,1.23505e-05
221,-0.133139,-0.648676,-0.154589,1.80264,-0.0424622,0.424034,1.19597e-05
222,-0.131566,-0.649112,-0.152637,1.80205,-0.0419543,0.423645,1.15639e-05
223,-0.129991,-0.64955,-0.150682,1.80147,-0.0414462,0.423256,1.1163e-05
224,-0.128414,-0.64999,-0.148725,1.80089,-0.0409381,0.422866,1.0757e-05
225,-0.126837,-0.650431,-0.146765,1.8003,-0.0404298,0.422476,1.03459e-05
226,-0.125259,-0.650874,-0.144802,1.79971,-0.0399214,0.422085,9.92977e-06
227,-0.123679,-0.651319,-0.142837,1.79912,-0.039413,0.421693,9.50849e-06
228,-0.122099,-0.651765,-0.140869,1.79853,-0.0389045,0.421301,9.0821e-06
229,-0.120517,-0.652214,-0.138898,1.79793,-0.038396,0.420908,8.65058e-06
230,-0.118935,-0.652663,-0.136926,1.79733,-0.0378874,0.420514,8.21394e-06
231,-0.117351,-0.653115,-0.13495,1.79673,-0.0373788,0.42012,7.77216e-06
232,-0.115767,-0.653568,-0.132973,1.79613,-0.0368703,0.419725,7.32523e-06
233,-0.114182,-0.654023,-0.130993,1.79553,-0.0363617,0.41933,6.87317e-06
234,-0.112596,-0.654479,-0.129011,1.79492,-0.0358532,0.418935,6.41596e-06
235,-0.11101,-0.654937,-0.127026,1.79432,-0.0353447,0.418538,5.95361e-06
236,-0.109423,-0.655396,-0.12504,1.79371,-0.0348363,0.418142,5.4861e-06
237,-0.107835,-0.655858,-0.123051,1.7931,-0.034328,0.417745,5.01345e-06
238,-0.106247,-0.65632,-0.12106,1.79248,-0.0338197,0.417347,4.53566e-06
239,-0.104658,-0.656784,-0.119068,1.79187,-0.0333116,0.416949,4.05272e-06
240,-0.103069,-0.65725,-0.117073,1.79125,-0.0328035,0.416551,3.56464e-06
241,-0.101479,-0.657718,-0.115077,1.79063,-0.0322957,0.416152,3.07143e-06
242,-0.0998887,-0.658186,-0.113078,1.79001,-0.0317879,0.415752,2.57308e-06
243,-0.0982983,-0.658657,-0.111078,1.78939,-0.0312804,0.415353,2.06962e-06
244,-0.0967075,-0.659128,-0.109077,1.78877,-0.030773,0.414953,1.56104e-06
245,-0.0951166,-0.659602,-0.107073,1.78814,-0.0302658,0.414553,1.04735e-06
246,-0.0935254,-0.660076,-0.105068,1.78751,-0.0297588,0.414152,5.28557e-07
247,-0.091934,-0.660553,-0.103061,1.78688,-0.0292521,0.413751,4.6817e-09
248,-0.0903426,-0.66103,-0.101053,1.78625,-0.0287456,0.41335,-5.2427e-07
249,-0.0887511,-0.661509,-0.0990438,1.78562,-0.0282393,0.412948,-1.05829e-06
250,-0.0871596,-0.66199,-0.0970329,1.78499,-0.0277334,0.412547,-1.59735e-06
251,-0.0855681,-0.662472,-0.0950207,1.78435,-0.0272277,0.412145,-2.14145e-06
252,-0.0839768,-0.662955,-0.0930072,1.78372,-0.0267223,0.411742,-2.69057e-06
253,-0.0823855,-0.663439,-0.0909926,1.78308,-0.0262172,0.41134,-3.2447e-06
254,-0.0807944,-0.663925,-0.0889767,1.78244,-0.0257125,0.410937,-3.80381e-06
255,-0.0792036,-0.664412,-0.0869598,1.7818,-0.0252081,0.410535,-4.36788e-06
256,-0.077613,-0.664901,-0.0849418,1.78116,-0.024704,0.410132,-4.93691e-06
257,-0.0760228,-0.665391,-0.0829228,1.78051,-0.0242004,0.409729,-5.51086e-06
258,-0.0744329,-0.665882,-0.080903,1.77987,-0.0236971,0.409326,-6.08971e-06
259,-0.0728434,-0.666374,-0.0788822,1.77922,-0.0231943,0.408922,-6.67345e-06
260,-0.0712544,-0.666868,-0.0768607,1.77857,-0.0226918,0.408519,-7.26204e-06
261,-0.0696659,-0.667363,-0.0748384,1.77792,-0.0221898,0.408116,-7.85547e-06
262,-0.068078,-0.667859,-0.0728154,1.77727,-0.0216883,0.407712,-8.4537e-06
263,-0.0664906,-0.668356,-0.0707918,1.77662,-0.0211872,0.407309,-9.05672e-06
264,-0.064904,-0.668854,-0.0687677,1.77597,-0.0206865,0.406905,-9.66449e-06
265,-0.063318,-0.669354,-0.066743,1.77532,-0.0201864,0.406502,-1.0277e-05
266,-0.0617327,-0.669854,-0.0647178,1.77466,-0.0196868,0.406098,-1.08942e-05
267,-0.0601483,-0.670356,-0.0626923,1.77401,-0.0191877,0.405695,-1.1516e-05
268,-0.0585646,-0.670859,-0.0606664,1.77335,-0.0186891,0.405292,-1.21425e-05
269,-0.0569819,-0.671363,-0.0586403,1.77269,-0.0181911,0.404888,-1.27736e-05
270,-0.0554001,-0.671868,-0.0566139,1.77203,-0.0176936,0.404485,-1.34092e-05
271,-0.0538193,-0.672374,-0.0545874,1.77137,-0.0171967,0.404082,-1.40494e-05
272,-0.0522395,-0.672882,-0.0525607,1.77071,-0.0167004,0.403679,-1.46941e-05
273,-0.0506607,-0.67339,-0.050534,1.77005,-0.0162048,0.403276,-1.53432e-05
274,-0.0490831,-0.673899,-0.0485074,1.76939,-0.0157097,0.402874,-1.59968e-05
275,-0.0475066,-0.674409,-0.0464808,1.76873,-0.0152152,0.402471,-1.66547e-05
276,-0.0459313,-0.67492,-0.0444543,1.76806,-0.0147214,0.402069,-1.7317e-05
277,-0.0443573,-0.675432,-0.042428,1.7674,-0.0142283,0.401667,-1.79836e-05
278,-0.0427846,-0.675945,-0.040402,1.76673,-0.0137358,0.401265,-1.86544e-05
279,-0.0412132,-0.676459,-0.0383763,1.76607,-0.013244,0.400864,-1.93295e-05
280,-0.0396432,-0.676974,-0.0363509,1.7654,-0.0127529,0.400463,-2.00088e-05
281,-0.0380746,-0.677489,-0.034326,1.76473,-0.0122625,0.400062,-2.06922e-05
282,-0.0365075,-0.678006,-0.0323015,1.76407,-0.0117728,0.399661,-2.13796e-05
283,-0.0349419,-0.678523,-0.0302776,1.7634,-0.0112839,0.399261,-2.20712e-05
284,-0.0333779,-0.679041,-0.0282543,1.76273,-0.0107957,0.398861,-2.27667e-05
285,-0.0318155,-0.67956,-0.0262316,1.76206,-0.0103083,0.398461,-2.34662e-05
286,-0.0302547,-0.68008,-0.0242097,1.76139,-0.00982161,0.398062,-2.41696e-05
287,-0.0286956,-0.6806,-0.0221885,1.76072,-0.00933573,0.397663,-2.48768e-05
288,-0.0271383,-0.681121,-0.0201681,1.76005,-0.00885065,0.397264,-2.55879e-05
289,-0.0255827,-0.681643,-0.0181486,1.75938,-0.00836637,0.396866,-2.63027e-05
290,-0.0240289,-0.682166,-0.0161301,1.75871,-0.00788292,0.396468,-2.70212e-05
291,-0.022477,-0.682689,-0.0141125,1.75803,-0.00740029,0.396071,-2.77434e-05
292,-0.020927,-0.683213,-0.012096,1.75736,-0.00691851,0.395674,-2.84692e-05
293,-0.0193789,-0.683737,-0.0100806,1.75669,-0.00643758,0.395278,-2.91986e-05
294,-0.0178328,-0.684262,-0.00806631,1.75602,-0.00595752,0.394882,-2.99315e-05
295,-0.0162888,-0.684788,-0.00605327,1.75535,-0.00547834,0.394487,-3.06678e-05
296,-0.0147468,-0.685314,-0.0040415,1.75467,-0.00500004,0.394092,-3.14075e-05
297,-0.0132069,-0.685841,-0.00203106,1.754,-0.00452264,0.393698,-3.21505e-05
298,-0.0116691,-0.686368,-2.19955e-05,1.75333,-0.00404615,0.393304,-3.28969e-05
299,-0.0101335,-0.686896,0.00198564,1.75265,-0.00357059,0.392911,-3.36465e-05
300,-0.00860015,-0.687425,0.00399178,1.75198,-0.00309595,0.392519,-3.43992e-05
301,-0.00706905,-0.687953,0.00599639,1.75131,-0.00262225,0.392127,-3.51551e-05
302,-0.00701587,-0.687969,0.00606606,1.75129,-0.00260578,0.392115,-3.51559e-05
303,-0.00701404,-0.68797,0.00606846,1.75129,-0.00260521,0.392115,-3.51559e-05
304,-0.00701398,-0.68797,0.00606854,1.75129,-0.00260519,0.392115,-3.51559e-05
305,-0.00701397,-0.68797,0.00606855,1.75129,-0.00260519,0.392115,-3.51559e-05
306,-0.00701397,-0.68797,0.00606855,1.75129,-0.00260519,0.392115,-3.51559e-05
307,-0.00701397,-0.68797,0.00606855,1.75129,-0.00260519,0.392115,-3.51559e-05
308,-0.00701397,-0.68797,0.00606855,1.75129,-0.00260519,0.392115,-3.51559e-05
309,-0.00701397,-0.68797,0.00606855,1.75129,-0.00260519,0.392115,-3.51559e-05
310,-0.00701397,-0.68797,0.00606855,1.75129,-0.00260519,0.392115,-3.51559e-05
311,-0.00701397,-0.68797,0.00606855,1.75129,-0.00260519,0.392115,-3.51559e-05
312,-0.00701397,-0.68797,0.00606855,1.75129,-0.00260519,0.392115,-3.51559e-05
313,-0.00701397,-0.68797,0.00606855,1.75129,-0.00260519,0.392115,-3.51559e-05
314,-0.00701397,-0.68797,0.00606855,1.75129,-0.00260519,0.392115,-3.51559e-05
315,-0.00701397,-0.68797,0.00606855,1.75129,-0.00260519,0.392115,-3.51559e-05
316,-0.00701397,-0.68797,0.00606855,1.75129,-0.00260519,0.392115,-3.51559e-05
317,-0.00701397,-0.68797,0.00606855,1.75129,-0.00260519,0.392115,-3.51559e-05
318,-0.00701397,-0.68797,0.00606855,1.75129,-0.00260519,0.392115,-3.51559e-05
319,-0.00701397,-0.68797,0.00606855,1.75129,-0.00260519,0.392115,-3.51559e-05
320,-0.00701397,-0.68797,0.00606855,1.75129,-0.00260519,0.392115,-3.51559e-05
321,-0.00701397,-0.68797,0.00606855,1.75129,-0.00260519,0.392115,-3.51559e-05
322,-0.00701397,-0.68797,0.00606855,1.75129,-0.00260519,0.392115,-3.51559e-05
323,-0.00701397,-0.68797,0.00606855,1.75129,-0.00260519,0.392115,-3.51559e-05
324,-0.00701397,-0.68797,0.00606855,1.75129,-0.00260519,0.392115,-3.51559e-05
325,-0.00701397,-0.68797,0.00606855,1.75129,-0.00260519,0.392115,-3.51559e-05
326,-0.00701397,-0.68797,0.00606855,1.75129,-0.00260519,0.392115,-3.51559e-05
327,-0.00701397,-0.68797,0.00606855,1.75129,-0.00260519,0.392115,-3.51559e-05
328,-0.00701397,-0.68797,0.00606855,1.75129,-0.00260519,0.392115,-3.51559e-05
329,-0.00701397,-0.68797,0.00606855,1.75129,-0.00260519,0.392115,-3.51559e-05
330,-0.00701397,-0.68797,0.00606855,1.75129,-0.00260519,0.392115,-3.51559e-05
331,-0.00701397,-0.68797,0.00606855,1.75129,-0.00260519,0.392115,-3.51559e-05
332,-0.00701397,-0.68797,0.00606855,1.75129,-0.00260519,0.392115,-3.51559e-05
333,-0.00701397,-0.68797,0.00606855,1.75129,-0.00260519,0.392115,-3.51559e-05
334,-0.00701397,-0.68797,0.00606855,1.75129,-0.00260519,0.392115,-3.51559e-05
335,-0.00701397,-0.68797,0.00606855,1.75129,-0.00260519,0.392115,-3.51559e-05
336,-0.00701397,-0.68797,0.00606855,1.75129,-0.00260519,0.392115,-3.51559e-05
337,-0.00701397,-0.68797,0.00606855,1.75129,-0.00260519,0.392115,-3.51559e-05
338,-0.00701397,-0.68797,0.00606855,1.75129,-0.00260519,0.392115,-3.51559e-05
339,-0.00701397,-0.68797,0.00606855,1.75129,-0.00260519,0.392115,-3.51559e-05
340,-0.00701397,-0.68797,0.00606855,1.75129,-0.00260519,0.392115,-3.51559e-05
341,-0.00701397,-0.68797,0.00606855,1.75129,-0.00260519,0.392115,-3.51559e-05
342,-0.00701397,-0.68797,0.00606855,1.75129,-0.00260519,0.392115,-3.51559e-05
343,-0.00701397,-0.68797,0.00606855,1.75129,-0.00260519,0.392115,-3.51559e-05
344,-0.00701397,-0.68797,0.00606855,1.75129,-0.00260519,0.392115,-3.51559e-05
345,-0.00701397,-0.68797,0.00606855,1.75129,-0.00260519,0.392115,-3.51559e-05
346,-0.00701397,-0.68797,0.00606855,1.75129,-0.00260519,0.392115,-3.51559e-05
347,-0.00701397,-0.68797,0.00606855,1.75129,-0.00260519,0.392115,-3.51559e-05
348,-0.00701397,-0.68797,0.00606855,1.75129,-0.00260519,0.392115,-3.51559e-05
349,-0.00701397,-0.68797,0.00606855,1.75129,-0.00260519,0.392115,-3.51559e-05
350,-0.00701397,-0.68797,0.00606855,1.75129,-0.00260519,0.392115,-3.51559e-05
351,-0.00701397,-0.68797,0.00606855,1.75129,-0.00260519,0.392115,-3.51559e-05
352,-0.00701397,-0.68797,0.00606855,1.75129,-0.00260519,0.392115,-3.51559e-05
353,-0.00701397,-0.68797,0.00606855,1.75129,-0.00260519,0.392115,-3.51559e-05
354,-0.00701397,-0.68797,0.00606855,1.75129,-0.00260519,0.392115,-3.51559e-05
355,-0.00701397,-0.68797,0.00606855,1.75129,-0.00260519,0.392115,-3.51559e-05
356,-0.00701397,-0.68797,0.00606855,1.75129,-0.00260519,0.392115,-3.51559e-05
357,-0.00701397,-0.68797,0.00606855,1.75129,-0.00260519,0.392115,-3.51559e-05
358,-0.00701397,-0.68797,0.00606855,1.75129,-0.00260519,0.392115,-3.51559e-05
359,-0.00701397,-0.68797,0.00606855,1.75129,-0.00260519,0.392115,-3.51559e-05
360,-0.00701397,-0.68797,0.00606855,1.75129,-0.00260519,0.392115,-3.51559e-05
361,-0.00701397,-0.68797,0.00606855,1.75129,-0.00260519,0.392115,-3.51559e-05
362,-0.00701397,-0.68797,0.00606855,1.75129,-0.00260519,0.392115,-3.51559e-05
363,-0.00701397,-0.68797,0.00606855,1.75129,-0.00260519,0.392115,-3.51559e-05
364,-0.00701397,-0.68797,0.00606855,1.75129,-0.00260519,0.392115,-3.51559e-05
365,-0.00701397,-0.68797,0.00606855,1.75129,-0.00260519,0.392115,-3.51559e-05
366,-0.00701397,-0.68797,0.00606855,1.75129,-0.00260519,0.392115,-3.51559e-05
367,-0.00701397,-0.68797,0.00606855,1.75129,-0.00260519,0.392115,-3.51559e-05
368,-0.00701397,-0.68797,0.00606855,1.75129,-0.00260519,0.392115,-3.51559e-05
369,-0.00701397,-0.68797,0.00606855,1.75129,-0.00260519,0.392115,-3.51559e-05
370,-0.00701397,-0.68797,0.00606855,1.75129,-0.00260519,0.392115,-3.51559e-05
371,-0.00701397,-0.68797,0.00606855,1.75129,-0.00260519,0.392115,-3.51559e-05
372,-0.00701397,-0.68797,0.00606855,1.75129,-0.00260519,0.392115,-3.51559e-05
373,-0.00701397,-0.68797,0.00606855,1.75129,-0.00260519,0.392115,-3.51559e-05
374,-0.00701397,-0.68797,0.00606855,1.75129,-0.00260519,0.392115,-3.51559e-05
375,-0.00701397,-0.68797,0.00606855,1.75129,-0.00260519,0.392115,-3.51559e-05
376,-0.00701397,-0.68797,0.00606855,1.75129,-0.00260519,0.392115,-3.51559e-05
377,-0.00701397,-0.68797,0.00606855,1.75129,-0.00260519,0.392115,-3.51559e-05
378,-0.00701397,-0.68797,0.00606855,1.75129,-0.00260519,0.392115,-3.51559e-05
379,-0.00701397,-0.68797,0.00606855,1.75129,-0.00260519,0.392115,-3.51559e-05
380,-0.00701397,-0.68797,0.00606855,1.75129,-0.00260519,0.392115,-3.51559e-05
381,-0.00701397,-0.68797,0.00606855,1.75129,-0.00260519,0.392115,-3.51559e-05
382,-0.00701397,-0.68797,0.00606855,1.75129,-0.00260519,0.392115,-3.51559e-05
383,-0.00701397,-0.68797,0.00606855,1.75129,-0.00260519,0.392115,-3.51559e-05
384,-0.00701397,-0.68797,0.00606855,1.75129,-0.00260519,0.392115,-3.51559e-05
385,-0.00701397,-0.68797,0.00606855,1.75129,-0.00260519,0.392115,-3.51559e-05
386,-0.00701397,-0.68797,0.00606855,1.75129,-0.00260519,0.392115,-3.51559e-05
387,-0.00701397,-0.68797,0.00606855,1.75129,-0.00260519,0.392115,-3.51559e-05
388,-0.00701397,-0.68797,0.00606855,1.75129,-0.00260519,0.392115,-3.51559e-05
389,-0.00701397,-0.68797,0.00606855,1.75129,-0.00260519,0.392115,-3.51559e-05
390,-0.00701397,-0.68797,0.00606855,1.75129,-0.00260519,0.392115,-3.51559e-05
391,-0.00701397,-0.68797,0.00606855,1.75129,-0.00260519,0.392115,-3.51559e-05
392,-0.00701397,-0.68797,0.00606855,1.75129,-0.00260519,0.392115,-3.51559e-05
393,-0.00701397,-0.68797,0.00606855,1.75129,-0.00260519,0.392115,-3.51559e-05
394,-0.00701397,-0.68797,0.00606855,1.75129,-0.00260519,0.392115,-3.51559e-05
395,-0.00701397,-0.68797,0.00606855,1.75129,-0.00260519,0.392115,-3.51559e-05
396,-0.00701397,-0.68797,0.00606855,1.75129,-0.00260519,0.392115,-3.51559e-05
397,-0.00701397,-0.68797,0.00606855,1.75129,-0.00260519,0.392115,-3.51559e-05
398,-0.00701397,-0.68797,0.00606855,1.75129,-0.00260519,0.392115,-3.51559e-05
399,-0.00701397,-0.68797,0.00606855,1.75129,-0.00260519,0.392115,-3.51559e-05
400,-0.00701397,-0.68797,0.00606855,1.75129,-0.00260519,0.392115,-3.51559e-05
401,-0.00701397,-0.68797,0.00606855,1.75129,-0.00260519,0.392115,-3.51559e-05
402,-0.00849305,-0.687972,0.00412882,1.75129,-0.00306415,0.392121,-3.51608e-05
403,-0.010023,-0.687976,0.00212236,1.75129,-0.00353891,0.392129,-3.51623e-05
404,-0.0115546,-0.68798,0.000113746,1.7513,-0.00401418,0.392136,-3.516e-05
405,-0.0130862,-0.687985,-0.00189475,1.7513,-0.00448943,0.392144,-3.51538e-05
406,-0.0146175,-0.687991,-0.00390299,1.7513,-0.00496462,0.392152,-3.51439e-05
407,-0.0161486,-0.687997,-0.00591093,1.7513,-0.00543975,0.39216,-3.51301e-05
408,-0.0176795,-0.688005,-0.00791852,1.7513,-0.0059148,0.392168,-3.51124e-05
409,-0.0192101,-0.688013,-0.0099257,1.7513,-0.00638977,0.392177,-3.5091e-05
410,-0.0207403,-0.688022,-0.0119324,1.7513,-0.00686463,0.392185,-3.50657e-05
411,-0.0222701,-0.688032,-0.0139387,1.7513,-0.00733938,0.392194,-3.50366e-05
412,-0.0237996,-0.688042,-0.0159443,1.75129,-0.007814,0.392203,-3.50037e-05
413,-0.0253285,-0.688054,-0.0179494,1.75129,-0.00828849,0.392211,-3.4967e-05
414,-0.026857,-0.688066,-0.0199538,1.75129,-0.00876283,0.39222,-3.49266e-05
415,-0.028385,-0.688079,-0.0219575,1.75128,-0.00923701,0.39223,-3.48823e-05
416,-0.0299124,-0.688093,-0.0239604,1.75127,-0.00971101,0.392239,-3.48343e-05
417,-0.0314391,-0.688108,-0.0259625,1.75127,-0.0101848,0.392248,-3.47825e-05
418,-0.0329653,-0.688123,-0.0279638,1.75126,-0.0106585,0.392258,-3.47269e-05
419,-0.0344907,-0.688139,-0.0299642,1.75125,-0.0111319,0.392267,-3.46677e-05
420,-0.0360154,-0.688157,-0.0319636,1.75124,-0.0116051,0.392277,-3.46046e-05
421,-0.0375394,-0.688174,-0.033962,1.75123,-0.0120781,0.392287,-3.45379e-05
422,-0.0390626,-0.688193,-0.0359594,1.75122,-0.0125508,0.392297,-3.44675e-05
423,-0.0405849,-0.688213,-0.0379556,1.75121,-0.0130233,0.392307,-3.43934e-05
424,-0.0421064,-0.688233,-0.0399507,1.7512,-0.0134955,0.392318,-3.43156e-05
425,-0.0436269,-0.688254,-0.0419446,1.75118,-0.0139674,0.392328,-3.42342e-05
426,-0.0451466,-0.688276,-0.0439373,1.75117,-0.014439,0.392339,-3.41491e-05
427,-0.0466652,-0.688298,-0.0459286,1.75116,-0.0149104,0.392349,-3.40604e-05
428,-0.0481828,-0.688322,-0.0479186,1.75114,-0.0153814,0.39236,-3.39681e-05
429,-0.0496994,-0.688346,-0.0499072,1.75112,-0.0158521,0.392371,-3.38722e-05
430,-0.0512149,-0.688371,-0.0518944,1.75111,-0.0163225,0.392382,-3.37727e-05
431,-0.0527292,-0.688397,-0.0538801,1.75109,-0.0167925,0.392393,-3.36697e-05
432,-0.0542424,-0.688423,-0.0558642,1.75107,-0.0172622,0.392405,-3.35632e-05
433,-0.0557544,-0.68845,-0.0578468,1.75105,-0.0177315,0.392416,-3.34531e-05
434,-0.0572651,-0.688478,-0.0598277,1.75103,-0.0182005,0.392428,-3.33395e-05
435,-0.0587746,-0.688507,-0.061807,1.75101,-0.018669,0.392439,-3.32225e-05
436,-0.0602828,-0.688537,-0.0637845,1.75099,-0.0191372,0.392451,-3.3102e-05
437,-0.0617896,-0.688567,-0.0657602,1.75097,-0.0196049,0.392463,-3.29781e-05
438,-0.0632951,-0.688598,-0.0677342,1.75095,-0.0200722,0.392475,-3.28508e-05
439,-0.0647992,-0.68863,-0.0697063,1.75092,-0.0205391,0.392487,-3.27201e-05
440,-0.0663018,-0.688663,-0.0716765,1.7509,-0.0210056,0.392499,-3.25861e-05
441,-0.0678029,-0.688696,-0.0736447,1.75087,-0.0214715,0.392512,-3.24487e-05
442,-0.0693026,-0.68873,-0.0756109,1.75085,-0.0219371,0.392524,-3.2308e-05
443,-0.0708006,-0.688765,-0.0775751,1.75082,-0.0224021,0.392537,-3.21641e-05
444,-0.0722971,-0.688801,-0.0795372,1.7508,-0.0228667,0.392549,-3.20168e-05
445,-0.073792,-0.688837,-0.0814972,1.75077,-0.0233308,0.392562,-3.18664e-05
446,-0.0752853,-0.688874,-0.083455,1.75074,-0.0237943,0.392575,-3.17127e-05
447,-0.0767768,-0.688912,-0.0854107,1.75071,-0.0242574,0.392588,-3.15559e-05
448,-0.0782667,-0.68895,-0.087364,1.75068,-0.0247199,0.392601,-3.13959e-05
449,-0.0797548,-0.68899,-0.0893151,1.75065,-0.0251819,0.392614,-3.12327e-05
450,-0.0812412,-0.68903,-0.0912638,1.75062,-0.0256434,0.392628,-3.10665e-05
451,-0.0827257,-0.68907,-0.0932101,1.75059,-0.0261043,0.392641,-3.08973e-05
452,-0.0842084,-0.689112,-0.095154,1.75055,-0.0265646,0.392655,-3.07249e-05
453,-0.0856892,-0.689154,-0.0970955,1.75052,-0.0270244,0.392668,-3.05496e-05
454,-0.0871682,-0.689197,-0.0990344,1.75049,-0.0274835,0.392682,-3.03713e-05
455,-0.0886452,-0.68924,-0.100971,1.75045,-0.0279421,0.392696,-3.01901e-05
456,-0.0901202,-0.689284,-0.102905,1.75042,-0.0284001,0.39271,-3.00059e-05
457,-0.0915933,-0.689329,-0.104836,1.75038,-0.0288575,0.392724,-2.98188e-05
458,-0.0930643,-0.689375,-0.106764,1.75034,-0.0293142,0.392738,-2.96289e-05
459,-0.0945333,-0.689421,-0.10869,1.75031,-0.0297703,0.392752,-2.94362e-05
460,-0.0960002,-0.689468,-0.110613,1.75027,-0.0302258,0.392767,-2.92406e-05
461,-0.097465,-0.689516,-0.112534,1.75023,-0.0306806,0.392781,-2.90423e-05
462,-0.0989277,-0.689564,-0.114451,1.75019,-0.0311348,0.392796,-2.88413e-05
463,-0.100388,-0.689613,-0.116366,1.75015,-0.0315883,0.39281,-2.86376e-05
464,-0.101846,-0.689663,-0.118277,1.75011,-0.0320412,0.392825,-2.84312e-05
465,-0.103303,-0.689713,-0.120186,1.75007,-0.0324933,0.39284,-2.82221e-05
466,-0.104756,-0.689764,-0.122092,1.75002,-0.0329448,0.392855,-2.80105e-05
467,-0.106208,-0.689816,-0.123995,1.74998,-0.0333955,0.39287,-2.77963e-05
468,-0.107657,-0.689868,-0.125895,1.74994,-0.0338456,0.392885,-2.75796e-05
469,-0.109104,-0.689921,-0.127791,1.74989,-0.0342949,0.3929,-2.73604e-05
470,-0.110549,-0.689975,-0.129685,1.74985,-0.0347435,0.392915,-2.71387e-05
471,-0.111991,-0.690029,-0.131576,1.7498,-0.0351914,0.39293,-2.69146e-05
472,-0.113431,-0.690084,-0.133463,1.74976,-0.0356385,0.392946,-2.6688e-05
473,-0.114868,-0.690139,-0.135347,1.74971,-0.0360849,0.392961,-2.64592e-05
474,-0.116303,-0.690195,-0.137228,1.74966,-0.0365306,0.392977,-2.62279e-05
475,-0.117735,-0.690252,-0.139106,1.74962,-0.0369754,0.392992,-2.59944e-05
476,-0.119165,-0.690309,-0.14098,1.74957,-0.0374195,0.393008,-2.57587e-05
477,-0.120593,-0.690367,-0.142851,1.74952,-0.0378628,0.393024,-2.55207e-05
478,-0.122017,-0.690426,-0.144719,1.74947,-0.0383054,0.39304,-2.52805e-05
479,-0.12344,-0.690485,-0.146583,1.74942,-0.0387471,0.393056,-2.50381e-05
480,-0.124859,-0.690545,-0.148444,1.74937,-0.039188,0.393072,-2.47937e-05
481,-0.126276,-0.690605,-0.150301,1.74932,-0.0396282,0.393088,-2.45471e-05
482,-0.127691,-0.690666,-0.152155,1.74926,-0.0400675,0.393104,-2.42985e-05
483,-0.129102,-0.690728,-0.154005,1.74921,-0.040506,0.39312,-2.40479e-05
484,-0.130511,-0.69079,-0.155852,1.74916,-0.0409436,0.393137,-2.37953e-05
485,-0.131918,-0.690852,-0.157695,1.7491,-0.0413805,0.393153,-2.35408e-05
486,-0.133321,-0.690916,-0.159535,1.74905,-0.0418164,0.393169,-2.32844e-05
487,-0.134722,-0.690979,-0.161371,1.74899,-0.0422516,0.393186,-2.3026e-05
488,-0.13612,-0.691044,-0.163203,1.74894,-0.0426859,0.393203,-2.27659e-05
489,-0.137515,-0.691109,-0.165032,1.74888,-0.0431193,0.393219,-2.25039e-05
490,-0.138908,-0.691174,-0.166857,1.74883,-0.0435518,0.393236,-2.22402e-05
491,-0.140297,-0.69124,-0.168678,1.74877,-0.0439835,0.393253,-2.19747e-05
492,-0.141684,-0.691307,-0.170496,1.74871,-0.0444143,0.393269,-2.17075e-05
493,-0.143068,-0.691374,-0.172309,1.74865,-0.0448442,0.393286,-2.14387e-05
494,-0.144449,-0.691441,-0.174119,1.74859,-0.0452733,0.393303,-2.11682e-05
495,-0.145827,-0.69151,-0.175925,1.74854,-0.0457014,0.39332,-2.08961e-05
496,-0.147202,-0.691578,-0.177727,1.74848,-0.0461286,0.393337,-2.06225e-05
497,-0.148574,-0.691647,-0.179526,1.74842,-0.0465549,0.393354,-2.03474e-05
498,-0.149943,-0.691717,-0.18132,1.74835,-0.0469803,0.393372,-2.00707e-05
499,-0.15131,-0.691787,-0.183111,1.74829,-0.0474048,0.393389,-1.97926e-05
