%!PS-Adobe-2.0 EPSF-1.2
%%Creator: MATLAB, The MathWorks, Inc. Version 8.3.0.532 (R2014a). Operating System: Linux 3.19.0-39-generic #44-Ubuntu SMP Tue Dec 1 14:39:05 UTC 2015 x86_64.
%%Title: ./dq_0_fast.eps
%%CreationDate: 12/17/2015  23:32:23
%%DocumentNeededFonts: Helvetica
%%DocumentProcessColors: Cyan Magenta Yellow Black
%%Extensions: CMYK
%%Pages: 1
%%BoundingBox:    22   191   551   614
%%EndComments

%%BeginProlog
% MathWorks dictionary
/MathWorks 160 dict begin
% definition operators
/bdef {bind def} bind def
/ldef {load def} bind def
/xdef {exch def} bdef
/xstore {exch store} bdef
% operator abbreviations
/c  /clip ldef
/cc /concat ldef
/cp /closepath ldef
/gr /grestore ldef
/gs /gsave ldef
/mt /moveto ldef
/np /newpath ldef
/cm /currentmatrix ldef
/sm /setmatrix ldef
/rm /rmoveto ldef
/rl /rlineto ldef
/s {show newpath} bdef
/sc {setcmykcolor} bdef
/sr /setrgbcolor ldef
/sg /setgray ldef
/w /setlinewidth ldef
/j /setlinejoin ldef
/cap /setlinecap ldef
/rc {rectclip} bdef
/rf {rectfill} bdef
% page state control
/pgsv () def
/bpage {/pgsv save def} bdef
/epage {pgsv restore} bdef
/bplot /gsave ldef
/eplot {stroke grestore} bdef
% orientation switch
/portraitMode 0 def /landscapeMode 1 def /rotateMode 2 def
% coordinate system mappings
/dpi2point 0 def
% font control
/FontSize 0 def
/FMS {/FontSize xstore findfont [FontSize 0 0 FontSize neg 0 0]
  makefont setfont} bdef
/reencode {exch dup where {pop load} {pop StandardEncoding} ifelse
  exch dup 3 1 roll findfont dup length dict begin
  { 1 index /FID ne {def}{pop pop} ifelse } forall
  /Encoding exch def currentdict end definefont pop} bdef
/isroman {findfont /CharStrings get /Agrave known} bdef
/FMSR {3 1 roll 1 index dup isroman {reencode} {pop pop} ifelse
  exch FMS} bdef
/csm {1 dpi2point div -1 dpi2point div scale neg translate
 dup landscapeMode eq {pop -90 rotate}
  {rotateMode eq {90 rotate} if} ifelse} bdef
% line types: solid, dotted, dashed, dotdash
/SO { [] 0 setdash } bdef
/DO { [.5 dpi2point mul 4 dpi2point mul] 0 setdash } bdef
/DA { [6 dpi2point mul] 0 setdash } bdef
/DD { [.5 dpi2point mul 4 dpi2point mul 6 dpi2point mul 4
  dpi2point mul] 0 setdash } bdef
% macros for lines and objects
/L {lineto stroke} bdef
/MP {3 1 roll moveto 1 sub {rlineto} repeat} bdef
/AP {{rlineto} repeat} bdef
/PDlw -1 def
/W {/PDlw currentlinewidth def setlinewidth} def
/PP {closepath eofill} bdef
/DP {closepath stroke} bdef
/MR {4 -2 roll moveto dup  0 exch rlineto exch 0 rlineto
  neg 0 exch rlineto closepath} bdef
/FR {MR stroke} bdef
/PR {MR fill} bdef
/L1i {{currentfile picstr readhexstring pop} image} bdef
/tMatrix matrix def
/MakeOval {newpath tMatrix currentmatrix pop translate scale
0 0 1 0 360 arc tMatrix setmatrix} bdef
/FO {MakeOval stroke} bdef
/PO {MakeOval fill} bdef
/PD {currentlinewidth 2 div 0 360 arc fill
   PDlw -1 eq not {PDlw w /PDlw -1 def} if} def
/FA {newpath tMatrix currentmatrix pop translate scale
  0 0 1 5 -2 roll arc tMatrix setmatrix stroke} bdef
/PA {newpath tMatrix currentmatrix pop	translate 0 0 moveto scale
  0 0 1 5 -2 roll arc closepath tMatrix setmatrix fill} bdef
/FAn {newpath tMatrix currentmatrix pop translate scale
  0 0 1 5 -2 roll arcn tMatrix setmatrix stroke} bdef
/PAn {newpath tMatrix currentmatrix pop translate 0 0 moveto scale
  0 0 1 5 -2 roll arcn closepath tMatrix setmatrix fill} bdef
/vradius 0 def /hradius 0 def /lry 0 def
/lrx 0 def /uly 0 def /ulx 0 def /rad 0 def
/MRR {/vradius xdef /hradius xdef /lry xdef /lrx xdef /uly xdef
  /ulx xdef newpath tMatrix currentmatrix pop ulx hradius add uly
  vradius add translate hradius vradius scale 0 0 1 180 270 arc 
  tMatrix setmatrix lrx hradius sub uly vradius add translate
  hradius vradius scale 0 0 1 270 360 arc tMatrix setmatrix
  lrx hradius sub lry vradius sub translate hradius vradius scale
  0 0 1 0 90 arc tMatrix setmatrix ulx hradius add lry vradius sub
  translate hradius vradius scale 0 0 1 90 180 arc tMatrix setmatrix
  closepath} bdef
/FRR {MRR stroke } bdef
/PRR {MRR fill } bdef
/MlrRR {/lry xdef /lrx xdef /uly xdef /ulx xdef /rad lry uly sub 2 div def
  newpath tMatrix currentmatrix pop ulx rad add uly rad add translate
  rad rad scale 0 0 1 90 270 arc tMatrix setmatrix lrx rad sub lry rad
  sub translate rad rad scale 0 0 1 270 90 arc tMatrix setmatrix
  closepath} bdef
/FlrRR {MlrRR stroke } bdef
/PlrRR {MlrRR fill } bdef
/MtbRR {/lry xdef /lrx xdef /uly xdef /ulx xdef /rad lrx ulx sub 2 div def
  newpath tMatrix currentmatrix pop ulx rad add uly rad add translate
  rad rad scale 0 0 1 180 360 arc tMatrix setmatrix lrx rad sub lry rad
  sub translate rad rad scale 0 0 1 0 180 arc tMatrix setmatrix
  closepath} bdef
/FtbRR {MtbRR stroke } bdef
/PtbRR {MtbRR fill } bdef
/stri 6 array def /dtri 6 array def
/smat 6 array def /dmat 6 array def
/tmat1 6 array def /tmat2 6 array def /dif 3 array def
/asub {/ind2 exch def /ind1 exch def dup dup
  ind1 get exch ind2 get sub exch } bdef
/tri_to_matrix {
  2 0 asub 3 1 asub 4 0 asub 5 1 asub
  dup 0 get exch 1 get 7 -1 roll astore } bdef
/compute_transform {
  dmat dtri tri_to_matrix tmat1 invertmatrix 
  smat stri tri_to_matrix tmat2 concatmatrix } bdef
/ds {stri astore pop} bdef
/dt {dtri astore pop} bdef
/db {2 copy /cols xdef /rows xdef mul dup 3 mul string
  currentfile exch readhexstring pop
  dup 0 3 index getinterval /rbmap xdef
  dup 2 index dup getinterval /gbmap xdef
  1 index dup 2 mul exch getinterval /bbmap xdef pop pop}bdef
/it {gs np dtri aload pop moveto lineto lineto cp c
  cols rows 8 compute_transform 
  rbmap gbmap bbmap true 3 colorimage gr}bdef
/il {newpath moveto lineto stroke}bdef
currentdict end def
%%EndProlog

%%BeginSetup
MathWorks begin

0 cap

end
%%EndSetup

%%Page: 1 1
%%BeginPageSetup
%%PageBoundingBox:    22   191   551   614
MathWorks begin
bpage
%%EndPageSetup

%%BeginObject: obj1
bplot

/dpi2point 12 def
portraitMode 0216 7344 csm

   48   -28  6349  5073 MR c np
89 dict begin %Colortable dictionary
/c0 { 0.000000 0.000000 0.000000 sr} bdef
/c1 { 1.000000 1.000000 1.000000 sr} bdef
/c2 { 0.900000 0.000000 0.000000 sr} bdef
/c3 { 0.000000 0.820000 0.000000 sr} bdef
/c4 { 0.000000 0.000000 0.800000 sr} bdef
/c5 { 0.910000 0.820000 0.320000 sr} bdef
/c6 { 1.000000 0.260000 0.820000 sr} bdef
/c7 { 0.000000 0.820000 0.820000 sr} bdef
c0
1 j
1 sg
   0    0 6913 5186 PR
6 w
0 4226 5356 0 0 -4226 899 4615 4 MP
PP
-5356 0 0 4226 5356 0 0 -4226 899 4615 5 MP stroke
4 w
DO
SO
6 w
0 sg
 899 4615 mt 6255 4615 L
 899  389 mt 6255  389 L
 899 4615 mt  899  389 L
6255 4615 mt 6255  389 L
 899 4615 mt 6255 4615 L
 899 4615 mt  899  389 L
 899 4615 mt  899 4561 L
 899  389 mt  899  442 L
%%IncludeResource: font Helvetica
/Helvetica /ISOLatin1Encoding 168 FMSR

 853 4805 mt 
(0) s
1970 4615 mt 1970 4561 L
1970  389 mt 1970  442 L
1877 4805 mt 
(10) s
3041 4615 mt 3041 4561 L
3041  389 mt 3041  442 L
2948 4805 mt 
(20) s
4112 4615 mt 4112 4561 L
4112  389 mt 4112  442 L
4019 4805 mt 
(30) s
5183 4615 mt 5183 4561 L
5183  389 mt 5183  442 L
5090 4805 mt 
(40) s
6255 4615 mt 6255 4561 L
6255  389 mt 6255  442 L
6162 4805 mt 
(50) s
 899 4615 mt  952 4615 L
6255 4615 mt 6201 4615 L
 439 4677 mt 
(-0.02) s
 899 4145 mt  952 4145 L
6255 4145 mt 6201 4145 L
 346 4207 mt 
(-0.015) s
 899 3675 mt  952 3675 L
6255 3675 mt 6201 3675 L
 439 3737 mt 
(-0.01) s
 899 3206 mt  952 3206 L
6255 3206 mt 6201 3206 L
 346 3268 mt 
(-0.005) s
 899 2736 mt  952 2736 L
6255 2736 mt 6201 2736 L
 771 2798 mt 
(0) s
 899 2267 mt  952 2267 L
6255 2267 mt 6201 2267 L
 444 2329 mt 
(0.005) s
 899 1797 mt  952 1797 L
6255 1797 mt 6201 1797 L
 538 1859 mt 
(0.01) s
 899 1328 mt  952 1328 L
6255 1328 mt 6201 1328 L
 444 1390 mt 
(0.015) s
 899  858 mt  952  858 L
6255  858 mt 6201  858 L
 538  920 mt 
(0.02) s
 899  389 mt  952  389 L
6255  389 mt 6201  389 L
 444  451 mt 
(0.025) s
 899 4615 mt 6255 4615 L
 899  389 mt 6255  389 L
 899 4615 mt  899  389 L
6255 4615 mt 6255  389 L
gs 899 389 5357 4227 MR c np
107 -25 107 -23 107 -20 107 -18 107 -15 107 -11 108 -1 107 180 
107 1242 107 0 107 0 107 0 107 0 107 0 108 0 107 0 
107 7 107 191 107 1244 107 19 107 15 107 11 107 7 108 2 
107 -3 107 -7 107 -22 107 -220 107 -1244 107 0 107 0 108 0 
107 0 107 0 107 0 107 -1 107 -10 107 -199 107 -1209 108 -33 
107 -31 107 -29 107 -26 107 -23 107 -19 107 -15 107 -6 107 149 
899 4188 49 MP stroke
/c8 { 0.000000 0.000000 1.000000 sr} bdef
c8
107 5 107 5 107 5 107 6 107 6 107 7 108 6 107 15 
107 32 107 0 107 0 107 0 107 0 107 0 108 0 107 0 
107 -2 107 -61 107 -465 107 5 107 7 107 9 107 11 108 12 
107 15 107 15 107 19 107 77 107 358 107 0 107 0 108 0 
107 0 107 0 107 0 107 0 107 -1 107 -10 107 -116 108 6 
107 6 107 8 107 8 107 9 107 9 107 11 107 -7 107 1539 
899 1274 49 MP stroke
/c9 { 1.000000 0.000000 0.000000 sr} bdef
c9
107 -33 107 -30 107 -27 107 -24 107 -20 107 -15 108 -2 107 237 
107 1630 107 0 107 0 107 0 107 0 107 0 108 0 107 0 
107 10 107 249 107 1622 107 11 107 7 107 1 107 -5 108 -9 
107 -16 107 -21 107 -38 107 -282 107 -1529 107 0 107 0 108 0 
107 0 107 0 107 0 107 -1 107 -12 107 -234 107 -1417 108 -39 
107 -36 107 -34 107 -31 107 -26 107 -23 107 -18 107 -6 107 131 
899 4482 49 MP stroke
/c10 { 0.000000 1.000000 0.000000 sr} bdef
c10
107 6 107 7 107 7 107 7 107 7 107 8 108 6 107 2 
107 -10 107 0 107 0 107 0 107 0 107 0 108 0 107 0 
107 -3 107 -77 107 -531 107 3 107 5 107 8 107 11 108 13 
107 16 107 18 107 22 107 83 107 432 107 0 107 0 108 0 
107 0 107 0 107 0 107 0 107 -1 107 -15 107 -110 108 12 
107 12 107 14 107 14 107 16 107 16 107 17 107 -7 107 2132 
899 636 49 MP stroke
/c11 { 0.000000 1.000000 1.000000 sr} bdef
c11
107 -7 107 -8 107 -6 107 -6 107 -4 107 -4 108 0 107 56 
107 391 107 0 107 0 107 0 107 0 107 0 108 0 107 0 
107 2 107 60 107 387 107 8 107 8 107 6 107 5 108 3 
107 2 107 1 107 -5 107 -70 107 -407 107 0 107 0 108 0 
107 0 107 0 107 0 107 0 107 -4 107 -64 107 -384 108 -11 
107 -10 107 -10 107 -9 107 -7 107 -6 107 -6 107 -2 107 37 
899 3212 49 MP stroke
/c12 { 0.500000 0.600000 0.700000 sr} bdef
c12
107 0 107 0 107 -1 107 0 107 -1 107 0 108 -2 107 -8 
107 -18 107 0 107 0 107 0 107 0 107 0 108 0 107 0 
107 -2 107 -45 107 -301 107 -5 107 -2 107 -2 107 1 108 1 
107 3 107 5 107 7 107 48 107 292 107 0 107 0 108 0 
107 0 107 0 107 0 107 0 107 0 107 -1 107 -9 108 3 
107 3 107 3 107 4 107 4 107 4 107 4 107 -11 107 1257 
899 1475 49 MP stroke
/c13 { 0.800000 0.200000 0.600000 sr} bdef
c13
107 -1 107 0 107 0 107 0 107 0 107 -1 108 0 107 -1 
107 0 107 0 107 0 107 0 107 0 107 0 108 0 107 0 
107 0 107 0 107 -8 107 0 107 1 107 0 107 1 108 0 
107 1 107 0 107 1 107 1 107 3 107 0 107 0 108 0 
107 0 107 0 107 0 107 0 107 0 107 0 107 3 108 0 
107 0 107 0 107 -1 107 0 107 0 107 -1 107 0 107 -19 
899 2754 49 MP stroke
gr

c13
0 sg
3277 4983 mt 
(Time [s]) s
%%IncludeResource: font Symbol
/Symbol /ISOLatin1Encoding 168 FMSR

 242 3463 mt  -90 rotate
(D) s
90 rotate
%%IncludeResource: font Helvetica
/Helvetica /ISOLatin1Encoding 168 FMSR

 242 3361 mt  -90 rotate
( Joint Configuration [rad]) s
90 rotate
%%IncludeResource: font Symbol
/Symbol /ISOLatin1Encoding 192 FMSR

2896  238 mt 
(D) s
%%IncludeResource: font Helvetica
/Helvetica /ISOLatin1Encoding 192 FMSR

3013  238 mt 
( q: Speed Fast) s
%%IncludeResource: font Helvetica
/Helvetica /ISOLatin1Encoding 120 FMSR

 882 4658 mt 
( ) s
6239  431 mt 
( ) s
1 sg
0 1064 639 0 0 -1064 5556 1513 4 MP
PP
-639 0 0 1064 639 0 0 -1064 5556 1513 5 MP stroke
4 w
DO
SO
6 w
0 sg
5556 1513 mt 6195 1513 L
5556  449 mt 6195  449 L
5556 1513 mt 5556  449 L
6195 1513 mt 6195  449 L
5556 1513 mt 6195 1513 L
5556 1513 mt 5556  449 L
5556 1513 mt 6195 1513 L
5556  449 mt 6195  449 L
5556 1513 mt 5556  449 L
6195 1513 mt 6195  449 L
6025  585 mt 
(q0) s
gs 5556 449 640 1065 MR c np
360 0 5628 542 2 MP stroke
gr

6025  731 mt 
(q1) s
gs 5556 449 640 1065 MR c np
c8
360 0 5628 688 2 MP stroke
gr

c8
0 sg
6025  877 mt 
(q2) s
gs 5556 449 640 1065 MR c np
c9
360 0 5628 834 2 MP stroke
gr

c9
0 sg
6025 1024 mt 
(q3) s
gs 5556 449 640 1065 MR c np
c10
360 0 5628 981 2 MP stroke
gr

c10
0 sg
6025 1170 mt 
(q4) s
gs 5556 449 640 1065 MR c np
c11
360 0 5628 1127 2 MP stroke
gr

c11
0 sg
6025 1316 mt 
(q5) s
gs 5556 449 640 1065 MR c np
c12
360 0 5628 1273 2 MP stroke
gr

c12
0 sg
6025 1462 mt 
(q6) s
gs 5556 449 640 1065 MR c np
c13
360 0 5628 1419 2 MP stroke
gr

c13

end %%Color Dict

eplot
%%EndObject

epage
end

showpage

%%Trailer
%%EOF
