%!PS-Adobe-2.0 EPSF-1.2
%%Creator: MATLAB, The MathWorks, Inc. Version 8.3.0.532 (R2014a). Operating System: Linux 3.19.0-39-generic #44-Ubuntu SMP Tue Dec 1 14:39:05 UTC 2015 x86_64.
%%Title: ./tp_2_slow.eps
%%CreationDate: 12/17/2015  23:32:29
%%DocumentNeededFonts: Helvetica
%%DocumentProcessColors: Cyan Magenta Yellow Black
%%Extensions: CMYK
%%Pages: 1
%%BoundingBox:    31   191   593   612
%%EndComments

%%BeginProlog
% MathWorks dictionary
/MathWorks 160 dict begin
% definition operators
/bdef {bind def} bind def
/ldef {load def} bind def
/xdef {exch def} bdef
/xstore {exch store} bdef
% operator abbreviations
/c  /clip ldef
/cc /concat ldef
/cp /closepath ldef
/gr /grestore ldef
/gs /gsave ldef
/mt /moveto ldef
/np /newpath ldef
/cm /currentmatrix ldef
/sm /setmatrix ldef
/rm /rmoveto ldef
/rl /rlineto ldef
/s {show newpath} bdef
/sc {setcmykcolor} bdef
/sr /setrgbcolor ldef
/sg /setgray ldef
/w /setlinewidth ldef
/j /setlinejoin ldef
/cap /setlinecap ldef
/rc {rectclip} bdef
/rf {rectfill} bdef
% page state control
/pgsv () def
/bpage {/pgsv save def} bdef
/epage {pgsv restore} bdef
/bplot /gsave ldef
/eplot {stroke grestore} bdef
% orientation switch
/portraitMode 0 def /landscapeMode 1 def /rotateMode 2 def
% coordinate system mappings
/dpi2point 0 def
% font control
/FontSize 0 def
/FMS {/FontSize xstore findfont [FontSize 0 0 FontSize neg 0 0]
  makefont setfont} bdef
/reencode {exch dup where {pop load} {pop StandardEncoding} ifelse
  exch dup 3 1 roll findfont dup length dict begin
  { 1 index /FID ne {def}{pop pop} ifelse } forall
  /Encoding exch def currentdict end definefont pop} bdef
/isroman {findfont /CharStrings get /Agrave known} bdef
/FMSR {3 1 roll 1 index dup isroman {reencode} {pop pop} ifelse
  exch FMS} bdef
/csm {1 dpi2point div -1 dpi2point div scale neg translate
 dup landscapeMode eq {pop -90 rotate}
  {rotateMode eq {90 rotate} if} ifelse} bdef
% line types: solid, dotted, dashed, dotdash
/SO { [] 0 setdash } bdef
/DO { [.5 dpi2point mul 4 dpi2point mul] 0 setdash } bdef
/DA { [6 dpi2point mul] 0 setdash } bdef
/DD { [.5 dpi2point mul 4 dpi2point mul 6 dpi2point mul 4
  dpi2point mul] 0 setdash } bdef
% macros for lines and objects
/L {lineto stroke} bdef
/MP {3 1 roll moveto 1 sub {rlineto} repeat} bdef
/AP {{rlineto} repeat} bdef
/PDlw -1 def
/W {/PDlw currentlinewidth def setlinewidth} def
/PP {closepath eofill} bdef
/DP {closepath stroke} bdef
/MR {4 -2 roll moveto dup  0 exch rlineto exch 0 rlineto
  neg 0 exch rlineto closepath} bdef
/FR {MR stroke} bdef
/PR {MR fill} bdef
/L1i {{currentfile picstr readhexstring pop} image} bdef
/tMatrix matrix def
/MakeOval {newpath tMatrix currentmatrix pop translate scale
0 0 1 0 360 arc tMatrix setmatrix} bdef
/FO {MakeOval stroke} bdef
/PO {MakeOval fill} bdef
/PD {currentlinewidth 2 div 0 360 arc fill
   PDlw -1 eq not {PDlw w /PDlw -1 def} if} def
/FA {newpath tMatrix currentmatrix pop translate scale
  0 0 1 5 -2 roll arc tMatrix setmatrix stroke} bdef
/PA {newpath tMatrix currentmatrix pop	translate 0 0 moveto scale
  0 0 1 5 -2 roll arc closepath tMatrix setmatrix fill} bdef
/FAn {newpath tMatrix currentmatrix pop translate scale
  0 0 1 5 -2 roll arcn tMatrix setmatrix stroke} bdef
/PAn {newpath tMatrix currentmatrix pop translate 0 0 moveto scale
  0 0 1 5 -2 roll arcn closepath tMatrix setmatrix fill} bdef
/vradius 0 def /hradius 0 def /lry 0 def
/lrx 0 def /uly 0 def /ulx 0 def /rad 0 def
/MRR {/vradius xdef /hradius xdef /lry xdef /lrx xdef /uly xdef
  /ulx xdef newpath tMatrix currentmatrix pop ulx hradius add uly
  vradius add translate hradius vradius scale 0 0 1 180 270 arc 
  tMatrix setmatrix lrx hradius sub uly vradius add translate
  hradius vradius scale 0 0 1 270 360 arc tMatrix setmatrix
  lrx hradius sub lry vradius sub translate hradius vradius scale
  0 0 1 0 90 arc tMatrix setmatrix ulx hradius add lry vradius sub
  translate hradius vradius scale 0 0 1 90 180 arc tMatrix setmatrix
  closepath} bdef
/FRR {MRR stroke } bdef
/PRR {MRR fill } bdef
/MlrRR {/lry xdef /lrx xdef /uly xdef /ulx xdef /rad lry uly sub 2 div def
  newpath tMatrix currentmatrix pop ulx rad add uly rad add translate
  rad rad scale 0 0 1 90 270 arc tMatrix setmatrix lrx rad sub lry rad
  sub translate rad rad scale 0 0 1 270 90 arc tMatrix setmatrix
  closepath} bdef
/FlrRR {MlrRR stroke } bdef
/PlrRR {MlrRR fill } bdef
/MtbRR {/lry xdef /lrx xdef /uly xdef /ulx xdef /rad lrx ulx sub 2 div def
  newpath tMatrix currentmatrix pop ulx rad add uly rad add translate
  rad rad scale 0 0 1 180 360 arc tMatrix setmatrix lrx rad sub lry rad
  sub translate rad rad scale 0 0 1 0 180 arc tMatrix setmatrix
  closepath} bdef
/FtbRR {MtbRR stroke } bdef
/PtbRR {MtbRR fill } bdef
/stri 6 array def /dtri 6 array def
/smat 6 array def /dmat 6 array def
/tmat1 6 array def /tmat2 6 array def /dif 3 array def
/asub {/ind2 exch def /ind1 exch def dup dup
  ind1 get exch ind2 get sub exch } bdef
/tri_to_matrix {
  2 0 asub 3 1 asub 4 0 asub 5 1 asub
  dup 0 get exch 1 get 7 -1 roll astore } bdef
/compute_transform {
  dmat dtri tri_to_matrix tmat1 invertmatrix 
  smat stri tri_to_matrix tmat2 concatmatrix } bdef
/ds {stri astore pop} bdef
/dt {dtri astore pop} bdef
/db {2 copy /cols xdef /rows xdef mul dup 3 mul string
  currentfile exch readhexstring pop
  dup 0 3 index getinterval /rbmap xdef
  dup 2 index dup getinterval /gbmap xdef
  1 index dup 2 mul exch getinterval /bbmap xdef pop pop}bdef
/it {gs np dtri aload pop moveto lineto lineto cp c
  cols rows 8 compute_transform 
  rbmap gbmap bbmap true 3 colorimage gr}bdef
/il {newpath moveto lineto stroke}bdef
currentdict end def
%%EndProlog

%%BeginSetup
MathWorks begin

0 cap

end
%%EndSetup

%%Page: 1 1
%%BeginPageSetup
%%PageBoundingBox:    31   191   593   612
MathWorks begin
bpage
%%EndPageSetup

%%BeginObject: obj1
bplot

/dpi2point 12 def
portraitMode 0216 7344 csm

  166     0  6740  5045 MR c np
85 dict begin %Colortable dictionary
/c0 { 0.000000 0.000000 0.000000 sr} bdef
/c1 { 1.000000 1.000000 1.000000 sr} bdef
/c2 { 0.900000 0.000000 0.000000 sr} bdef
/c3 { 0.000000 0.820000 0.000000 sr} bdef
/c4 { 0.000000 0.000000 0.800000 sr} bdef
/c5 { 0.910000 0.820000 0.320000 sr} bdef
/c6 { 1.000000 0.260000 0.820000 sr} bdef
/c7 { 0.000000 0.820000 0.820000 sr} bdef
c0
1 j
1 sg
   0    0 6913 5186 PR
6 w
0 4226 5356 0 0 -4226 899 4615 4 MP
PP
-5356 0 0 4226 5356 0 0 -4226 899 4615 5 MP stroke
4 w
DO
SO
6 w
0 sg
 899 4615 mt 6255 4615 L
 899  389 mt 6255  389 L
 899 4615 mt  899  389 L
6255 4615 mt 6255  389 L
 899 4615 mt 6255 4615 L
 899 4615 mt  899  389 L
 899 4615 mt  899 4561 L
 899  389 mt  899  442 L
%%IncludeResource: font Helvetica
/Helvetica /ISOLatin1Encoding 168 FMSR

 853 4805 mt 
(0) s
1970 4615 mt 1970 4561 L
1970  389 mt 1970  442 L
1830 4805 mt 
(100) s
3041 4615 mt 3041 4561 L
3041  389 mt 3041  442 L
2901 4805 mt 
(200) s
4112 4615 mt 4112 4561 L
4112  389 mt 4112  442 L
3972 4805 mt 
(300) s
5183 4615 mt 5183 4561 L
5183  389 mt 5183  442 L
5043 4805 mt 
(400) s
6255 4615 mt 6255 4561 L
6255  389 mt 6255  442 L
6115 4805 mt 
(500) s
 899 4615 mt  952 4615 L
6255 4615 mt 6201 4615 L
 673 4677 mt 
(-2) s
 899 4350 mt  952 4350 L
6255 4350 mt 6201 4350 L
 439 4412 mt 
(-1.75) s
 899 4086 mt  952 4086 L
6255 4086 mt 6201 4086 L
 533 4148 mt 
(-1.5) s
 899 3822 mt  952 3822 L
6255 3822 mt 6201 3822 L
 439 3884 mt 
(-1.25) s
 899 3558 mt  952 3558 L
6255 3558 mt 6201 3558 L
 673 3620 mt 
(-1) s
 899 3294 mt  952 3294 L
6255 3294 mt 6201 3294 L
 439 3356 mt 
(-0.75) s
 899 3030 mt  952 3030 L
6255 3030 mt 6201 3030 L
 533 3092 mt 
(-0.5) s
 899 2766 mt  952 2766 L
6255 2766 mt 6201 2766 L
 439 2828 mt 
(-0.25) s
 899 2502 mt  952 2502 L
6255 2502 mt 6201 2502 L
 771 2564 mt 
(0) s
 899 2237 mt  952 2237 L
6255 2237 mt 6201 2237 L
 538 2299 mt 
(0.25) s
 899 1973 mt  952 1973 L
6255 1973 mt 6201 1973 L
 631 2035 mt 
(0.5) s
 899 1709 mt  952 1709 L
6255 1709 mt 6201 1709 L
 538 1771 mt 
(0.75) s
 899 1445 mt  952 1445 L
6255 1445 mt 6201 1445 L
 771 1507 mt 
(1) s
 899 1181 mt  952 1181 L
6255 1181 mt 6201 1181 L
 538 1243 mt 
(1.25) s
 899  917 mt  952  917 L
6255  917 mt 6201  917 L
 631  979 mt 
(1.5) s
 899  653 mt  952  653 L
6255  653 mt 6201  653 L
 538  715 mt 
(1.75) s
 899  389 mt  952  389 L
6255  389 mt 6201  389 L
 771  451 mt 
(2) s
 899 4615 mt 6255 4615 L
 899  389 mt 6255  389 L
 899 4615 mt  899  389 L
6255 4615 mt 6255  389 L
gs 899 389 5357 4227 MR c np
/c8 { 0.000000 0.000000 1.000000 sr} bdef
c8
11 2 11 1 10 1 11 1 11 2 10 1 11 1 11 2 
11 1 10 1 11 2 11 1 10 1 11 2 11 1 11 2 
10 1 11 1 11 2 10 1 11 1 11 2 11 1 10 2 
11 1 11 1 10 2 11 1 11 2 11 1 10 2 11 1 
11 1 10 2 11 1 11 2 11 1 10 2 11 1 11 2 
10 1 11 2 11 1 11 2 10 1 11 1 11 2 10 1 
11 2 11 1 11 2 10 1 11 2 11 1 10 2 11 1 
11 2 11 2 10 1 11 2 11 1 10 2 11 1 11 2 
10 1 11 2 11 1 11 2 10 1 11 2 11 1 10 2 
11 2 11 1 11 2 10 1 11 2 11 1 10 2 11 1 
11 2 11 2 10 1 11 2 11 1 10 2 11 1 11 2 
11 2 10 1 11 2 11 1 10 2 11 1 11 2 11 2 
10 1 11 2 11 1 5183 2500 100 MP stroke
10 0 11 0 11 0 11 0 10 0 11 0 11 0 10 0 
11 0 11 0 11 0 10 0 11 0 11 0 10 0 11 0 
11 0 11 0 10 0 11 0 11 0 10 0 11 0 11 0 
10 0 11 0 11 0 11 0 10 0 11 0 11 0 10 0 
11 0 11 0 11 0 10 0 11 0 11 0 10 0 11 0 
11 0 11 0 10 0 11 0 11 0 10 0 11 0 11 0 
11 0 10 0 11 0 11 0 10 0 11 0 11 0 11 0 
10 0 11 0 11 0 10 0 11 0 11 0 11 0 10 0 
11 0 11 0 10 0 11 0 11 0 11 0 10 0 11 0 
11 0 10 0 11 0 11 0 11 0 10 0 11 0 11 0 
10 0 11 0 11 0 11 0 10 0 11 0 11 0 10 0 
11 0 11 0 10 0 11 0 11 0 11 0 10 0 11 0 
11 0 10 0 11 0 4123 2500 100 MP stroke
11 0 11 -1 10 -2 11 -2 11 -1 10 -2 11 -1 11 -2 
11 -1 10 -2 11 -2 11 -1 10 -2 11 -1 11 -2 11 -2 
10 -1 11 -2 11 -2 10 -1 11 -2 11 -1 11 -2 10 -2 
11 -1 11 -2 10 -1 11 -2 11 -2 11 -1 10 -2 11 -2 
11 -1 10 -2 11 -1 11 -2 11 -2 10 -1 11 -2 11 -2 
10 -1 11 -2 11 -1 11 -2 10 -2 11 -1 11 -2 10 -2 
11 -1 11 -2 10 -1 11 -2 11 -2 11 -1 10 -2 11 -1 
11 -2 10 -2 11 -1 11 -2 11 -2 10 -1 11 -2 11 -1 
10 -2 11 -1 11 -2 11 -2 10 -1 11 -2 11 -1 10 -2 
11 -2 11 -1 11 -2 10 -1 11 -2 11 -1 10 -2 11 -2 
11 -1 11 -2 10 -1 11 -2 11 -1 10 -2 11 -1 11 -2 
11 -1 10 -2 11 -1 11 -2 10 -1 11 -2 11 -1 11 -2 
10 -1 11 -2 11 -1 3062 2655 100 MP stroke
10 -2 11 -1 11 0 11 0 10 0 11 0 11 0 10 0 
11 0 11 0 11 0 10 0 11 0 11 0 10 0 11 0 
11 0 10 0 11 0 11 0 11 0 10 0 11 0 11 0 
10 0 11 0 11 0 11 0 10 0 11 0 11 0 10 0 
11 0 11 0 11 0 10 0 11 0 11 0 10 0 11 0 
11 0 11 0 10 0 11 0 11 0 10 0 11 0 11 0 
11 0 10 0 11 0 11 0 10 0 11 0 11 0 11 0 
10 0 11 0 11 0 10 0 11 0 11 0 11 0 10 0 
11 0 11 0 10 0 11 0 11 0 11 0 10 0 11 0 
11 0 10 0 11 0 11 0 10 0 11 0 11 0 11 0 
10 0 11 0 11 0 10 0 11 0 11 0 11 0 10 0 
11 0 11 0 10 0 11 0 11 0 11 0 10 0 11 0 
11 0 10 0 11 0 2002 2658 100 MP stroke
11 0 11 0 10 0 11 1 11 2 10 1 11 1 11 2 
11 1 10 1 11 2 11 1 10 2 11 1 11 1 11 2 
10 1 11 2 11 1 10 2 11 1 11 1 11 2 10 1 
11 2 11 1 10 2 11 1 11 2 11 1 10 2 11 1 
11 2 10 1 11 2 11 1 11 2 10 1 11 2 11 1 
10 2 11 2 11 1 10 2 11 1 11 2 11 1 10 2 
11 1 11 2 10 2 11 1 11 2 11 1 10 2 11 2 
11 1 10 2 11 1 11 2 11 2 10 1 11 2 11 2 
10 1 11 2 11 1 11 2 10 2 11 1 11 2 10 2 
11 1 11 2 11 2 10 1 11 2 11 2 10 1 11 2 
11 2 11 1 10 2 11 2 11 1 10 2 11 2 11 1 
11 2 10 2 11 1 11 2 10 2 11 1 11 2 11 2 
10 1 11 2 11 2 941 2508 100 MP stroke
10 1 11 2 11 2 10 1 899 2502 5 MP stroke
/c9 { 0.000000 0.500000 0.000000 sr} bdef
c9
11 0 11 -1 10 0 11 -1 11 0 10 -1 11 0 11 -1 
11 0 10 -1 11 -1 11 0 10 -1 11 0 11 -1 11 0 
10 -1 11 0 11 -1 10 0 11 -1 11 0 11 0 10 -1 
11 0 11 -1 10 0 11 -1 11 0 11 -1 10 0 11 -1 
11 0 10 0 11 -1 11 0 11 -1 10 0 11 0 11 -1 
10 0 11 0 11 -1 11 0 10 -1 11 0 11 0 10 -1 
11 0 11 0 11 -1 10 0 11 0 11 0 10 -1 11 0 
11 0 11 -1 10 0 11 0 11 0 10 -1 11 0 11 0 
10 0 11 -1 11 0 11 0 10 0 11 0 11 -1 10 0 
11 0 11 0 11 0 10 0 11 -1 11 0 10 0 11 0 
11 0 11 0 10 0 11 0 11 -1 10 0 11 0 11 0 
11 0 10 0 11 0 11 0 10 0 11 0 11 0 11 0 
10 0 11 0 11 0 5183 2745 100 MP stroke
10 0 11 0 11 0 11 0 10 0 11 0 11 0 10 0 
11 0 11 0 11 0 10 0 11 0 11 0 10 0 11 0 
11 0 11 0 10 0 11 0 11 0 10 0 11 0 11 0 
10 0 11 0 11 0 11 0 10 0 11 0 11 0 10 0 
11 0 11 0 11 0 10 0 11 0 11 0 10 0 11 0 
11 0 11 0 10 0 11 0 11 0 10 0 11 0 11 0 
11 0 10 0 11 0 11 0 10 0 11 0 11 0 11 0 
10 0 11 0 11 0 10 0 11 0 11 0 11 0 10 0 
11 0 11 0 10 0 11 0 11 0 11 0 10 0 11 0 
11 0 10 0 11 0 11 0 11 0 10 0 11 0 11 0 
10 0 11 0 11 0 11 0 10 0 11 0 11 0 10 0 
11 0 11 0 10 0 11 0 11 0 11 0 10 0 11 0 
11 0 10 0 11 0 4123 2745 100 MP stroke
11 0 11 -1 10 0 11 -1 11 0 10 -1 11 0 11 -1 
11 0 10 -1 11 0 11 -1 10 0 11 0 11 -1 11 0 
10 -1 11 0 11 0 10 -1 11 0 11 -1 11 0 10 0 
11 -1 11 0 10 0 11 -1 11 0 11 0 10 0 11 -1 
11 0 10 0 11 0 11 -1 11 0 10 0 11 0 11 -1 
10 0 11 0 11 0 11 0 10 -1 11 0 11 0 10 0 
11 0 11 0 10 -1 11 0 11 0 11 0 10 0 11 0 
11 0 10 0 11 0 11 0 11 0 10 0 11 0 11 0 
10 0 11 0 11 0 11 0 10 0 11 0 11 0 10 0 
11 0 11 0 11 0 10 0 11 0 11 0 10 0 11 0 
11 0 11 1 10 0 11 0 11 0 10 0 11 0 11 0 
11 1 10 0 11 0 11 0 10 0 11 0 11 1 11 0 
10 0 11 0 11 1 3062 2758 100 MP stroke
10 0 11 0 11 0 11 0 10 0 11 0 11 0 10 0 
11 0 11 0 11 0 10 0 11 0 11 0 10 0 11 0 
11 0 10 0 11 0 11 0 11 0 10 0 11 0 11 0 
10 0 11 0 11 0 11 0 10 0 11 0 11 0 10 0 
11 0 11 0 11 0 10 0 11 0 11 0 10 0 11 0 
11 0 11 0 10 0 11 0 11 0 10 0 11 0 11 0 
11 0 10 0 11 0 11 0 10 0 11 0 11 0 11 0 
10 0 11 0 11 0 10 0 11 0 11 0 11 0 10 0 
11 0 11 0 10 0 11 0 11 0 11 0 10 0 11 0 
11 0 10 0 11 0 11 0 10 0 11 0 11 0 11 0 
10 0 11 0 11 0 10 0 11 0 11 0 11 0 10 0 
11 0 11 0 10 0 11 0 11 0 11 0 10 0 11 0 
11 0 10 0 11 0 2002 2758 100 MP stroke
11 0 11 0 10 0 11 -1 11 0 10 -1 11 -1 11 0 
11 -1 10 0 11 -1 11 -1 10 0 11 -1 11 -1 11 0 
10 -1 11 0 11 -1 10 0 11 -1 11 -1 11 0 10 -1 
11 0 11 -1 10 0 11 -1 11 0 11 -1 10 0 11 -1 
11 -1 10 0 11 -1 11 0 11 0 10 -1 11 0 11 -1 
10 0 11 -1 11 0 10 -1 11 0 11 -1 11 0 10 0 
11 -1 11 0 10 -1 11 0 11 0 11 -1 10 0 11 -1 
11 0 10 0 11 -1 11 0 11 0 10 -1 11 0 11 0 
10 0 11 -1 11 0 11 0 10 -1 11 0 11 0 10 0 
11 -1 11 0 11 0 10 0 11 0 11 -1 10 0 11 0 
11 0 11 0 10 -1 11 0 11 0 10 0 11 0 11 0 
11 0 10 -1 11 0 11 0 10 0 11 0 11 0 11 0 
10 0 11 0 11 0 941 2794 100 MP stroke
10 0 11 0 11 0 10 0 899 2794 5 MP stroke
/c10 { 1.000000 0.000000 0.000000 sr} bdef
c10
11 0 11 0 10 0 11 0 11 0 10 1 11 0 11 0 
11 0 10 0 11 0 11 0 10 0 11 0 11 0 11 0 
10 0 11 0 11 0 10 0 11 1 11 0 11 0 10 0 
11 0 11 0 10 0 11 0 11 0 11 0 10 0 11 0 
11 0 10 0 11 0 11 0 11 0 10 1 11 0 11 0 
10 0 11 0 11 0 11 0 10 0 11 0 11 0 10 0 
11 0 11 0 11 0 10 0 11 0 11 0 10 0 11 0 
11 0 11 0 10 0 11 0 11 1 10 0 11 0 11 0 
10 0 11 0 11 0 11 0 10 0 11 0 11 0 10 0 
11 0 11 0 11 0 10 0 11 0 11 0 10 0 11 0 
11 0 11 0 10 0 11 0 11 0 10 0 11 0 11 0 
11 0 10 0 11 0 11 0 10 0 11 0 11 0 11 0 
10 0 11 0 11 0 5183 673 100 MP stroke
10 0 11 0 11 0 11 0 10 0 11 0 11 0 10 0 
11 0 11 0 11 0 10 0 11 0 11 0 10 0 11 0 
11 0 11 0 10 0 11 0 11 0 10 0 11 0 11 0 
10 0 11 0 11 0 11 0 10 0 11 0 11 0 10 0 
11 0 11 0 11 0 10 0 11 0 11 0 10 0 11 0 
11 0 11 0 10 0 11 0 11 0 10 0 11 0 11 0 
11 0 10 0 11 0 11 0 10 0 11 0 11 0 11 0 
10 0 11 0 11 0 10 0 11 0 11 0 11 0 10 0 
11 0 11 0 10 0 11 0 11 0 11 0 10 0 11 0 
11 0 10 0 11 0 11 0 11 0 10 0 11 0 11 0 
10 0 11 0 11 0 11 0 10 0 11 0 11 0 10 0 
11 0 11 0 10 0 11 0 11 0 11 0 10 0 11 0 
11 0 10 0 11 0 4123 673 100 MP stroke
11 0 11 0 10 -1 11 0 11 -1 10 -1 11 0 11 -1 
11 0 10 -1 11 0 11 -1 10 0 11 -1 11 0 11 -1 
10 -1 11 0 11 -1 10 0 11 -1 11 0 11 -1 10 0 
11 -1 11 -1 10 0 11 -1 11 0 11 -1 10 0 11 -1 
11 -1 10 0 11 -1 11 0 11 -1 10 0 11 -1 11 -1 
10 0 11 -1 11 0 11 -1 10 -1 11 0 11 -1 10 0 
11 -1 11 0 10 -1 11 -1 11 0 11 -1 10 0 11 -1 
11 -1 10 0 11 -1 11 0 11 -1 10 -1 11 0 11 -1 
10 0 11 -1 11 -1 11 0 10 -1 11 0 11 -1 10 0 
11 -1 11 -1 11 0 10 -1 11 0 11 -1 10 -1 11 0 
11 -1 11 0 10 -1 11 -1 11 0 10 -1 11 0 11 -1 
11 0 10 -1 11 -1 11 0 10 -1 11 0 11 -1 11 -1 
10 0 11 -1 11 0 3062 729 100 MP stroke
10 -1 11 0 11 0 11 0 10 0 11 0 11 0 10 0 
11 0 11 0 11 0 10 0 11 0 11 0 10 0 11 0 
11 0 10 0 11 0 11 0 11 0 10 0 11 0 11 0 
10 0 11 0 11 0 11 0 10 0 11 0 11 0 10 0 
11 0 11 0 11 0 10 0 11 0 11 0 10 0 11 0 
11 0 11 0 10 0 11 0 11 0 10 0 11 0 11 0 
11 0 10 0 11 0 11 0 10 0 11 0 11 0 11 0 
10 0 11 0 11 0 10 0 11 0 11 0 11 0 10 0 
11 0 11 0 10 0 11 0 11 0 11 0 10 0 11 0 
11 0 10 0 11 0 11 0 10 0 11 0 11 0 11 0 
10 0 11 0 11 0 10 0 11 0 11 0 11 0 10 0 
11 0 11 0 10 0 11 0 11 0 11 0 10 0 11 0 
11 0 10 0 11 0 2002 730 100 MP stroke
11 0 11 0 10 0 11 0 11 0 10 0 11 0 11 0 
11 0 10 0 11 0 11 0 10 0 11 0 11 0 11 0 
10 0 11 0 11 0 10 0 11 0 11 0 11 0 10 0 
11 0 11 0 10 0 11 0 11 0 11 0 10 0 11 0 
11 0 10 0 11 0 11 0 11 0 10 0 11 0 11 0 
10 0 11 0 11 0 10 0 11 0 11 0 11 0 10 0 
11 0 11 0 10 0 11 0 11 0 11 0 10 0 11 0 
11 0 10 0 11 0 11 0 11 0 10 0 11 0 11 0 
10 0 11 0 11 0 11 0 10 0 11 0 11 0 10 0 
11 0 11 0 11 0 10 0 11 0 11 -1 10 0 11 0 
11 0 11 0 10 0 11 0 11 0 10 0 11 0 11 0 
11 0 10 0 11 0 11 0 10 0 11 0 11 0 11 0 
10 0 11 0 11 0 941 731 100 MP stroke
10 0 11 0 11 0 10 0 899 731 5 MP stroke
gr

c10
0 sg
3277 4983 mt 
(Time [s]) s
 347 3325 mt  -90 rotate
(Tool Pose Position [m]) s
90 rotate
%%IncludeResource: font Helvetica
/Helvetica /ISOLatin1Encoding 192 FMSR

2583  251 mt 
(Tool Pose: Speed Slow) s
%%IncludeResource: font Helvetica
/Helvetica /ISOLatin1Encoding 120 FMSR

 882 4658 mt 
( ) s
6239  431 mt 
( ) s
4 w
DO
SO
6 w
 899 4615 mt 6255 4615 L
6255 4615 mt 6255  389 L
 899 4615 mt  899 4561 L
%%IncludeResource: font Helvetica
/Helvetica /ISOLatin1Encoding 168 FMSR

 853 4805 mt 
(0) s
1970 4615 mt 1970 4561 L
1830 4805 mt 
(100) s
3041 4615 mt 3041 4561 L
2901 4805 mt 
(200) s
4112 4615 mt 4112 4561 L
3972 4805 mt 
(300) s
5183 4615 mt 5183 4561 L
5043 4805 mt 
(400) s
6255 4615 mt 6255 4561 L
6115 4805 mt 
(500) s
6255 4192 mt 6201 4192 L
6289 4254 mt 
(-4) s
6255 3981 mt 6201 3981 L
6289 4043 mt 
(-3.5) s
6255 3769 mt 6201 3769 L
6289 3831 mt 
(-3) s
6255 3558 mt 6201 3558 L
6289 3620 mt 
(-2.5) s
6255 3347 mt 6201 3347 L
6289 3409 mt 
(-2) s
6255 3135 mt 6201 3135 L
6289 3197 mt 
(-1.5) s
6255 2924 mt 6201 2924 L
6289 2986 mt 
(-1) s
6255 2713 mt 6201 2713 L
6289 2775 mt 
(-0.5) s
6255 2502 mt 6201 2502 L
6289 2564 mt 
(0) s
6255 2290 mt 6201 2290 L
6289 2352 mt 
(0.5) s
6255 2079 mt 6201 2079 L
6289 2141 mt 
(1) s
6255 1868 mt 6201 1868 L
6289 1930 mt 
(1.5) s
6255 1656 mt 6201 1656 L
6289 1718 mt 
(2) s
6255 1445 mt 6201 1445 L
6289 1507 mt 
(2.5) s
6255 1234 mt 6201 1234 L
6289 1296 mt 
(3) s
6255 1022 mt 6201 1022 L
6289 1084 mt 
(3.5) s
6255  811 mt 6201  811 L
6289  873 mt 
(4) s
gs 899 389 5357 4227 MR c np
DA
/c11 { 0.000000 0.750000 0.750000 sr} bdef
c11
11 2 11 1 10 1 11 1 11 2 10 1 11 1 11 1 
11 2 10 1 11 1 11 2 10 1 11 1 11 1 11 2 
10 1 11 1 11 2 10 1 11 1 11 1 11 2 10 1 
11 1 11 2 10 1 11 1 11 2 11 1 10 1 11 2 
11 1 10 1 11 2 11 1 11 1 10 2 11 1 11 1 
10 2 11 1 11 1 11 2 10 1 11 1 11 2 10 1 
11 1 11 2 11 1 10 1 11 2 11 1 10 2 11 1 
11 1 11 2 10 1 11 1 11 2 10 1 11 2 11 1 
10 1 11 2 11 1 11 1 10 2 11 1 11 2 10 1 
11 1 11 2 11 1 10 2 11 1 11 1 10 2 11 1 
11 1 11 2 10 1 11 2 11 1 10 1 11 2 11 1 
11 2 10 1 11 1 11 2 10 1 11 2 11 1 11 1 
10 2 11 1 11 2 5183 1175 100 MP stroke
10 0 11 0 11 0 11 0 10 0 11 0 11 0 10 0 
11 0 11 0 11 0 10 0 11 0 11 0 10 0 11 0 
11 0 11 0 10 0 11 0 11 0 10 0 11 0 11 0 
10 0 11 0 11 0 11 0 10 0 11 0 11 0 10 0 
11 0 11 0 11 0 10 0 11 0 11 0 10 0 11 0 
11 0 11 0 10 0 11 0 11 0 10 0 11 0 11 0 
11 0 10 0 11 0 11 0 10 0 11 0 11 0 11 0 
10 0 11 0 11 0 10 0 11 0 11 0 11 0 10 0 
11 0 11 0 10 0 11 0 11 0 11 0 10 0 11 0 
11 0 10 0 11 0 11 0 11 0 10 0 11 0 11 0 
10 0 11 0 11 0 11 0 10 0 11 0 11 0 10 0 
11 0 11 0 10 0 11 0 11 0 11 0 10 0 11 0 
11 0 10 0 11 0 4123 1175 100 MP stroke
11 0 11 -2 10 -1 11 -2 11 -1 10 -1 11 -2 11 -1 
11 -2 10 -1 11 -1 11 -2 10 -1 11 -2 11 -1 11 -2 
10 -1 11 -1 11 -2 10 -1 11 -2 11 -1 11 -2 10 -1 
11 -1 11 -2 10 -1 11 -2 11 -1 11 -2 10 -1 11 -1 
11 -2 10 -1 11 -2 11 -1 11 -2 10 -1 11 -1 11 -2 
10 -1 11 -2 11 -1 11 -2 10 -1 11 -2 11 -1 10 -1 
11 -2 11 -1 10 -2 11 -1 11 -2 11 -1 10 -1 11 -2 
11 -1 10 -2 11 -1 11 -2 11 -1 10 -1 11 -2 11 -1 
10 -2 11 -1 11 -2 11 -1 10 -1 11 -2 11 -1 10 -2 
11 -1 11 -2 11 -1 10 -1 11 -2 11 -1 10 -2 11 -1 
11 -2 11 -1 10 -1 11 -2 11 -1 10 -2 11 -1 11 -1 
11 -2 10 -1 11 -2 11 -1 10 -1 11 -2 11 -1 11 -2 
10 -1 11 -1 11 -2 3062 1315 100 MP stroke
10 -1 11 -1 11 0 11 0 10 0 11 0 11 0 10 0 
11 0 11 0 11 0 10 0 11 0 11 0 10 0 11 0 
11 0 10 0 11 0 11 0 11 0 10 0 11 0 11 0 
10 0 11 0 11 0 11 0 10 0 11 0 11 0 10 0 
11 0 11 0 11 0 10 0 11 0 11 0 10 0 11 0 
11 0 11 0 10 0 11 0 11 0 10 0 11 0 11 0 
11 0 10 0 11 0 11 0 10 0 11 0 11 0 11 0 
10 0 11 0 11 0 10 0 11 0 11 0 11 0 10 0 
11 0 11 0 10 0 11 0 11 0 11 0 10 0 11 0 
11 0 10 0 11 0 11 0 10 0 11 0 11 0 11 0 
10 0 11 0 11 0 10 0 11 0 11 0 11 0 10 0 
11 0 11 0 10 0 11 0 11 0 11 0 10 0 11 0 
11 0 10 0 11 0 2002 1317 100 MP stroke
11 0 11 0 10 0 11 1 11 1 10 2 11 1 11 1 
11 2 10 1 11 1 11 2 10 1 11 1 11 2 11 1 
10 1 11 2 11 1 10 2 11 1 11 1 11 2 10 1 
11 1 11 2 10 1 11 2 11 1 11 1 10 2 11 1 
11 2 10 1 11 1 11 2 11 1 10 2 11 1 11 1 
10 2 11 1 11 2 10 1 11 2 11 1 11 1 10 2 
11 1 11 2 10 1 11 2 11 1 11 1 10 2 11 1 
11 2 10 1 11 2 11 1 11 2 10 1 11 2 11 1 
10 2 11 1 11 1 11 2 10 1 11 2 11 1 10 2 
11 1 11 2 11 1 10 2 11 1 11 2 10 1 11 2 
11 1 11 2 10 1 11 2 11 1 10 2 11 1 11 2 
11 1 10 2 11 1 11 2 10 1 11 2 11 1 11 2 
10 1 11 2 11 1 941 1180 100 MP stroke
10 2 11 1 11 2 10 -2654 899 3829 5 MP stroke
/c12 { 0.750000 0.000000 0.750000 sr} bdef
c12
11 0 11 0 10 0 11 -1 11 0 10 0 11 -1 11 0 
11 0 10 -1 11 0 11 0 10 -1 11 0 11 0 11 -1 
10 0 11 0 11 -1 10 0 11 0 11 -1 11 0 10 0 
11 -1 11 0 10 -1 11 0 11 0 11 -1 10 0 11 0 
11 -1 10 0 11 0 11 -1 11 0 10 0 11 -1 11 0 
10 0 11 -1 11 0 11 0 10 -1 11 0 11 0 10 -1 
11 0 11 0 11 -1 10 0 11 -1 11 0 10 0 11 -1 
11 0 11 0 10 -1 11 0 11 0 10 -1 11 0 11 0 
10 -1 11 0 11 -1 11 0 10 0 11 -1 11 0 10 0 
11 -1 11 0 11 0 10 -1 11 0 11 0 10 -1 11 0 
11 -1 11 0 10 0 11 -1 11 0 10 0 11 -1 11 0 
11 0 10 -1 11 0 11 -1 10 0 11 0 11 -1 11 0 
10 0 11 -1 11 0 5183 2504 100 MP stroke
10 0 11 0 11 0 11 0 10 0 11 0 11 0 10 0 
11 0 11 0 11 0 10 0 11 0 11 0 10 0 11 0 
11 0 11 0 10 0 11 0 11 0 10 0 11 0 11 0 
10 0 11 0 11 0 11 0 10 0 11 0 11 0 10 0 
11 0 11 0 11 0 10 0 11 0 11 0 10 0 11 0 
11 0 11 0 10 0 11 0 11 0 10 0 11 0 11 0 
11 0 10 0 11 0 11 0 10 0 11 0 11 0 11 0 
10 0 11 0 11 0 10 0 11 0 11 0 11 0 10 0 
11 0 11 0 10 0 11 0 11 0 11 0 10 0 11 0 
11 0 10 0 11 0 11 0 11 0 10 0 11 0 11 0 
10 0 11 0 11 0 11 0 10 0 11 0 11 0 10 0 
11 0 11 0 10 0 11 0 11 0 11 0 10 0 11 0 
11 0 10 0 11 0 4123 2504 100 MP stroke
11 0 11 0 10 1 11 0 11 0 10 1 11 0 11 0 
11 1 10 0 11 0 11 1 10 0 11 1 11 0 11 0 
10 1 11 0 11 0 10 1 11 0 11 0 11 1 10 0 
11 0 11 1 10 0 11 0 11 1 11 0 10 0 11 1 
11 0 10 0 11 1 11 0 11 0 10 1 11 0 11 0 
10 1 11 0 11 0 11 1 10 0 11 0 11 1 10 0 
11 0 11 0 10 1 11 0 11 0 11 1 10 0 11 0 
11 1 10 0 11 0 11 1 11 0 10 0 11 0 11 1 
10 0 11 0 11 1 11 0 10 0 11 0 11 1 10 0 
11 0 11 1 11 0 10 0 11 0 11 1 10 0 11 0 
11 0 11 1 10 0 11 0 11 0 10 1 11 0 11 0 
11 1 10 0 11 0 11 0 10 1 11 0 11 0 11 0 
10 0 11 1 11 0 3062 2474 100 MP stroke
10 0 11 0 11 0 11 0 10 0 11 0 11 0 10 0 
11 0 11 0 11 0 10 0 11 0 11 0 10 0 11 0 
11 0 10 0 11 0 11 0 11 0 10 0 11 0 11 0 
10 0 11 0 11 0 11 0 10 0 11 0 11 0 10 0 
11 0 11 0 11 0 10 0 11 0 11 0 10 0 11 0 
11 0 11 0 10 0 11 0 11 0 10 0 11 0 11 0 
11 0 10 0 11 0 11 0 10 0 11 0 11 0 11 0 
10 0 11 0 11 0 10 0 11 0 11 0 11 0 10 0 
11 0 11 0 10 0 11 0 11 0 11 0 10 0 11 0 
11 0 10 0 11 0 11 0 10 0 11 0 11 0 11 0 
10 0 11 0 11 0 10 0 11 0 11 0 11 0 10 0 
11 0 11 0 10 0 11 0 11 0 11 0 10 0 11 0 
11 0 10 0 11 0 2002 2474 100 MP stroke
11 0 11 0 10 0 11 0 11 0 10 0 11 -1 11 0 
11 0 10 0 11 -1 11 0 10 0 11 0 11 -1 11 0 
10 0 11 -1 11 0 10 0 11 0 11 -1 11 0 10 0 
11 0 11 -1 10 0 11 0 11 -1 11 0 10 0 11 0 
11 -1 10 0 11 0 11 0 11 -1 10 0 11 0 11 -1 
10 0 11 0 11 0 10 -1 11 0 11 0 11 0 10 -1 
11 0 11 0 10 -1 11 0 11 0 11 0 10 -1 11 0 
11 0 10 -1 11 0 11 0 11 0 10 -1 11 0 11 0 
10 -1 11 0 11 0 11 0 10 -1 11 0 11 0 10 -1 
11 0 11 0 11 0 10 -1 11 0 11 0 10 -1 11 0 
11 0 11 0 10 -1 11 0 11 0 10 -1 11 0 11 0 
11 0 10 -1 11 0 11 0 10 -1 11 0 11 0 11 0 
10 -1 11 0 11 0 941 2500 100 MP stroke
10 -1 11 0 11 0 10 -1 899 2502 5 MP stroke
/c13 { 0.750000 0.750000 0.000000 sr} bdef
c13
11 0 11 0 10 0 11 0 11 0 10 1 11 0 11 0 
11 0 10 0 11 0 11 0 10 0 11 0 11 0 11 0 
10 0 11 0 11 0 10 0 11 0 11 0 11 0 10 0 
11 0 11 0 10 0 11 0 11 0 11 0 10 0 11 0 
11 0 10 0 11 0 11 0 11 1 10 0 11 0 11 0 
10 0 11 0 11 0 11 0 10 0 11 0 11 0 10 0 
11 0 11 0 11 0 10 0 11 0 11 0 10 0 11 0 
11 0 11 0 10 0 11 0 11 0 10 0 11 0 11 0 
10 0 11 0 11 0 11 0 10 0 11 0 11 0 10 0 
11 0 11 0 11 0 10 0 11 0 11 0 10 0 11 0 
11 0 11 0 10 0 11 0 11 0 10 0 11 0 11 0 
11 0 10 0 11 0 11 0 10 0 11 0 11 0 11 0 
10 0 11 0 11 0 5183 3117 100 MP stroke
10 0 11 0 11 0 11 0 10 0 11 0 11 0 10 0 
11 0 11 0 11 0 10 0 11 0 11 0 10 0 11 0 
11 0 11 0 10 0 11 0 11 0 10 0 11 0 11 0 
10 0 11 0 11 0 11 0 10 0 11 0 11 0 10 0 
11 0 11 0 11 0 10 0 11 0 11 0 10 0 11 0 
11 0 11 0 10 0 11 0 11 0 10 0 11 0 11 0 
11 0 10 0 11 0 11 0 10 0 11 0 11 0 11 0 
10 0 11 0 11 0 10 0 11 0 11 0 11 0 10 0 
11 0 11 0 10 0 11 0 11 0 11 0 10 0 11 0 
11 0 10 0 11 0 11 0 11 0 10 0 11 0 11 0 
10 0 11 0 11 0 11 0 10 0 11 0 11 0 10 0 
11 0 11 0 10 0 11 0 11 0 11 0 10 0 11 0 
11 0 10 0 11 0 4123 3117 100 MP stroke
11 0 11 0 10 -1 11 -1 11 0 10 -1 11 -1 11 0 
11 -1 10 -1 11 0 11 -1 10 -1 11 0 11 -1 11 -1 
10 0 11 -1 11 -1 10 -1 11 0 11 -1 11 -1 10 0 
11 -1 11 -1 10 0 11 -1 11 -1 11 0 10 -1 11 -1 
11 0 10 -1 11 -1 11 -1 11 0 10 -1 11 -1 11 0 
10 -1 11 -1 11 0 11 -1 10 -1 11 0 11 -1 10 -1 
11 -1 11 0 10 -1 11 -1 11 0 11 -1 10 -1 11 0 
11 -1 10 -1 11 0 11 -1 11 -1 10 0 11 -1 11 -1 
10 -1 11 0 11 -1 11 -1 10 0 11 -1 11 -1 10 0 
11 -1 11 -1 11 0 10 -1 11 -1 11 0 10 -1 11 -1 
11 0 11 -1 10 -1 11 0 11 -1 10 -1 11 0 11 -1 
11 -1 10 0 11 -1 11 -1 10 0 11 -1 11 -1 11 0 
10 -1 11 0 11 -1 3062 3183 100 MP stroke
10 -1 11 0 11 0 11 0 10 0 11 0 11 0 10 0 
11 0 11 0 11 0 10 0 11 0 11 0 10 0 11 0 
11 0 10 0 11 0 11 0 11 0 10 0 11 0 11 0 
10 0 11 0 11 0 11 0 10 0 11 0 11 0 10 0 
11 0 11 0 11 0 10 0 11 0 11 0 10 0 11 0 
11 0 11 0 10 0 11 0 11 0 10 0 11 0 11 0 
11 0 10 0 11 0 11 0 10 0 11 0 11 0 11 0 
10 0 11 0 11 0 10 0 11 0 11 0 11 0 10 0 
11 0 11 0 10 0 11 0 11 0 11 0 10 0 11 0 
11 0 10 0 11 0 11 0 10 0 11 0 11 0 11 0 
10 0 11 0 11 0 10 0 11 0 11 0 11 0 10 0 
11 0 11 0 10 0 11 0 11 0 11 0 10 0 11 0 
11 0 10 0 11 0 2002 3184 100 MP stroke
11 0 11 0 10 0 11 0 11 0 10 0 11 0 11 -1 
11 0 10 0 11 0 11 0 10 0 11 0 11 0 11 0 
10 0 11 0 11 0 10 0 11 0 11 0 11 0 10 0 
11 0 11 0 10 0 11 0 11 0 11 0 10 0 11 0 
11 0 10 0 11 0 11 0 11 -1 10 0 11 0 11 0 
10 0 11 0 11 0 10 0 11 0 11 0 11 0 10 0 
11 0 11 0 10 0 11 0 11 0 11 0 10 0 11 0 
11 0 10 0 11 0 11 0 11 0 10 0 11 0 11 0 
10 0 11 0 11 0 11 0 10 0 11 0 11 0 10 0 
11 0 11 0 11 0 10 0 11 0 11 0 10 0 11 0 
11 0 11 0 10 0 11 0 11 0 10 0 11 0 11 -1 
11 0 10 0 11 0 11 0 10 0 11 0 11 0 11 0 
10 0 11 0 11 0 941 3187 100 MP stroke
10 0 11 0 11 0 10 0 899 3187 5 MP stroke
gr

c13
DA
0 sg
6796 3493 mt  -90 rotate
(Tool Pose Orientation [rad]) s
90 rotate
SO
1 sg
0 750 750 0 0 -750 5445 1199 4 MP
PP
-750 0 0 750 750 0 0 -750 5445 1199 5 MP stroke
4 w
DO
SO
6 w
0 sg
5445 1199 mt 6195 1199 L
5445  449 mt 6195  449 L
5445 1199 mt 5445  449 L
6195 1199 mt 6195  449 L
5445 1199 mt 6195 1199 L
5445 1199 mt 5445  449 L
5445 1199 mt 6195 1199 L
5445  449 mt 6195  449 L
5445 1199 mt 5445  449 L
6195 1199 mt 6195  449 L
%%IncludeResource: font Helvetica
/Helvetica /ISOLatin1Encoding 96 FMSR

5850  560 mt 
(x[m]) s
gs 5445 449 751 751 MR c np
c8
310 0 5507 525 2 MP stroke
gr

c8
0 sg
5850  679 mt 
(y[m]) s
gs 5445 449 751 751 MR c np
c9
310 0 5507 644 2 MP stroke
gr

c9
0 sg
5850  799 mt 
(z[m]) s
gs 5445 449 751 751 MR c np
c10
310 0 5507 764 2 MP stroke
gr

c10
0 sg
5850  918 mt 
(r[rad]) s
gs 5445 449 751 751 MR c np
DA
c11
310 0 5507 883 2 MP stroke
SO
gr

c11
0 sg
5850 1038 mt 
(p[rad]) s
gs 5445 449 751 751 MR c np
DA
c12
310 0 5507 1003 2 MP stroke
SO
gr

c12
0 sg
5850 1157 mt 
(y[rad]) s
gs 5445 449 751 751 MR c np
DA
c13
310 0 5507 1122 2 MP stroke
SO
gr

c13

end %%Color Dict

eplot
%%EndObject

epage
end

showpage

%%Trailer
%%EOF
