%!PS-Adobe-3.0 EPSF-3.0
%%Creator: MATLAB, The MathWorks, Inc. Version 8.3.0.532 (R2014a). Operating System: Linux 3.19.0-30-generic #34-Ubuntu SMP Fri Oct 2 22:08:41 UTC 2015 x86_64.
%%Title: /home/nicolai/Dropbox/Skole/7. Semester/ROVI/Projects/Robotics Mandatory 2/report/hist_time.eps
%%CreationDate: 10/17/2015  21:17:10
%%DocumentNeededFonts: Helvetica
%%DocumentProcessColors: Cyan Magenta Yellow Black
%%LanguageLevel: 2
%%Pages: 1
%%BoundingBox:    81   227   529   564
%%EndComments

%%BeginProlog
% MathWorks dictionary
/MathWorks 160 dict begin
% definition operators
/bdef {bind def} bind def
/ldef {load def} bind def
/xdef {exch def} bdef
/xstore {exch store} bdef
% operator abbreviations
/c  /clip ldef
/cc /concat ldef
/cp /closepath ldef
/gr /grestore ldef
/gs /gsave ldef
/mt /moveto ldef
/np /newpath ldef
/cm /currentmatrix ldef
/sm /setmatrix ldef
/rm /rmoveto ldef
/rl /rlineto ldef
/s {show newpath} bdef
/sc {setcmykcolor} bdef
/sr /setrgbcolor ldef
/sg /setgray ldef
/w /setlinewidth ldef
/j /setlinejoin ldef
/cap /setlinecap ldef
/rc {rectclip} bdef
/rf {rectfill} bdef
% page state control
/pgsv () def
/bpage {/pgsv save def} bdef
/epage {pgsv restore} bdef
/bplot /gsave ldef
/eplot {stroke grestore} bdef
% orientation switch
/portraitMode 0 def /landscapeMode 1 def /rotateMode 2 def
% coordinate system mappings
/dpi2point 0 def
% font control
/FontSize 0 def
/FMS {/FontSize xstore findfont [FontSize 0 0 FontSize neg 0 0]
  makefont setfont} bdef
/reencode {exch dup where {pop load} {pop StandardEncoding} ifelse
  exch dup 3 1 roll findfont dup length dict begin
  { 1 index /FID ne {def}{pop pop} ifelse } forall
  /Encoding exch def currentdict end definefont pop} bdef
/isroman {findfont /CharStrings get /Agrave known} bdef
/FMSR {3 1 roll 1 index dup isroman {reencode} {pop pop} ifelse
  exch FMS} bdef
/csm {1 dpi2point div -1 dpi2point div scale neg translate
 dup landscapeMode eq {pop -90 rotate}
  {rotateMode eq {90 rotate} if} ifelse} bdef
% line types: solid, dotted, dashed, dotdash
/SO { [] 0 setdash } bdef
/DO { [.5 dpi2point mul 4 dpi2point mul] 0 setdash } bdef
/DA { [6 dpi2point mul] 0 setdash } bdef
/DD { [.5 dpi2point mul 4 dpi2point mul 6 dpi2point mul 4
  dpi2point mul] 0 setdash } bdef
% macros for lines and objects
/L {lineto stroke} bdef
/MP {3 1 roll moveto 1 sub {rlineto} repeat} bdef
/AP {{rlineto} repeat} bdef
/PDlw -1 def
/W {/PDlw currentlinewidth def setlinewidth} def
/PP {closepath eofill} bdef
/DP {closepath stroke} bdef
/MR {4 -2 roll moveto dup  0 exch rlineto exch 0 rlineto
  neg 0 exch rlineto closepath} bdef
/FR {MR stroke} bdef
/PR {MR fill} bdef
/L1i {{currentfile picstr readhexstring pop} image} bdef
/tMatrix matrix def
/MakeOval {newpath tMatrix currentmatrix pop translate scale
0 0 1 0 360 arc tMatrix setmatrix} bdef
/FO {MakeOval stroke} bdef
/PO {MakeOval fill} bdef
/PD {currentlinewidth 2 div 0 360 arc fill
   PDlw -1 eq not {PDlw w /PDlw -1 def} if} def
/FA {newpath tMatrix currentmatrix pop translate scale
  0 0 1 5 -2 roll arc tMatrix setmatrix stroke} bdef
/PA {newpath tMatrix currentmatrix pop	translate 0 0 moveto scale
  0 0 1 5 -2 roll arc closepath tMatrix setmatrix fill} bdef
/FAn {newpath tMatrix currentmatrix pop translate scale
  0 0 1 5 -2 roll arcn tMatrix setmatrix stroke} bdef
/PAn {newpath tMatrix currentmatrix pop translate 0 0 moveto scale
  0 0 1 5 -2 roll arcn closepath tMatrix setmatrix fill} bdef
/vradius 0 def /hradius 0 def /lry 0 def
/lrx 0 def /uly 0 def /ulx 0 def /rad 0 def
/MRR {/vradius xdef /hradius xdef /lry xdef /lrx xdef /uly xdef
  /ulx xdef newpath tMatrix currentmatrix pop ulx hradius add uly
  vradius add translate hradius vradius scale 0 0 1 180 270 arc 
  tMatrix setmatrix lrx hradius sub uly vradius add translate
  hradius vradius scale 0 0 1 270 360 arc tMatrix setmatrix
  lrx hradius sub lry vradius sub translate hradius vradius scale
  0 0 1 0 90 arc tMatrix setmatrix ulx hradius add lry vradius sub
  translate hradius vradius scale 0 0 1 90 180 arc tMatrix setmatrix
  closepath} bdef
/FRR {MRR stroke } bdef
/PRR {MRR fill } bdef
/MlrRR {/lry xdef /lrx xdef /uly xdef /ulx xdef /rad lry uly sub 2 div def
  newpath tMatrix currentmatrix pop ulx rad add uly rad add translate
  rad rad scale 0 0 1 90 270 arc tMatrix setmatrix lrx rad sub lry rad
  sub translate rad rad scale 0 0 1 270 90 arc tMatrix setmatrix
  closepath} bdef
/FlrRR {MlrRR stroke } bdef
/PlrRR {MlrRR fill } bdef
/MtbRR {/lry xdef /lrx xdef /uly xdef /ulx xdef /rad lrx ulx sub 2 div def
  newpath tMatrix currentmatrix pop ulx rad add uly rad add translate
  rad rad scale 0 0 1 180 360 arc tMatrix setmatrix lrx rad sub lry rad
  sub translate rad rad scale 0 0 1 0 180 arc tMatrix setmatrix
  closepath} bdef
/FtbRR {MtbRR stroke } bdef
/PtbRR {MtbRR fill } bdef
/stri 6 array def /dtri 6 array def
/smat 6 array def /dmat 6 array def
/tmat1 6 array def /tmat2 6 array def /dif 3 array def
/asub {/ind2 exch def /ind1 exch def dup dup
  ind1 get exch ind2 get sub exch } bdef
/tri_to_matrix {
  2 0 asub 3 1 asub 4 0 asub 5 1 asub
  dup 0 get exch 1 get 7 -1 roll astore } bdef
/compute_transform {
  dmat dtri tri_to_matrix tmat1 invertmatrix 
  smat stri tri_to_matrix tmat2 concatmatrix } bdef
/ds {stri astore pop} bdef
/dt {dtri astore pop} bdef
/db {2 copy /cols xdef /rows xdef mul dup 3 mul string
  currentfile 
  3 index 0 eq {/ASCIIHexDecode filter}
  {/ASCII85Decode filter 3 index 2 eq {/RunLengthDecode filter} if }
  ifelse exch readstring pop
  dup 0 3 index getinterval /rbmap xdef
  dup 2 index dup getinterval /gbmap xdef
  1 index dup 2 mul exch getinterval /bbmap xdef pop pop}bdef
/it {gs np dtri aload pop moveto lineto lineto cp c
  cols rows 8 compute_transform 
  rbmap gbmap bbmap true 3 colorimage gr}bdef
/il {newpath moveto lineto stroke}bdef
currentdict end def
%%EndProlog

%%BeginSetup
MathWorks begin

0 cap

end
%%EndSetup

%%Page: 1 1
%%BeginPageSetup
%%PageBoundingBox:    81   227   529   564
MathWorks begin
bpage
%%EndPageSetup

%%BeginObject: obj1
bplot

/dpi2point 12 def
portraitMode 0972 6768 csm

    0     0  5376  4033 rc
85 dict begin %Colortable dictionary
/c0 { 0.000000 0.000000 0.000000 sr} bdef
/c1 { 1.000000 1.000000 1.000000 sr} bdef
/c2 { 0.900000 0.000000 0.000000 sr} bdef
/c3 { 0.000000 0.820000 0.000000 sr} bdef
/c4 { 0.000000 0.000000 0.800000 sr} bdef
/c5 { 0.910000 0.820000 0.320000 sr} bdef
/c6 { 1.000000 0.260000 0.820000 sr} bdef
/c7 { 0.000000 0.820000 0.820000 sr} bdef
c0
1 j
1 sg
   0    0 5377 4034 rf
6 w
0 3287 4166 0 0 -3287 699 3589 4 MP
PP
-4166 0 0 3287 4166 0 0 -3287 699 3589 5 MP stroke
4 w
DO
SO
6 w
0 sg
 699 3589 mt 4865 3589 L
 699  302 mt 4865  302 L
 699 3589 mt  699  302 L
4865 3589 mt 4865  302 L
 699 3589 mt 4865 3589 L
 699 3589 mt  699  302 L
 699 3589 mt  699 3547 L
 699  302 mt  699  343 L
%%IncludeResource: font Helvetica
/Helvetica /ISOLatin1Encoding 120 FMSR

 666 3734 mt 
(0) s
1393 3589 mt 1393 3547 L
1393  302 mt 1393  343 L
1327 3734 mt 
(20) s
2087 3589 mt 2087 3547 L
2087  302 mt 2087  343 L
2021 3734 mt 
(40) s
2782 3589 mt 2782 3547 L
2782  302 mt 2782  343 L
2716 3734 mt 
(60) s
3476 3589 mt 3476 3547 L
3476  302 mt 3476  343 L
3410 3734 mt 
(80) s
4170 3589 mt 4170 3547 L
4170  302 mt 4170  343 L
4070 3734 mt 
(100) s
4865 3589 mt 4865 3547 L
4865  302 mt 4865  343 L
4765 3734 mt 
(120) s
 699 3589 mt  740 3589 L
4865 3589 mt 4823 3589 L
 598 3633 mt 
(0) s
 699 3119 mt  740 3119 L
4865 3119 mt 4823 3119 L
 431 3163 mt 
(0.01) s
 699 2649 mt  740 2649 L
4865 2649 mt 4823 2649 L
 431 2693 mt 
(0.02) s
 699 2180 mt  740 2180 L
4865 2180 mt 4823 2180 L
 431 2224 mt 
(0.03) s
 699 1710 mt  740 1710 L
4865 1710 mt 4823 1710 L
 431 1754 mt 
(0.04) s
 699 1241 mt  740 1241 L
4865 1241 mt 4823 1241 L
 431 1285 mt 
(0.05) s
 699  771 mt  740  771 L
4865  771 mt 4823  771 L
 431  815 mt 
(0.06) s
 699  302 mt  740  302 L
4865  302 mt 4823  302 L
 431  346 mt 
(0.07) s
 699 3589 mt 4865 3589 L
 699  302 mt 4865  302 L
 699 3589 mt  699  302 L
4865 3589 mt 4865  302 L
gs 699 302 4167 3288 rc
/c8 { 0.000000 0.000000 0.562500 sr} bdef
c8
0 465 28 0 0 -465 719 3589 4 MP
PP
0 sg
-28 0 0 465 28 0 0 -465 719 3589 5 MP stroke
c8
0 1949 28 0 0 -1949 754 3589 4 MP
PP
0 sg
-28 0 0 1949 28 0 0 -1949 754 3589 5 MP stroke
c8
0 2546 28 0 0 -2546 789 3589 4 MP
PP
0 sg
-28 0 0 2546 28 0 0 -2546 789 3589 5 MP stroke
c8
0 2400 28 0 0 -2400 823 3589 4 MP
PP
0 sg
-28 0 0 2400 28 0 0 -2400 823 3589 5 MP stroke
c8
0 2931 28 0 0 -2931 858 3589 4 MP
PP
0 sg
-28 0 0 2931 28 0 0 -2931 858 3589 5 MP stroke
c8
0 2973 28 0 0 -2973 893 3589 4 MP
PP
0 sg
-28 0 0 2973 28 0 0 -2973 893 3589 5 MP stroke
c8
0 3137 27 0 0 -3137 928 3589 4 MP
PP
0 sg
-27 0 0 3137 27 0 0 -3137 928 3589 5 MP stroke
c8
0 2499 28 0 0 -2499 962 3589 4 MP
PP
0 sg
-28 0 0 2499 28 0 0 -2499 962 3589 5 MP stroke
c8
0 2724 28 0 0 -2724 997 3589 4 MP
PP
0 sg
-28 0 0 2724 28 0 0 -2724 997 3589 5 MP stroke
c8
0 2701 28 0 0 -2701 1032 3589 4 MP
PP
0 sg
-28 0 0 2701 28 0 0 -2701 1032 3589 5 MP stroke
c8
0 2400 28 0 0 -2400 1066 3589 4 MP
PP
0 sg
-28 0 0 2400 28 0 0 -2400 1066 3589 5 MP stroke
c8
0 1855 28 0 0 -1855 1101 3589 4 MP
PP
0 sg
-28 0 0 1855 28 0 0 -1855 1101 3589 5 MP stroke
c8
0 1959 28 0 0 -1959 1136 3589 4 MP
PP
0 sg
-28 0 0 1959 28 0 0 -1959 1136 3589 5 MP stroke
c8
0 2015 27 0 0 -2015 1171 3589 4 MP
PP
0 sg
-27 0 0 2015 27 0 0 -2015 1171 3589 5 MP stroke
c8
0 1672 28 0 0 -1672 1205 3589 4 MP
PP
0 sg
-28 0 0 1672 28 0 0 -1672 1205 3589 5 MP stroke
c8
0 1118 28 0 0 -1118 1240 3589 4 MP
PP
0 sg
-28 0 0 1118 28 0 0 -1118 1240 3589 5 MP stroke
c8
0 1353 28 0 0 -1353 1275 3589 4 MP
PP
0 sg
-28 0 0 1353 28 0 0 -1353 1275 3589 5 MP stroke
c8
0 1170 27 0 0 -1170 1310 3589 4 MP
PP
0 sg
-27 0 0 1170 27 0 0 -1170 1310 3589 5 MP stroke
c8
0 1142 28 0 0 -1142 1344 3589 4 MP
PP
0 sg
-28 0 0 1142 28 0 0 -1142 1344 3589 5 MP stroke
c8
0 794 28 0 0 -794 1379 3589 4 MP
PP
0 sg
-28 0 0 794 28 0 0 -794 1379 3589 5 MP stroke
c8
0 893 27 0 0 -893 1414 3589 4 MP
PP
0 sg
-27 0 0 893 27 0 0 -893 1414 3589 5 MP stroke
c8
0 761 28 0 0 -761 1448 3589 4 MP
PP
0 sg
-28 0 0 761 28 0 0 -761 1448 3589 5 MP stroke
c8
0 752 28 0 0 -752 1483 3589 4 MP
PP
0 sg
-28 0 0 752 28 0 0 -752 1483 3589 5 MP stroke
c8
0 465 28 0 0 -465 1518 3589 4 MP
PP
0 sg
-28 0 0 465 28 0 0 -465 1518 3589 5 MP stroke
c8
0 526 27 0 0 -526 1553 3589 4 MP
PP
0 sg
-27 0 0 526 27 0 0 -526 1553 3589 5 MP stroke
c8
0 470 28 0 0 -470 1587 3589 4 MP
PP
0 sg
-28 0 0 470 28 0 0 -470 1587 3589 5 MP stroke
c8
0 329 28 0 0 -329 1622 3589 4 MP
PP
0 sg
-28 0 0 329 28 0 0 -329 1622 3589 5 MP stroke
c8
0 357 27 0 0 -357 1657 3589 4 MP
PP
0 sg
-27 0 0 357 27 0 0 -357 1657 3589 5 MP stroke
c8
0 334 28 0 0 -334 1691 3589 4 MP
PP
0 sg
-28 0 0 334 28 0 0 -334 1691 3589 5 MP stroke
c8
0 306 28 0 0 -306 1726 3589 4 MP
PP
0 sg
-28 0 0 306 28 0 0 -306 1726 3589 5 MP stroke
c8
0 132 28 0 0 -132 1761 3589 4 MP
PP
0 sg
-28 0 0 132 28 0 0 -132 1761 3589 5 MP stroke
c8
0 259 27 0 0 -259 1796 3589 4 MP
PP
0 sg
-27 0 0 259 27 0 0 -259 1796 3589 5 MP stroke
c8
0 188 28 0 0 -188 1830 3589 4 MP
PP
0 sg
-28 0 0 188 28 0 0 -188 1830 3589 5 MP stroke
c8
0 179 28 0 0 -179 1865 3589 4 MP
PP
0 sg
-28 0 0 179 28 0 0 -179 1865 3589 5 MP stroke
c8
0 109 27 0 0 -109 1900 3589 4 MP
PP
0 sg
-27 0 0 109 27 0 0 -109 1900 3589 5 MP stroke
c8
0 170 28 0 0 -170 1934 3589 4 MP
PP
0 sg
-28 0 0 170 28 0 0 -170 1934 3589 5 MP stroke
c8
0 85 28 0 0 -85 1969 3589 4 MP
PP
0 sg
-28 0 0 85 28 0 0 -85 1969 3589 5 MP stroke
c8
0 113 28 0 0 -113 2004 3589 4 MP
PP
0 sg
-28 0 0 113 28 0 0 -113 2004 3589 5 MP stroke
c8
0 94 27 0 0 -94 2039 3589 4 MP
PP
0 sg
-27 0 0 94 27 0 0 -94 2039 3589 5 MP stroke
c8
0 90 28 0 0 -90 2073 3589 4 MP
PP
0 sg
-28 0 0 90 28 0 0 -90 2073 3589 5 MP stroke
c8
0 71 28 0 0 -71 2108 3589 4 MP
PP
0 sg
-28 0 0 71 28 0 0 -71 2108 3589 5 MP stroke
c8
0 85 27 0 0 -85 2143 3589 4 MP
PP
0 sg
-27 0 0 85 27 0 0 -85 2143 3589 5 MP stroke
c8
0 47 28 0 0 -47 2177 3589 4 MP
PP
0 sg
-28 0 0 47 28 0 0 -47 2177 3589 5 MP stroke
c8
0 38 28 0 0 -38 2212 3589 4 MP
PP
0 sg
-28 0 0 38 28 0 0 -38 2212 3589 5 MP stroke
c8
0 52 28 0 0 -52 2247 3589 4 MP
PP
0 sg
-28 0 0 52 28 0 0 -52 2247 3589 5 MP stroke
c8
0 38 27 0 0 -38 2282 3589 4 MP
PP
0 sg
-27 0 0 38 27 0 0 -38 2282 3589 5 MP stroke
c8
0 29 28 0 0 -29 2316 3589 4 MP
PP
0 sg
-28 0 0 29 28 0 0 -29 2316 3589 5 MP stroke
c8
0 19 28 0 0 -19 2351 3589 4 MP
PP
0 sg
-28 0 0 19 28 0 0 -19 2351 3589 5 MP stroke
c8
0 33 28 0 0 -33 2386 3589 4 MP
PP
0 sg
-28 0 0 33 28 0 0 -33 2386 3589 5 MP stroke
c8
0 33 28 0 0 -33 2420 3589 4 MP
PP
0 sg
-28 0 0 33 28 0 0 -33 2420 3589 5 MP stroke
c8
0 10 28 0 0 -10 2455 3589 4 MP
PP
0 sg
-28 0 0 10 28 0 0 -10 2455 3589 5 MP stroke
c8
0 19 28 0 0 -19 2490 3589 4 MP
PP
0 sg
-28 0 0 19 28 0 0 -19 2490 3589 5 MP stroke
c8
0 15 27 0 0 -15 2525 3589 4 MP
PP
0 sg
-27 0 0 15 27 0 0 -15 2525 3589 5 MP stroke
c8
0 0 28 0 0 0 2559 3589 4 MP
PP
0 sg
-28 0 0 0 28 0 0 0 2559 3589 5 MP stroke
c8
0 5 28 0 0 -5 2594 3589 4 MP
PP
0 sg
-28 0 0 5 28 0 0 -5 2594 3589 5 MP stroke
c8
0 10 28 0 0 -10 2629 3589 4 MP
PP
0 sg
-28 0 0 10 28 0 0 -10 2629 3589 5 MP stroke
c8
0 10 28 0 0 -10 2663 3589 4 MP
PP
0 sg
-28 0 0 10 28 0 0 -10 2663 3589 5 MP stroke
c8
0 10 28 0 0 -10 2698 3589 4 MP
PP
0 sg
-28 0 0 10 28 0 0 -10 2698 3589 5 MP stroke
c8
0 19 28 0 0 -19 2733 3589 4 MP
PP
0 sg
-28 0 0 19 28 0 0 -19 2733 3589 5 MP stroke
c8
0 0 27 0 0 0 2768 3589 4 MP
PP
0 sg
-27 0 0 0 27 0 0 0 2768 3589 5 MP stroke
c8
0 0 28 0 0 0 2802 3589 4 MP
PP
0 sg
-28 0 0 0 28 0 0 0 2802 3589 5 MP stroke
c8
0 0 28 0 0 0 2837 3589 4 MP
PP
0 sg
-28 0 0 0 28 0 0 0 2837 3589 5 MP stroke
c8
0 0 28 0 0 0 2872 3589 4 MP
PP
0 sg
-28 0 0 0 28 0 0 0 2872 3589 5 MP stroke
c8
0 0 28 0 0 0 2906 3589 4 MP
PP
0 sg
-28 0 0 0 28 0 0 0 2906 3589 5 MP stroke
c8
0 5 28 0 0 -5 2941 3589 4 MP
PP
0 sg
-28 0 0 5 28 0 0 -5 2941 3589 5 MP stroke
c8
0 0 28 0 0 0 2976 3589 4 MP
PP
0 sg
-28 0 0 0 28 0 0 0 2976 3589 5 MP stroke
c8
0 0 27 0 0 0 3011 3589 4 MP
PP
0 sg
-27 0 0 0 27 0 0 0 3011 3589 5 MP stroke
c8
0 0 28 0 0 0 3045 3589 4 MP
PP
0 sg
-28 0 0 0 28 0 0 0 3045 3589 5 MP stroke
c8
0 5 28 0 0 -5 3080 3589 4 MP
PP
0 sg
-28 0 0 5 28 0 0 -5 3080 3589 5 MP stroke
c8
0 0 28 0 0 0 3115 3589 4 MP
PP
0 sg
-28 0 0 0 28 0 0 0 3115 3589 5 MP stroke
c8
0 5 28 0 0 -5 3149 3589 4 MP
PP
0 sg
-28 0 0 5 28 0 0 -5 3149 3589 5 MP stroke
c8
0 0 28 0 0 0 3184 3589 4 MP
PP
0 sg
-28 0 0 0 28 0 0 0 3184 3589 5 MP stroke
c8
0 0 28 0 0 0 3219 3589 4 MP
PP
0 sg
-28 0 0 0 28 0 0 0 3219 3589 5 MP stroke
c8
0 0 27 0 0 0 3254 3589 4 MP
PP
0 sg
-27 0 0 0 27 0 0 0 3254 3589 5 MP stroke
c8
0 0 28 0 0 0 3288 3589 4 MP
PP
0 sg
-28 0 0 0 28 0 0 0 3288 3589 5 MP stroke
c8
0 0 28 0 0 0 3323 3589 4 MP
PP
0 sg
-28 0 0 0 28 0 0 0 3323 3589 5 MP stroke
c8
0 0 28 0 0 0 3358 3589 4 MP
PP
0 sg
-28 0 0 0 28 0 0 0 3358 3589 5 MP stroke
c8
0 0 27 0 0 0 3393 3589 4 MP
PP
0 sg
-27 0 0 0 27 0 0 0 3393 3589 5 MP stroke
c8
0 0 28 0 0 0 3427 3589 4 MP
PP
0 sg
-28 0 0 0 28 0 0 0 3427 3589 5 MP stroke
c8
0 0 28 0 0 0 3462 3589 4 MP
PP
0 sg
-28 0 0 0 28 0 0 0 3462 3589 5 MP stroke
c8
0 5 27 0 0 -5 3497 3589 4 MP
PP
0 sg
-27 0 0 5 27 0 0 -5 3497 3589 5 MP stroke
c8
0 0 28 0 0 0 3531 3589 4 MP
PP
0 sg
-28 0 0 0 28 0 0 0 3531 3589 5 MP stroke
c8
0 0 28 0 0 0 3566 3589 4 MP
PP
0 sg
-28 0 0 0 28 0 0 0 3566 3589 5 MP stroke
c8
0 0 28 0 0 0 3601 3589 4 MP
PP
0 sg
-28 0 0 0 28 0 0 0 3601 3589 5 MP stroke
c8
0 5 27 0 0 -5 3636 3589 4 MP
PP
0 sg
-27 0 0 5 27 0 0 -5 3636 3589 5 MP stroke
c8
0 0 28 0 0 0 3670 3589 4 MP
PP
0 sg
-28 0 0 0 28 0 0 0 3670 3589 5 MP stroke
c8
0 0 28 0 0 0 3705 3589 4 MP
PP
0 sg
-28 0 0 0 28 0 0 0 3705 3589 5 MP stroke
c8
0 0 27 0 0 0 3740 3589 4 MP
PP
0 sg
-27 0 0 0 27 0 0 0 3740 3589 5 MP stroke
c8
0 0 28 0 0 0 3774 3589 4 MP
PP
0 sg
-28 0 0 0 28 0 0 0 3774 3589 5 MP stroke
c8
0 0 28 0 0 0 3809 3589 4 MP
PP
0 sg
-28 0 0 0 28 0 0 0 3809 3589 5 MP stroke
c8
0 0 28 0 0 0 3844 3589 4 MP
PP
0 sg
-28 0 0 0 28 0 0 0 3844 3589 5 MP stroke
c8
0 0 27 0 0 0 3879 3589 4 MP
PP
0 sg
-27 0 0 0 27 0 0 0 3879 3589 5 MP stroke
c8
0 0 28 0 0 0 3913 3589 4 MP
PP
0 sg
-28 0 0 0 28 0 0 0 3913 3589 5 MP stroke
c8
0 0 28 0 0 0 3948 3589 4 MP
PP
0 sg
-28 0 0 0 28 0 0 0 3948 3589 5 MP stroke
c8
0 0 27 0 0 0 3983 3589 4 MP
PP
0 sg
-27 0 0 0 27 0 0 0 3983 3589 5 MP stroke
c8
0 0 28 0 0 0 4017 3589 4 MP
PP
0 sg
-28 0 0 0 28 0 0 0 4017 3589 5 MP stroke
c8
0 0 28 0 0 0 4052 3589 4 MP
PP
0 sg
-28 0 0 0 28 0 0 0 4052 3589 5 MP stroke
c8
0 0 28 0 0 0 4087 3589 4 MP
PP
0 sg
-28 0 0 0 28 0 0 0 4087 3589 5 MP stroke
c8
0 0 27 0 0 0 4122 3589 4 MP
PP
0 sg
-27 0 0 0 27 0 0 0 4122 3589 5 MP stroke
c8
0 5 28 0 0 -5 4156 3589 4 MP
PP
0 sg
-28 0 0 5 28 0 0 -5 4156 3589 5 MP stroke
4166 0 699 3589 2 MP stroke
gr

2294 3877 mt 
(Computation Time) s
 349 2226 mt  -90 rotate
(Probability) s
90 rotate
1969  207 mt 
(Histogram of computation time) s

end %%Color Dict

eplot
%%EndObject

epage
end

showpage

%%Trailer
%%EOF
