%!PS-Adobe-3.0 EPSF-3.0
%%Creator: MATLAB, The MathWorks, Inc. Version 8.3.0.532 (R2014a). Operating System: Linux 3.19.0-30-generic #34-Ubuntu SMP Fri Oct 2 22:08:41 UTC 2015 x86_64.
%%Title: /home/nicolai/Dropbox/Skole/7. Semester/ROVI/Projects/Robotics Mandatory 2/report/hist_length.eps
%%CreationDate: 10/17/2015  21:16:35
%%DocumentNeededFonts: Helvetica
%%DocumentProcessColors: Cyan Magenta Yellow Black
%%LanguageLevel: 2
%%Pages: 1
%%BoundingBox:    81   227   529   564
%%EndComments

%%BeginProlog
% MathWorks dictionary
/MathWorks 160 dict begin
% definition operators
/bdef {bind def} bind def
/ldef {load def} bind def
/xdef {exch def} bdef
/xstore {exch store} bdef
% operator abbreviations
/c  /clip ldef
/cc /concat ldef
/cp /closepath ldef
/gr /grestore ldef
/gs /gsave ldef
/mt /moveto ldef
/np /newpath ldef
/cm /currentmatrix ldef
/sm /setmatrix ldef
/rm /rmoveto ldef
/rl /rlineto ldef
/s {show newpath} bdef
/sc {setcmykcolor} bdef
/sr /setrgbcolor ldef
/sg /setgray ldef
/w /setlinewidth ldef
/j /setlinejoin ldef
/cap /setlinecap ldef
/rc {rectclip} bdef
/rf {rectfill} bdef
% page state control
/pgsv () def
/bpage {/pgsv save def} bdef
/epage {pgsv restore} bdef
/bplot /gsave ldef
/eplot {stroke grestore} bdef
% orientation switch
/portraitMode 0 def /landscapeMode 1 def /rotateMode 2 def
% coordinate system mappings
/dpi2point 0 def
% font control
/FontSize 0 def
/FMS {/FontSize xstore findfont [FontSize 0 0 FontSize neg 0 0]
  makefont setfont} bdef
/reencode {exch dup where {pop load} {pop StandardEncoding} ifelse
  exch dup 3 1 roll findfont dup length dict begin
  { 1 index /FID ne {def}{pop pop} ifelse } forall
  /Encoding exch def currentdict end definefont pop} bdef
/isroman {findfont /CharStrings get /Agrave known} bdef
/FMSR {3 1 roll 1 index dup isroman {reencode} {pop pop} ifelse
  exch FMS} bdef
/csm {1 dpi2point div -1 dpi2point div scale neg translate
 dup landscapeMode eq {pop -90 rotate}
  {rotateMode eq {90 rotate} if} ifelse} bdef
% line types: solid, dotted, dashed, dotdash
/SO { [] 0 setdash } bdef
/DO { [.5 dpi2point mul 4 dpi2point mul] 0 setdash } bdef
/DA { [6 dpi2point mul] 0 setdash } bdef
/DD { [.5 dpi2point mul 4 dpi2point mul 6 dpi2point mul 4
  dpi2point mul] 0 setdash } bdef
% macros for lines and objects
/L {lineto stroke} bdef
/MP {3 1 roll moveto 1 sub {rlineto} repeat} bdef
/AP {{rlineto} repeat} bdef
/PDlw -1 def
/W {/PDlw currentlinewidth def setlinewidth} def
/PP {closepath eofill} bdef
/DP {closepath stroke} bdef
/MR {4 -2 roll moveto dup  0 exch rlineto exch 0 rlineto
  neg 0 exch rlineto closepath} bdef
/FR {MR stroke} bdef
/PR {MR fill} bdef
/L1i {{currentfile picstr readhexstring pop} image} bdef
/tMatrix matrix def
/MakeOval {newpath tMatrix currentmatrix pop translate scale
0 0 1 0 360 arc tMatrix setmatrix} bdef
/FO {MakeOval stroke} bdef
/PO {MakeOval fill} bdef
/PD {currentlinewidth 2 div 0 360 arc fill
   PDlw -1 eq not {PDlw w /PDlw -1 def} if} def
/FA {newpath tMatrix currentmatrix pop translate scale
  0 0 1 5 -2 roll arc tMatrix setmatrix stroke} bdef
/PA {newpath tMatrix currentmatrix pop	translate 0 0 moveto scale
  0 0 1 5 -2 roll arc closepath tMatrix setmatrix fill} bdef
/FAn {newpath tMatrix currentmatrix pop translate scale
  0 0 1 5 -2 roll arcn tMatrix setmatrix stroke} bdef
/PAn {newpath tMatrix currentmatrix pop translate 0 0 moveto scale
  0 0 1 5 -2 roll arcn closepath tMatrix setmatrix fill} bdef
/vradius 0 def /hradius 0 def /lry 0 def
/lrx 0 def /uly 0 def /ulx 0 def /rad 0 def
/MRR {/vradius xdef /hradius xdef /lry xdef /lrx xdef /uly xdef
  /ulx xdef newpath tMatrix currentmatrix pop ulx hradius add uly
  vradius add translate hradius vradius scale 0 0 1 180 270 arc 
  tMatrix setmatrix lrx hradius sub uly vradius add translate
  hradius vradius scale 0 0 1 270 360 arc tMatrix setmatrix
  lrx hradius sub lry vradius sub translate hradius vradius scale
  0 0 1 0 90 arc tMatrix setmatrix ulx hradius add lry vradius sub
  translate hradius vradius scale 0 0 1 90 180 arc tMatrix setmatrix
  closepath} bdef
/FRR {MRR stroke } bdef
/PRR {MRR fill } bdef
/MlrRR {/lry xdef /lrx xdef /uly xdef /ulx xdef /rad lry uly sub 2 div def
  newpath tMatrix currentmatrix pop ulx rad add uly rad add translate
  rad rad scale 0 0 1 90 270 arc tMatrix setmatrix lrx rad sub lry rad
  sub translate rad rad scale 0 0 1 270 90 arc tMatrix setmatrix
  closepath} bdef
/FlrRR {MlrRR stroke } bdef
/PlrRR {MlrRR fill } bdef
/MtbRR {/lry xdef /lrx xdef /uly xdef /ulx xdef /rad lrx ulx sub 2 div def
  newpath tMatrix currentmatrix pop ulx rad add uly rad add translate
  rad rad scale 0 0 1 180 360 arc tMatrix setmatrix lrx rad sub lry rad
  sub translate rad rad scale 0 0 1 0 180 arc tMatrix setmatrix
  closepath} bdef
/FtbRR {MtbRR stroke } bdef
/PtbRR {MtbRR fill } bdef
/stri 6 array def /dtri 6 array def
/smat 6 array def /dmat 6 array def
/tmat1 6 array def /tmat2 6 array def /dif 3 array def
/asub {/ind2 exch def /ind1 exch def dup dup
  ind1 get exch ind2 get sub exch } bdef
/tri_to_matrix {
  2 0 asub 3 1 asub 4 0 asub 5 1 asub
  dup 0 get exch 1 get 7 -1 roll astore } bdef
/compute_transform {
  dmat dtri tri_to_matrix tmat1 invertmatrix 
  smat stri tri_to_matrix tmat2 concatmatrix } bdef
/ds {stri astore pop} bdef
/dt {dtri astore pop} bdef
/db {2 copy /cols xdef /rows xdef mul dup 3 mul string
  currentfile 
  3 index 0 eq {/ASCIIHexDecode filter}
  {/ASCII85Decode filter 3 index 2 eq {/RunLengthDecode filter} if }
  ifelse exch readstring pop
  dup 0 3 index getinterval /rbmap xdef
  dup 2 index dup getinterval /gbmap xdef
  1 index dup 2 mul exch getinterval /bbmap xdef pop pop}bdef
/it {gs np dtri aload pop moveto lineto lineto cp c
  cols rows 8 compute_transform 
  rbmap gbmap bbmap true 3 colorimage gr}bdef
/il {newpath moveto lineto stroke}bdef
currentdict end def
%%EndProlog

%%BeginSetup
MathWorks begin

0 cap

end
%%EndSetup

%%Page: 1 1
%%BeginPageSetup
%%PageBoundingBox:    81   227   529   564
MathWorks begin
bpage
%%EndPageSetup

%%BeginObject: obj1
bplot

/dpi2point 12 def
portraitMode 0972 6768 csm

    0     0  5376  4033 rc
85 dict begin %Colortable dictionary
/c0 { 0.000000 0.000000 0.000000 sr} bdef
/c1 { 1.000000 1.000000 1.000000 sr} bdef
/c2 { 0.900000 0.000000 0.000000 sr} bdef
/c3 { 0.000000 0.820000 0.000000 sr} bdef
/c4 { 0.000000 0.000000 0.800000 sr} bdef
/c5 { 0.910000 0.820000 0.320000 sr} bdef
/c6 { 1.000000 0.260000 0.820000 sr} bdef
/c7 { 0.000000 0.820000 0.820000 sr} bdef
c0
1 j
1 sg
   0    0 5377 4034 rf
6 w
0 3287 4166 0 0 -3287 699 3589 4 MP
PP
-4166 0 0 3287 4166 0 0 -3287 699 3589 5 MP stroke
4 w
DO
SO
6 w
0 sg
 699 3589 mt 4865 3589 L
 699  302 mt 4865  302 L
 699 3589 mt  699  302 L
4865 3589 mt 4865  302 L
 699 3589 mt 4865 3589 L
 699 3589 mt  699  302 L
 699 3589 mt  699 3547 L
 699  302 mt  699  343 L
%%IncludeResource: font Helvetica
/Helvetica /ISOLatin1Encoding 120 FMSR

 666 3734 mt 
(0) s
1393 3589 mt 1393 3547 L
1393  302 mt 1393  343 L
1327 3734 mt 
(20) s
2087 3589 mt 2087 3547 L
2087  302 mt 2087  343 L
2021 3734 mt 
(40) s
2782 3589 mt 2782 3547 L
2782  302 mt 2782  343 L
2716 3734 mt 
(60) s
3476 3589 mt 3476 3547 L
3476  302 mt 3476  343 L
3410 3734 mt 
(80) s
4170 3589 mt 4170 3547 L
4170  302 mt 4170  343 L
4070 3734 mt 
(100) s
4865 3589 mt 4865 3547 L
4865  302 mt 4865  343 L
4765 3734 mt 
(120) s
 699 3589 mt  740 3589 L
4865 3589 mt 4823 3589 L
 598 3633 mt 
(0) s
 699 3260 mt  740 3260 L
4865 3260 mt 4823 3260 L
 364 3304 mt 
(0.005) s
 699 2931 mt  740 2931 L
4865 2931 mt 4823 2931 L
 431 2975 mt 
(0.01) s
 699 2602 mt  740 2602 L
4865 2602 mt 4823 2602 L
 364 2646 mt 
(0.015) s
 699 2274 mt  740 2274 L
4865 2274 mt 4823 2274 L
 431 2318 mt 
(0.02) s
 699 1945 mt  740 1945 L
4865 1945 mt 4823 1945 L
 364 1989 mt 
(0.025) s
 699 1616 mt  740 1616 L
4865 1616 mt 4823 1616 L
 431 1660 mt 
(0.03) s
 699 1288 mt  740 1288 L
4865 1288 mt 4823 1288 L
 364 1332 mt 
(0.035) s
 699  959 mt  740  959 L
4865  959 mt 4823  959 L
 431 1003 mt 
(0.04) s
 699  630 mt  740  630 L
4865  630 mt 4823  630 L
 364  674 mt 
(0.045) s
 699  302 mt  740  302 L
4865  302 mt 4823  302 L
 431  346 mt 
(0.05) s
 699 3589 mt 4865 3589 L
 699  302 mt 4865  302 L
 699 3589 mt  699  302 L
4865 3589 mt 4865  302 L
gs 699 302 4167 3288 rc
/c8 { 0.000000 0.000000 0.562500 sr} bdef
c8
0 14 28 0 0 -14 719 3589 4 MP
PP
0 sg
-28 0 0 14 28 0 0 -14 719 3589 5 MP stroke
c8
0 14 28 0 0 -14 754 3589 4 MP
PP
0 sg
-28 0 0 14 28 0 0 -14 754 3589 5 MP stroke
c8
0 60 28 0 0 -60 789 3589 4 MP
PP
0 sg
-28 0 0 60 28 0 0 -60 789 3589 5 MP stroke
c8
0 112 28 0 0 -112 823 3589 4 MP
PP
0 sg
-28 0 0 112 28 0 0 -112 823 3589 5 MP stroke
c8
0 171 28 0 0 -171 858 3589 4 MP
PP
0 sg
-28 0 0 171 28 0 0 -171 858 3589 5 MP stroke
c8
0 408 28 0 0 -408 893 3589 4 MP
PP
0 sg
-28 0 0 408 28 0 0 -408 893 3589 5 MP stroke
c8
0 724 27 0 0 -724 928 3589 4 MP
PP
0 sg
-27 0 0 724 27 0 0 -724 928 3589 5 MP stroke
c8
0 789 28 0 0 -789 962 3589 4 MP
PP
0 sg
-28 0 0 789 28 0 0 -789 962 3589 5 MP stroke
c8
0 1269 28 0 0 -1269 997 3589 4 MP
PP
0 sg
-28 0 0 1269 28 0 0 -1269 997 3589 5 MP stroke
c8
0 1710 28 0 0 -1710 1032 3589 4 MP
PP
0 sg
-28 0 0 1710 28 0 0 -1710 1032 3589 5 MP stroke
c8
0 1789 28 0 0 -1789 1066 3589 4 MP
PP
0 sg
-28 0 0 1789 28 0 0 -1789 1066 3589 5 MP stroke
c8
0 2597 28 0 0 -2597 1101 3589 4 MP
PP
0 sg
-28 0 0 2597 28 0 0 -2597 1101 3589 5 MP stroke
c8
0 2722 28 0 0 -2722 1136 3589 4 MP
PP
0 sg
-28 0 0 2722 28 0 0 -2722 1136 3589 5 MP stroke
c8
0 2827 27 0 0 -2827 1171 3589 4 MP
PP
0 sg
-27 0 0 2827 27 0 0 -2827 1171 3589 5 MP stroke
c8
0 2893 28 0 0 -2893 1205 3589 4 MP
PP
0 sg
-28 0 0 2893 28 0 0 -2893 1205 3589 5 MP stroke
c8
0 3077 28 0 0 -3077 1240 3589 4 MP
PP
0 sg
-28 0 0 3077 28 0 0 -3077 1240 3589 5 MP stroke
c8
0 3248 28 0 0 -3248 1275 3589 4 MP
PP
0 sg
-28 0 0 3248 28 0 0 -3248 1275 3589 5 MP stroke
c8
0 2847 27 0 0 -2847 1310 3589 4 MP
PP
0 sg
-27 0 0 2847 27 0 0 -2847 1310 3589 5 MP stroke
c8
0 2696 28 0 0 -2696 1344 3589 4 MP
PP
0 sg
-28 0 0 2696 28 0 0 -2696 1344 3589 5 MP stroke
c8
0 2433 28 0 0 -2433 1379 3589 4 MP
PP
0 sg
-28 0 0 2433 28 0 0 -2433 1379 3589 5 MP stroke
c8
0 2558 27 0 0 -2558 1414 3589 4 MP
PP
0 sg
-27 0 0 2558 27 0 0 -2558 1414 3589 5 MP stroke
c8
0 2223 28 0 0 -2223 1448 3589 4 MP
PP
0 sg
-28 0 0 2223 28 0 0 -2223 1448 3589 5 MP stroke
c8
0 2216 28 0 0 -2216 1483 3589 4 MP
PP
0 sg
-28 0 0 2216 28 0 0 -2216 1483 3589 5 MP stroke
c8
0 1979 28 0 0 -1979 1518 3589 4 MP
PP
0 sg
-28 0 0 1979 28 0 0 -1979 1518 3589 5 MP stroke
c8
0 1854 27 0 0 -1854 1553 3589 4 MP
PP
0 sg
-27 0 0 1854 27 0 0 -1854 1553 3589 5 MP stroke
c8
0 1559 28 0 0 -1559 1587 3589 4 MP
PP
0 sg
-28 0 0 1559 28 0 0 -1559 1587 3589 5 MP stroke
c8
0 1532 28 0 0 -1532 1622 3589 4 MP
PP
0 sg
-28 0 0 1532 28 0 0 -1532 1622 3589 5 MP stroke
c8
0 1361 27 0 0 -1361 1657 3589 4 MP
PP
0 sg
-27 0 0 1361 27 0 0 -1361 1657 3589 5 MP stroke
c8
0 1447 28 0 0 -1447 1691 3589 4 MP
PP
0 sg
-28 0 0 1447 28 0 0 -1447 1691 3589 5 MP stroke
c8
0 1335 28 0 0 -1335 1726 3589 4 MP
PP
0 sg
-28 0 0 1335 28 0 0 -1335 1726 3589 5 MP stroke
c8
0 1204 28 0 0 -1204 1761 3589 4 MP
PP
0 sg
-28 0 0 1204 28 0 0 -1204 1761 3589 5 MP stroke
c8
0 1223 27 0 0 -1223 1796 3589 4 MP
PP
0 sg
-27 0 0 1223 27 0 0 -1223 1796 3589 5 MP stroke
c8
0 1006 28 0 0 -1006 1830 3589 4 MP
PP
0 sg
-28 0 0 1006 28 0 0 -1006 1830 3589 5 MP stroke
c8
0 1013 28 0 0 -1013 1865 3589 4 MP
PP
0 sg
-28 0 0 1013 28 0 0 -1013 1865 3589 5 MP stroke
c8
0 914 27 0 0 -914 1900 3589 4 MP
PP
0 sg
-27 0 0 914 27 0 0 -914 1900 3589 5 MP stroke
c8
0 868 28 0 0 -868 1934 3589 4 MP
PP
0 sg
-28 0 0 868 28 0 0 -868 1934 3589 5 MP stroke
c8
0 770 28 0 0 -770 1969 3589 4 MP
PP
0 sg
-28 0 0 770 28 0 0 -770 1969 3589 5 MP stroke
c8
0 579 28 0 0 -579 2004 3589 4 MP
PP
0 sg
-28 0 0 579 28 0 0 -579 2004 3589 5 MP stroke
c8
0 704 27 0 0 -704 2039 3589 4 MP
PP
0 sg
-27 0 0 704 27 0 0 -704 2039 3589 5 MP stroke
c8
0 467 28 0 0 -467 2073 3589 4 MP
PP
0 sg
-28 0 0 467 28 0 0 -467 2073 3589 5 MP stroke
c8
0 494 28 0 0 -494 2108 3589 4 MP
PP
0 sg
-28 0 0 494 28 0 0 -494 2108 3589 5 MP stroke
c8
0 494 27 0 0 -494 2143 3589 4 MP
PP
0 sg
-27 0 0 494 27 0 0 -494 2143 3589 5 MP stroke
c8
0 533 28 0 0 -533 2177 3589 4 MP
PP
0 sg
-28 0 0 533 28 0 0 -533 2177 3589 5 MP stroke
c8
0 408 28 0 0 -408 2212 3589 4 MP
PP
0 sg
-28 0 0 408 28 0 0 -408 2212 3589 5 MP stroke
c8
0 388 28 0 0 -388 2247 3589 4 MP
PP
0 sg
-28 0 0 388 28 0 0 -388 2247 3589 5 MP stroke
c8
0 355 27 0 0 -355 2282 3589 4 MP
PP
0 sg
-27 0 0 355 27 0 0 -355 2282 3589 5 MP stroke
c8
0 402 28 0 0 -402 2316 3589 4 MP
PP
0 sg
-28 0 0 402 28 0 0 -402 2316 3589 5 MP stroke
c8
0 244 28 0 0 -244 2351 3589 4 MP
PP
0 sg
-28 0 0 244 28 0 0 -244 2351 3589 5 MP stroke
c8
0 323 28 0 0 -323 2386 3589 4 MP
PP
0 sg
-28 0 0 323 28 0 0 -323 2386 3589 5 MP stroke
c8
0 217 28 0 0 -217 2420 3589 4 MP
PP
0 sg
-28 0 0 217 28 0 0 -217 2420 3589 5 MP stroke
c8
0 224 28 0 0 -224 2455 3589 4 MP
PP
0 sg
-28 0 0 224 28 0 0 -224 2455 3589 5 MP stroke
c8
0 270 28 0 0 -270 2490 3589 4 MP
PP
0 sg
-28 0 0 270 28 0 0 -270 2490 3589 5 MP stroke
c8
0 231 27 0 0 -231 2525 3589 4 MP
PP
0 sg
-27 0 0 231 27 0 0 -231 2525 3589 5 MP stroke
c8
0 125 28 0 0 -125 2559 3589 4 MP
PP
0 sg
-28 0 0 125 28 0 0 -125 2559 3589 5 MP stroke
c8
0 217 28 0 0 -217 2594 3589 4 MP
PP
0 sg
-28 0 0 217 28 0 0 -217 2594 3589 5 MP stroke
c8
0 125 28 0 0 -125 2629 3589 4 MP
PP
0 sg
-28 0 0 125 28 0 0 -125 2629 3589 5 MP stroke
c8
0 152 28 0 0 -152 2663 3589 4 MP
PP
0 sg
-28 0 0 152 28 0 0 -152 2663 3589 5 MP stroke
c8
0 93 28 0 0 -93 2698 3589 4 MP
PP
0 sg
-28 0 0 93 28 0 0 -93 2698 3589 5 MP stroke
c8
0 79 28 0 0 -79 2733 3589 4 MP
PP
0 sg
-28 0 0 79 28 0 0 -79 2733 3589 5 MP stroke
c8
0 99 27 0 0 -99 2768 3589 4 MP
PP
0 sg
-27 0 0 99 27 0 0 -99 2768 3589 5 MP stroke
c8
0 112 28 0 0 -112 2802 3589 4 MP
PP
0 sg
-28 0 0 112 28 0 0 -112 2802 3589 5 MP stroke
c8
0 73 28 0 0 -73 2837 3589 4 MP
PP
0 sg
-28 0 0 73 28 0 0 -73 2837 3589 5 MP stroke
c8
0 99 28 0 0 -99 2872 3589 4 MP
PP
0 sg
-28 0 0 99 28 0 0 -99 2872 3589 5 MP stroke
c8
0 66 28 0 0 -66 2906 3589 4 MP
PP
0 sg
-28 0 0 66 28 0 0 -66 2906 3589 5 MP stroke
c8
0 66 28 0 0 -66 2941 3589 4 MP
PP
0 sg
-28 0 0 66 28 0 0 -66 2941 3589 5 MP stroke
c8
0 79 28 0 0 -79 2976 3589 4 MP
PP
0 sg
-28 0 0 79 28 0 0 -79 2976 3589 5 MP stroke
c8
0 73 27 0 0 -73 3011 3589 4 MP
PP
0 sg
-27 0 0 73 27 0 0 -73 3011 3589 5 MP stroke
c8
0 73 28 0 0 -73 3045 3589 4 MP
PP
0 sg
-28 0 0 73 28 0 0 -73 3045 3589 5 MP stroke
c8
0 66 28 0 0 -66 3080 3589 4 MP
PP
0 sg
-28 0 0 66 28 0 0 -66 3080 3589 5 MP stroke
c8
0 40 28 0 0 -40 3115 3589 4 MP
PP
0 sg
-28 0 0 40 28 0 0 -40 3115 3589 5 MP stroke
c8
0 40 28 0 0 -40 3149 3589 4 MP
PP
0 sg
-28 0 0 40 28 0 0 -40 3149 3589 5 MP stroke
c8
0 14 28 0 0 -14 3184 3589 4 MP
PP
0 sg
-28 0 0 14 28 0 0 -14 3184 3589 5 MP stroke
c8
0 40 28 0 0 -40 3219 3589 4 MP
PP
0 sg
-28 0 0 40 28 0 0 -40 3219 3589 5 MP stroke
c8
0 40 27 0 0 -40 3254 3589 4 MP
PP
0 sg
-27 0 0 40 27 0 0 -40 3254 3589 5 MP stroke
c8
0 27 28 0 0 -27 3288 3589 4 MP
PP
0 sg
-28 0 0 27 28 0 0 -27 3288 3589 5 MP stroke
c8
0 14 28 0 0 -14 3323 3589 4 MP
PP
0 sg
-28 0 0 14 28 0 0 -14 3323 3589 5 MP stroke
c8
0 7 28 0 0 -7 3358 3589 4 MP
PP
0 sg
-28 0 0 7 28 0 0 -7 3358 3589 5 MP stroke
c8
0 14 27 0 0 -14 3393 3589 4 MP
PP
0 sg
-27 0 0 14 27 0 0 -14 3393 3589 5 MP stroke
c8
0 14 28 0 0 -14 3427 3589 4 MP
PP
0 sg
-28 0 0 14 28 0 0 -14 3427 3589 5 MP stroke
c8
0 27 28 0 0 -27 3462 3589 4 MP
PP
0 sg
-28 0 0 27 28 0 0 -27 3462 3589 5 MP stroke
c8
0 14 27 0 0 -14 3497 3589 4 MP
PP
0 sg
-27 0 0 14 27 0 0 -14 3497 3589 5 MP stroke
c8
0 0 28 0 0 0 3531 3589 4 MP
PP
0 sg
-28 0 0 0 28 0 0 0 3531 3589 5 MP stroke
c8
0 14 28 0 0 -14 3566 3589 4 MP
PP
0 sg
-28 0 0 14 28 0 0 -14 3566 3589 5 MP stroke
c8
0 14 28 0 0 -14 3601 3589 4 MP
PP
0 sg
-28 0 0 14 28 0 0 -14 3601 3589 5 MP stroke
c8
0 7 27 0 0 -7 3636 3589 4 MP
PP
0 sg
-27 0 0 7 27 0 0 -7 3636 3589 5 MP stroke
c8
0 20 28 0 0 -20 3670 3589 4 MP
PP
0 sg
-28 0 0 20 28 0 0 -20 3670 3589 5 MP stroke
c8
0 14 28 0 0 -14 3705 3589 4 MP
PP
0 sg
-28 0 0 14 28 0 0 -14 3705 3589 5 MP stroke
c8
0 7 27 0 0 -7 3740 3589 4 MP
PP
0 sg
-27 0 0 7 27 0 0 -7 3740 3589 5 MP stroke
c8
0 7 28 0 0 -7 3774 3589 4 MP
PP
0 sg
-28 0 0 7 28 0 0 -7 3774 3589 5 MP stroke
c8
0 0 28 0 0 0 3809 3589 4 MP
PP
0 sg
-28 0 0 0 28 0 0 0 3809 3589 5 MP stroke
c8
0 7 28 0 0 -7 3844 3589 4 MP
PP
0 sg
-28 0 0 7 28 0 0 -7 3844 3589 5 MP stroke
c8
0 0 27 0 0 0 3879 3589 4 MP
PP
0 sg
-27 0 0 0 27 0 0 0 3879 3589 5 MP stroke
c8
0 0 28 0 0 0 3913 3589 4 MP
PP
0 sg
-28 0 0 0 28 0 0 0 3913 3589 5 MP stroke
c8
0 7 28 0 0 -7 3948 3589 4 MP
PP
0 sg
-28 0 0 7 28 0 0 -7 3948 3589 5 MP stroke
c8
0 0 27 0 0 0 3983 3589 4 MP
PP
0 sg
-27 0 0 0 27 0 0 0 3983 3589 5 MP stroke
c8
0 0 28 0 0 0 4017 3589 4 MP
PP
0 sg
-28 0 0 0 28 0 0 0 4017 3589 5 MP stroke
c8
0 0 28 0 0 0 4052 3589 4 MP
PP
0 sg
-28 0 0 0 28 0 0 0 4052 3589 5 MP stroke
c8
0 0 28 0 0 0 4087 3589 4 MP
PP
0 sg
-28 0 0 0 28 0 0 0 4087 3589 5 MP stroke
c8
0 0 27 0 0 0 4122 3589 4 MP
PP
0 sg
-27 0 0 0 27 0 0 0 4122 3589 5 MP stroke
c8
0 7 28 0 0 -7 4156 3589 4 MP
PP
0 sg
-28 0 0 7 28 0 0 -7 4156 3589 5 MP stroke
4166 0 699 3589 2 MP stroke
gr

2460 3877 mt 
(Path Length) s
 282 2226 mt  -90 rotate
(Probability) s
90 rotate
2129  207 mt 
(Histogram of path length) s

end %%Color Dict

eplot
%%EndObject

epage
end

showpage

%%Trailer
%%EOF
