%!PS-Adobe-3.0 EPSF-3.0
%%Creator: MATLAB, The MathWorks, Inc. Version 8.3.0.532 (R2014a). Operating System: Linux 3.19.0-30-generic #34-Ubuntu SMP Fri Oct 2 22:08:41 UTC 2015 x86_64.
%%Title: /home/nicolai/Dropbox/Skole/7. Semester/ROVI/Projects/Robotics Mandatory 2/report/mand2_scatter.eps
%%CreationDate: 10/17/2015  21:32:50
%%DocumentNeededFonts: Helvetica
%%DocumentProcessColors: Cyan Magenta Yellow Black
%%LanguageLevel: 2
%%Pages: 1
%%BoundingBox:    81   227   529   564
%%EndComments

%%BeginProlog
% MathWorks dictionary
/MathWorks 160 dict begin
% definition operators
/bdef {bind def} bind def
/ldef {load def} bind def
/xdef {exch def} bdef
/xstore {exch store} bdef
% operator abbreviations
/c  /clip ldef
/cc /concat ldef
/cp /closepath ldef
/gr /grestore ldef
/gs /gsave ldef
/mt /moveto ldef
/np /newpath ldef
/cm /currentmatrix ldef
/sm /setmatrix ldef
/rm /rmoveto ldef
/rl /rlineto ldef
/s {show newpath} bdef
/sc {setcmykcolor} bdef
/sr /setrgbcolor ldef
/sg /setgray ldef
/w /setlinewidth ldef
/j /setlinejoin ldef
/cap /setlinecap ldef
/rc {rectclip} bdef
/rf {rectfill} bdef
% page state control
/pgsv () def
/bpage {/pgsv save def} bdef
/epage {pgsv restore} bdef
/bplot /gsave ldef
/eplot {stroke grestore} bdef
% orientation switch
/portraitMode 0 def /landscapeMode 1 def /rotateMode 2 def
% coordinate system mappings
/dpi2point 0 def
% font control
/FontSize 0 def
/FMS {/FontSize xstore findfont [FontSize 0 0 FontSize neg 0 0]
  makefont setfont} bdef
/reencode {exch dup where {pop load} {pop StandardEncoding} ifelse
  exch dup 3 1 roll findfont dup length dict begin
  { 1 index /FID ne {def}{pop pop} ifelse } forall
  /Encoding exch def currentdict end definefont pop} bdef
/isroman {findfont /CharStrings get /Agrave known} bdef
/FMSR {3 1 roll 1 index dup isroman {reencode} {pop pop} ifelse
  exch FMS} bdef
/csm {1 dpi2point div -1 dpi2point div scale neg translate
 dup landscapeMode eq {pop -90 rotate}
  {rotateMode eq {90 rotate} if} ifelse} bdef
% line types: solid, dotted, dashed, dotdash
/SO { [] 0 setdash } bdef
/DO { [.5 dpi2point mul 4 dpi2point mul] 0 setdash } bdef
/DA { [6 dpi2point mul] 0 setdash } bdef
/DD { [.5 dpi2point mul 4 dpi2point mul 6 dpi2point mul 4
  dpi2point mul] 0 setdash } bdef
% macros for lines and objects
/L {lineto stroke} bdef
/MP {3 1 roll moveto 1 sub {rlineto} repeat} bdef
/AP {{rlineto} repeat} bdef
/PDlw -1 def
/W {/PDlw currentlinewidth def setlinewidth} def
/PP {closepath eofill} bdef
/DP {closepath stroke} bdef
/MR {4 -2 roll moveto dup  0 exch rlineto exch 0 rlineto
  neg 0 exch rlineto closepath} bdef
/FR {MR stroke} bdef
/PR {MR fill} bdef
/L1i {{currentfile picstr readhexstring pop} image} bdef
/tMatrix matrix def
/MakeOval {newpath tMatrix currentmatrix pop translate scale
0 0 1 0 360 arc tMatrix setmatrix} bdef
/FO {MakeOval stroke} bdef
/PO {MakeOval fill} bdef
/PD {currentlinewidth 2 div 0 360 arc fill
   PDlw -1 eq not {PDlw w /PDlw -1 def} if} def
/FA {newpath tMatrix currentmatrix pop translate scale
  0 0 1 5 -2 roll arc tMatrix setmatrix stroke} bdef
/PA {newpath tMatrix currentmatrix pop	translate 0 0 moveto scale
  0 0 1 5 -2 roll arc closepath tMatrix setmatrix fill} bdef
/FAn {newpath tMatrix currentmatrix pop translate scale
  0 0 1 5 -2 roll arcn tMatrix setmatrix stroke} bdef
/PAn {newpath tMatrix currentmatrix pop translate 0 0 moveto scale
  0 0 1 5 -2 roll arcn closepath tMatrix setmatrix fill} bdef
/vradius 0 def /hradius 0 def /lry 0 def
/lrx 0 def /uly 0 def /ulx 0 def /rad 0 def
/MRR {/vradius xdef /hradius xdef /lry xdef /lrx xdef /uly xdef
  /ulx xdef newpath tMatrix currentmatrix pop ulx hradius add uly
  vradius add translate hradius vradius scale 0 0 1 180 270 arc 
  tMatrix setmatrix lrx hradius sub uly vradius add translate
  hradius vradius scale 0 0 1 270 360 arc tMatrix setmatrix
  lrx hradius sub lry vradius sub translate hradius vradius scale
  0 0 1 0 90 arc tMatrix setmatrix ulx hradius add lry vradius sub
  translate hradius vradius scale 0 0 1 90 180 arc tMatrix setmatrix
  closepath} bdef
/FRR {MRR stroke } bdef
/PRR {MRR fill } bdef
/MlrRR {/lry xdef /lrx xdef /uly xdef /ulx xdef /rad lry uly sub 2 div def
  newpath tMatrix currentmatrix pop ulx rad add uly rad add translate
  rad rad scale 0 0 1 90 270 arc tMatrix setmatrix lrx rad sub lry rad
  sub translate rad rad scale 0 0 1 270 90 arc tMatrix setmatrix
  closepath} bdef
/FlrRR {MlrRR stroke } bdef
/PlrRR {MlrRR fill } bdef
/MtbRR {/lry xdef /lrx xdef /uly xdef /ulx xdef /rad lrx ulx sub 2 div def
  newpath tMatrix currentmatrix pop ulx rad add uly rad add translate
  rad rad scale 0 0 1 180 360 arc tMatrix setmatrix lrx rad sub lry rad
  sub translate rad rad scale 0 0 1 0 180 arc tMatrix setmatrix
  closepath} bdef
/FtbRR {MtbRR stroke } bdef
/PtbRR {MtbRR fill } bdef
/stri 6 array def /dtri 6 array def
/smat 6 array def /dmat 6 array def
/tmat1 6 array def /tmat2 6 array def /dif 3 array def
/asub {/ind2 exch def /ind1 exch def dup dup
  ind1 get exch ind2 get sub exch } bdef
/tri_to_matrix {
  2 0 asub 3 1 asub 4 0 asub 5 1 asub
  dup 0 get exch 1 get 7 -1 roll astore } bdef
/compute_transform {
  dmat dtri tri_to_matrix tmat1 invertmatrix 
  smat stri tri_to_matrix tmat2 concatmatrix } bdef
/ds {stri astore pop} bdef
/dt {dtri astore pop} bdef
/db {2 copy /cols xdef /rows xdef mul dup 3 mul string
  currentfile 
  3 index 0 eq {/ASCIIHexDecode filter}
  {/ASCII85Decode filter 3 index 2 eq {/RunLengthDecode filter} if }
  ifelse exch readstring pop
  dup 0 3 index getinterval /rbmap xdef
  dup 2 index dup getinterval /gbmap xdef
  1 index dup 2 mul exch getinterval /bbmap xdef pop pop}bdef
/it {gs np dtri aload pop moveto lineto lineto cp c
  cols rows 8 compute_transform 
  rbmap gbmap bbmap true 3 colorimage gr}bdef
/il {newpath moveto lineto stroke}bdef
currentdict end def
%%EndProlog

%%BeginSetup
MathWorks begin

0 cap

end
%%EndSetup

%%Page: 1 1
%%BeginPageSetup
%%PageBoundingBox:    81   227   529   564
MathWorks begin
bpage
%%EndPageSetup

%%BeginObject: obj1
bplot

/dpi2point 12 def
portraitMode 0972 6768 csm

    0     0  5376  4033 rc
85 dict begin %Colortable dictionary
/c0 { 0.000000 0.000000 0.000000 sr} bdef
/c1 { 1.000000 1.000000 1.000000 sr} bdef
/c2 { 0.900000 0.000000 0.000000 sr} bdef
/c3 { 0.000000 0.820000 0.000000 sr} bdef
/c4 { 0.000000 0.000000 0.800000 sr} bdef
/c5 { 0.910000 0.820000 0.320000 sr} bdef
/c6 { 1.000000 0.260000 0.820000 sr} bdef
/c7 { 0.000000 0.820000 0.820000 sr} bdef
c0
1 j
1 sg
   0    0 5377 4034 rf
6 w
0 3287 4166 0 0 -3287 699 3589 4 MP
PP
-4166 0 0 3287 4166 0 0 -3287 699 3589 5 MP stroke
4 w
DO
0 sg
 699 3589 mt  699  302 L
 699  302 mt  699  302 L
1294 3589 mt 1294  302 L
1294  302 mt 1294  302 L
1889 3589 mt 1889  302 L
1889  302 mt 1889  302 L
2484 3589 mt 2484  302 L
2484  302 mt 2484  302 L
3079 3589 mt 3079  302 L
3079  302 mt 3079  302 L
3674 3589 mt 3674  302 L
3674  302 mt 3674  302 L
4269 3589 mt 4269  302 L
4269  302 mt 4269  302 L
4865 3589 mt 4865  302 L
4865  302 mt 4865  302 L
 699 3589 mt 4865 3589 L
4865 3589 mt 4865 3589 L
 699 3119 mt 4865 3119 L
4865 3119 mt 4865 3119 L
 699 2649 mt 4865 2649 L
4865 2649 mt 4865 2649 L
 699 2180 mt 4865 2180 L
4865 2180 mt 4865 2180 L
 699 1710 mt 4865 1710 L
4865 1710 mt 4865 1710 L
 699 1241 mt 4865 1241 L
4865 1241 mt 4865 1241 L
 699  771 mt 4865  771 L
4865  771 mt 4865  771 L
 699  302 mt 4865  302 L
4865  302 mt 4865  302 L
SO
6 w
 699 3589 mt 4865 3589 L
 699 3589 mt  699  302 L
 699 3589 mt  699 3547 L
%%IncludeResource: font Helvetica
/Helvetica /ISOLatin1Encoding 120 FMSR

 666 3734 mt 
(0) s
1294 3589 mt 1294 3547 L
1261 3734 mt 
(1) s
1889 3589 mt 1889 3547 L
1856 3734 mt 
(2) s
2484 3589 mt 2484 3547 L
2451 3734 mt 
(3) s
3079 3589 mt 3079 3547 L
3046 3734 mt 
(4) s
3674 3589 mt 3674 3547 L
3641 3734 mt 
(5) s
4269 3589 mt 4269 3547 L
4236 3734 mt 
(6) s
4865 3589 mt 4865 3547 L
4832 3734 mt 
(7) s
 699 3589 mt  740 3589 L
 598 3633 mt 
(0) s
 699 3119 mt  740 3119 L
 598 3163 mt 
(1) s
 699 2649 mt  740 2649 L
 598 2693 mt 
(2) s
 699 2180 mt  740 2180 L
 598 2224 mt 
(3) s
 699 1710 mt  740 1710 L
 598 1754 mt 
(4) s
 699 1241 mt  740 1241 L
 598 1285 mt 
(5) s
 699  771 mt  740  771 L
 598  815 mt 
(6) s
 699  302 mt  740  302 L
 598  346 mt 
(7) s
gs 699 302 4167 3288 rc
0 j
gr

/c8 { 0.000000 0.000000 1.000000 sr} bdef
c8
4408 3484 mt 4480 3484 L
4444 3448 mt 4444 3520 L
4419 3459 mt 4469 3509 L
4469 3459 mt 4419 3509 L
gs 699 302 4167 3288 rc
gr

4370 3510 mt 4442 3510 L
4406 3474 mt 4406 3546 L
4381 3485 mt 4431 3535 L
4431 3485 mt 4381 3535 L
gs 699 302 4167 3288 rc
gr

4333 3477 mt 4405 3477 L
4369 3441 mt 4369 3513 L
4344 3452 mt 4394 3502 L
4394 3452 mt 4344 3502 L
gs 699 302 4167 3288 rc
gr

4296 3479 mt 4368 3479 L
4332 3443 mt 4332 3515 L
4307 3454 mt 4357 3504 L
4357 3454 mt 4307 3504 L
gs 699 302 4167 3288 rc
gr

4258 3508 mt 4330 3508 L
4294 3472 mt 4294 3544 L
4269 3483 mt 4319 3533 L
4319 3483 mt 4269 3533 L
gs 699 302 4167 3288 rc
gr

4221 3506 mt 4293 3506 L
4257 3470 mt 4257 3542 L
4232 3481 mt 4282 3531 L
4282 3481 mt 4232 3531 L
gs 699 302 4167 3288 rc
gr

4183 3497 mt 4255 3497 L
4219 3461 mt 4219 3533 L
4194 3472 mt 4244 3522 L
4244 3472 mt 4194 3522 L
gs 699 302 4167 3288 rc
gr

4146 3486 mt 4218 3486 L
4182 3450 mt 4182 3522 L
4157 3461 mt 4207 3511 L
4207 3461 mt 4157 3511 L
gs 699 302 4167 3288 rc
gr

4109 3494 mt 4181 3494 L
4145 3458 mt 4145 3530 L
4120 3469 mt 4170 3519 L
4170 3469 mt 4120 3519 L
gs 699 302 4167 3288 rc
gr

4071 3495 mt 4143 3495 L
4107 3459 mt 4107 3531 L
4082 3470 mt 4132 3520 L
4132 3470 mt 4082 3520 L
gs 699 302 4167 3288 rc
gr

4034 3487 mt 4106 3487 L
4070 3451 mt 4070 3523 L
4045 3462 mt 4095 3512 L
4095 3462 mt 4045 3512 L
gs 699 302 4167 3288 rc
gr

3997 3508 mt 4069 3508 L
4033 3472 mt 4033 3544 L
4008 3483 mt 4058 3533 L
4058 3483 mt 4008 3533 L
gs 699 302 4167 3288 rc
gr

3959 3508 mt 4031 3508 L
3995 3472 mt 3995 3544 L
3970 3483 mt 4020 3533 L
4020 3483 mt 3970 3533 L
gs 699 302 4167 3288 rc
gr

3922 3514 mt 3994 3514 L
3958 3478 mt 3958 3550 L
3933 3489 mt 3983 3539 L
3983 3489 mt 3933 3539 L
gs 699 302 4167 3288 rc
gr

3884 3507 mt 3956 3507 L
3920 3471 mt 3920 3543 L
3895 3482 mt 3945 3532 L
3945 3482 mt 3895 3532 L
gs 699 302 4167 3288 rc
gr

3847 3497 mt 3919 3497 L
3883 3461 mt 3883 3533 L
3858 3472 mt 3908 3522 L
3908 3472 mt 3858 3522 L
gs 699 302 4167 3288 rc
gr

3810 3492 mt 3882 3492 L
3846 3456 mt 3846 3528 L
3821 3467 mt 3871 3517 L
3871 3467 mt 3821 3517 L
gs 699 302 4167 3288 rc
gr

3772 3507 mt 3844 3507 L
3808 3471 mt 3808 3543 L
3783 3482 mt 3833 3532 L
3833 3482 mt 3783 3532 L
gs 699 302 4167 3288 rc
gr

3735 3508 mt 3807 3508 L
3771 3472 mt 3771 3544 L
3746 3483 mt 3796 3533 L
3796 3483 mt 3746 3533 L
gs 699 302 4167 3288 rc
gr

3697 3505 mt 3769 3505 L
3733 3469 mt 3733 3541 L
3708 3480 mt 3758 3530 L
3758 3480 mt 3708 3530 L
gs 699 302 4167 3288 rc
gr

3660 3472 mt 3732 3472 L
3696 3436 mt 3696 3508 L
3671 3447 mt 3721 3497 L
3721 3447 mt 3671 3497 L
gs 699 302 4167 3288 rc
gr

3623 3510 mt 3695 3510 L
3659 3474 mt 3659 3546 L
3634 3485 mt 3684 3535 L
3684 3485 mt 3634 3535 L
gs 699 302 4167 3288 rc
gr

3585 3508 mt 3657 3508 L
3621 3472 mt 3621 3544 L
3596 3483 mt 3646 3533 L
3646 3483 mt 3596 3533 L
gs 699 302 4167 3288 rc
gr

3548 3518 mt 3620 3518 L
3584 3482 mt 3584 3554 L
3559 3493 mt 3609 3543 L
3609 3493 mt 3559 3543 L
gs 699 302 4167 3288 rc
gr

3510 3508 mt 3582 3508 L
3546 3472 mt 3546 3544 L
3521 3483 mt 3571 3533 L
3571 3483 mt 3521 3533 L
gs 699 302 4167 3288 rc
gr

3473 3491 mt 3545 3491 L
3509 3455 mt 3509 3527 L
3484 3466 mt 3534 3516 L
3534 3466 mt 3484 3516 L
gs 699 302 4167 3288 rc
gr

3436 3489 mt 3508 3489 L
3472 3453 mt 3472 3525 L
3447 3464 mt 3497 3514 L
3497 3464 mt 3447 3514 L
gs 699 302 4167 3288 rc
gr

3398 3521 mt 3470 3521 L
3434 3485 mt 3434 3557 L
3409 3496 mt 3459 3546 L
3459 3496 mt 3409 3546 L
gs 699 302 4167 3288 rc
gr

3361 3514 mt 3433 3514 L
3397 3478 mt 3397 3550 L
3372 3489 mt 3422 3539 L
3422 3489 mt 3372 3539 L
gs 699 302 4167 3288 rc
gr

3323 3521 mt 3395 3521 L
3359 3485 mt 3359 3557 L
3334 3496 mt 3384 3546 L
3384 3496 mt 3334 3546 L
gs 699 302 4167 3288 rc
gr

3286 3506 mt 3358 3506 L
3322 3470 mt 3322 3542 L
3297 3481 mt 3347 3531 L
3347 3481 mt 3297 3531 L
gs 699 302 4167 3288 rc
gr

3249 3518 mt 3321 3518 L
3285 3482 mt 3285 3554 L
3260 3493 mt 3310 3543 L
3310 3493 mt 3260 3543 L
gs 699 302 4167 3288 rc
gr

3211 3522 mt 3283 3522 L
3247 3486 mt 3247 3558 L
3222 3497 mt 3272 3547 L
3272 3497 mt 3222 3547 L
gs 699 302 4167 3288 rc
gr

3174 3520 mt 3246 3520 L
3210 3484 mt 3210 3556 L
3185 3495 mt 3235 3545 L
3235 3495 mt 3185 3545 L
gs 699 302 4167 3288 rc
gr

3136 3516 mt 3208 3516 L
3172 3480 mt 3172 3552 L
3147 3491 mt 3197 3541 L
3197 3491 mt 3147 3541 L
gs 699 302 4167 3288 rc
gr

3099 3520 mt 3171 3520 L
3135 3484 mt 3135 3556 L
3110 3495 mt 3160 3545 L
3160 3495 mt 3110 3545 L
gs 699 302 4167 3288 rc
gr

3062 3518 mt 3134 3518 L
3098 3482 mt 3098 3554 L
3073 3493 mt 3123 3543 L
3123 3493 mt 3073 3543 L
gs 699 302 4167 3288 rc
gr

3024 3524 mt 3096 3524 L
3060 3488 mt 3060 3560 L
3035 3499 mt 3085 3549 L
3085 3499 mt 3035 3549 L
gs 699 302 4167 3288 rc
gr

2987 3519 mt 3059 3519 L
3023 3483 mt 3023 3555 L
2998 3494 mt 3048 3544 L
3048 3494 mt 2998 3544 L
gs 699 302 4167 3288 rc
gr

2949 3514 mt 3021 3514 L
2985 3478 mt 2985 3550 L
2960 3489 mt 3010 3539 L
3010 3489 mt 2960 3539 L
gs 699 302 4167 3288 rc
gr

2912 3526 mt 2984 3526 L
2948 3490 mt 2948 3562 L
2923 3501 mt 2973 3551 L
2973 3501 mt 2923 3551 L
gs 699 302 4167 3288 rc
gr

2875 3531 mt 2947 3531 L
2911 3495 mt 2911 3567 L
2886 3506 mt 2936 3556 L
2936 3506 mt 2886 3556 L
gs 699 302 4167 3288 rc
gr

2837 3533 mt 2909 3533 L
2873 3497 mt 2873 3569 L
2848 3508 mt 2898 3558 L
2898 3508 mt 2848 3558 L
gs 699 302 4167 3288 rc
gr

2800 3526 mt 2872 3526 L
2836 3490 mt 2836 3562 L
2811 3501 mt 2861 3551 L
2861 3501 mt 2811 3551 L
gs 699 302 4167 3288 rc
gr

2763 3534 mt 2835 3534 L
2799 3498 mt 2799 3570 L
2774 3509 mt 2824 3559 L
2824 3509 mt 2774 3559 L
gs 699 302 4167 3288 rc
gr

2725 3521 mt 2797 3521 L
2761 3485 mt 2761 3557 L
2736 3496 mt 2786 3546 L
2786 3496 mt 2736 3546 L
gs 699 302 4167 3288 rc
gr

2688 3532 mt 2760 3532 L
2724 3496 mt 2724 3568 L
2699 3507 mt 2749 3557 L
2749 3507 mt 2699 3557 L
gs 699 302 4167 3288 rc
gr

2650 3532 mt 2722 3532 L
2686 3496 mt 2686 3568 L
2661 3507 mt 2711 3557 L
2711 3507 mt 2661 3557 L
gs 699 302 4167 3288 rc
gr

2613 3531 mt 2685 3531 L
2649 3495 mt 2649 3567 L
2624 3506 mt 2674 3556 L
2674 3506 mt 2624 3556 L
gs 699 302 4167 3288 rc
gr

2576 3525 mt 2648 3525 L
2612 3489 mt 2612 3561 L
2587 3500 mt 2637 3550 L
2637 3500 mt 2587 3550 L
gs 699 302 4167 3288 rc
gr

2538 3531 mt 2610 3531 L
2574 3495 mt 2574 3567 L
2549 3506 mt 2599 3556 L
2599 3506 mt 2549 3556 L
gs 699 302 4167 3288 rc
gr

2501 3540 mt 2573 3540 L
2537 3504 mt 2537 3576 L
2512 3515 mt 2562 3565 L
2562 3515 mt 2512 3565 L
gs 699 302 4167 3288 rc
gr

2463 3535 mt 2535 3535 L
2499 3499 mt 2499 3571 L
2474 3510 mt 2524 3560 L
2524 3510 mt 2474 3560 L
gs 699 302 4167 3288 rc
gr

2426 3532 mt 2498 3532 L
2462 3496 mt 2462 3568 L
2437 3507 mt 2487 3557 L
2487 3507 mt 2437 3557 L
gs 699 302 4167 3288 rc
gr

2389 3547 mt 2461 3547 L
2425 3511 mt 2425 3583 L
2400 3522 mt 2450 3572 L
2450 3522 mt 2400 3572 L
gs 699 302 4167 3288 rc
gr

2351 3542 mt 2423 3542 L
2387 3506 mt 2387 3578 L
2362 3517 mt 2412 3567 L
2412 3517 mt 2362 3567 L
gs 699 302 4167 3288 rc
gr

2314 3538 mt 2386 3538 L
2350 3502 mt 2350 3574 L
2325 3513 mt 2375 3563 L
2375 3513 mt 2325 3563 L
gs 699 302 4167 3288 rc
gr

2276 3543 mt 2348 3543 L
2312 3507 mt 2312 3579 L
2287 3518 mt 2337 3568 L
2337 3518 mt 2287 3568 L
gs 699 302 4167 3288 rc
gr

2239 3537 mt 2311 3537 L
2275 3501 mt 2275 3573 L
2250 3512 mt 2300 3562 L
2300 3512 mt 2250 3562 L
gs 699 302 4167 3288 rc
gr

2202 3533 mt 2274 3533 L
2238 3497 mt 2238 3569 L
2213 3508 mt 2263 3558 L
2263 3508 mt 2213 3558 L
gs 699 302 4167 3288 rc
gr

2164 3544 mt 2236 3544 L
2200 3508 mt 2200 3580 L
2175 3519 mt 2225 3569 L
2225 3519 mt 2175 3569 L
gs 699 302 4167 3288 rc
gr

2127 3551 mt 2199 3551 L
2163 3515 mt 2163 3587 L
2138 3526 mt 2188 3576 L
2188 3526 mt 2138 3576 L
gs 699 302 4167 3288 rc
gr

2089 3544 mt 2161 3544 L
2125 3508 mt 2125 3580 L
2100 3519 mt 2150 3569 L
2150 3519 mt 2100 3569 L
gs 699 302 4167 3288 rc
gr

2052 3545 mt 2124 3545 L
2088 3509 mt 2088 3581 L
2063 3520 mt 2113 3570 L
2113 3520 mt 2063 3570 L
gs 699 302 4167 3288 rc
gr

2015 3539 mt 2087 3539 L
2051 3503 mt 2051 3575 L
2026 3514 mt 2076 3564 L
2076 3514 mt 2026 3564 L
gs 699 302 4167 3288 rc
gr

1977 3542 mt 2049 3542 L
2013 3506 mt 2013 3578 L
1988 3517 mt 2038 3567 L
2038 3517 mt 1988 3567 L
gs 699 302 4167 3288 rc
gr

1940 3542 mt 2012 3542 L
1976 3506 mt 1976 3578 L
1951 3517 mt 2001 3567 L
2001 3517 mt 1951 3567 L
gs 699 302 4167 3288 rc
gr

1902 3548 mt 1974 3548 L
1938 3512 mt 1938 3584 L
1913 3523 mt 1963 3573 L
1963 3523 mt 1913 3573 L
gs 699 302 4167 3288 rc
gr

1865 3547 mt 1937 3547 L
1901 3511 mt 1901 3583 L
1876 3522 mt 1926 3572 L
1926 3522 mt 1876 3572 L
gs 699 302 4167 3288 rc
gr

1828 3543 mt 1900 3543 L
1864 3507 mt 1864 3579 L
1839 3518 mt 1889 3568 L
1889 3518 mt 1839 3568 L
gs 699 302 4167 3288 rc
gr

1790 3543 mt 1862 3543 L
1826 3507 mt 1826 3579 L
1801 3518 mt 1851 3568 L
1851 3518 mt 1801 3568 L
gs 699 302 4167 3288 rc
gr

1753 3549 mt 1825 3549 L
1789 3513 mt 1789 3585 L
1764 3524 mt 1814 3574 L
1814 3524 mt 1764 3574 L
gs 699 302 4167 3288 rc
gr

1715 3543 mt 1787 3543 L
1751 3507 mt 1751 3579 L
1726 3518 mt 1776 3568 L
1776 3518 mt 1726 3568 L
gs 699 302 4167 3288 rc
gr

1678 3546 mt 1750 3546 L
1714 3510 mt 1714 3582 L
1689 3521 mt 1739 3571 L
1739 3521 mt 1689 3571 L
gs 699 302 4167 3288 rc
gr

1641 3554 mt 1713 3554 L
1677 3518 mt 1677 3590 L
1652 3529 mt 1702 3579 L
1702 3529 mt 1652 3579 L
gs 699 302 4167 3288 rc
gr

1603 3552 mt 1675 3552 L
1639 3516 mt 1639 3588 L
1614 3527 mt 1664 3577 L
1664 3527 mt 1614 3577 L
gs 699 302 4167 3288 rc
gr

1566 3551 mt 1638 3551 L
1602 3515 mt 1602 3587 L
1577 3526 mt 1627 3576 L
1627 3526 mt 1577 3576 L
gs 699 302 4167 3288 rc
gr

1529 3549 mt 1601 3549 L
1565 3513 mt 1565 3585 L
1540 3524 mt 1590 3574 L
1590 3524 mt 1540 3574 L
gs 699 302 4167 3288 rc
gr

1491 3552 mt 1563 3552 L
1527 3516 mt 1527 3588 L
1502 3527 mt 1552 3577 L
1552 3527 mt 1502 3577 L
gs 699 302 4167 3288 rc
gr

1454 3557 mt 1526 3557 L
1490 3521 mt 1490 3593 L
1465 3532 mt 1515 3582 L
1515 3532 mt 1465 3582 L
gs 699 302 4167 3288 rc
gr

1416 3548 mt 1488 3548 L
1452 3512 mt 1452 3584 L
1427 3523 mt 1477 3573 L
1477 3523 mt 1427 3573 L
gs 699 302 4167 3288 rc
gr

1379 3542 mt 1451 3542 L
1415 3506 mt 1415 3578 L
1390 3517 mt 1440 3567 L
1440 3517 mt 1390 3567 L
gs 699 302 4167 3288 rc
gr

1342 3546 mt 1414 3546 L
1378 3510 mt 1378 3582 L
1353 3521 mt 1403 3571 L
1403 3521 mt 1353 3571 L
gs 699 302 4167 3288 rc
gr

1304 3541 mt 1376 3541 L
1340 3505 mt 1340 3577 L
1315 3516 mt 1365 3566 L
1365 3516 mt 1315 3566 L
gs 699 302 4167 3288 rc
gr

1267 3549 mt 1339 3549 L
1303 3513 mt 1303 3585 L
1278 3524 mt 1328 3574 L
1328 3524 mt 1278 3574 L
gs 699 302 4167 3288 rc
gr

1229 3544 mt 1301 3544 L
1265 3508 mt 1265 3580 L
1240 3519 mt 1290 3569 L
1290 3519 mt 1240 3569 L
gs 699 302 4167 3288 rc
gr

1192 3543 mt 1264 3543 L
1228 3507 mt 1228 3579 L
1203 3518 mt 1253 3568 L
1253 3518 mt 1203 3568 L
gs 699 302 4167 3288 rc
gr

1155 3541 mt 1227 3541 L
1191 3505 mt 1191 3577 L
1166 3516 mt 1216 3566 L
1216 3516 mt 1166 3566 L
gs 699 302 4167 3288 rc
gr

1117 3542 mt 1189 3542 L
1153 3506 mt 1153 3578 L
1128 3517 mt 1178 3567 L
1178 3517 mt 1128 3567 L
gs 699 302 4167 3288 rc
gr

1080 3530 mt 1152 3530 L
1116 3494 mt 1116 3566 L
1091 3505 mt 1141 3555 L
1141 3505 mt 1091 3555 L
gs 699 302 4167 3288 rc
gr

1042 3529 mt 1114 3529 L
1078 3493 mt 1078 3565 L
1053 3504 mt 1103 3554 L
1103 3504 mt 1053 3554 L
gs 699 302 4167 3288 rc
gr

1005 3536 mt 1077 3536 L
1041 3500 mt 1041 3572 L
1016 3511 mt 1066 3561 L
1066 3511 mt 1016 3561 L
gs 699 302 4167 3288 rc
gr

 968 3513 mt 1040 3513 L
1004 3477 mt 1004 3549 L
 979 3488 mt 1029 3538 L
1029 3488 mt  979 3538 L
gs 699 302 4167 3288 rc
gr

 930 3522 mt 1002 3522 L
 966 3486 mt  966 3558 L
 941 3497 mt  991 3547 L
 991 3497 mt  941 3547 L
gs 699 302 4167 3288 rc
gr

 893 3506 mt  965 3506 L
 929 3470 mt  929 3542 L
 904 3481 mt  954 3531 L
 954 3481 mt  904 3531 L
gs 699 302 4167 3288 rc
gr

 855 3514 mt  927 3514 L
 891 3478 mt  891 3550 L
 866 3489 mt  916 3539 L
 916 3489 mt  866 3539 L
gs 699 302 4167 3288 rc
gr

 818 3493 mt  890 3493 L
 854 3457 mt  854 3529 L
 829 3468 mt  879 3518 L
 879 3468 mt  829 3518 L
gs 699 302 4167 3288 rc
gr

 781 3461 mt  853 3461 L
 817 3425 mt  817 3497 L
 792 3436 mt  842 3486 L
 842 3436 mt  792 3486 L
gs 699 302 4167 3288 rc
gr

 743 3449 mt  815 3449 L
 779 3413 mt  779 3485 L
 754 3424 mt  804 3474 L
 804 3424 mt  754 3474 L
gs 699 302 4167 3288 rc
gr

 706 3314 mt  778 3314 L
 742 3278 mt  742 3350 L
 717 3289 mt  767 3339 L
 767 3289 mt  717 3339 L
gs 699 302 4167 3288 rc
gr

 668  412 mt  740  412 L
 704  376 mt  704  448 L
 679  387 mt  729  437 L
 729  387 mt  679  437 L
gs 699 302 4167 3288 rc
0 j
gr

/c9 { 0.000000 0.500000 0.000000 sr} bdef
c9
  36   36 4444 1569 FO
gs 699 302 4167 3288 rc
gr

  36   36 4406 1664 FO
gs 699 302 4167 3288 rc
gr

  36   36 4369 1558 FO
gs 699 302 4167 3288 rc
gr

  36   36 4332 1469 FO
gs 699 302 4167 3288 rc
gr

  36   36 4294 1519 FO
gs 699 302 4167 3288 rc
gr

  36   36 4257 1524 FO
gs 699 302 4167 3288 rc
gr

  36   36 4219 1498 FO
gs 699 302 4167 3288 rc
gr

  36   36 4182 1487 FO
gs 699 302 4167 3288 rc
gr

  36   36 4145 1525 FO
gs 699 302 4167 3288 rc
gr

  36   36 4107 1494 FO
gs 699 302 4167 3288 rc
gr

  36   36 4070 1496 FO
gs 699 302 4167 3288 rc
gr

  36   36 4033 1534 FO
gs 699 302 4167 3288 rc
gr

  36   36 3995 1395 FO
gs 699 302 4167 3288 rc
gr

  36   36 3958 1612 FO
gs 699 302 4167 3288 rc
gr

  36   36 3920 1398 FO
gs 699 302 4167 3288 rc
gr

  36   36 3883 1582 FO
gs 699 302 4167 3288 rc
gr

  36   36 3846 1433 FO
gs 699 302 4167 3288 rc
gr

  36   36 3808 1429 FO
gs 699 302 4167 3288 rc
gr

  36   36 3771 1635 FO
gs 699 302 4167 3288 rc
gr

  36   36 3733 1358 FO
gs 699 302 4167 3288 rc
gr

  36   36 3696 1394 FO
gs 699 302 4167 3288 rc
gr

  36   36 3659 1587 FO
gs 699 302 4167 3288 rc
gr

  36   36 3621 1483 FO
gs 699 302 4167 3288 rc
gr

  36   36 3584 1446 FO
gs 699 302 4167 3288 rc
gr

  36   36 3546 1448 FO
gs 699 302 4167 3288 rc
gr

  36   36 3509 1410 FO
gs 699 302 4167 3288 rc
gr

  36   36 3472 1463 FO
gs 699 302 4167 3288 rc
gr

  36   36 3434 1434 FO
gs 699 302 4167 3288 rc
gr

  36   36 3397 1491 FO
gs 699 302 4167 3288 rc
gr

  36   36 3359 1559 FO
gs 699 302 4167 3288 rc
gr

  36   36 3322 1443 FO
gs 699 302 4167 3288 rc
gr

  36   36 3285 1596 FO
gs 699 302 4167 3288 rc
gr

  36   36 3247 1458 FO
gs 699 302 4167 3288 rc
gr

  36   36 3210 1480 FO
gs 699 302 4167 3288 rc
gr

  36   36 3172 1319 FO
gs 699 302 4167 3288 rc
gr

  36   36 3135 1576 FO
gs 699 302 4167 3288 rc
gr

  36   36 3098 1396 FO
gs 699 302 4167 3288 rc
gr

  36   36 3060 1536 FO
gs 699 302 4167 3288 rc
gr

  36   36 3023 1556 FO
gs 699 302 4167 3288 rc
gr

  36   36 2985 1240 FO
gs 699 302 4167 3288 rc
gr

  36   36 2948 1435 FO
gs 699 302 4167 3288 rc
gr

  36   36 2911 1367 FO
gs 699 302 4167 3288 rc
gr

  36   36 2873 1420 FO
gs 699 302 4167 3288 rc
gr

  36   36 2836 1590 FO
gs 699 302 4167 3288 rc
gr

  36   36 2799 1455 FO
gs 699 302 4167 3288 rc
gr

  36   36 2761 1453 FO
gs 699 302 4167 3288 rc
gr

  36   36 2724 1422 FO
gs 699 302 4167 3288 rc
gr

  36   36 2686 1454 FO
gs 699 302 4167 3288 rc
gr

  36   36 2649 1383 FO
gs 699 302 4167 3288 rc
gr

  36   36 2612 1389 FO
gs 699 302 4167 3288 rc
gr

  36   36 2574 1298 FO
gs 699 302 4167 3288 rc
gr

  36   36 2537 1405 FO
gs 699 302 4167 3288 rc
gr

  36   36 2499 1308 FO
gs 699 302 4167 3288 rc
gr

  36   36 2462 1236 FO
gs 699 302 4167 3288 rc
gr

  36   36 2425 1358 FO
gs 699 302 4167 3288 rc
gr

  36   36 2387 1429 FO
gs 699 302 4167 3288 rc
gr

  36   36 2350 1395 FO
gs 699 302 4167 3288 rc
gr

  36   36 2312 1310 FO
gs 699 302 4167 3288 rc
gr

  36   36 2275 1319 FO
gs 699 302 4167 3288 rc
gr

  36   36 2238 1317 FO
gs 699 302 4167 3288 rc
gr

  36   36 2200 1337 FO
gs 699 302 4167 3288 rc
gr

  36   36 2163 1231 FO
gs 699 302 4167 3288 rc
gr

  36   36 2125 1227 FO
gs 699 302 4167 3288 rc
gr

  36   36 2088 1295 FO
gs 699 302 4167 3288 rc
gr

  36   36 2051 1192 FO
gs 699 302 4167 3288 rc
gr

  36   36 2013 1088 FO
gs 699 302 4167 3288 rc
gr

  36   36 1976 1100 FO
gs 699 302 4167 3288 rc
gr

  36   36 1938  979 FO
gs 699 302 4167 3288 rc
gr

  36   36 1901 1178 FO
gs 699 302 4167 3288 rc
gr

  36   36 1864 1209 FO
gs 699 302 4167 3288 rc
gr

  36   36 1826 1070 FO
gs 699 302 4167 3288 rc
gr

  36   36 1789 1127 FO
gs 699 302 4167 3288 rc
gr

  36   36 1751 1042 FO
gs 699 302 4167 3288 rc
gr

  36   36 1714  972 FO
gs 699 302 4167 3288 rc
gr

  36   36 1677 1057 FO
gs 699 302 4167 3288 rc
gr

  36   36 1639  974 FO
gs 699 302 4167 3288 rc
gr

  36   36 1602  878 FO
gs 699 302 4167 3288 rc
gr

  36   36 1565  993 FO
gs 699 302 4167 3288 rc
gr

  36   36 1527  891 FO
gs 699 302 4167 3288 rc
gr

  36   36 1490  888 FO
gs 699 302 4167 3288 rc
gr

  36   36 1452  881 FO
gs 699 302 4167 3288 rc
gr

  36   36 1415  920 FO
gs 699 302 4167 3288 rc
gr

  36   36 1378  804 FO
gs 699 302 4167 3288 rc
gr

  36   36 1340  869 FO
gs 699 302 4167 3288 rc
gr

  36   36 1303  821 FO
gs 699 302 4167 3288 rc
gr

  36   36 1265  784 FO
gs 699 302 4167 3288 rc
gr

  36   36 1228  728 FO
gs 699 302 4167 3288 rc
gr

  36   36 1191  846 FO
gs 699 302 4167 3288 rc
gr

  36   36 1153  673 FO
gs 699 302 4167 3288 rc
gr

  36   36 1116  710 FO
gs 699 302 4167 3288 rc
gr

  36   36 1078  752 FO
gs 699 302 4167 3288 rc
gr

  36   36 1041  651 FO
gs 699 302 4167 3288 rc
gr

  36   36 1004  634 FO
gs 699 302 4167 3288 rc
gr

  36   36  966  606 FO
gs 699 302 4167 3288 rc
gr

  36   36  929  605 FO
gs 699 302 4167 3288 rc
gr

  36   36  891  613 FO
gs 699 302 4167 3288 rc
gr

  36   36  854  543 FO
gs 699 302 4167 3288 rc
gr

  36   36  817  497 FO
gs 699 302 4167 3288 rc
gr

  36   36  779  481 FO
gs 699 302 4167 3288 rc
gr

  36   36  742  421 FO
gs 699 302 4167 3288 rc
gr

  36   36  704  320 FO
gs 699 302 4167 3288 rc
gr

0 sg
2454 3877 mt 
(Step size \() s
%%IncludeResource: font Symbol
/Symbol /ISOLatin1Encoding 120 FMSR

3019 3877 mt 
(e) s
%%IncludeResource: font Helvetica
/Helvetica /ISOLatin1Encoding 120 FMSR

3071 3877 mt 
(\)) s
 516 3322 mt  -90 rotate
(Computation Time [s] and Total Path Length [metric]) s
90 rotate
 682 3632 mt 
( ) s
4849  344 mt 
( ) s
1 sg
0 334 1480 0 0 -334 3326 696 4 MP
PP
-1480 0 0 334 1480 0 0 -334 3326 696 5 MP stroke
4 w
DO
SO
6 w
0 sg
3326  696 mt 4806  696 L
3326  362 mt 4806  362 L
3326  696 mt 3326  362 L
4806  696 mt 4806  362 L
3326  696 mt 4806  696 L
3326  696 mt 3326  362 L
3326  696 mt 4806  696 L
3326  362 mt 4806  362 L
3326  696 mt 3326  362 L
4806  696 mt 4806  362 L
3787  498 mt 
(Computation Time) s
gs 3326 362 1481 335 rc
0 j
gs 3501 382 147 147 rc
c8
3538  455 mt 3610  455 L
3574  419 mt 3574  491 L
3549  430 mt 3599  480 L
3599  430 mt 3549  480 L
gr

c8
gr

c8
0 sg
3787  645 mt 
(Total Path Length) s
gs 3326 362 1481 335 rc
0 j
gs 3501 529 147 147 rc
c9
  36   36 3574  602 FO
gr

c9
gr

c9

end %%Color Dict

eplot
%%EndObject

epage
end

showpage

%%Trailer
%%EOF
