%!PS-Adobe-3.0 EPSF-3.0
%%Creator: MATLAB, The MathWorks, Inc. Version 8.3.0.532 (R2014a). Operating System: Linux 3.19.0-30-generic #34-Ubuntu SMP Fri Oct 2 22:08:41 UTC 2015 x86_64.
%%Title: /home/nicolai/Dropbox/Skole/7. Semester/ROVI/Projects/Robotics Mandatory 2/report/pdf_time.eps
%%CreationDate: 10/13/2015  20:46:12
%%DocumentNeededFonts: Helvetica
%%DocumentProcessColors: Cyan Magenta Yellow Black
%%LanguageLevel: 2
%%Pages: 1
%%BoundingBox:    84   228   525   564
%%EndComments

%%BeginProlog
% MathWorks dictionary
/MathWorks 160 dict begin
% definition operators
/bdef {bind def} bind def
/ldef {load def} bind def
/xdef {exch def} bdef
/xstore {exch store} bdef
% operator abbreviations
/c  /clip ldef
/cc /concat ldef
/cp /closepath ldef
/gr /grestore ldef
/gs /gsave ldef
/mt /moveto ldef
/np /newpath ldef
/cm /currentmatrix ldef
/sm /setmatrix ldef
/rm /rmoveto ldef
/rl /rlineto ldef
/s {show newpath} bdef
/sc {setcmykcolor} bdef
/sr /setrgbcolor ldef
/sg /setgray ldef
/w /setlinewidth ldef
/j /setlinejoin ldef
/cap /setlinecap ldef
/rc {rectclip} bdef
/rf {rectfill} bdef
% page state control
/pgsv () def
/bpage {/pgsv save def} bdef
/epage {pgsv restore} bdef
/bplot /gsave ldef
/eplot {stroke grestore} bdef
% orientation switch
/portraitMode 0 def /landscapeMode 1 def /rotateMode 2 def
% coordinate system mappings
/dpi2point 0 def
% font control
/FontSize 0 def
/FMS {/FontSize xstore findfont [FontSize 0 0 FontSize neg 0 0]
  makefont setfont} bdef
/reencode {exch dup where {pop load} {pop StandardEncoding} ifelse
  exch dup 3 1 roll findfont dup length dict begin
  { 1 index /FID ne {def}{pop pop} ifelse } forall
  /Encoding exch def currentdict end definefont pop} bdef
/isroman {findfont /CharStrings get /Agrave known} bdef
/FMSR {3 1 roll 1 index dup isroman {reencode} {pop pop} ifelse
  exch FMS} bdef
/csm {1 dpi2point div -1 dpi2point div scale neg translate
 dup landscapeMode eq {pop -90 rotate}
  {rotateMode eq {90 rotate} if} ifelse} bdef
% line types: solid, dotted, dashed, dotdash
/SO { [] 0 setdash } bdef
/DO { [.5 dpi2point mul 4 dpi2point mul] 0 setdash } bdef
/DA { [6 dpi2point mul] 0 setdash } bdef
/DD { [.5 dpi2point mul 4 dpi2point mul 6 dpi2point mul 4
  dpi2point mul] 0 setdash } bdef
% macros for lines and objects
/L {lineto stroke} bdef
/MP {3 1 roll moveto 1 sub {rlineto} repeat} bdef
/AP {{rlineto} repeat} bdef
/PDlw -1 def
/W {/PDlw currentlinewidth def setlinewidth} def
/PP {closepath eofill} bdef
/DP {closepath stroke} bdef
/MR {4 -2 roll moveto dup  0 exch rlineto exch 0 rlineto
  neg 0 exch rlineto closepath} bdef
/FR {MR stroke} bdef
/PR {MR fill} bdef
/L1i {{currentfile picstr readhexstring pop} image} bdef
/tMatrix matrix def
/MakeOval {newpath tMatrix currentmatrix pop translate scale
0 0 1 0 360 arc tMatrix setmatrix} bdef
/FO {MakeOval stroke} bdef
/PO {MakeOval fill} bdef
/PD {currentlinewidth 2 div 0 360 arc fill
   PDlw -1 eq not {PDlw w /PDlw -1 def} if} def
/FA {newpath tMatrix currentmatrix pop translate scale
  0 0 1 5 -2 roll arc tMatrix setmatrix stroke} bdef
/PA {newpath tMatrix currentmatrix pop	translate 0 0 moveto scale
  0 0 1 5 -2 roll arc closepath tMatrix setmatrix fill} bdef
/FAn {newpath tMatrix currentmatrix pop translate scale
  0 0 1 5 -2 roll arcn tMatrix setmatrix stroke} bdef
/PAn {newpath tMatrix currentmatrix pop translate 0 0 moveto scale
  0 0 1 5 -2 roll arcn closepath tMatrix setmatrix fill} bdef
/vradius 0 def /hradius 0 def /lry 0 def
/lrx 0 def /uly 0 def /ulx 0 def /rad 0 def
/MRR {/vradius xdef /hradius xdef /lry xdef /lrx xdef /uly xdef
  /ulx xdef newpath tMatrix currentmatrix pop ulx hradius add uly
  vradius add translate hradius vradius scale 0 0 1 180 270 arc 
  tMatrix setmatrix lrx hradius sub uly vradius add translate
  hradius vradius scale 0 0 1 270 360 arc tMatrix setmatrix
  lrx hradius sub lry vradius sub translate hradius vradius scale
  0 0 1 0 90 arc tMatrix setmatrix ulx hradius add lry vradius sub
  translate hradius vradius scale 0 0 1 90 180 arc tMatrix setmatrix
  closepath} bdef
/FRR {MRR stroke } bdef
/PRR {MRR fill } bdef
/MlrRR {/lry xdef /lrx xdef /uly xdef /ulx xdef /rad lry uly sub 2 div def
  newpath tMatrix currentmatrix pop ulx rad add uly rad add translate
  rad rad scale 0 0 1 90 270 arc tMatrix setmatrix lrx rad sub lry rad
  sub translate rad rad scale 0 0 1 270 90 arc tMatrix setmatrix
  closepath} bdef
/FlrRR {MlrRR stroke } bdef
/PlrRR {MlrRR fill } bdef
/MtbRR {/lry xdef /lrx xdef /uly xdef /ulx xdef /rad lrx ulx sub 2 div def
  newpath tMatrix currentmatrix pop ulx rad add uly rad add translate
  rad rad scale 0 0 1 180 360 arc tMatrix setmatrix lrx rad sub lry rad
  sub translate rad rad scale 0 0 1 0 180 arc tMatrix setmatrix
  closepath} bdef
/FtbRR {MtbRR stroke } bdef
/PtbRR {MtbRR fill } bdef
/stri 6 array def /dtri 6 array def
/smat 6 array def /dmat 6 array def
/tmat1 6 array def /tmat2 6 array def /dif 3 array def
/asub {/ind2 exch def /ind1 exch def dup dup
  ind1 get exch ind2 get sub exch } bdef
/tri_to_matrix {
  2 0 asub 3 1 asub 4 0 asub 5 1 asub
  dup 0 get exch 1 get 7 -1 roll astore } bdef
/compute_transform {
  dmat dtri tri_to_matrix tmat1 invertmatrix 
  smat stri tri_to_matrix tmat2 concatmatrix } bdef
/ds {stri astore pop} bdef
/dt {dtri astore pop} bdef
/db {2 copy /cols xdef /rows xdef mul dup 3 mul string
  currentfile 
  3 index 0 eq {/ASCIIHexDecode filter}
  {/ASCII85Decode filter 3 index 2 eq {/RunLengthDecode filter} if }
  ifelse exch readstring pop
  dup 0 3 index getinterval /rbmap xdef
  dup 2 index dup getinterval /gbmap xdef
  1 index dup 2 mul exch getinterval /bbmap xdef pop pop}bdef
/it {gs np dtri aload pop moveto lineto lineto cp c
  cols rows 8 compute_transform 
  rbmap gbmap bbmap true 3 colorimage gr}bdef
/il {newpath moveto lineto stroke}bdef
currentdict end def
%%EndProlog

%%BeginSetup
MathWorks begin

0 cap

end
%%EndSetup

%%Page: 1 1
%%BeginPageSetup
%%PageBoundingBox:    84   228   525   564
MathWorks begin
bpage
%%EndPageSetup

%%BeginObject: obj1
bplot

/dpi2point 12 def
portraitMode 1008 6768 csm

    0     0  5299  4023 rc
85 dict begin %Colortable dictionary
/c0 { 0.000000 0.000000 0.000000 sr} bdef
/c1 { 1.000000 1.000000 1.000000 sr} bdef
/c2 { 0.900000 0.000000 0.000000 sr} bdef
/c3 { 0.000000 0.820000 0.000000 sr} bdef
/c4 { 0.000000 0.000000 0.800000 sr} bdef
/c5 { 0.910000 0.820000 0.320000 sr} bdef
/c6 { 1.000000 0.260000 0.820000 sr} bdef
/c7 { 0.000000 0.820000 0.820000 sr} bdef
c0
1 j
1 sg
   0    0 5300 4024 rf
6 w
0 3278 4107 0 0 -3278 689 3580 4 MP
PP
-4107 0 0 3278 4107 0 0 -3278 689 3580 5 MP stroke
4 w
DO
SO
6 w
0 sg
 689 3580 mt 4796 3580 L
 689  302 mt 4796  302 L
 689 3580 mt  689  302 L
4796 3580 mt 4796  302 L
 689 3580 mt 4796 3580 L
 689 3580 mt  689  302 L
 689 3580 mt  689 3538 L
 689  302 mt  689  343 L
%%IncludeResource: font Helvetica
/Helvetica /ISOLatin1Encoding 120 FMSR

 656 3725 mt 
(0) s
1099 3580 mt 1099 3538 L
1099  302 mt 1099  343 L
 983 3725 mt 
(0.05) s
1510 3580 mt 1510 3538 L
1510  302 mt 1510  343 L
1427 3725 mt 
(0.1) s
1921 3580 mt 1921 3538 L
1921  302 mt 1921  343 L
1805 3725 mt 
(0.15) s
2331 3580 mt 2331 3538 L
2331  302 mt 2331  343 L
2248 3725 mt 
(0.2) s
2742 3580 mt 2742 3538 L
2742  302 mt 2742  343 L
2626 3725 mt 
(0.25) s
3153 3580 mt 3153 3538 L
3153  302 mt 3153  343 L
3070 3725 mt 
(0.3) s
3563 3580 mt 3563 3538 L
3563  302 mt 3563  343 L
3447 3725 mt 
(0.35) s
3974 3580 mt 3974 3538 L
3974  302 mt 3974  343 L
3891 3725 mt 
(0.4) s
4385 3580 mt 4385 3538 L
4385  302 mt 4385  343 L
4269 3725 mt 
(0.45) s
4796 3580 mt 4796 3538 L
4796  302 mt 4796  343 L
4713 3725 mt 
(0.5) s
 689 3580 mt  730 3580 L
4796 3580 mt 4754 3580 L
 588 3624 mt 
(0) s
 689 3252 mt  730 3252 L
4796 3252 mt 4754 3252 L
 588 3296 mt 
(1) s
 689 2924 mt  730 2924 L
4796 2924 mt 4754 2924 L
 588 2968 mt 
(2) s
 689 2596 mt  730 2596 L
4796 2596 mt 4754 2596 L
 588 2640 mt 
(3) s
 689 2268 mt  730 2268 L
4796 2268 mt 4754 2268 L
 588 2312 mt 
(4) s
 689 1941 mt  730 1941 L
4796 1941 mt 4754 1941 L
 588 1985 mt 
(5) s
 689 1613 mt  730 1613 L
4796 1613 mt 4754 1613 L
 588 1657 mt 
(6) s
 689 1285 mt  730 1285 L
4796 1285 mt 4754 1285 L
 588 1329 mt 
(7) s
 689  957 mt  730  957 L
4796  957 mt 4754  957 L
 588 1001 mt 
(8) s
 689  629 mt  730  629 L
4796  629 mt 4754  629 L
 588  673 mt 
(9) s
 689  302 mt  730  302 L
4796  302 mt 4754  302 L
 521  346 mt 
(10) s
 689 3580 mt 4796 3580 L
 689  302 mt 4796  302 L
 689 3580 mt  689  302 L
4796 3580 mt 4796  302 L
gs 689 302 4108 3279 rc
24 w
/c8 { 0.000000 0.000000 1.000000 sr} bdef
c8
616 1 156 0 361 0 107 0 132 0 230 0 8 0 16 0 
17 0 8 0 49 0 8 0 9 0 16 0 25 0 74 0 
24 0 25 0 8 0 16 0 33 0 9 0 8 0 8 0 
8 0 17 0 8 0 8 0 8 0 8 0 25 0 8 0 
17 1 16 0 17 0 8 0 16 1 8 0 9 0 8 0 
8 0 8 1 8 0 9 0 8 1 8 0 8 1 9 0 
8 0 8 1 8 1 8 0 9 1 8 1 8 0 8 1 
8 1 9 1 8 1 8 1 8 1 9 2 8 1 8 2 
8 1 8 2 9 2 8 2 8 2 8 2 8 2 9 3 
8 3 8 2 8 3 9 4 8 3 8 4 8 4 8 4 
9 4 8 5 8 5 8 5 8 6 9 5 8 7 8 6 
8 7 9 7 8 8 8 8 8 8 8 9 9 9 8 10 
8 10 8 11 8 11 9 12 8 13 8 13 8 13 9 14 
8 15 8 15 8 16 8 17 9 17 8 18 8 19 8 19 
8 20 9 21 8 22 8 22 8 23 9 24 8 25 8 26 
8 26 8 27 9 28 8 29 8 29 8 31 8 31 9 32 
8 33 8 33 8 35 9 35 8 36 8 37 8 37 8 38 
9 39 8 40 8 40 8 41 8 41 9 42 8 43 8 43 
8 43 9 44 8 44 8 45 8 45 8 46 9 45 8 46 
8 46 8 46 8 46 9 46 8 45 8 46 8 46 9 45 
8 45 8 45 8 44 8 43 9 44 8 42 8 42 8 41 
8 41 9 39 8 39 8 37 8 37 9 36 8 34 8 33 
8 32 8 31 9 29 8 28 8 27 8 25 8 23 9 22 
8 20 8 19 8 17 9 16 8 13 8 12 8 10 8 9 
9 6 8 5 8 3 8 1 8 -1 9 -3 8 -4 8 -6 
8 -8 9 -10 8 -12 8 -13 8 -15 8 -17 9 -18 8 -20 
8 -22 8 -23 8 -25 9 -26 8 -28 8 -29 8 -30 9 -32 
8 -33 8 -34 8 -35 8 -37 9 -37 8 -39 8 -39 8 -40 
8 -41 9 -42 8 -43 8 -43 8 -43 9 -44 8 -45 8 -45 
8 -45 8 -46 9 -45 8 -46 8 -46 8 -46 8 -46 9 -46 
8 -46 8 -45 8 -46 9 -45 8 -44 8 -45 8 -44 8 -43 
9 -44 8 -42 8 -42 8 -42 853 2307 253 MP stroke
gr

24 w
c8
0 sg
2254 3868 mt 
(Computation Time) s
 439 2222 mt  -90 rotate
(Probability) s
90 rotate
1328  207 mt 
(Probability Density Function of the Computation Time) s
6 w

end %%Color Dict

eplot
%%EndObject

epage
end

showpage

%%Trailer
%%EOF
