%!PS-Adobe-3.0 EPSF-3.0
%%Creator: MATLAB, The MathWorks, Inc. Version 8.3.0.532 (R2014a). Operating System: Linux 3.19.0-30-generic #34-Ubuntu SMP Fri Oct 2 22:08:41 UTC 2015 x86_64.
%%Title: /home/nicolai/Dropbox/Skole/7. Semester/ROVI/Projects/Robotics Mandatory 2/report/pdf_length.eps
%%CreationDate: 10/13/2015  20:46:25
%%DocumentNeededFonts: Helvetica
%%DocumentProcessColors: Cyan Magenta Yellow Black
%%LanguageLevel: 2
%%Pages: 1
%%BoundingBox:    81   227   529   564
%%EndComments

%%BeginProlog
% MathWorks dictionary
/MathWorks 160 dict begin
% definition operators
/bdef {bind def} bind def
/ldef {load def} bind def
/xdef {exch def} bdef
/xstore {exch store} bdef
% operator abbreviations
/c  /clip ldef
/cc /concat ldef
/cp /closepath ldef
/gr /grestore ldef
/gs /gsave ldef
/mt /moveto ldef
/np /newpath ldef
/cm /currentmatrix ldef
/sm /setmatrix ldef
/rm /rmoveto ldef
/rl /rlineto ldef
/s {show newpath} bdef
/sc {setcmykcolor} bdef
/sr /setrgbcolor ldef
/sg /setgray ldef
/w /setlinewidth ldef
/j /setlinejoin ldef
/cap /setlinecap ldef
/rc {rectclip} bdef
/rf {rectfill} bdef
% page state control
/pgsv () def
/bpage {/pgsv save def} bdef
/epage {pgsv restore} bdef
/bplot /gsave ldef
/eplot {stroke grestore} bdef
% orientation switch
/portraitMode 0 def /landscapeMode 1 def /rotateMode 2 def
% coordinate system mappings
/dpi2point 0 def
% font control
/FontSize 0 def
/FMS {/FontSize xstore findfont [FontSize 0 0 FontSize neg 0 0]
  makefont setfont} bdef
/reencode {exch dup where {pop load} {pop StandardEncoding} ifelse
  exch dup 3 1 roll findfont dup length dict begin
  { 1 index /FID ne {def}{pop pop} ifelse } forall
  /Encoding exch def currentdict end definefont pop} bdef
/isroman {findfont /CharStrings get /Agrave known} bdef
/FMSR {3 1 roll 1 index dup isroman {reencode} {pop pop} ifelse
  exch FMS} bdef
/csm {1 dpi2point div -1 dpi2point div scale neg translate
 dup landscapeMode eq {pop -90 rotate}
  {rotateMode eq {90 rotate} if} ifelse} bdef
% line types: solid, dotted, dashed, dotdash
/SO { [] 0 setdash } bdef
/DO { [.5 dpi2point mul 4 dpi2point mul] 0 setdash } bdef
/DA { [6 dpi2point mul] 0 setdash } bdef
/DD { [.5 dpi2point mul 4 dpi2point mul 6 dpi2point mul 4
  dpi2point mul] 0 setdash } bdef
% macros for lines and objects
/L {lineto stroke} bdef
/MP {3 1 roll moveto 1 sub {rlineto} repeat} bdef
/AP {{rlineto} repeat} bdef
/PDlw -1 def
/W {/PDlw currentlinewidth def setlinewidth} def
/PP {closepath eofill} bdef
/DP {closepath stroke} bdef
/MR {4 -2 roll moveto dup  0 exch rlineto exch 0 rlineto
  neg 0 exch rlineto closepath} bdef
/FR {MR stroke} bdef
/PR {MR fill} bdef
/L1i {{currentfile picstr readhexstring pop} image} bdef
/tMatrix matrix def
/MakeOval {newpath tMatrix currentmatrix pop translate scale
0 0 1 0 360 arc tMatrix setmatrix} bdef
/FO {MakeOval stroke} bdef
/PO {MakeOval fill} bdef
/PD {currentlinewidth 2 div 0 360 arc fill
   PDlw -1 eq not {PDlw w /PDlw -1 def} if} def
/FA {newpath tMatrix currentmatrix pop translate scale
  0 0 1 5 -2 roll arc tMatrix setmatrix stroke} bdef
/PA {newpath tMatrix currentmatrix pop	translate 0 0 moveto scale
  0 0 1 5 -2 roll arc closepath tMatrix setmatrix fill} bdef
/FAn {newpath tMatrix currentmatrix pop translate scale
  0 0 1 5 -2 roll arcn tMatrix setmatrix stroke} bdef
/PAn {newpath tMatrix currentmatrix pop translate 0 0 moveto scale
  0 0 1 5 -2 roll arcn closepath tMatrix setmatrix fill} bdef
/vradius 0 def /hradius 0 def /lry 0 def
/lrx 0 def /uly 0 def /ulx 0 def /rad 0 def
/MRR {/vradius xdef /hradius xdef /lry xdef /lrx xdef /uly xdef
  /ulx xdef newpath tMatrix currentmatrix pop ulx hradius add uly
  vradius add translate hradius vradius scale 0 0 1 180 270 arc 
  tMatrix setmatrix lrx hradius sub uly vradius add translate
  hradius vradius scale 0 0 1 270 360 arc tMatrix setmatrix
  lrx hradius sub lry vradius sub translate hradius vradius scale
  0 0 1 0 90 arc tMatrix setmatrix ulx hradius add lry vradius sub
  translate hradius vradius scale 0 0 1 90 180 arc tMatrix setmatrix
  closepath} bdef
/FRR {MRR stroke } bdef
/PRR {MRR fill } bdef
/MlrRR {/lry xdef /lrx xdef /uly xdef /ulx xdef /rad lry uly sub 2 div def
  newpath tMatrix currentmatrix pop ulx rad add uly rad add translate
  rad rad scale 0 0 1 90 270 arc tMatrix setmatrix lrx rad sub lry rad
  sub translate rad rad scale 0 0 1 270 90 arc tMatrix setmatrix
  closepath} bdef
/FlrRR {MlrRR stroke } bdef
/PlrRR {MlrRR fill } bdef
/MtbRR {/lry xdef /lrx xdef /uly xdef /ulx xdef /rad lrx ulx sub 2 div def
  newpath tMatrix currentmatrix pop ulx rad add uly rad add translate
  rad rad scale 0 0 1 180 360 arc tMatrix setmatrix lrx rad sub lry rad
  sub translate rad rad scale 0 0 1 0 180 arc tMatrix setmatrix
  closepath} bdef
/FtbRR {MtbRR stroke } bdef
/PtbRR {MtbRR fill } bdef
/stri 6 array def /dtri 6 array def
/smat 6 array def /dmat 6 array def
/tmat1 6 array def /tmat2 6 array def /dif 3 array def
/asub {/ind2 exch def /ind1 exch def dup dup
  ind1 get exch ind2 get sub exch } bdef
/tri_to_matrix {
  2 0 asub 3 1 asub 4 0 asub 5 1 asub
  dup 0 get exch 1 get 7 -1 roll astore } bdef
/compute_transform {
  dmat dtri tri_to_matrix tmat1 invertmatrix 
  smat stri tri_to_matrix tmat2 concatmatrix } bdef
/ds {stri astore pop} bdef
/dt {dtri astore pop} bdef
/db {2 copy /cols xdef /rows xdef mul dup 3 mul string
  currentfile 
  3 index 0 eq {/ASCIIHexDecode filter}
  {/ASCII85Decode filter 3 index 2 eq {/RunLengthDecode filter} if }
  ifelse exch readstring pop
  dup 0 3 index getinterval /rbmap xdef
  dup 2 index dup getinterval /gbmap xdef
  1 index dup 2 mul exch getinterval /bbmap xdef pop pop}bdef
/it {gs np dtri aload pop moveto lineto lineto cp c
  cols rows 8 compute_transform 
  rbmap gbmap bbmap true 3 colorimage gr}bdef
/il {newpath moveto lineto stroke}bdef
currentdict end def
%%EndProlog

%%BeginSetup
MathWorks begin

0 cap

end
%%EndSetup

%%Page: 1 1
%%BeginPageSetup
%%PageBoundingBox:    81   227   529   564
MathWorks begin
bpage
%%EndPageSetup

%%BeginObject: obj1
bplot

/dpi2point 12 def
portraitMode 0972 6768 csm

    0     0  5376  4033 rc
85 dict begin %Colortable dictionary
/c0 { 0.000000 0.000000 0.000000 sr} bdef
/c1 { 1.000000 1.000000 1.000000 sr} bdef
/c2 { 0.900000 0.000000 0.000000 sr} bdef
/c3 { 0.000000 0.820000 0.000000 sr} bdef
/c4 { 0.000000 0.000000 0.800000 sr} bdef
/c5 { 0.910000 0.820000 0.320000 sr} bdef
/c6 { 1.000000 0.260000 0.820000 sr} bdef
/c7 { 0.000000 0.820000 0.820000 sr} bdef
c0
1 j
1 sg
   0    0 5377 4034 rf
6 w
0 3288 4166 0 0 -3288 699 3589 4 MP
PP
-4166 0 0 3288 4166 0 0 -3288 699 3589 5 MP stroke
4 w
DO
SO
6 w
0 sg
 699 3589 mt 4865 3589 L
 699  301 mt 4865  301 L
 699 3589 mt  699  301 L
4865 3589 mt 4865  301 L
 699 3589 mt 4865 3589 L
 699 3589 mt  699  301 L
 699 3589 mt  699 3547 L
 699  302 mt  699  343 L
%%IncludeResource: font Helvetica
/Helvetica /ISOLatin1Encoding 120 FMSR

 666 3734 mt 
(3) s
1219 3589 mt 1219 3547 L
1219  302 mt 1219  343 L
1186 3734 mt 
(4) s
1740 3589 mt 1740 3547 L
1740  302 mt 1740  343 L
1707 3734 mt 
(5) s
2261 3589 mt 2261 3547 L
2261  302 mt 2261  343 L
2228 3734 mt 
(6) s
2782 3589 mt 2782 3547 L
2782  302 mt 2782  343 L
2749 3734 mt 
(7) s
3302 3589 mt 3302 3547 L
3302  302 mt 3302  343 L
3269 3734 mt 
(8) s
3823 3589 mt 3823 3547 L
3823  302 mt 3823  343 L
3790 3734 mt 
(9) s
4344 3589 mt 4344 3547 L
4344  302 mt 4344  343 L
4278 3734 mt 
(10) s
4865 3589 mt 4865 3547 L
4865  302 mt 4865  343 L
4799 3734 mt 
(11) s
 699 3589 mt  740 3589 L
4865 3589 mt 4823 3589 L
 598 3633 mt 
(0) s
 699 3260 mt  740 3260 L
4865 3260 mt 4823 3260 L
 598 3304 mt 
(1) s
 699 2931 mt  740 2931 L
4865 2931 mt 4823 2931 L
 598 2975 mt 
(2) s
 699 2602 mt  740 2602 L
4865 2602 mt 4823 2602 L
 598 2646 mt 
(3) s
 699 2274 mt  740 2274 L
4865 2274 mt 4823 2274 L
 598 2318 mt 
(4) s
 699 1945 mt  740 1945 L
4865 1945 mt 4823 1945 L
 598 1989 mt 
(5) s
 699 1616 mt  740 1616 L
4865 1616 mt 4823 1616 L
 598 1660 mt 
(6) s
 699 1288 mt  740 1288 L
4865 1288 mt 4823 1288 L
 598 1332 mt 
(7) s
 699  959 mt  740  959 L
4865  959 mt 4823  959 L
 598 1003 mt 
(8) s
 699  630 mt  740  630 L
4865  630 mt 4823  630 L
 598  674 mt 
(9) s
 699  302 mt  740  302 L
4865  302 mt 4823  302 L
 531  346 mt 
(10) s
 699 3589 mt 4865 3589 L
 699  301 mt 4865  301 L
 699 3589 mt  699  301 L
4865 3589 mt 4865  301 L
gs 699 302 4167 3288 rc
24 w
/c8 { 0.000000 0.000000 1.000000 sr} bdef
c8
227 1 143 0 55 0 39 0 22 0 30 0 9 0 2 0 
30 0 18 0 36 0 8 0 24 0 26 0 49 0 25 0 
3 0 6 0 16 0 1 0 26 0 14 0 40 0 4 0 
19 0 23 0 10 0 42 0 1 0 8 0 9 0 5 0 
4 0 16 0 5 0 9 0 6 0 5 0 2 0 4 0 
14 0 19 1 23 0 16 0 2 0 2 0 12 0 2 0 
26 0 7 0 1 0 2 1 3 0 4 0 3 0 3 0 
1 0 4 0 4 0 10 0 4 0 3 1 1 0 7 0 
1 0 1 1 2 0 5 0 2 0 8 1 1 0 1 0 
1 0 5 0 9 0 9 1 1 0 5 0 1 1 1 0 
2 0 4 1 1 0 1 0 16 1 2 0 2 0 4 0 
7 0 3 0 6 1 1 0 3 0 6 1 2 0 5 0 
4 1 11 1 3 0 1 0 3 0 0 1 5 0 9 0 
4 0 1 1 2 0 3 2 7 0 5 0 2 1 3 2 
8 0 2 0 0 1 5 0 3 0 1 0 1 0 2 2 
2 0 4 2 1 0 8 0 5 0 1 0 0 2 1 0 
1 0 4 2 21 0 2 0 1 0 1 0 8 0 1 0 
2 2 3 0 2 0 2 0 1 2 4 0 4 0 1 0 
4 3 1 0 1 0 2 0 0 3 1 0 4 3 2 0 
1 0 2 0 2 0 4 3 2 0 4 0 2 0 1 0 
5 3 8 0 1 0 6 0 2 0 4 0 4 3 6 0 
6 0 1 0 3 0 0 4 7 0 1 0 0 4 2 0 
1 0 5 0 2 4 0 4 5 0 1 0 4 0 5 5 
2 0 6 0 1 0 1 0 4 0 1 0 1 0 1 5 
2 0 1 0 1 0 1 0 2 5 2 0 1 0 2 0 
6 6 1 0 5 0 2 0 5 0 1 6 2 0 5 0 
1 0 3 0 1 0 1 0 2 0 1 6 1 0 3 0 
3 0 4 6 3 0 1 7 1 0 5 0 1 0 2 0 
2 0 2 0 0 7 3 0 2 0 2 8 1 0 2 0 
2 0 2 0 1 8 3 0 1 0 2 0 4 0 1 0 
1 9 1 0 1 0 4 0 2 9 3 0 1 0 2 0 
2 0 1 0 6 0 2 9 1 0 1 0 4 0 1 0 
4 0 1 10 3 0 3 0 1 0 3 0 2 0 0 10 
2 0 1 0 1 11 1 0 1 0 1 0 1 11 3 0 
3 0 1 0 1 0 1 0 1 0 1 12 3 0 1 0 
4 0 1 0 1 0 1 0 1 0 3 0 0 12 2 0 
1 0 3 0 1 0 1 0 1 13 2 0 2 0 3 0 
1 0 1 0 1 0 2700 3346 300 MP stroke
1 0 1 0 1 14 2 0 1 0 2 0 1 0 1 0 
1 0 0 14 2 0 4 0 1 0 1 0 2 0 2 0 
1 0 4 0 0 15 1 0 1 0 2 0 1 0 1 0 
2 0 1 0 1 15 3 0 1 0 1 16 1 0 1 0 
1 0 1 0 1 0 1 0 0 17 1 0 2 0 1 0 
1 0 0 17 1 0 1 0 2 0 2 0 1 0 1 0 
0 18 2 0 1 0 2 0 1 0 1 0 1 0 1 0 
2 0 1 0 2 0 1 19 1 0 3 0 1 0 4 0 
1 0 2 0 0 19 1 0 1 0 2 0 1 0 0 20 
1 0 2 0 1 0 1 0 1 0 2 0 2 0 1 0 
1 0 1 21 1 0 4 0 2 0 1 0 1 0 1 0 
5 0 1 22 1 0 1 0 4 0 1 0 1 0 2 23 
2 0 2 0 1 0 2 0 2 0 3 0 1 0 2 0 
1 23 1 0 1 0 1 0 1 0 2 0 2 0 2 0 
1 0 0 24 2 0 1 0 1 0 1 0 1 0 3 0 
1 0 1 0 1 25 1 0 1 0 1 0 2 0 1 0 
1 0 0 25 1 0 1 0 4 0 1 0 1 0 1 0 
1 0 1 0 0 27 1 0 1 0 3 0 1 0 1 0 
1 0 2 0 1 0 1 0 0 27 1 0 2 0 3 0 
1 0 1 0 1 28 1 0 1 0 1 0 1 0 1 0 
1 0 1 0 1 0 2 0 1 0 0 29 2 0 1 0 
1 0 1 0 1 0 1 0 1 0 1 29 1 0 1 0 
1 0 1 0 1 0 1 0 2 0 1 0 1 0 2 0 
1 0 2 0 0 31 1 0 1 0 2 0 1 0 1 0 
1 0 0 31 1 0 1 0 1 0 1 0 1 0 1 0 
1 0 2 0 1 0 2 0 0 32 1 0 1 0 2 0 
1 0 1 0 2 0 1 0 1 33 1 0 1 0 1 0 
2 0 1 0 1 0 1 0 3 0 1 0 1 0 1 0 
1 0 0 34 1 0 1 0 1 0 2 0 1 0 1 0 
1 0 1 0 1 34 1 0 1 0 1 0 1 0 1 0 
1 0 1 0 1 36 1 0 1 0 1 0 3 0 1 0 
1 0 1 0 1 0 1 0 1 0 0 36 1 0 1 0 
1 0 1 0 1 0 1 0 1 0 1 0 1 0 1 0 
0 36 1 0 3 0 1 0 2 0 1 0 1 0 1 0 
1 0 0 38 1 0 1 0 1 0 1 0 1 0 1 0 
1 0 1 0 1 0 1 0 0 38 1 0 1 0 1 0 
1 0 1 0 1 0 2 0 1 0 1 0 1 0 1 0 
1 0 1 39 1 0 2334 2441 300 MP stroke
1 0 1 0 1 0 1 0 1 0 0 40 2 0 1 0 
1 0 1 0 2 0 1 0 1 0 1 0 1 0 1 0 
1 0 1 40 1 0 1 0 1 0 1 0 1 0 1 0 
1 0 1 0 1 0 2 0 1 0 1 0 1 41 3 0 
1 0 1 0 1 0 1 0 0 42 1 0 1 0 1 0 
1 0 1 0 1 0 1 0 1 0 1 0 1 0 2 0 
0 42 2 0 1 0 2 0 1 0 2 0 1 0 2 0 
1 0 1 0 1 0 1 0 1 0 2 0 0 42 1 0 
1 0 1 0 1 0 1 0 1 0 1 0 1 0 1 0 
2 0 0 44 1 0 1 0 1 0 1 0 1 0 3 0 
1 0 1 0 1 0 1 0 2 0 1 0 1 0 1 0 
1 0 1 0 0 43 1 0 1 0 1 0 1 0 1 0 
1 0 1 0 1 0 1 0 1 0 0 44 1 0 1 0 
1 0 1 0 1 0 1 0 1 0 1 0 0 45 1 0 
1 0 1 0 1 0 1 0 1 0 1 0 1 0 1 0 
1 0 1 0 1 0 3 45 1 0 1 0 1 0 1 0 
1 0 3 0 1 0 2 0 1 0 1 0 1 0 1 0 
1 0 1 0 1 0 2 45 1 0 2 0 1 0 1 0 
1 0 0 45 1 0 1 0 1 0 1 0 2 0 1 0 
1 0 1 0 1 0 1 0 0 46 1 0 1 0 1 0 
1 0 1 0 1 0 1 0 1 0 1 0 2 0 0 46 
1 0 1 0 1 0 1 0 1 0 1 0 1 0 1 0 
1 0 1 0 1 46 1 0 1 0 1 0 1 0 1 0 
1 0 1 0 1 0 1 0 1 0 1 0 1 0 1 46 
1 0 1 0 1 0 1 0 1 0 1 0 1 0 1 0 
0 46 1 0 1 0 1 0 1 0 1 0 1 0 1 0 
1 0 1 0 1 0 1 0 1 0 1 0 1 0 1 0 
1 0 0 46 1 0 1 0 1 0 1 0 1 0 1 0 
1 0 1 0 0 46 1 0 1 0 1 0 1 0 1 0 
1 0 1 0 1 0 1 0 1 0 1 0 0 46 1 0 
2 0 1 0 1 0 1 0 1 0 1 0 1 0 0 45 
1 0 1 0 1 0 1 0 1 0 1 0 1 0 1 0 
0 46 1 0 1 0 1 0 1 0 1 0 1 0 1 0 
1 0 1 0 1 0 1 0 1 0 1 0 1 0 0 45 
1 0 1 0 1 0 2 0 1 0 1 0 1 0 1 0 
1 0 1 0 1 0 1 0 0 45 1 0 1 0 1 0 
1 0 1 0 1 0 1 0 1 0 1 0 1 0 1 0 
1 0 0 44 1 0 2029 1290 300 MP stroke
1 0 1 0 1 0 1 0 1 0 1 0 1 0 1 0 
1 0 1 0 1 0 1 0 1 0 1 0 0 44 1 0 
1 0 1 0 1 0 1 0 1 0 1 0 1 0 1 0 
1 0 0 43 1 0 1 0 1 0 1 0 1 0 1 0 
1 0 1 0 1 0 1 0 0 43 1 0 1 0 1 0 
1 0 1 0 1 0 1 0 1 0 2 0 1 0 0 42 
1 0 1 0 1 0 1 0 1 0 1 0 1 0 1 0 
1 0 1 0 1 0 1 0 1 0 1 0 0 41 1 0 
1 0 1 0 1 0 1 0 1 0 1 0 1 0 1 0 
0 41 1 0 1 0 1 0 1 0 1 0 1 0 1 0 
1 0 1 0 1 39 1 0 1 0 1 0 1 0 1 0 
1 0 1 0 1 0 1 0 0 39 1 0 1 0 1 0 
1 0 1 0 1 0 1 0 1 0 1 0 1 0 0 38 
1 0 1 0 1 0 1 0 1 0 1 0 1 0 1 0 
1 0 1 0 1 0 1 0 1 0 1 36 1 0 1 0 
1 0 1 0 1 0 1 0 1 0 1 0 1 0 0 36 
1 0 1 0 1 0 1 0 1 0 1 0 1 0 1 0 
1 0 1 0 0 35 1 0 1 0 1 0 1 0 1 0 
1 0 1 0 1 0 1 0 1 0 1 0 0 33 1 0 
1 0 1 0 1 0 1 0 1 0 1 0 1 0 1 0 
1 0 0 32 1 0 1 0 1 0 1 0 1 0 1 0 
1 0 1 0 1 0 1 0 1 0 1 0 0 31 1 0 
1 0 1 0 1 0 1 0 1 0 1 0 1 0 1 0 
1 0 1 0 0 29 1 0 1 0 1 0 1 0 1 0 
1 0 1 0 1 0 1 0 1 0 0 28 1 0 1 0 
1 0 1 0 1 0 1 0 1 0 1 0 1 0 1 0 
1 0 0 27 1 0 1 0 1 0 1 0 1 0 1 0 
1 0 1 0 0 25 1 0 1 0 1 0 1 0 1 0 
1 0 1 0 1 0 1 0 1 0 1 0 1 0 1 0 
1 0 0 23 1 0 1 0 1 0 1 0 1 0 1 0 
1 0 1 0 1 0 1 0 0 22 1 0 1 0 1 0 
1 0 1 0 1 0 1 0 1 0 1 0 1 0 1 0 
1 0 1 0 1 0 1 0 0 21 1 0 1 0 1 0 
1 0 1 0 1 0 1 0 1 0 1 0 1 0 1 0 
1 0 0 19 1 0 1 0 1 0 1 0 1 0 1 0 
1 0 1 0 1 0 1 0 1 0 1 0 1 0 1 0 
1 0 0 17 1 0 1 0 1 0 1 0 1 0 1 0 
1 0 1 0 1 0 1751 506 300 MP stroke
1 0 1 0 1 15 1 0 1 0 1 0 1 0 1 0 
1 0 1 0 1 0 1 0 1 0 1 0 1 0 1 0 
1 0 1 0 1 14 1 0 1 0 1 0 1 0 1 0 
1 0 1 0 1 0 1 0 1 0 1 0 1 0 0 12 
1 0 1 0 1 0 1 0 1 0 1 0 1 0 1 0 
1 0 1 0 1 0 1 0 1 0 0 10 1 0 1 0 
1 0 1 0 1 0 1 0 1 0 1 0 1 0 1 0 
1 0 0 8 1 0 1 0 1 0 1 0 1 0 1 0 
1 0 1 0 1 0 1 0 1 0 1 0 0 7 1 0 
1 0 1 0 1 0 1 0 1 0 1 0 1 0 1 0 
1 0 1 0 0 4 1 0 1 0 1 0 1 0 1 0 
1 0 1 0 0 3 1 0 1 0 1 0 1 0 1 0 
1 0 1 0 1 0 1 0 1 0 1 0 1 0 1 1 
1 0 1 0 1 0 1 0 1 0 1 0 1 0 1 0 
1 0 1 0 1 0 1 0 1 0 1 0 1 0 1 0 
1 0 1 0 1 0 1 0 1 0 1 0 1 0 0 -3 
1 0 1 0 1 0 1 0 1 0 1 0 1 0 1 0 
1 0 1 0 0 -4 1 0 1 0 1 0 1 0 1 0 
1 0 1 0 1 0 1 0 1 0 1 0 0 -7 1 0 
1 0 1 0 1 0 1 0 1 0 1 0 1 0 1 0 
1 0 1 0 1 0 0 -8 1 0 1 0 1 0 1 0 
1 0 1 0 1 0 1 0 1 0 1 0 1 0 0 -9 
1 0 1 0 1 0 1 0 1 0 1 0 1 0 1 0 
1 0 0 -12 1 0 1 0 1 0 1 0 1 0 1 0 
1 0 1 0 1 0 1 0 1 0 1 0 1 0 0 -13 
1 0 1 0 1 0 1 0 1 0 1 0 1 0 1 0 
1 0 1 0 0 -15 1 0 1 0 1 0 1 0 1 0 
1 0 1 0 1 0 1 0 0 -17 1 0 1 0 1 0 
1 0 1 0 1 0 1 0 1 0 1 0 1 0 1 0 
0 -19 1 0 1 0 1 0 1 0 1 0 1 0 1 0 
1 0 1 0 1 0 1 0 1 0 1 -20 1 0 1 0 
1 0 1 0 1 0 1 0 1 0 1 0 1 0 1 0 
0 -21 1 0 1 0 1 0 1 0 1 0 1 0 1 0 
1 0 1 0 1 0 1 0 0 -24 1 0 1 0 1 0 
1 0 1 0 1 0 1 0 1 0 1 0 1 0 1 0 
1 0 0 -25 1 0 1 0 1 0 1 0 1 0 1 0 
1 0 1 0 1 0 0 -26 1 0 1 0 1 0 1 0 
1 0 1 0 1 0 1472 655 300 MP stroke
1 0 1 0 1 0 0 -28 1 0 1 0 1 0 1 0 
1 0 1 0 1 0 1 0 1 0 1 0 1 0 1 0 
1 0 1 0 0 -29 1 0 1 0 1 0 1 0 1 0 
1 0 1 0 1 0 1 0 1 0 0 -30 1 0 1 0 
1 0 1 0 1 0 1 0 1 0 1 0 1 0 1 0 
0 -32 1 0 1 0 1 0 1 0 1 0 1 0 1 0 
1 0 1 0 1 0 1 0 0 -33 1 0 1 0 1 0 
1 0 1 0 1 0 1 0 1 0 1 0 1 0 1 0 
0 -35 1 0 1 0 1 0 1 0 1 0 1 0 1 0 
1 0 1 0 1 0 0 -35 1 0 1 0 1 0 1 0 
1 0 1 0 1 0 1 0 1 0 0 -37 1 0 1 0 
1 0 1 0 1 0 1 0 1 0 1 0 1 0 1 0 
1 0 0 -37 1 0 1 0 1 0 1 0 1 0 1 0 
1 0 1 0 1 0 1 0 1 0 1 0 0 -39 1 0 
1 0 1 0 1 0 1 0 1 0 1 0 1 0 1 0 
1 0 1 0 0 -39 1 0 1 0 1 0 1 0 1 0 
1 0 1 0 1 0 1 0 1 0 0 -40 1 0 1 0 
1 0 1 0 1 0 1 0 1 0 1 0 1 0 1 0 
1 0 0 -42 1 0 1 0 1 0 1 0 1 0 1 0 
1 0 1 0 1 0 1 0 0 -41 1 0 1 0 1 0 
1 0 1 0 1 0 1 0 1 0 1 0 1 0 0 -43 
1 0 1 0 1 0 1 0 1 0 1 0 1 0 1 0 
1 0 1 0 1 0 0 -43 1 0 1 0 1 0 1 0 
1 0 1 0 1 0 1 0 1 0 1 0 1 0 0 -44 
1 0 1 0 1 0 1 0 1 0 1 0 1 0 1 0 
1 0 1 0 1 0 0 -44 1 0 1 0 1 0 1 0 
1 0 1 0 1 0 1 0 1 0 1 0 1 0 0 -45 
1 0 1 0 1 0 1 0 1 0 1 0 1 0 1 0 
1 0 1 0 1 0 1 0 0 -45 1 0 1 0 1 0 
1 0 1 0 1 0 1 0 1 0 1 0 0 -45 1 0 
1 0 1 0 1 0 1 0 1 0 1 0 1 0 1 0 
1 0 1 0 1 0 0 -46 1 0 1 0 1 0 1 0 
1 0 1 0 1 0 1 0 1 0 1 0 1 0 0 -46 
1 0 1 0 1 0 1 0 1 0 1 0 1 0 1 0 
1 0 1 0 1 0 1 0 1 0 0 -46 1 0 1 0 
1 0 1 0 1 0 1 0 1 0 1 0 1 0 1 0 
0 -46 1 0 1 0 1 0 1 0 1 0 1 0 1 0 
1 0 1 0 1 0 1198 1645 300 MP stroke
1 0 1 0 1 0 1 0 0 -46 1 0 1 0 1 0 
1 0 1 0 1 0 1 0 1 0 1 0 1 0 1 0 
1 0 1 0 1 0 1 0 0 -46 1 0 1 0 1 0 
1 0 1 0 1 0 1 0 1 0 1 0 1 0 1 0 
1 0 1 0 1 0 0 -46 1 0 1 0 1 0 1 0 
1 0 1 0 1 0 1 0 1 0 1 0 1 0 1 0 
1 0 1 0 1 0 0 -46 1 0 1 0 1 0 1 0 
1 0 1 0 1 0 1 0 1 0 1 0 1 0 1 0 
1 0 1 0 1 0 1 0 0 -45 1 0 1 0 1 0 
1 0 1 0 1 0 1 0 1 0 1 0 1 0 1 0 
1 0 1 0 1 0 1 0 1 0 1 0 0 -46 1 0 
1 0 1 0 1 0 1 0 1 0 1 0 1 0 1 0 
1 0 1 0 1 0 1 0 1 0 1 0 0 -45 1 0 
1 0 1 0 1 0 1 0 1 0 1 0 1 0 1 0 
1 0 1 0 1 0 1 0 1 0 1 0 1 0 1 0 
1 0 1 0 1 0 1 0 1 0 0 -45 1 0 1 0 
1 0 1 0 1 0 1 0 1 0 1 0 1 0 1 0 
1 0 1 0 1 0 1 0 1 0 1 0 1 0 1 0 
1 0 1 0 1 0 1 0 1 0 1 0 2 0 1 0 
1 0 1 0 1 0 0 -45 1 0 1 0 1 0 1 0 
1 0 1 0 1 0 1 0 1 0 1 0 1 0 1 0 
1 0 1 0 1 0 1 0 1 0 1 0 1 0 1 0 
1 0 1 0 1 0 2 0 1 0 1 -44 1 0 1 0 
2 0 2 0 1 0 1 0 1 0 1 0 1 0 1 0 
1 0 1 0 3 0 1 0 1 0 1 0 1 0 1 0 
2 0 1 0 1 0 1 0 1 -44 1 0 1 0 1 0 
1 0 1 0 1 0 1 0 2 0 1 0 1 0 1 0 
1 0 1 0 1 0 1 0 1 0 1 0 2 0 1 0 
1 0 1 0 2 0 2 0 1 -43 1 0 1 0 1 0 
2 0 4 0 1 0 1 0 1 0 1 0 3 0 1 0 
2 0 1 0 2 0 6 0 1 0 1 0 2 0 2 0 
1 0 2 0 1 0 4 0 0 -43 7 0 8 0 2 0 
1 0 2 0 7 0 9 0 5 0 8 0 7 -42 7 0 
1 0 1 0 9 -41 46 0 19 0 786 2312 270 MP stroke
gr

24 w
c8
0 sg
2266 3877 mt 
(Path length [metric]) s
 449 2226 mt  -90 rotate
(Probability) s
90 rotate
1533  207 mt 
(Probability Density Function of the Path Length) s
6 w

end %%Color Dict

eplot
%%EndObject

epage
end

showpage

%%Trailer
%%EOF
