%!PS-Adobe-3.0 EPSF-3.0
%%Creator: MATLAB, The MathWorks, Inc. Version 8.3.0.532 (R2014a). Operating System: Linux 3.19.0-30-generic #34-Ubuntu SMP Fri Oct 2 22:08:41 UTC 2015 x86_64.
%%Title: /home/nicolai/Dropbox/Skole/7. Semester/ROVI/Projects/Robotics Mandatory 2/report/time_fitdist.eps
%%CreationDate: 10/13/2015  20:43:00
%%DocumentNeededFonts: Helvetica
%%DocumentProcessColors: Cyan Magenta Yellow Black
%%LanguageLevel: 2
%%Pages: 1
%%BoundingBox:  -315    67   928   724
%%EndComments

%%BeginProlog
% MathWorks dictionary
/MathWorks 160 dict begin
% definition operators
/bdef {bind def} bind def
/ldef {load def} bind def
/xdef {exch def} bdef
/xstore {exch store} bdef
% operator abbreviations
/c  /clip ldef
/cc /concat ldef
/cp /closepath ldef
/gr /grestore ldef
/gs /gsave ldef
/mt /moveto ldef
/np /newpath ldef
/cm /currentmatrix ldef
/sm /setmatrix ldef
/rm /rmoveto ldef
/rl /rlineto ldef
/s {show newpath} bdef
/sc {setcmykcolor} bdef
/sr /setrgbcolor ldef
/sg /setgray ldef
/w /setlinewidth ldef
/j /setlinejoin ldef
/cap /setlinecap ldef
/rc {rectclip} bdef
/rf {rectfill} bdef
% page state control
/pgsv () def
/bpage {/pgsv save def} bdef
/epage {pgsv restore} bdef
/bplot /gsave ldef
/eplot {stroke grestore} bdef
% orientation switch
/portraitMode 0 def /landscapeMode 1 def /rotateMode 2 def
% coordinate system mappings
/dpi2point 0 def
% font control
/FontSize 0 def
/FMS {/FontSize xstore findfont [FontSize 0 0 FontSize neg 0 0]
  makefont setfont} bdef
/reencode {exch dup where {pop load} {pop StandardEncoding} ifelse
  exch dup 3 1 roll findfont dup length dict begin
  { 1 index /FID ne {def}{pop pop} ifelse } forall
  /Encoding exch def currentdict end definefont pop} bdef
/isroman {findfont /CharStrings get /Agrave known} bdef
/FMSR {3 1 roll 1 index dup isroman {reencode} {pop pop} ifelse
  exch FMS} bdef
/csm {1 dpi2point div -1 dpi2point div scale neg translate
 dup landscapeMode eq {pop -90 rotate}
  {rotateMode eq {90 rotate} if} ifelse} bdef
% line types: solid, dotted, dashed, dotdash
/SO { [] 0 setdash } bdef
/DO { [.5 dpi2point mul 4 dpi2point mul] 0 setdash } bdef
/DA { [6 dpi2point mul] 0 setdash } bdef
/DD { [.5 dpi2point mul 4 dpi2point mul 6 dpi2point mul 4
  dpi2point mul] 0 setdash } bdef
% macros for lines and objects
/L {lineto stroke} bdef
/MP {3 1 roll moveto 1 sub {rlineto} repeat} bdef
/AP {{rlineto} repeat} bdef
/PDlw -1 def
/W {/PDlw currentlinewidth def setlinewidth} def
/PP {closepath eofill} bdef
/DP {closepath stroke} bdef
/MR {4 -2 roll moveto dup  0 exch rlineto exch 0 rlineto
  neg 0 exch rlineto closepath} bdef
/FR {MR stroke} bdef
/PR {MR fill} bdef
/L1i {{currentfile picstr readhexstring pop} image} bdef
/tMatrix matrix def
/MakeOval {newpath tMatrix currentmatrix pop translate scale
0 0 1 0 360 arc tMatrix setmatrix} bdef
/FO {MakeOval stroke} bdef
/PO {MakeOval fill} bdef
/PD {currentlinewidth 2 div 0 360 arc fill
   PDlw -1 eq not {PDlw w /PDlw -1 def} if} def
/FA {newpath tMatrix currentmatrix pop translate scale
  0 0 1 5 -2 roll arc tMatrix setmatrix stroke} bdef
/PA {newpath tMatrix currentmatrix pop	translate 0 0 moveto scale
  0 0 1 5 -2 roll arc closepath tMatrix setmatrix fill} bdef
/FAn {newpath tMatrix currentmatrix pop translate scale
  0 0 1 5 -2 roll arcn tMatrix setmatrix stroke} bdef
/PAn {newpath tMatrix currentmatrix pop translate 0 0 moveto scale
  0 0 1 5 -2 roll arcn closepath tMatrix setmatrix fill} bdef
/vradius 0 def /hradius 0 def /lry 0 def
/lrx 0 def /uly 0 def /ulx 0 def /rad 0 def
/MRR {/vradius xdef /hradius xdef /lry xdef /lrx xdef /uly xdef
  /ulx xdef newpath tMatrix currentmatrix pop ulx hradius add uly
  vradius add translate hradius vradius scale 0 0 1 180 270 arc 
  tMatrix setmatrix lrx hradius sub uly vradius add translate
  hradius vradius scale 0 0 1 270 360 arc tMatrix setmatrix
  lrx hradius sub lry vradius sub translate hradius vradius scale
  0 0 1 0 90 arc tMatrix setmatrix ulx hradius add lry vradius sub
  translate hradius vradius scale 0 0 1 90 180 arc tMatrix setmatrix
  closepath} bdef
/FRR {MRR stroke } bdef
/PRR {MRR fill } bdef
/MlrRR {/lry xdef /lrx xdef /uly xdef /ulx xdef /rad lry uly sub 2 div def
  newpath tMatrix currentmatrix pop ulx rad add uly rad add translate
  rad rad scale 0 0 1 90 270 arc tMatrix setmatrix lrx rad sub lry rad
  sub translate rad rad scale 0 0 1 270 90 arc tMatrix setmatrix
  closepath} bdef
/FlrRR {MlrRR stroke } bdef
/PlrRR {MlrRR fill } bdef
/MtbRR {/lry xdef /lrx xdef /uly xdef /ulx xdef /rad lrx ulx sub 2 div def
  newpath tMatrix currentmatrix pop ulx rad add uly rad add translate
  rad rad scale 0 0 1 180 360 arc tMatrix setmatrix lrx rad sub lry rad
  sub translate rad rad scale 0 0 1 0 180 arc tMatrix setmatrix
  closepath} bdef
/FtbRR {MtbRR stroke } bdef
/PtbRR {MtbRR fill } bdef
/stri 6 array def /dtri 6 array def
/smat 6 array def /dmat 6 array def
/tmat1 6 array def /tmat2 6 array def /dif 3 array def
/asub {/ind2 exch def /ind1 exch def dup dup
  ind1 get exch ind2 get sub exch } bdef
/tri_to_matrix {
  2 0 asub 3 1 asub 4 0 asub 5 1 asub
  dup 0 get exch 1 get 7 -1 roll astore } bdef
/compute_transform {
  dmat dtri tri_to_matrix tmat1 invertmatrix 
  smat stri tri_to_matrix tmat2 concatmatrix } bdef
/ds {stri astore pop} bdef
/dt {dtri astore pop} bdef
/db {2 copy /cols xdef /rows xdef mul dup 3 mul string
  currentfile 
  3 index 0 eq {/ASCIIHexDecode filter}
  {/ASCII85Decode filter 3 index 2 eq {/RunLengthDecode filter} if }
  ifelse exch readstring pop
  dup 0 3 index getinterval /rbmap xdef
  dup 2 index dup getinterval /gbmap xdef
  1 index dup 2 mul exch getinterval /bbmap xdef pop pop}bdef
/it {gs np dtri aload pop moveto lineto lineto cp c
  cols rows 8 compute_transform 
  rbmap gbmap bbmap true 3 colorimage gr}bdef
/il {newpath moveto lineto stroke}bdef
currentdict end def
%%EndProlog

%%BeginSetup
MathWorks begin

0 cap

end
%%EndSetup

%%Page: 1 1
%%BeginPageSetup
%%PageBoundingBox:  -315    67   928   724
MathWorks begin
bpage
%%EndPageSetup

%%BeginObject: obj1
bplot

/dpi2point 12 def
portraitMode -3780 8688 csm

    0     0 14927  7882 rc
85 dict begin %Colortable dictionary
/c0 { 0.000000 0.000000 0.000000 sr} bdef
/c1 { 1.000000 1.000000 1.000000 sr} bdef
/c2 { 0.900000 0.000000 0.000000 sr} bdef
/c3 { 0.000000 0.820000 0.000000 sr} bdef
/c4 { 0.000000 0.000000 0.800000 sr} bdef
/c5 { 0.910000 0.820000 0.320000 sr} bdef
/c6 { 1.000000 0.260000 0.820000 sr} bdef
/c7 { 0.000000 0.820000 0.820000 sr} bdef
c0
1 j
1 sg
   0    0 14928 7883 rf
6 w
0 6425 11568 0 0 -6425 1941 7015 4 MP
PP
-11568 0 0 6425 11568 0 0 -6425 1941 7015 5 MP stroke
4 w
DO
SO
6 w
0 sg
1941 7015 mt 13509 7015 L
1941  590 mt 13509  590 L
1941 7015 mt 1941  590 L
13509 7015 mt 13509  590 L
1941 7015 mt 13509 7015 L
1941 7015 mt 1941  590 L
1941 7015 mt 1941 6899 L
1941  591 mt 1941  706 L
%%IncludeResource: font Helvetica
/Helvetica /ISOLatin1Encoding 120 FMSR

1908 7160 mt 
(0) s
3097 7015 mt 3097 6899 L
3097  591 mt 3097  706 L
2981 7160 mt 
(0.05) s
4254 7015 mt 4254 6899 L
4254  591 mt 4254  706 L
4171 7160 mt 
(0.1) s
5411 7015 mt 5411 6899 L
5411  591 mt 5411  706 L
5295 7160 mt 
(0.15) s
6568 7015 mt 6568 6899 L
6568  591 mt 6568  706 L
6485 7160 mt 
(0.2) s
7725 7015 mt 7725 6899 L
7725  591 mt 7725  706 L
7609 7160 mt 
(0.25) s
8881 7015 mt 8881 6899 L
8881  591 mt 8881  706 L
8798 7160 mt 
(0.3) s
10038 7015 mt 10038 6899 L
10038  591 mt 10038  706 L
9922 7160 mt 
(0.35) s
11195 7015 mt 11195 6899 L
11195  591 mt 11195  706 L
11112 7160 mt 
(0.4) s
12352 7015 mt 12352 6899 L
12352  591 mt 12352  706 L
12236 7160 mt 
(0.45) s
13509 7015 mt 13509 6899 L
13509  591 mt 13509  706 L
13426 7160 mt 
(0.5) s
1941 7015 mt 2056 7015 L
13509 7015 mt 13393 7015 L
1840 7059 mt 
(0) s
1941 6372 mt 2056 6372 L
13509 6372 mt 13393 6372 L
1840 6416 mt 
(1) s
1941 5730 mt 2056 5730 L
13509 5730 mt 13393 5730 L
1840 5774 mt 
(2) s
1941 5087 mt 2056 5087 L
13509 5087 mt 13393 5087 L
1840 5131 mt 
(3) s
1941 4445 mt 2056 4445 L
13509 4445 mt 13393 4445 L
1840 4489 mt 
(4) s
1941 3803 mt 2056 3803 L
13509 3803 mt 13393 3803 L
1840 3847 mt 
(5) s
1941 3160 mt 2056 3160 L
13509 3160 mt 13393 3160 L
1840 3204 mt 
(6) s
1941 2518 mt 2056 2518 L
13509 2518 mt 13393 2518 L
1840 2562 mt 
(7) s
1941 1875 mt 2056 1875 L
13509 1875 mt 13393 1875 L
1840 1919 mt 
(8) s
1941 1233 mt 2056 1233 L
13509 1233 mt 13393 1233 L
1840 1277 mt 
(9) s
1941  591 mt 2056  591 L
13509  591 mt 13393  591 L
1773  635 mt 
(10) s
1941 7015 mt 13509 7015 L
1941  590 mt 13509  590 L
1941 7015 mt 1941  590 L
13509 7015 mt 13509  590 L
gs 1941 591 11569 6425 rc
24 w
/c8 { 0.000000 0.000000 1.000000 sr} bdef
c8
1736 1 439 0 1018 0 301 0 370 0 648 0 23 0 46 0 
47 0 23 0 138 0 24 0 23 0 46 0 69 0 209 0 
69 0 69 0 24 0 46 0 92 0 24 0 23 0 23 0 
23 0 46 0 23 0 23 0 24 1 23 0 69 0 23 0 
47 1 46 0 46 1 23 0 47 1 23 0 23 0 23 1 
23 0 23 1 23 0 23 1 24 1 23 1 23 0 23 1 
23 1 23 1 23 1 24 2 23 1 23 1 23 2 23 1 
23 2 23 2 24 2 23 2 23 3 23 2 23 3 23 3 
23 3 23 3 24 4 23 4 23 4 23 4 23 5 23 5 
23 5 24 6 23 6 23 6 23 7 23 7 23 8 23 8 
24 8 23 9 23 10 23 10 23 11 23 12 23 12 23 12 
24 14 23 14 23 15 23 16 23 16 23 18 23 18 24 19 
23 20 23 21 23 22 23 23 23 25 23 25 24 26 23 28 
23 29 23 30 23 31 23 33 23 34 23 35 24 36 23 38 
23 40 23 41 23 42 23 44 23 45 24 47 23 49 23 50 
23 52 23 53 23 54 23 57 24 58 23 59 23 62 23 62 
23 65 23 65 23 68 23 69 24 70 23 72 23 74 23 74 
23 76 23 78 23 79 24 80 23 81 23 82 23 84 23 84 
23 85 23 86 23 87 24 88 23 88 23 89 23 89 23 90 
23 90 23 90 24 90 23 90 23 90 23 89 23 90 23 88 
23 89 24 87 23 87 23 85 23 85 23 83 23 82 23 81 
23 79 24 78 23 75 23 74 23 72 23 70 23 67 23 65 
24 63 23 60 23 57 23 55 23 52 23 49 23 46 24 43 
23 40 23 37 23 33 23 30 23 27 23 23 23 20 24 16 
23 13 23 9 23 6 23 2 23 -1 23 -5 24 -9 23 -12 
23 -16 23 -19 23 -23 23 -26 23 -29 24 -33 23 -36 23 -39 
23 -43 23 -45 23 -49 23 -51 23 -54 24 -57 23 -60 23 -62 
23 -65 23 -67 23 -69 23 -72 24 -73 23 -75 23 -78 23 -78 
23 -81 23 -82 23 -83 24 -84 23 -86 23 -86 23 -87 23 -88 
23 -89 23 -89 23 -90 24 -90 23 -90 23 -90 23 -90 23 -90 
23 -89 23 -90 24 -89 23 -88 23 -88 23 -87 23 -86 23 -86 
23 -84 24 -84 23 -82 23 -82 2403 4521 253 MP stroke
gr

24 w
c8
0 sg
7237 7303 mt 
(Computation Time) s
1691 4084 mt  -90 rotate
(Probability) s
90 rotate
6912  496 mt 
(Histogram of computation time) s
6 w

end %%Color Dict

eplot
%%EndObject

epage
end

showpage

%%Trailer
%%EOF
