%!PS-Adobe-2.0 EPSF-1.2
%%Creator: MATLAB, The MathWorks, Inc. Version 8.3.0.532 (R2014a). Operating System: Linux 3.19.0-39-generic #44-Ubuntu SMP Tue Dec 1 14:39:05 UTC 2015 x86_64.
%%Title: ./jvn_slow.eps
%%CreationDate: 12/17/2015  18:45:34
%%DocumentNeededFonts: Helvetica
%%DocumentProcessColors: Cyan Magenta Yellow Black
%%Extensions: CMYK
%%Pages: 1
%%BoundingBox:    40   191   551   612
%%EndComments

%%BeginProlog
% MathWorks dictionary
/MathWorks 160 dict begin
% definition operators
/bdef {bind def} bind def
/ldef {load def} bind def
/xdef {exch def} bdef
/xstore {exch store} bdef
% operator abbreviations
/c  /clip ldef
/cc /concat ldef
/cp /closepath ldef
/gr /grestore ldef
/gs /gsave ldef
/mt /moveto ldef
/np /newpath ldef
/cm /currentmatrix ldef
/sm /setmatrix ldef
/rm /rmoveto ldef
/rl /rlineto ldef
/s {show newpath} bdef
/sc {setcmykcolor} bdef
/sr /setrgbcolor ldef
/sg /setgray ldef
/w /setlinewidth ldef
/j /setlinejoin ldef
/cap /setlinecap ldef
/rc {rectclip} bdef
/rf {rectfill} bdef
% page state control
/pgsv () def
/bpage {/pgsv save def} bdef
/epage {pgsv restore} bdef
/bplot /gsave ldef
/eplot {stroke grestore} bdef
% orientation switch
/portraitMode 0 def /landscapeMode 1 def /rotateMode 2 def
% coordinate system mappings
/dpi2point 0 def
% font control
/FontSize 0 def
/FMS {/FontSize xstore findfont [FontSize 0 0 FontSize neg 0 0]
  makefont setfont} bdef
/reencode {exch dup where {pop load} {pop StandardEncoding} ifelse
  exch dup 3 1 roll findfont dup length dict begin
  { 1 index /FID ne {def}{pop pop} ifelse } forall
  /Encoding exch def currentdict end definefont pop} bdef
/isroman {findfont /CharStrings get /Agrave known} bdef
/FMSR {3 1 roll 1 index dup isroman {reencode} {pop pop} ifelse
  exch FMS} bdef
/csm {1 dpi2point div -1 dpi2point div scale neg translate
 dup landscapeMode eq {pop -90 rotate}
  {rotateMode eq {90 rotate} if} ifelse} bdef
% line types: solid, dotted, dashed, dotdash
/SO { [] 0 setdash } bdef
/DO { [.5 dpi2point mul 4 dpi2point mul] 0 setdash } bdef
/DA { [6 dpi2point mul] 0 setdash } bdef
/DD { [.5 dpi2point mul 4 dpi2point mul 6 dpi2point mul 4
  dpi2point mul] 0 setdash } bdef
% macros for lines and objects
/L {lineto stroke} bdef
/MP {3 1 roll moveto 1 sub {rlineto} repeat} bdef
/AP {{rlineto} repeat} bdef
/PDlw -1 def
/W {/PDlw currentlinewidth def setlinewidth} def
/PP {closepath eofill} bdef
/DP {closepath stroke} bdef
/MR {4 -2 roll moveto dup  0 exch rlineto exch 0 rlineto
  neg 0 exch rlineto closepath} bdef
/FR {MR stroke} bdef
/PR {MR fill} bdef
/L1i {{currentfile picstr readhexstring pop} image} bdef
/tMatrix matrix def
/MakeOval {newpath tMatrix currentmatrix pop translate scale
0 0 1 0 360 arc tMatrix setmatrix} bdef
/FO {MakeOval stroke} bdef
/PO {MakeOval fill} bdef
/PD {currentlinewidth 2 div 0 360 arc fill
   PDlw -1 eq not {PDlw w /PDlw -1 def} if} def
/FA {newpath tMatrix currentmatrix pop translate scale
  0 0 1 5 -2 roll arc tMatrix setmatrix stroke} bdef
/PA {newpath tMatrix currentmatrix pop	translate 0 0 moveto scale
  0 0 1 5 -2 roll arc closepath tMatrix setmatrix fill} bdef
/FAn {newpath tMatrix currentmatrix pop translate scale
  0 0 1 5 -2 roll arcn tMatrix setmatrix stroke} bdef
/PAn {newpath tMatrix currentmatrix pop translate 0 0 moveto scale
  0 0 1 5 -2 roll arcn closepath tMatrix setmatrix fill} bdef
/vradius 0 def /hradius 0 def /lry 0 def
/lrx 0 def /uly 0 def /ulx 0 def /rad 0 def
/MRR {/vradius xdef /hradius xdef /lry xdef /lrx xdef /uly xdef
  /ulx xdef newpath tMatrix currentmatrix pop ulx hradius add uly
  vradius add translate hradius vradius scale 0 0 1 180 270 arc 
  tMatrix setmatrix lrx hradius sub uly vradius add translate
  hradius vradius scale 0 0 1 270 360 arc tMatrix setmatrix
  lrx hradius sub lry vradius sub translate hradius vradius scale
  0 0 1 0 90 arc tMatrix setmatrix ulx hradius add lry vradius sub
  translate hradius vradius scale 0 0 1 90 180 arc tMatrix setmatrix
  closepath} bdef
/FRR {MRR stroke } bdef
/PRR {MRR fill } bdef
/MlrRR {/lry xdef /lrx xdef /uly xdef /ulx xdef /rad lry uly sub 2 div def
  newpath tMatrix currentmatrix pop ulx rad add uly rad add translate
  rad rad scale 0 0 1 90 270 arc tMatrix setmatrix lrx rad sub lry rad
  sub translate rad rad scale 0 0 1 270 90 arc tMatrix setmatrix
  closepath} bdef
/FlrRR {MlrRR stroke } bdef
/PlrRR {MlrRR fill } bdef
/MtbRR {/lry xdef /lrx xdef /uly xdef /ulx xdef /rad lrx ulx sub 2 div def
  newpath tMatrix currentmatrix pop ulx rad add uly rad add translate
  rad rad scale 0 0 1 180 360 arc tMatrix setmatrix lrx rad sub lry rad
  sub translate rad rad scale 0 0 1 0 180 arc tMatrix setmatrix
  closepath} bdef
/FtbRR {MtbRR stroke } bdef
/PtbRR {MtbRR fill } bdef
/stri 6 array def /dtri 6 array def
/smat 6 array def /dmat 6 array def
/tmat1 6 array def /tmat2 6 array def /dif 3 array def
/asub {/ind2 exch def /ind1 exch def dup dup
  ind1 get exch ind2 get sub exch } bdef
/tri_to_matrix {
  2 0 asub 3 1 asub 4 0 asub 5 1 asub
  dup 0 get exch 1 get 7 -1 roll astore } bdef
/compute_transform {
  dmat dtri tri_to_matrix tmat1 invertmatrix 
  smat stri tri_to_matrix tmat2 concatmatrix } bdef
/ds {stri astore pop} bdef
/dt {dtri astore pop} bdef
/db {2 copy /cols xdef /rows xdef mul dup 3 mul string
  currentfile exch readhexstring pop
  dup 0 3 index getinterval /rbmap xdef
  dup 2 index dup getinterval /gbmap xdef
  1 index dup 2 mul exch getinterval /bbmap xdef pop pop}bdef
/it {gs np dtri aload pop moveto lineto lineto cp c
  cols rows 8 compute_transform 
  rbmap gbmap bbmap true 3 colorimage gr}bdef
/il {newpath moveto lineto stroke}bdef
currentdict end def
%%EndProlog

%%BeginSetup
MathWorks begin

0 cap

end
%%EndSetup

%%Page: 1 1
%%BeginPageSetup
%%PageBoundingBox:    40   191   551   612
MathWorks begin
bpage
%%EndPageSetup

%%BeginObject: obj1
bplot

/dpi2point 12 def
portraitMode 0216 7344 csm

  265    -1  6132  5046 MR c np
89 dict begin %Colortable dictionary
/c0 { 0.000000 0.000000 0.000000 sr} bdef
/c1 { 1.000000 1.000000 1.000000 sr} bdef
/c2 { 0.900000 0.000000 0.000000 sr} bdef
/c3 { 0.000000 0.820000 0.000000 sr} bdef
/c4 { 0.000000 0.000000 0.800000 sr} bdef
/c5 { 0.910000 0.820000 0.320000 sr} bdef
/c6 { 1.000000 0.260000 0.820000 sr} bdef
/c7 { 0.000000 0.820000 0.820000 sr} bdef
c0
1 j
1 sg
   0    0 6913 5186 PR
6 w
0 4226 5356 0 0 -4226 899 4614 4 MP
PP
-5356 0 0 4226 5356 0 0 -4226 899 4614 5 MP stroke
4 w
DO
SO
6 w
0 sg
 899 4614 mt 6255 4614 L
 899  388 mt 6255  388 L
 899 4614 mt  899  388 L
6255 4614 mt 6255  388 L
 899 4614 mt 6255 4614 L
 899 4614 mt  899  388 L
 899 4614 mt  899 4561 L
 899  388 mt  899  442 L
%%IncludeResource: font Helvetica
/Helvetica /ISOLatin1Encoding 168 FMSR

 853 4805 mt 
(0) s
1970 4614 mt 1970 4561 L
1970  388 mt 1970  442 L
1877 4805 mt 
(10) s
3041 4614 mt 3041 4561 L
3041  388 mt 3041  442 L
2948 4805 mt 
(20) s
4112 4614 mt 4112 4561 L
4112  388 mt 4112  442 L
4019 4805 mt 
(30) s
5183 4614 mt 5183 4561 L
5183  388 mt 5183  442 L
5090 4805 mt 
(40) s
6255 4614 mt 6255 4561 L
6255  388 mt 6255  442 L
6162 4805 mt 
(50) s
 899 4614 mt  952 4614 L
6255 4614 mt 6201 4614 L
 538 4676 mt 
(0.46) s
 899 3910 mt  952 3910 L
6255 3910 mt 6201 3910 L
 538 3972 mt 
(0.48) s
 899 3206 mt  952 3206 L
6255 3206 mt 6201 3206 L
 631 3268 mt 
(0.5) s
 899 2502 mt  952 2502 L
6255 2502 mt 6201 2502 L
 538 2564 mt 
(0.52) s
 899 1797 mt  952 1797 L
6255 1797 mt 6201 1797 L
 538 1859 mt 
(0.54) s
 899 1093 mt  952 1093 L
6255 1093 mt 6201 1093 L
 538 1155 mt 
(0.56) s
 899  388 mt  952  388 L
6255  388 mt 6201  388 L
 538  450 mt 
(0.58) s
 899 4614 mt 6255 4614 L
 899  388 mt 6255  388 L
 899 4614 mt  899  388 L
6255 4614 mt 6255  388 L
gs 899 388 5357 4227 MR c np
11 -36 11 20 10 26 11 -61 11 80 10 -82 11 47 11 -1 
11 21 10 -57 11 34 11 21 10 -71 11 96 11 -62 11 -336 
10 646 11 -241 11 -58 10 -329 11 628 11 -267 11 -366 10 633 
11 -266 11 -88 10 -198 11 552 11 -319 11 36 10 -38 11 38 
11 -42 10 51 11 -99 11 -50 11 17 10 406 11 -317 11 -261 
10 578 11 -316 11 26 11 36 10 -357 11 611 11 -588 10 588 
11 -330 11 -6 11 127 10 -113 11 50 11 -11 10 -52 11 33 
11 14 11 -12 10 12 11 -12 11 -1 10 14 11 -8 11 -311 
10 606 11 -293 11 -3 11 -9 10 -2 11 -287 11 594 10 -260 
11 -75 11 30 11 38 10 -68 11 -8 11 62 10 7 11 -26 
11 34 11 -66 10 59 11 -26 11 -16 10 17 11 -9 11 -32 
11 42 10 46 11 -46 11 -39 10 55 11 -57 11 66 11 -64 
10 63 11 -30 11 303 5183 3206 100 MP stroke
10 0 11 0 11 0 11 0 10 0 11 0 11 0 10 0 
11 0 11 0 11 0 10 0 11 0 11 0 10 0 11 0 
11 0 11 0 10 0 11 0 11 0 10 0 11 0 11 0 
10 0 11 0 11 0 11 0 10 0 11 0 11 0 10 0 
11 0 11 0 11 0 10 0 11 0 11 0 10 0 11 0 
11 0 11 0 10 0 11 0 11 0 10 0 11 0 11 0 
11 0 10 0 11 0 11 0 10 0 11 0 11 0 11 0 
10 0 11 0 11 0 10 0 11 0 11 0 11 0 10 0 
11 0 11 0 10 0 11 0 11 0 11 0 10 0 11 0 
11 0 10 0 11 0 11 0 11 0 10 0 11 0 11 0 
10 0 11 0 11 0 11 0 10 0 11 0 11 0 10 0 
11 0 11 0 10 0 11 0 11 0 11 0 10 0 11 0 
11 0 10 0 11 -7 4123 3213 100 MP stroke
11 352 11 -345 10 189 11 -38 11 4 10 -7 11 11 11 -10 
11 3 10 4 11 27 11 -26 10 -3 11 -4 11 48 11 -54 
10 47 11 -73 11 73 10 -39 11 46 11 77 11 -275 10 209 
11 107 11 -316 10 164 11 17 11 -20 11 -7 10 34 11 -32 
11 -3 10 4 11 216 11 -373 11 229 10 -67 11 20 11 136 
10 -318 11 188 11 -31 11 187 10 -344 11 177 11 -8 10 -11 
11 53 11 -82 10 70 11 17 11 -74 11 57 10 -80 11 102 
11 -39 10 -22 11 33 11 -39 11 27 10 6 11 -11 11 11 
10 -16 11 5 11 11 11 19 10 -65 11 40 11 0 10 -31 
11 67 11 -37 11 -10 10 186 11 -356 11 169 10 201 11 -370 
11 156 11 71 10 -77 11 236 11 -386 10 150 11 29 11 6 
11 -12 10 1 11 -18 11 23 10 27 11 -27 11 -6 11 -23 
10 29 11 25 11 -31 3062 3033 100 MP stroke
10 -17 11 -211 11 4 11 -126 10 177 11 -66 11 23 10 -65 
11 64 11 2 11 -60 10 37 11 -40 11 -20 10 125 11 -114 
11 114 10 -74 11 23 11 -47 11 47 10 -40 11 37 11 3 
10 -33 11 33 11 -36 11 26 10 10 11 -45 11 54 10 -50 
11 50 11 -53 11 -20 10 115 11 -83 11 23 10 -23 11 31 
11 -94 11 146 10 -72 11 31 11 -42 10 18 11 6 11 -17 
11 3 10 22 11 -14 11 -25 10 25 11 -17 11 41 11 -41 
10 12 11 -3 11 9 10 -2 11 -23 11 41 11 -52 10 45 
11 -13 11 5 10 -28 11 28 11 -86 11 149 10 -42 11 -54 
11 29 10 11 11 -10 11 -16 10 11 11 -11 11 15 11 1 
10 -21 11 21 11 -16 10 0 11 39 11 -39 11 0 10 11 
11 -24 11 37 10 -7 11 -37 11 50 11 -18 10 -12 11 0 
11 18 10 -11 11 -7 2002 3288 100 MP stroke
11 -7 11 48 10 -140 11 22 11 -6 10 2 11 -19 11 50 
11 -239 10 371 11 -155 11 -15 10 -33 11 68 11 -8 11 -49 
10 26 11 -32 11 31 10 11 11 0 11 -36 11 16 10 18 
11 -4 11 -31 10 4 11 38 11 -38 11 -1 10 -167 11 357 
11 -195 10 47 11 -47 11 31 11 -188 10 352 11 -202 11 24 
10 -17 11 26 11 -12 10 2 11 -23 11 36 11 -46 10 27 
11 18 11 -46 10 60 11 -32 11 -29 11 28 10 -167 11 353 
11 -203 10 4 11 11 11 -14 11 17 10 -3 11 1 11 0 
10 -16 11 32 11 -251 11 422 10 -172 11 -18 11 -13 10 15 
11 -1 11 0 11 -16 10 0 11 0 11 48 10 -62 11 42 
11 -43 11 45 10 -45 11 46 11 -46 10 26 11 -7 11 -181 
11 382 10 -202 11 -10 11 10 10 21 11 -6 11 -34 11 34 
10 -21 11 21 11 -22 941 3415 100 MP stroke
10 11 11 12 11 135 10 51 899 3206 5 MP stroke
/c8 { 0.000000 0.000000 1.000000 sr} bdef
c8
11 484 11 -324 10 -158 11 316 11 -479 10 643 11 -486 11 4 
11 164 10 -176 11 175 11 -164 10 318 11 -637 11 481 11 553 
10 -1127 11 92 11 485 10 390 11 -967 11 257 11 711 10 -968 
11 252 11 476 10 -231 11 -497 11 404 11 -155 10 322 11 -159 
11 -171 10 16 11 297 11 -220 11 189 10 -523 11 248 11 242 
10 -490 11 412 11 -164 11 -155 10 222 11 -315 11 659 10 -659 
11 404 11 3 11 -790 10 795 11 -324 11 1 10 316 11 -319 
11 5 11 159 10 -159 11 158 11 -165 10 170 11 -161 11 62 
10 -155 11 256 11 -330 11 324 10 -166 11 83 11 -167 10 -64 
11 310 11 -164 11 -144 10 306 11 3 11 -481 10 316 11 7 
11 -154 11 -16 10 338 11 -490 11 648 10 -484 11 159 11 -5 
11 -155 10 8 11 -174 11 486 10 -149 11 -184 11 25 11 140 
10 -306 11 153 11 71 5183 3206 100 MP stroke
10 0 11 0 11 0 11 0 10 0 11 0 11 0 10 0 
11 0 11 0 11 0 10 0 11 0 11 0 10 0 11 0 
11 0 11 0 10 0 11 0 11 0 10 0 11 0 11 0 
10 0 11 0 11 0 11 0 10 0 11 0 11 0 10 0 
11 0 11 0 11 0 10 0 11 0 11 0 10 0 11 0 
11 0 11 0 10 0 11 0 11 0 10 0 11 0 11 0 
11 0 10 0 11 0 11 0 10 0 11 0 11 0 11 0 
10 0 11 0 11 0 10 0 11 0 11 0 11 0 10 0 
11 0 11 0 10 0 11 0 11 0 11 0 10 0 11 0 
11 0 10 0 11 0 11 0 11 0 10 0 11 0 11 0 
10 0 11 0 11 0 11 0 10 0 11 0 11 0 10 0 
11 0 11 0 10 0 11 0 11 0 11 0 10 0 11 0 
11 0 10 0 11 156 4123 3050 100 MP stroke
11 -121 11 -35 10 -76 11 323 11 -319 10 156 11 8 11 -8 
11 164 10 -319 11 161 11 -161 10 319 11 -163 11 -315 11 481 
10 -326 11 165 11 -165 10 171 11 -326 11 581 11 -351 10 -241 
11 431 11 -190 10 94 11 -166 11 3 11 155 10 -312 11 -7 
11 638 10 -637 11 105 11 127 11 -237 10 168 11 -3 11 98 
10 -26 11 -227 11 313 11 -218 10 132 11 -235 11 329 10 -327 
11 151 11 174 10 -323 11 -320 11 795 11 -475 10 315 11 -474 
11 -1 10 795 11 -798 11 327 11 -19 10 -143 11 -8 11 8 
10 -9 11 317 11 -308 11 -486 10 1279 11 -956 11 -1 10 469 
11 -469 11 0 11 309 10 -377 11 461 11 -85 10 -381 11 466 
11 -81 11 -634 10 789 11 -1016 11 942 10 74 11 -470 11 468 
11 -631 10 317 11 159 11 -314 10 141 11 -142 11 155 11 -4 
10 166 11 -492 11 329 3062 3450 100 MP stroke
10 -160 11 557 11 -151 11 299 10 -301 11 160 11 -480 10 805 
11 -805 11 322 11 323 10 -654 11 814 11 -501 10 16 11 -9 
11 9 10 -1 11 3 11 158 11 -158 10 -172 11 175 11 -3 
10 154 11 -154 11 165 11 -172 10 -158 11 327 11 -162 10 -172 
11 14 11 641 11 -656 10 171 11 -3 11 -1 10 1 11 333 
11 -844 11 514 10 164 11 -162 11 -5 10 8 11 -9 11 -156 
11 158 10 5 11 2 11 -15 10 15 11 -8 11 5 11 -5 
10 167 11 -166 11 -161 10 168 11 -15 11 -146 11 313 10 -320 
11 327 11 -485 10 638 11 -638 11 301 11 20 10 162 11 -489 
11 491 10 -327 11 168 11 -8 10 1 11 -1 11 -318 11 485 
10 -332 11 332 11 -167 10 0 11 -154 11 154 11 0 10 -318 
11 477 11 -319 10 327 11 -491 11 330 11 -5 10 -1 11 0 
11 167 10 -325 11 158 2002 3209 100 MP stroke
11 -326 11 331 10 344 11 -169 11 327 10 7 11 -165 11 -179 
11 371 10 -538 11 338 11 10 10 -169 11 481 11 -479 11 -6 
10 334 11 -652 11 651 10 -14 11 -150 11 -162 11 -2 10 313 
11 -311 11 0 10 160 11 -176 11 175 11 0 10 30 11 -371 
11 180 10 147 11 -147 11 1 11 669 10 -850 11 -146 11 489 
10 -13 11 -311 11 157 10 323 11 -646 11 326 11 160 10 -324 
11 163 11 160 10 -15 11 -308 11 322 11 -323 10 503 11 -517 
11 15 10 319 11 -480 11 320 11 164 10 -334 11 173 11 -165 
10 161 11 2 11 13 11 -188 10 174 11 -8 11 -468 10 798 
11 -654 11 493 11 -165 10 -159 11 0 11 -9 10 12 11 314 
11 -314 11 148 10 -149 11 -11 11 11 10 309 11 -628 11 482 
11 -176 10 -148 11 470 11 -471 10 473 11 -478 11 164 11 -164 
10 318 11 -319 11 319 941 3042 100 MP stroke
10 -482 11 182 11 -500 10 636 899 3206 5 MP stroke
/c9 { 1.000000 0.000000 0.000000 sr} bdef
c9
11 -47 11 20 10 37 11 -42 11 41 10 -61 11 57 11 0 
11 -44 10 62 11 -37 11 -2 10 -11 11 71 11 -65 11 -57 
10 143 11 -52 11 -24 10 -67 11 143 11 -47 11 -93 10 140 
11 -45 11 -40 10 -12 11 97 11 -56 11 4 10 -27 11 5 
11 42 10 -12 11 -20 11 -21 11 -2 10 87 11 -23 11 -74 
10 97 11 -44 11 -4 11 2 10 2 11 44 11 -119 10 119 
11 -48 11 -3 11 60 10 -50 11 -13 11 39 10 -33 11 22 
11 8 11 -29 10 30 11 -29 11 22 10 -14 11 19 11 -29 
10 48 11 -40 11 43 11 -50 10 22 11 -12 11 37 10 -20 
11 3 11 -7 11 0 10 8 11 -4 11 9 10 -7 11 -1 
11 -5 11 53 10 -99 11 93 11 -93 10 74 11 -26 11 27 
11 0 10 -65 11 83 11 -36 10 -39 11 77 11 -52 11 34 
10 -16 11 8 11 1 5183 3206 100 MP stroke
10 0 11 0 11 0 11 0 10 0 11 0 11 0 10 0 
11 0 11 0 11 0 10 0 11 0 11 0 10 0 11 0 
11 0 11 0 10 0 11 0 11 0 10 0 11 0 11 0 
10 0 11 0 11 0 11 0 10 0 11 0 11 0 10 0 
11 0 11 0 11 0 10 0 11 0 11 0 10 0 11 0 
11 0 11 0 10 0 11 0 11 0 10 0 11 0 11 0 
11 0 10 0 11 0 11 0 10 0 11 0 11 0 11 0 
10 0 11 0 11 0 10 0 11 0 11 0 11 0 10 0 
11 0 11 0 10 0 11 0 11 0 11 0 10 0 11 0 
11 0 10 0 11 0 11 0 11 0 10 0 11 0 11 0 
10 0 11 0 11 0 11 0 10 0 11 0 11 0 10 0 
11 0 11 0 10 0 11 0 11 0 11 0 10 0 11 0 
11 0 10 0 11 -24 4123 3230 100 MP stroke
11 213 11 -189 10 91 11 -17 11 42 10 -24 11 6 11 -6 
11 -19 10 44 11 -51 11 51 10 -45 11 19 11 26 11 -52 
10 26 11 26 11 -26 10 0 11 26 11 69 11 -186 10 79 
11 107 11 -186 10 96 11 -11 11 32 11 -27 10 22 11 26 
11 -98 10 99 11 35 11 -174 11 92 10 25 11 -32 11 120 
10 -205 11 113 11 -24 11 111 10 -200 11 107 11 -13 10 46 
11 -82 11 57 10 4 11 20 11 -87 11 68 10 -12 11 9 
11 20 10 -103 11 109 11 -32 11 -27 10 30 11 -6 11 6 
10 32 11 -92 11 60 11 51 10 -132 11 105 11 0 10 -59 
11 39 11 20 11 -60 10 179 11 -257 11 78 10 148 11 -226 
11 109 11 34 10 -65 11 200 11 -278 10 78 11 60 11 -79 
11 104 10 -55 11 0 11 30 10 -49 11 49 11 -30 11 24 
10 -49 11 61 11 -36 3062 3098 100 MP stroke
10 54 11 -150 11 68 11 60 10 -140 11 81 11 24 10 -66 
11 66 11 -55 11 20 10 60 11 -90 11 112 10 -152 11 158 
11 -158 10 70 11 11 11 -16 11 17 10 44 11 -82 11 38 
10 -10 11 10 11 -12 11 7 10 -2 11 27 11 -51 10 75 
11 -47 11 -34 11 105 10 -150 11 102 11 -24 10 24 11 -79 
11 205 11 -228 10 78 11 -27 11 51 10 -27 11 3 11 20 
11 -27 10 11 11 -8 11 24 10 -24 11 28 11 -51 11 51 
10 -23 11 -8 11 34 10 -31 11 25 11 -23 11 24 10 -27 
11 6 11 19 10 -23 11 23 11 78 11 -176 10 57 11 60 
11 -38 10 -6 11 0 11 28 10 -30 11 30 11 -5 11 -17 
10 13 11 -12 11 21 10 0 11 -58 11 58 11 0 10 -7 
11 6 11 -29 10 9 11 33 11 -33 11 -10 10 30 11 0 
11 -20 10 -18 11 38 2002 3106 100 MP stroke
11 20 11 -70 10 -138 11 -29 11 8 10 1 11 21 11 -51 
11 -45 10 183 11 -108 11 -8 10 51 11 -93 11 50 11 13 
10 -10 11 29 11 -29 10 -32 11 31 11 12 11 8 10 -50 
11 19 11 23 10 11 11 -66 11 67 11 0 10 -130 11 212 
11 -94 10 -44 11 45 11 -24 11 -99 10 216 11 -77 11 -36 
10 33 11 -50 11 46 10 -57 11 63 11 -39 11 30 10 -10 
11 -20 11 30 10 -50 11 40 11 11 11 -11 10 -132 11 229 
11 -106 10 30 11 -37 11 22 11 -19 10 12 11 -27 11 27 
10 7 11 -25 11 -47 11 163 10 -116 11 -9 11 29 10 5 
11 -24 11 7 11 18 10 -17 11 0 11 -17 10 52 11 -70 
11 70 11 -43 10 43 11 -61 11 61 10 -34 11 7 11 -123 
11 222 10 -81 11 -33 11 32 10 -58 11 23 11 45 11 -45 
10 29 11 -29 11 29 941 3294 100 MP stroke
10 -14 11 -15 11 5 10 112 899 3206 5 MP stroke
/c10 { 0.000000 1.000000 0.000000 sr} bdef
c10
11 -229 11 146 10 96 11 -167 11 246 10 -323 11 251 11 -15 
11 -89 10 119 11 -104 11 76 10 -148 11 319 11 -256 11 -180 
10 428 11 -13 11 -222 10 -120 11 355 11 -93 11 -264 10 357 
11 -70 11 -217 10 131 11 156 11 -131 11 54 10 -144 11 72 
11 85 10 -23 11 -97 11 76 11 -70 10 178 11 -70 11 -69 
10 139 11 -138 11 70 11 50 10 -36 11 54 11 -220 10 220 
11 -122 11 -14 11 317 10 -317 11 119 11 20 10 -130 11 120 
11 -2 11 -65 10 68 11 -64 11 72 10 -73 11 55 11 25 
10 -9 11 -81 11 141 11 -132 10 71 11 -13 11 14 10 43 
11 -103 11 68 11 24 10 -87 11 -13 11 179 10 -116 11 1 
11 45 11 28 10 -151 11 197 11 -252 10 187 11 -57 11 3 
11 59 10 -28 11 97 11 -189 10 31 11 106 11 -45 11 -18 
10 87 11 -41 11 -55 5183 3206 100 MP stroke
10 0 11 0 11 0 11 0 10 0 11 0 11 0 10 0 
11 0 11 0 11 0 10 0 11 0 11 0 10 0 11 0 
11 0 11 0 10 0 11 0 11 0 10 0 11 0 11 0 
10 0 11 0 11 0 11 0 10 0 11 0 11 0 10 0 
11 0 11 0 11 0 10 0 11 0 11 0 10 0 11 0 
11 0 11 0 10 0 11 0 11 0 10 0 11 0 11 0 
11 0 10 0 11 0 11 0 10 0 11 0 11 0 11 0 
10 0 11 0 11 0 10 0 11 0 11 0 11 0 10 0 
11 0 11 0 10 0 11 0 11 0 11 0 10 0 11 0 
11 0 10 0 11 0 11 0 11 0 10 0 11 0 11 0 
10 0 11 0 11 0 11 0 10 0 11 0 11 0 10 0 
11 0 11 0 10 0 11 0 11 0 11 0 10 0 11 0 
11 0 10 0 11 -55 4123 3261 100 MP stroke
11 -101 11 156 10 -30 11 -123 11 120 10 -55 11 -10 11 10 
11 -65 10 119 11 -74 11 74 10 -118 11 64 11 112 11 -189 
10 135 11 -61 11 61 10 -81 11 134 11 -269 11 246 10 23 
11 -210 11 187 10 -96 11 52 11 11 11 -54 10 96 11 20 
11 -231 10 231 11 -129 11 100 11 27 10 -60 11 -10 11 -79 
10 122 11 9 11 -94 11 6 10 79 11 19 11 -114 10 124 
11 -68 11 -49 10 111 11 103 11 -277 11 174 10 -101 11 143 
11 6 10 -269 11 283 11 -131 11 27 10 29 11 9 11 -9 
10 34 11 -138 11 104 11 179 10 -429 11 312 11 0 10 -146 
11 141 11 6 11 -105 10 85 11 -53 11 -32 10 76 11 -44 
11 -21 11 193 10 -245 11 276 11 -203 10 -73 11 148 11 -154 
11 216 10 -115 11 -42 11 95 10 -34 11 35 11 -53 11 20 
10 -82 11 195 11 -132 3062 3182 100 MP stroke
10 73 11 -144 11 77 11 -79 10 49 11 -13 11 145 10 -266 
11 265 11 -114 11 -99 10 233 11 -285 11 188 10 -54 11 42 
11 -42 10 23 11 1 11 -54 11 54 10 69 11 -90 11 20 
10 -42 11 41 11 -64 11 75 10 41 11 -109 11 48 10 76 
11 -28 11 -193 11 216 10 -84 11 27 11 3 10 -4 11 -125 
11 307 11 -208 10 -35 11 46 11 13 10 -18 11 22 11 36 
11 -46 10 -4 11 -9 11 30 10 -31 11 17 11 -12 11 11 
10 -58 11 55 11 51 10 -65 11 30 11 19 11 -83 10 96 
11 -106 11 149 10 -184 11 183 11 -85 11 -22 10 -36 11 150 
11 -157 10 106 11 -64 11 14 10 1 11 -1 11 91 11 -149 
10 115 11 -116 11 57 10 -1 11 38 11 -38 11 -1 10 92 
11 -140 11 98 10 -108 11 157 11 -110 11 13 10 -4 11 -1 
11 -56 10 105 11 -50 2002 3201 100 MP stroke
11 103 11 -107 10 -117 11 55 11 -94 10 -15 11 57 11 62 
11 -131 10 182 11 -103 11 -18 10 65 11 -139 11 124 11 22 
10 -113 11 197 11 -196 10 23 11 24 11 52 11 2 10 -75 
11 66 11 8 10 -42 11 57 11 -56 11 1 10 -27 11 128 
11 -58 10 -27 11 27 11 -7 11 -179 10 244 11 36 11 -142 
10 26 11 58 11 -32 10 -86 11 177 11 -99 11 -33 10 83 
11 -49 11 -32 10 15 11 67 11 -81 11 82 10 -135 11 145 
11 -11 10 -78 11 119 11 -79 11 -48 10 104 11 -64 11 49 
10 -40 11 -7 11 9 11 46 10 -54 11 15 11 103 10 -196 
11 180 11 -140 11 48 10 38 11 1 11 8 10 -15 11 -71 
11 72 11 -24 10 24 11 15 11 -14 10 -62 11 139 11 -105 
11 38 10 29 11 -100 11 101 10 -109 11 116 11 -45 11 46 
10 -77 11 77 11 -76 941 3244 100 MP stroke
10 123 11 -77 11 2082 10 -2090 899 3206 5 MP stroke
/c11 { 0.000000 1.000000 1.000000 sr} bdef
c11
11 12 11 7 10 -19 11 -12 11 43 10 -22 11 -9 11 -2 
11 71 10 -121 11 71 11 30 10 -63 11 24 11 6 11 -229 
10 408 11 -137 11 -41 10 -201 11 379 11 -168 11 -212 10 380 
11 -166 11 -44 10 -128 11 338 11 -198 11 29 10 -11 11 31 
11 -70 10 50 11 -61 11 -7 11 9 10 228 11 -219 11 -121 
10 340 11 -200 11 31 11 29 10 -268 11 408 11 -323 10 323 
11 -200 11 -2 11 54 10 -52 11 58 11 -46 10 -13 11 10 
11 1 11 19 10 -18 11 18 11 -19 10 20 11 -21 11 -190 
10 381 11 -171 11 -38 11 37 10 -19 11 -190 11 381 10 -161 
11 -59 11 30 11 27 10 -57 11 -2 11 40 10 8 11 -17 
11 29 11 -96 10 135 11 -107 11 76 10 -56 11 18 11 -49 
11 31 10 94 11 -113 11 8 10 76 11 -114 11 95 11 -76 
10 57 11 -28 11 211 5183 3206 100 MP stroke
10 0 11 0 11 0 11 0 10 0 11 0 11 0 10 0 
11 0 11 0 11 0 10 0 11 0 11 0 10 0 11 0 
11 0 11 0 10 0 11 0 11 0 10 0 11 0 11 0 
10 0 11 0 11 0 11 0 10 0 11 0 11 0 10 0 
11 0 11 0 11 0 10 0 11 0 11 0 10 0 11 0 
11 0 11 0 10 0 11 0 11 0 10 0 11 0 11 0 
11 0 10 0 11 0 11 0 10 0 11 0 11 0 11 0 
10 0 11 0 11 0 10 0 11 0 11 0 11 0 10 0 
11 0 11 0 10 0 11 0 11 0 11 0 10 0 11 0 
11 0 10 0 11 0 11 0 11 0 10 0 11 0 11 0 
10 0 11 0 11 0 11 0 10 0 11 0 11 0 10 0 
11 0 11 0 10 0 11 0 11 0 11 0 10 0 11 0 
11 0 10 0 11 20 4123 3186 100 MP stroke
11 32 11 -52 10 41 11 -9 11 -40 10 20 11 1 11 -1 
11 21 10 -40 11 67 11 -67 10 40 11 -20 11 10 11 9 
10 11 11 -79 11 79 10 -31 11 11 11 -24 11 1 10 70 
11 -41 11 -29 10 15 11 27 11 -47 11 20 10 7 11 -48 
11 82 10 -82 11 111 11 -85 11 74 10 -79 11 47 11 -31 
10 -11 11 22 11 -6 11 22 10 -38 11 22 11 -5 10 -42 
11 117 11 -125 10 58 11 5 11 5 11 -10 10 -59 11 85 
11 -50 10 58 11 -55 11 -10 11 51 10 -22 11 -1 11 1 
10 -46 11 87 11 -41 11 -16 10 27 11 -33 11 0 10 15 
11 35 11 -51 11 43 10 -44 11 1 11 43 10 3 11 -46 
11 -5 11 59 10 -37 11 10 11 -27 10 17 11 -18 11 69 
11 -92 10 45 11 -26 11 4 10 74 11 -75 11 22 11 -49 
10 73 11 -17 11 -7 3062 3186 100 MP stroke
10 -71 11 -23 11 -73 11 -208 10 355 11 -173 11 28 10 -36 
11 36 11 46 11 -104 10 9 11 13 11 -117 10 298 11 -297 
11 297 10 -151 11 4 11 -31 11 31 10 -75 11 120 11 -45 
10 -28 11 28 11 -30 11 29 10 25 11 -102 11 126 10 -124 
11 100 11 -55 11 -95 10 273 11 -199 11 51 10 -51 11 98 
11 -269 11 370 10 -174 11 75 11 -100 10 49 11 2 11 -27 
11 24 10 3 11 -2 11 -49 10 49 11 -49 11 100 11 -100 
10 25 11 23 11 -22 10 23 11 -49 11 74 11 -100 10 100 
11 -48 11 22 10 -48 11 48 11 -199 11 350 10 -122 11 -80 
11 29 10 47 11 -24 11 -49 10 48 11 -48 11 47 11 -21 
10 -4 11 4 11 -26 10 0 11 121 11 -121 11 0 10 46 
11 -71 11 97 10 -46 11 -32 11 57 11 -3 10 -49 11 0 
11 28 10 43 11 -71 2002 3406 100 MP stroke
11 -3 11 103 10 30 11 73 11 -45 10 -1 11 -28 11 123 
11 -174 10 122 11 -20 11 -3 10 -76 11 130 11 -29 11 -53 
10 5 11 -9 11 9 10 48 11 -25 11 -29 11 2 10 50 
11 -2 11 -51 10 -22 11 120 11 -120 11 -1 10 18 11 58 
11 -54 10 76 11 -77 11 51 11 -77 10 81 11 -57 11 27 
10 -48 11 94 11 -69 10 45 11 -49 11 51 11 -75 10 49 
11 26 11 -76 10 101 11 -51 11 -50 11 50 10 -8 11 40 
11 -36 10 -44 11 69 11 -47 11 25 10 0 11 22 11 -22 
10 -26 11 51 11 -135 11 143 10 -9 11 -3 11 -24 10 -21 
11 45 11 -22 11 -25 10 22 11 0 11 53 10 -100 11 96 
11 -96 11 74 10 -74 11 96 11 -96 10 48 11 -1 11 -11 
11 48 10 -59 11 20 11 -20 10 70 11 -23 11 -73 11 73 
10 -48 11 48 11 -48 941 3266 100 MP stroke
10 24 11 24 11 59 10 -47 899 3206 5 MP stroke
/c12 { 0.500000 0.600000 0.700000 sr} bdef
c12
11 -170 11 115 10 54 11 -116 11 183 10 -244 11 183 11 -11 
11 -55 10 66 11 -72 11 69 10 -129 11 247 11 -192 11 -153 
10 325 11 24 11 -200 10 -86 11 262 11 -55 11 -215 10 270 
11 -42 11 -193 10 142 11 93 11 -100 11 56 10 -134 11 68 
11 69 10 -17 11 -100 11 102 11 -84 10 140 11 -54 11 -36 
10 90 11 -122 11 76 11 59 10 -38 11 25 11 -175 10 175 
11 -111 11 -10 11 331 10 -338 11 145 11 -3 10 -132 11 131 
11 -7 11 -63 10 64 11 -62 11 73 10 -81 11 63 11 41 
10 -41 11 -70 11 147 11 -137 10 75 11 -2 11 -13 10 69 
11 -132 11 82 11 42 10 -121 11 -9 11 218 10 -145 11 1 
11 63 11 7 10 -144 11 208 11 -279 10 206 11 -64 11 -6 
11 73 10 -3 11 80 11 -222 10 62 11 92 11 -25 11 -49 
10 127 11 -62 11 -69 5183 3206 100 MP stroke
10 0 11 0 11 0 11 0 10 0 11 0 11 0 10 0 
11 0 11 0 11 0 10 0 11 0 11 0 10 0 11 0 
11 0 11 0 10 0 11 0 11 0 10 0 11 0 11 0 
10 0 11 0 11 0 11 0 10 0 11 0 11 0 10 0 
11 0 11 0 11 0 10 0 11 0 11 0 10 0 11 0 
11 0 11 0 10 0 11 0 11 0 10 0 11 0 11 0 
11 0 10 0 11 0 11 0 10 0 11 0 11 0 11 0 
10 0 11 0 11 0 10 0 11 0 11 0 11 0 10 0 
11 0 11 0 10 0 11 0 11 0 11 0 10 0 11 0 
11 0 10 0 11 0 11 0 11 0 10 0 11 0 11 0 
10 0 11 0 11 0 11 0 10 0 11 0 11 0 10 0 
11 0 11 0 10 0 11 0 11 0 11 0 10 0 11 0 
11 0 10 0 11 -63 4123 3269 100 MP stroke
11 -146 11 209 10 -49 11 -148 11 136 10 -62 11 -13 11 12 
11 -75 10 138 11 -73 11 73 10 -138 11 74 11 137 11 -221 
10 159 11 -85 11 84 10 -95 11 158 11 -352 11 340 10 26 
11 -292 11 266 10 -138 11 78 11 -2 11 -64 10 129 11 11 
11 -280 10 280 11 -151 11 137 11 23 10 -84 11 0 11 -130 
10 191 11 3 11 -129 11 0 10 126 11 16 11 -154 10 154 
11 -66 11 -85 10 148 11 141 11 -354 11 213 10 -135 11 200 
11 3 10 -349 11 358 11 -160 11 31 10 43 11 12 11 -12 
10 23 11 -152 11 129 11 227 10 -564 11 415 11 0 10 -195 
11 191 11 4 11 -130 10 75 11 -27 11 -48 10 75 11 -27 
11 -46 11 265 10 -330 11 341 11 -230 10 -111 11 194 11 -197 
11 275 10 -143 11 -63 11 128 10 -47 11 48 11 -65 11 14 
10 -91 11 236 11 -159 3062 3187 100 MP stroke
10 80 11 -162 11 77 11 -117 10 103 11 -49 11 205 10 -355 
11 355 11 -146 11 -140 10 304 11 -373 11 237 10 -38 11 25 
11 -25 10 17 11 -4 11 -68 11 68 10 90 11 -102 11 12 
10 -60 11 59 11 -80 11 94 10 64 11 -154 11 73 10 94 
11 -26 11 -279 11 303 10 -101 11 21 11 4 10 -4 11 -167 
11 418 11 -272 10 -62 11 71 11 12 10 -17 11 21 11 62 
11 -69 10 -8 11 -6 11 31 10 -31 11 17 11 -12 11 11 
10 -83 11 82 11 73 10 -88 11 31 11 41 11 -128 10 143 
11 -154 11 222 10 -280 11 280 11 -125 11 -34 10 -60 11 231 
11 -235 10 155 11 -87 11 16 10 -1 11 1 11 139 11 -223 
10 167 11 -167 11 83 10 0 11 58 11 -58 11 0 10 140 
11 -211 11 143 10 -156 11 236 11 -165 11 14 10 -1 11 0 
11 -84 10 155 11 -71 2002 3187 100 MP stroke
11 154 11 -165 10 -166 11 76 11 -144 10 -16 11 84 11 82 
11 -172 10 248 11 -153 11 -18 10 97 11 -233 11 211 11 25 
10 -172 11 313 11 -313 10 20 11 53 11 83 11 2 10 -138 
11 126 11 11 10 -73 11 84 11 -84 11 0 10 -27 11 186 
11 -86 10 -62 11 62 11 -10 11 -308 10 404 11 74 11 -245 
10 29 11 121 11 -63 10 -157 11 317 11 -171 11 -65 10 151 
11 -86 11 -65 10 14 11 137 11 -151 11 152 10 -243 11 251 
11 -9 10 -149 11 225 11 -150 11 -87 10 180 11 -104 11 87 
10 -76 11 -10 11 13 11 80 10 -92 11 17 11 213 10 -383 
11 333 11 -256 11 87 10 76 11 0 11 8 10 -15 11 -148 
11 149 11 -62 10 62 11 15 11 -15 10 -138 11 291 11 -221 
11 79 10 66 11 -215 11 216 10 -225 11 232 11 -83 11 84 
10 -153 11 153 11 -153 941 3284 100 MP stroke
10 239 11 -120 11 2292 10 -2333 899 3206 5 MP stroke
/c13 { 0.800000 0.200000 0.600000 sr} bdef
c13
11 23 11 -2 10 -21 11 2 11 17 10 3 11 -22 11 0 
11 59 10 -98 11 59 11 19 10 -38 11 -2 11 20 11 -156 
10 271 11 -97 11 -18 10 -137 11 252 11 -116 11 -136 10 252 
11 -116 11 -18 10 -99 11 233 11 -135 11 19 10 0 11 19 
11 -58 10 39 11 -38 11 -8 11 10 10 152 11 -155 11 -79 
10 234 11 -135 11 19 11 18 10 -193 11 291 11 -216 10 216 
11 -136 11 0 11 19 10 -19 11 38 11 -37 10 -1 11 0 
11 0 11 19 10 -19 11 19 11 -19 10 19 11 -19 11 -136 
10 272 11 -117 11 -37 11 36 10 -18 11 -137 11 273 10 -117 
11 -38 11 19 11 19 10 -38 11 -1 11 21 10 11 11 -12 
11 19 11 -75 10 112 11 -92 11 72 10 -54 11 18 11 -38 
11 20 10 74 11 -92 11 16 10 57 11 -93 11 75 11 -57 
10 39 11 -19 11 154 5183 3206 100 MP stroke
10 0 11 0 11 0 11 0 10 0 11 0 11 0 10 0 
11 0 11 0 11 0 10 0 11 0 11 0 10 0 11 0 
11 0 11 0 10 0 11 0 11 0 10 0 11 0 11 0 
10 0 11 0 11 0 11 0 10 0 11 0 11 0 10 0 
11 0 11 0 11 0 10 0 11 0 11 0 10 0 11 0 
11 0 11 0 10 0 11 0 11 0 10 0 11 0 11 0 
11 0 10 0 11 0 11 0 10 0 11 0 11 0 11 0 
10 0 11 0 11 0 10 0 11 0 11 0 11 0 10 0 
11 0 11 0 10 0 11 0 11 0 11 0 10 0 11 0 
11 0 10 0 11 0 11 0 11 0 10 0 11 0 11 0 
10 0 11 0 11 0 11 0 10 0 11 0 11 0 10 0 
11 0 11 0 10 0 11 0 11 0 11 0 10 0 11 0 
11 0 10 0 11 18 4123 3188 100 MP stroke
11 9 11 -27 10 23 11 -1 11 -36 10 18 11 0 11 0 
11 19 10 -37 11 56 11 -56 10 37 11 -18 11 0 11 18 
10 1 11 -57 11 57 10 -19 11 0 11 -13 11 8 10 42 
11 -31 11 -11 10 6 11 18 11 -37 11 19 10 -1 11 -37 
11 76 10 -76 11 80 11 -48 11 43 10 -56 11 37 11 -30 
10 6 11 5 11 1 11 6 10 -12 11 4 11 3 10 -40 
11 95 11 -93 10 36 11 -2 11 23 11 -21 10 -36 11 54 
11 -38 10 62 11 -62 11 2 11 38 10 -20 11 -1 11 1 
10 -37 11 77 11 -40 11 -24 10 51 11 -48 11 0 10 23 
11 15 11 -38 11 40 10 -52 11 28 11 24 10 -15 11 -9 
11 -13 11 30 10 -9 11 -24 11 16 10 8 11 -25 11 63 
11 -84 10 42 11 -17 11 -4 10 59 11 -59 11 20 11 -38 
10 60 11 -26 11 4 3062 3203 100 MP stroke
10 -59 11 4 11 -62 11 -151 10 265 11 -130 11 11 10 -8 
11 8 11 43 11 -73 10 -8 11 30 11 -102 10 229 11 -229 
11 229 10 -115 11 1 11 -18 11 18 10 -60 11 97 11 -37 
10 -18 11 18 11 -18 11 18 10 16 11 -71 11 93 10 -98 
11 77 11 -30 11 -85 10 212 11 -153 11 39 10 -39 11 82 
11 -222 11 293 10 -131 11 55 11 -77 10 38 11 1 11 -22 
11 21 10 1 11 -1 11 -38 10 38 11 -38 11 77 11 -77 
10 22 11 16 11 -21 10 21 11 -38 11 55 11 -72 10 72 
11 -33 11 11 10 -28 11 28 11 -148 11 268 10 -92 11 -67 
11 28 10 33 11 -17 11 -38 10 38 11 -38 11 33 11 -11 
10 -6 11 6 11 -22 10 0 11 92 11 -92 11 0 10 33 
11 -50 11 71 10 -32 11 -28 11 45 11 -1 10 -38 11 0 
11 22 10 32 11 -54 2002 3359 100 MP stroke
11 -6 11 83 10 36 11 54 11 -32 10 0 11 -23 11 93 
11 -119 10 67 11 -3 11 0 10 -60 11 103 11 -26 11 -40 
10 6 11 -11 11 11 10 37 11 -21 11 -22 11 1 10 41 
11 -4 11 -38 10 -17 11 92 11 -92 11 0 10 27 11 16 
11 -27 10 59 11 -59 11 38 11 -42 10 31 11 -31 11 24 
10 -37 11 71 11 -54 10 39 11 -43 11 41 11 -56 10 36 
11 20 11 -56 10 76 11 -40 11 -36 11 36 10 11 11 -1 
11 -11 10 -35 11 53 11 -36 11 20 10 -2 11 19 11 -19 
10 -18 11 38 11 -87 11 78 10 9 11 -1 11 -21 10 -14 
11 34 11 -17 11 -19 10 17 11 0 11 39 10 -76 11 76 
11 -76 11 57 10 -57 11 75 11 -75 10 38 11 -1 11 8 
11 4 10 -30 11 18 11 -18 10 56 11 -19 11 -56 11 56 
10 -37 11 37 11 -37 941 3236 100 MP stroke
10 19 11 18 11 32 10 -39 899 3206 5 MP stroke
gr

c13
0 sg
3277 4983 mt 
(Time [s]) s
 446 3242 mt  -90 rotate
(Joint Velocity [rad/s]) s
90 rotate
%%IncludeResource: font Helvetica
/Helvetica /ISOLatin1Encoding 192 FMSR

2388  250 mt 
(Joint Velocity Normed: Slow) s
%%IncludeResource: font Helvetica
/Helvetica /ISOLatin1Encoding 120 FMSR

 882 4657 mt 
( ) s
6239  430 mt 
( ) s
1 sg
0 1064 639 0 0 -1064 5556 1512 4 MP
PP
-639 0 0 1064 639 0 0 -1064 5556 1512 5 MP stroke
4 w
DO
SO
6 w
0 sg
5556 1512 mt 6195 1512 L
5556  448 mt 6195  448 L
5556 1512 mt 5556  448 L
6195 1512 mt 6195  448 L
5556 1512 mt 6195 1512 L
5556 1512 mt 5556  448 L
5556 1512 mt 6195 1512 L
5556  448 mt 6195  448 L
5556 1512 mt 5556  448 L
6195 1512 mt 6195  448 L
6025  584 mt 
(q0) s
gs 5556 448 640 1065 MR c np
360 0 5628 541 2 MP stroke
gr

6025  730 mt 
(q1) s
gs 5556 448 640 1065 MR c np
c8
360 0 5628 687 2 MP stroke
gr

c8
0 sg
6025  876 mt 
(q2) s
gs 5556 448 640 1065 MR c np
c9
360 0 5628 833 2 MP stroke
gr

c9
0 sg
6025 1023 mt 
(q3) s
gs 5556 448 640 1065 MR c np
c10
360 0 5628 980 2 MP stroke
gr

c10
0 sg
6025 1169 mt 
(q4) s
gs 5556 448 640 1065 MR c np
c11
360 0 5628 1126 2 MP stroke
gr

c11
0 sg
6025 1315 mt 
(q5) s
gs 5556 448 640 1065 MR c np
c12
360 0 5628 1272 2 MP stroke
gr

c12
0 sg
6025 1461 mt 
(q6) s
gs 5556 448 640 1065 MR c np
c13
360 0 5628 1418 2 MP stroke
gr

c13

end %%Color Dict

eplot
%%EndObject

epage
end

showpage

%%Trailer
%%EOF
