%!PS-Adobe-2.0 EPSF-1.2
%%Creator: MATLAB, The MathWorks, Inc. Version 8.3.0.532 (R2014a). Operating System: Linux 3.19.0-39-generic #44-Ubuntu SMP Tue Dec 1 14:39:05 UTC 2015 x86_64.
%%Title: ./jvn_medium.eps
%%CreationDate: 12/17/2015  18:45:33
%%DocumentNeededFonts: Helvetica
%%DocumentProcessColors: Cyan Magenta Yellow Black
%%Extensions: CMYK
%%Pages: 1
%%BoundingBox:    40   191   551   612
%%EndComments

%%BeginProlog
% MathWorks dictionary
/MathWorks 160 dict begin
% definition operators
/bdef {bind def} bind def
/ldef {load def} bind def
/xdef {exch def} bdef
/xstore {exch store} bdef
% operator abbreviations
/c  /clip ldef
/cc /concat ldef
/cp /closepath ldef
/gr /grestore ldef
/gs /gsave ldef
/mt /moveto ldef
/np /newpath ldef
/cm /currentmatrix ldef
/sm /setmatrix ldef
/rm /rmoveto ldef
/rl /rlineto ldef
/s {show newpath} bdef
/sc {setcmykcolor} bdef
/sr /setrgbcolor ldef
/sg /setgray ldef
/w /setlinewidth ldef
/j /setlinejoin ldef
/cap /setlinecap ldef
/rc {rectclip} bdef
/rf {rectfill} bdef
% page state control
/pgsv () def
/bpage {/pgsv save def} bdef
/epage {pgsv restore} bdef
/bplot /gsave ldef
/eplot {stroke grestore} bdef
% orientation switch
/portraitMode 0 def /landscapeMode 1 def /rotateMode 2 def
% coordinate system mappings
/dpi2point 0 def
% font control
/FontSize 0 def
/FMS {/FontSize xstore findfont [FontSize 0 0 FontSize neg 0 0]
  makefont setfont} bdef
/reencode {exch dup where {pop load} {pop StandardEncoding} ifelse
  exch dup 3 1 roll findfont dup length dict begin
  { 1 index /FID ne {def}{pop pop} ifelse } forall
  /Encoding exch def currentdict end definefont pop} bdef
/isroman {findfont /CharStrings get /Agrave known} bdef
/FMSR {3 1 roll 1 index dup isroman {reencode} {pop pop} ifelse
  exch FMS} bdef
/csm {1 dpi2point div -1 dpi2point div scale neg translate
 dup landscapeMode eq {pop -90 rotate}
  {rotateMode eq {90 rotate} if} ifelse} bdef
% line types: solid, dotted, dashed, dotdash
/SO { [] 0 setdash } bdef
/DO { [.5 dpi2point mul 4 dpi2point mul] 0 setdash } bdef
/DA { [6 dpi2point mul] 0 setdash } bdef
/DD { [.5 dpi2point mul 4 dpi2point mul 6 dpi2point mul 4
  dpi2point mul] 0 setdash } bdef
% macros for lines and objects
/L {lineto stroke} bdef
/MP {3 1 roll moveto 1 sub {rlineto} repeat} bdef
/AP {{rlineto} repeat} bdef
/PDlw -1 def
/W {/PDlw currentlinewidth def setlinewidth} def
/PP {closepath eofill} bdef
/DP {closepath stroke} bdef
/MR {4 -2 roll moveto dup  0 exch rlineto exch 0 rlineto
  neg 0 exch rlineto closepath} bdef
/FR {MR stroke} bdef
/PR {MR fill} bdef
/L1i {{currentfile picstr readhexstring pop} image} bdef
/tMatrix matrix def
/MakeOval {newpath tMatrix currentmatrix pop translate scale
0 0 1 0 360 arc tMatrix setmatrix} bdef
/FO {MakeOval stroke} bdef
/PO {MakeOval fill} bdef
/PD {currentlinewidth 2 div 0 360 arc fill
   PDlw -1 eq not {PDlw w /PDlw -1 def} if} def
/FA {newpath tMatrix currentmatrix pop translate scale
  0 0 1 5 -2 roll arc tMatrix setmatrix stroke} bdef
/PA {newpath tMatrix currentmatrix pop	translate 0 0 moveto scale
  0 0 1 5 -2 roll arc closepath tMatrix setmatrix fill} bdef
/FAn {newpath tMatrix currentmatrix pop translate scale
  0 0 1 5 -2 roll arcn tMatrix setmatrix stroke} bdef
/PAn {newpath tMatrix currentmatrix pop translate 0 0 moveto scale
  0 0 1 5 -2 roll arcn closepath tMatrix setmatrix fill} bdef
/vradius 0 def /hradius 0 def /lry 0 def
/lrx 0 def /uly 0 def /ulx 0 def /rad 0 def
/MRR {/vradius xdef /hradius xdef /lry xdef /lrx xdef /uly xdef
  /ulx xdef newpath tMatrix currentmatrix pop ulx hradius add uly
  vradius add translate hradius vradius scale 0 0 1 180 270 arc 
  tMatrix setmatrix lrx hradius sub uly vradius add translate
  hradius vradius scale 0 0 1 270 360 arc tMatrix setmatrix
  lrx hradius sub lry vradius sub translate hradius vradius scale
  0 0 1 0 90 arc tMatrix setmatrix ulx hradius add lry vradius sub
  translate hradius vradius scale 0 0 1 90 180 arc tMatrix setmatrix
  closepath} bdef
/FRR {MRR stroke } bdef
/PRR {MRR fill } bdef
/MlrRR {/lry xdef /lrx xdef /uly xdef /ulx xdef /rad lry uly sub 2 div def
  newpath tMatrix currentmatrix pop ulx rad add uly rad add translate
  rad rad scale 0 0 1 90 270 arc tMatrix setmatrix lrx rad sub lry rad
  sub translate rad rad scale 0 0 1 270 90 arc tMatrix setmatrix
  closepath} bdef
/FlrRR {MlrRR stroke } bdef
/PlrRR {MlrRR fill } bdef
/MtbRR {/lry xdef /lrx xdef /uly xdef /ulx xdef /rad lrx ulx sub 2 div def
  newpath tMatrix currentmatrix pop ulx rad add uly rad add translate
  rad rad scale 0 0 1 180 360 arc tMatrix setmatrix lrx rad sub lry rad
  sub translate rad rad scale 0 0 1 0 180 arc tMatrix setmatrix
  closepath} bdef
/FtbRR {MtbRR stroke } bdef
/PtbRR {MtbRR fill } bdef
/stri 6 array def /dtri 6 array def
/smat 6 array def /dmat 6 array def
/tmat1 6 array def /tmat2 6 array def /dif 3 array def
/asub {/ind2 exch def /ind1 exch def dup dup
  ind1 get exch ind2 get sub exch } bdef
/tri_to_matrix {
  2 0 asub 3 1 asub 4 0 asub 5 1 asub
  dup 0 get exch 1 get 7 -1 roll astore } bdef
/compute_transform {
  dmat dtri tri_to_matrix tmat1 invertmatrix 
  smat stri tri_to_matrix tmat2 concatmatrix } bdef
/ds {stri astore pop} bdef
/dt {dtri astore pop} bdef
/db {2 copy /cols xdef /rows xdef mul dup 3 mul string
  currentfile exch readhexstring pop
  dup 0 3 index getinterval /rbmap xdef
  dup 2 index dup getinterval /gbmap xdef
  1 index dup 2 mul exch getinterval /bbmap xdef pop pop}bdef
/it {gs np dtri aload pop moveto lineto lineto cp c
  cols rows 8 compute_transform 
  rbmap gbmap bbmap true 3 colorimage gr}bdef
/il {newpath moveto lineto stroke}bdef
currentdict end def
%%EndProlog

%%BeginSetup
MathWorks begin

0 cap

end
%%EndSetup

%%Page: 1 1
%%BeginPageSetup
%%PageBoundingBox:    40   191   551   612
MathWorks begin
bpage
%%EndPageSetup

%%BeginObject: obj1
bplot

/dpi2point 12 def
portraitMode 0216 7344 csm

  265     0  6132  5045 MR c np
89 dict begin %Colortable dictionary
/c0 { 0.000000 0.000000 0.000000 sr} bdef
/c1 { 1.000000 1.000000 1.000000 sr} bdef
/c2 { 0.900000 0.000000 0.000000 sr} bdef
/c3 { 0.000000 0.820000 0.000000 sr} bdef
/c4 { 0.000000 0.000000 0.800000 sr} bdef
/c5 { 0.910000 0.820000 0.320000 sr} bdef
/c6 { 1.000000 0.260000 0.820000 sr} bdef
/c7 { 0.000000 0.820000 0.820000 sr} bdef
c0
1 j
1 sg
   0    0 6913 5186 PR
6 w
0 4226 5356 0 0 -4226 899 4615 4 MP
PP
-5356 0 0 4226 5356 0 0 -4226 899 4615 5 MP stroke
4 w
DO
SO
6 w
0 sg
 899 4615 mt 6255 4615 L
 899  389 mt 6255  389 L
 899 4615 mt  899  389 L
6255 4615 mt 6255  389 L
 899 4615 mt 6255 4615 L
 899 4615 mt  899  389 L
 899 4615 mt  899 4561 L
 899  389 mt  899  442 L
%%IncludeResource: font Helvetica
/Helvetica /ISOLatin1Encoding 168 FMSR

 853 4805 mt 
(0) s
1494 4615 mt 1494 4561 L
1494  389 mt 1494  442 L
1448 4805 mt 
(2) s
2089 4615 mt 2089 4561 L
2089  389 mt 2089  442 L
2043 4805 mt 
(4) s
2684 4615 mt 2684 4561 L
2684  389 mt 2684  442 L
2638 4805 mt 
(6) s
3279 4615 mt 3279 4561 L
3279  389 mt 3279  442 L
3233 4805 mt 
(8) s
3874 4615 mt 3874 4561 L
3874  389 mt 3874  442 L
3781 4805 mt 
(10) s
4469 4615 mt 4469 4561 L
4469  389 mt 4469  442 L
4376 4805 mt 
(12) s
5064 4615 mt 5064 4561 L
5064  389 mt 5064  442 L
4971 4805 mt 
(14) s
5659 4615 mt 5659 4561 L
5659  389 mt 5659  442 L
5566 4805 mt 
(16) s
6255 4615 mt 6255 4561 L
6255  389 mt 6255  442 L
6162 4805 mt 
(18) s
 899 4615 mt  952 4615 L
6255 4615 mt 6201 4615 L
 538 4677 mt 
(0.42) s
 899 4086 mt  952 4086 L
6255 4086 mt 6201 4086 L
 538 4148 mt 
(0.44) s
 899 3558 mt  952 3558 L
6255 3558 mt 6201 3558 L
 538 3620 mt 
(0.46) s
 899 3030 mt  952 3030 L
6255 3030 mt 6201 3030 L
 538 3092 mt 
(0.48) s
 899 2502 mt  952 2502 L
6255 2502 mt 6201 2502 L
 631 2564 mt 
(0.5) s
 899 1973 mt  952 1973 L
6255 1973 mt 6201 1973 L
 538 2035 mt 
(0.52) s
 899 1445 mt  952 1445 L
6255 1445 mt 6201 1445 L
 538 1507 mt 
(0.54) s
 899  917 mt  952  917 L
6255  917 mt 6201  917 L
 538  979 mt 
(0.56) s
 899  389 mt  952  389 L
6255  389 mt 6201  389 L
 538  451 mt 
(0.58) s
 899 4615 mt 6255 4615 L
 899  389 mt 6255  389 L
 899 4615 mt  899  389 L
6255 4615 mt 6255  389 L
gs 899 389 5357 4227 MR c np
30 1695 29 -843 30 -72 30 51 30 -5 29 -4 30 23 30 -30 
30 -16 29 33 30 -2 30 -4 30 -45 29 36 30 15 30 12 
30 -20 29 16 30 -45 30 62 30 -74 29 -586 30 1297 30 -681 
30 14 29 19 30 -61 30 57 30 -4 29 -85 30 89 30 442 
30 210 30 0 29 0 30 0 30 0 30 0 29 0 30 0 
30 0 30 0 29 0 30 0 30 0 30 0 29 0 30 0 
30 0 30 0 29 0 30 0 30 0 30 0 29 0 30 0 
30 0 30 0 29 0 30 0 30 0 30 0 29 0 30 0 
30 111 30 234 29 23 30 340 30 -708 30 353 29 63 30 -93 
30 77 30 -27 29 30 30 -32 30 9 30 20 30 -30 29 28 
30 34 30 -38 30 -25 29 55 30 -51 30 38 30 -8 29 10 
30 -18 30 12 30 -3 29 7 30 -13 30 -7 30 23 29 -32 
30 25 30 -21 30 -544 2862 2660 100 MP stroke
29 4 30 -157 30 311 30 -157 29 -153 30 310 30 -147 30 -24 
29 30 30 -13 30 6 30 0 29 2 30 -31 30 52 30 -48 
29 26 30 -7 30 -9 30 4 29 11 30 -173 30 321 30 -177 
30 35 29 -23 30 -13 30 13 30 12 29 -15 30 -12 30 37 
30 -178 29 -38 30 -211 30 383 30 -174 29 -23 30 -7 30 -1 
30 16 29 -19 30 -18 30 -2 30 23 29 -30 30 18 30 -7 
30 -13 29 -3 30 -4 30 -176 30 352 29 -154 30 -37 30 -1 
30 34 29 -26 30 -21 30 33 30 -34 29 10 30 17 30 -669 
30 1103 29 0 899 2502 67 MP stroke
/c8 { 0.000000 0.000000 1.000000 sr} bdef
c8
30 -1593 29 875 30 614 30 -618 30 128 29 -3 30 -241 30 -15 
30 253 29 -366 30 -2 30 0 30 111 29 -112 30 -118 30 -245 
30 245 29 -375 30 366 30 -350 30 358 29 -408 30 -134 30 167 
30 -121 29 18 30 93 30 -96 30 -122 29 330 30 -585 30 267 
30 49 30 0 29 0 30 0 30 0 30 0 29 0 30 0 
30 0 30 0 29 0 30 0 30 0 30 0 29 0 30 0 
30 0 30 0 29 0 30 0 30 0 30 0 29 0 30 0 
30 0 30 0 29 0 30 0 30 0 30 0 29 0 30 0 
30 63 30 160 29 -250 30 421 30 -394 30 227 29 -488 30 486 
30 -244 30 122 29 -360 30 237 30 7 30 -366 30 474 29 -349 
30 -125 30 1 30 349 29 -349 30 -7 30 112 30 -112 29 -241 
30 470 30 -594 30 350 29 -231 30 107 30 -114 30 113 29 -123 
30 -1 30 121 30 605 2862 2425 100 MP stroke
29 129 30 -57 30 -149 30 77 29 72 30 -149 30 -37 30 106 
29 22 30 106 30 -357 30 0 29 242 30 -142 30 -89 30 332 
29 -220 30 -246 30 476 30 -363 29 247 30 -306 30 229 30 -61 
30 -215 29 459 30 -357 30 -110 30 591 29 -591 30 109 30 127 
30 324 29 388 30 305 30 -501 30 320 29 5 30 -129 30 5 
30 -249 29 247 30 -134 30 -108 30 114 29 -244 30 372 30 -137 
30 -112 29 -8 30 -360 30 519 30 -330 29 166 30 -120 30 -121 
30 123 29 -10 30 -353 30 228 30 -113 29 114 30 -464 30 -79 
30 390 29 0 899 2502 67 MP stroke
/c9 { 1.000000 0.000000 0.000000 sr} bdef
c9
30 -916 29 414 30 -63 30 64 30 -14 29 3 30 24 30 17 
30 -39 29 46 30 4 30 1 30 -7 29 10 30 -3 30 46 
30 -45 29 64 30 -42 30 22 30 -23 29 10 30 74 30 -47 
30 25 29 -23 30 18 30 -19 30 12 29 10 30 20 30 -21 
30 25 30 0 29 0 30 0 30 0 30 0 29 0 30 0 
30 0 30 0 29 0 30 0 30 0 30 0 29 0 30 0 
30 0 30 0 29 0 30 0 30 0 30 0 29 0 30 0 
30 0 30 0 29 0 30 0 30 0 30 0 29 0 30 0 
30 70 30 146 29 6 30 192 30 -414 30 213 29 -1 30 15 
30 -25 30 0 29 35 30 -21 30 5 30 31 30 -58 29 39 
30 6 30 10 30 -40 29 26 30 33 30 -59 30 45 29 15 
30 -59 30 77 30 -61 29 43 30 -26 30 44 30 -62 29 58 
30 -40 30 22 30 -97 2862 2334 100 MP stroke
29 -18 30 208 30 -358 30 171 29 189 30 -360 30 170 30 22 
29 -40 30 28 30 12 30 -1 29 -14 30 34 30 -36 30 23 
29 -27 30 38 30 -35 30 39 29 -38 30 213 30 -388 30 209 
30 -22 29 11 30 3 30 0 30 -19 29 18 30 -1 30 -3 
30 -280 29 -146 30 -136 30 238 30 -123 29 18 30 -7 30 1 
30 -2 29 3 30 17 30 -8 30 -9 29 0 30 5 30 -10 
30 16 29 0 30 1 30 -115 30 208 29 -111 30 34 30 -11 
30 -33 29 19 30 15 30 -20 30 33 29 -13 30 -46 30 -342 
30 608 29 0 899 2502 67 MP stroke
/c10 { 0.000000 1.000000 0.000000 sr} bdef
c10
30 -114 29 -27 30 -282 30 290 30 -58 29 17 30 101 30 26 
30 -117 29 156 30 14 30 1 30 -45 29 47 30 48 30 93 
30 -94 29 158 30 -150 30 125 30 -153 29 262 30 -90 30 0 
30 42 29 -23 30 -19 30 30 30 35 29 -99 30 206 30 -141 
30 -31 30 0 29 0 30 0 30 0 30 0 29 0 30 0 
30 0 30 0 29 0 30 0 30 0 30 0 29 0 30 0 
30 0 30 0 29 0 30 0 30 0 30 0 29 0 30 0 
30 0 30 0 29 0 30 0 30 0 30 0 29 0 30 0 
30 -66 30 -158 29 102 30 -308 30 430 30 -222 29 169 30 -164 
30 82 30 -43 29 131 30 -83 30 -7 30 137 30 -168 29 111 
30 54 30 -6 30 -110 29 107 30 19 30 -50 30 47 29 78 
30 -155 30 203 30 -123 29 79 30 -31 30 47 30 -59 29 68 
30 -20 30 -25 30 -24 2862 2460 100 MP stroke
29 -49 30 71 30 -64 30 37 29 17 30 -54 30 62 30 -31 
29 -18 30 -23 30 102 30 -2 29 -76 30 53 30 9 30 -88 
29 58 30 67 30 -135 30 101 29 -69 30 104 30 -114 30 47 
30 54 29 -134 30 105 30 21 30 -164 29 160 30 -24 30 -43 
30 -116 29 -121 30 -108 30 176 30 -101 29 -2 30 49 30 -9 
30 69 29 -64 30 55 30 10 30 -23 29 70 30 -109 30 57 
30 17 29 15 30 87 30 -136 30 93 29 -43 30 34 30 31 
30 -42 29 21 30 78 30 -46 30 21 29 -21 30 91 30 1501 
30 -1556 29 0 899 2502 67 MP stroke
/c11 { 0.000000 1.000000 1.000000 sr} bdef
c11
30 2860 29 -1359 30 -6 30 3 30 13 29 0 30 8 30 -38 
30 27 29 -5 30 0 30 0 30 -26 29 24 30 23 30 -28 
30 27 29 -40 30 2 30 32 30 -36 29 -402 30 830 30 -430 
30 -13 29 35 30 -60 30 60 30 -15 29 -68 30 41 30 327 
30 123 30 0 29 0 30 0 30 0 30 0 29 0 30 0 
30 0 30 0 29 0 30 0 30 0 30 0 29 0 30 0 
30 0 30 0 29 0 30 0 30 0 30 0 29 0 30 0 
30 0 30 0 29 0 30 0 30 0 30 0 29 0 30 0 
30 9 30 19 29 7 30 47 30 -82 30 31 29 47 30 -83 
30 80 30 -21 29 -8 30 -7 30 2 30 -10 30 25 29 -10 
30 24 30 -39 30 11 29 27 30 -74 30 89 30 -51 29 3 
30 29 30 -46 30 48 29 -32 30 15 30 -52 30 87 29 -89 
30 71 30 -55 30 -368 2862 2858 100 MP stroke
29 17 30 -392 30 731 30 -355 29 -376 30 731 30 -336 30 -57 
29 75 30 -55 30 20 30 0 29 -1 30 -57 30 95 30 -95 
29 75 30 -37 30 -2 30 -16 29 36 30 -394 30 749 30 -412 
30 75 29 -74 30 16 30 19 30 -15 29 14 30 -19 30 23 
30 188 29 120 30 -33 30 64 30 -17 29 -40 30 14 30 -1 
30 35 29 -38 30 -21 30 16 30 20 29 -6 30 -15 30 15 
30 -20 29 -1 30 17 30 -34 30 54 29 -2 30 -57 30 17 
30 55 29 -38 30 -20 30 39 30 -56 29 18 30 70 30 -132 
30 162 29 0 899 2502 67 MP stroke
/c12 { 0.500000 0.600000 0.700000 sr} bdef
c12
30 585 29 -328 30 -241 30 236 30 -56 29 3 30 89 30 8 
30 -107 29 141 30 4 30 -4 30 -48 29 42 30 52 30 91 
30 -97 29 156 30 -161 30 143 30 -170 29 321 30 -175 30 32 
30 44 29 -16 30 -37 30 43 30 44 29 -140 30 260 30 -179 
30 -51 30 0 29 0 30 0 30 0 30 0 29 0 30 0 
30 0 30 0 29 0 30 0 30 0 30 0 29 0 30 0 
30 0 30 0 29 0 30 0 30 0 30 0 29 0 30 0 
30 0 30 0 29 0 30 0 30 0 30 0 29 0 30 0 
30 -92 30 -210 29 118 30 -388 30 572 30 -306 29 217 30 -217 
30 112 30 -55 29 157 30 -102 30 -10 30 168 30 -205 29 142 
30 63 30 -6 30 -142 29 141 30 11 30 -47 30 46 29 104 
30 -197 30 255 30 -150 29 95 30 -37 30 48 30 -57 29 67 
30 -10 30 -45 30 -32 2862 2494 100 MP stroke
29 -62 30 54 30 0 30 7 29 -8 30 1 30 53 30 -46 
29 -17 30 -42 30 157 30 0 29 -111 30 76 30 24 30 -136 
29 94 30 106 30 -206 30 158 29 -107 30 168 30 -171 30 69 
30 87 29 -201 30 163 30 39 30 -257 29 257 30 -39 30 -63 
30 -168 29 -188 30 -148 30 234 30 -152 29 -3 30 66 30 -12 
30 111 29 -111 30 78 30 30 30 -50 29 119 30 -188 30 82 
30 40 29 14 30 165 30 -247 30 156 29 -79 30 62 30 57 
30 -73 29 22 30 161 30 -101 30 48 29 -50 30 199 30 1562 
30 -1691 29 0 899 2502 67 MP stroke
/c13 { 0.800000 0.200000 0.600000 sr} bdef
c13
30 2165 29 -1023 30 15 30 -16 30 14 29 0 30 0 30 -29 
30 28 29 -14 30 0 30 0 30 -16 29 15 30 15 30 -28 
30 28 29 -41 30 11 30 17 30 -18 29 -303 30 599 30 -307 
30 -13 29 28 30 -44 30 44 30 -14 29 -46 30 21 30 244 
30 87 30 0 29 0 30 0 30 0 30 0 29 0 30 0 
30 0 30 0 29 0 30 0 30 0 30 0 29 0 30 0 
30 0 30 0 29 0 30 0 30 0 30 0 29 0 30 0 
30 0 30 0 29 0 30 0 30 0 30 0 29 0 30 0 
30 3 30 7 29 1 30 28 30 -39 30 12 29 27 30 -54 
30 56 30 -14 29 -14 30 0 30 1 30 -15 30 30 29 -16 
30 14 30 -29 30 17 29 12 30 -56 30 70 30 -42 29 -3 
30 33 30 -49 30 46 29 -31 30 15 30 -43 30 70 29 -72 
30 56 30 -40 30 -252 2862 2773 100 MP stroke
29 16 30 -304 30 559 30 -271 29 -288 30 559 30 -258 30 -42 
29 58 30 -41 30 9 30 0 29 3 30 -45 30 71 30 -68 
29 55 30 -32 30 6 30 -19 29 32 30 -305 30 576 30 -316 
30 54 29 -51 30 9 30 13 30 -6 29 6 30 -13 30 17 
30 163 29 102 30 -10 30 22 30 1 29 -30 30 12 30 -1 
30 26 29 -27 30 -17 30 12 30 16 29 -4 30 -11 30 13 
30 -16 29 0 30 11 30 -10 30 13 29 13 30 -44 30 13 
30 43 29 -29 30 -15 30 29 30 -42 29 14 30 55 30 -50 
30 35 29 0 899 2502 67 MP stroke
gr

c13
0 sg
3277 4983 mt 
(Time [s]) s
 446 3243 mt  -90 rotate
(Joint Velocity [rad/s]) s
90 rotate
%%IncludeResource: font Helvetica
/Helvetica /ISOLatin1Encoding 192 FMSR

2256  251 mt 
(Joint Velocity Normed: Medium) s
%%IncludeResource: font Helvetica
/Helvetica /ISOLatin1Encoding 120 FMSR

 882 4658 mt 
( ) s
6239  431 mt 
( ) s
1 sg
0 1064 639 0 0 -1064 5556 1513 4 MP
PP
-639 0 0 1064 639 0 0 -1064 5556 1513 5 MP stroke
4 w
DO
SO
6 w
0 sg
5556 1513 mt 6195 1513 L
5556  449 mt 6195  449 L
5556 1513 mt 5556  449 L
6195 1513 mt 6195  449 L
5556 1513 mt 6195 1513 L
5556 1513 mt 5556  449 L
5556 1513 mt 6195 1513 L
5556  449 mt 6195  449 L
5556 1513 mt 5556  449 L
6195 1513 mt 6195  449 L
6025  585 mt 
(q0) s
gs 5556 449 640 1065 MR c np
360 0 5628 542 2 MP stroke
gr

6025  731 mt 
(q1) s
gs 5556 449 640 1065 MR c np
c8
360 0 5628 688 2 MP stroke
gr

c8
0 sg
6025  877 mt 
(q2) s
gs 5556 449 640 1065 MR c np
c9
360 0 5628 834 2 MP stroke
gr

c9
0 sg
6025 1024 mt 
(q3) s
gs 5556 449 640 1065 MR c np
c10
360 0 5628 981 2 MP stroke
gr

c10
0 sg
6025 1170 mt 
(q4) s
gs 5556 449 640 1065 MR c np
c11
360 0 5628 1127 2 MP stroke
gr

c11
0 sg
6025 1316 mt 
(q5) s
gs 5556 449 640 1065 MR c np
c12
360 0 5628 1273 2 MP stroke
gr

c12
0 sg
6025 1462 mt 
(q6) s
gs 5556 449 640 1065 MR c np
c13
360 0 5628 1419 2 MP stroke
gr

c13

end %%Color Dict

eplot
%%EndObject

epage
end

showpage

%%Trailer
%%EOF
