Time,,JointPositionNormalized,,,,,
0,0,-0.3961,0,0.721154,0,0.200573,0
0.1,0,-0.3961,0,0.721154,0,0.200573,0
0.2,-0.000146392,-0.399715,-0.000635281,0.733023,0.000266662,0.213826,0.000221528
0.3,-0.000674755,-0.40049,-0.00130142,0.733066,0.000197859,0.214056,0.000262045
0.4,-0.00123797,-0.402297,-0.00187912,0.73355,-8.59613E-006,0.214973,0.000196741
0.5,-0.0018309,-0.401368,-0.00237728,0.733333,-0.000352842,0.21453,2.44589E-005
0.6,-0.00236112,-0.402247,-0.00304281,0.733548,-0.000423042,0.214957,6.43233E-005
0.7,-0.00295335,-0.401315,-0.00354203,0.733328,-0.000767066,0.214512,-0.000107632
0.8,-0.0034842,-0.402192,-0.00420654,0.733541,-0.000837452,0.214936,-6.80842E-005
0.9,-0.00411104,-0.402138,-0.00461527,0.733495,-0.00131862,0.214882,-0.000346066
1,-0.00464261,-0.403012,-0.00527905,0.733704,-0.00138962,0.215304,-0.000306914
1.1,-0.00515572,-0.40117,-0.00607444,0.733255,-0.00132871,0.214408,-0.000160633
1.2,-0.00572859,-0.402015,-0.00653883,0.733424,-0.00166386,0.214787,-0.000330334
1.3,-0.00633067,-0.400187,-0.00718645,0.733018,-0.00188656,0.213941,-0.000399518
1.4,-0.00690363,-0.401029,-0.00764968,0.733183,-0.0022214,0.214317,-0.000569444
1.5,-0.00690363,-0.401029,-0.00764968,0.733183,-0.0022214,0.214317,-0.000569444
1.6,-0.00798795,-0.400028,-0.00891102,0.732965,-0.00249749,0.213868,-0.000595196
1.7,-0.00855879,-0.401764,-0.0094753,0.733344,-0.00270628,0.214672,-0.000664512
1.8,-0.00910871,-0.399934,-0.0100773,0.732932,-0.00290967,0.213824,-0.00072612
1.9,-0.00973405,-0.399864,-0.0104864,0.732872,-0.00338964,0.213762,-0.0010038
2,-0.0102296,-0.399854,-0.0112422,0.732893,-0.00332095,0.213785,-0.000857155
2.1,-0.0108548,-0.399781,-0.0116514,0.732831,-0.00380084,0.213721,-0.00113479
2.2,-0.0113516,-0.39886,-0.0123072,0.732631,-0.00385787,0.213306,-0.00108829
2.3,-0.0119762,-0.398783,-0.0127165,0.732565,-0.00433727,0.213241,-0.00136582
2.4,-0.0124794,-0.396924,-0.0135236,0.732091,-0.00427059,0.212329,-0.00121443
2.5,-0.013103,-0.396844,-0.0139332,0.732022,-0.00474899,0.212262,-0.00149176
2.6,-0.013549,-0.396834,-0.014637,0.732037,-0.00466036,0.212281,-0.00133883
2.7,-0.0141322,-0.396775,-0.0152444,0.732005,-0.00487298,0.21225,-0.00140671
2.8,-0.0147153,-0.396715,-0.0158518,0.731972,-0.00508553,0.212218,-0.00147456
2.9,-0.0152975,-0.395748,-0.0163628,0.731719,-0.00542401,0.211755,-0.00164213
3,-0.0158356,-0.393847,-0.016976,0.731193,-0.00562088,0.210797,-0.00169863
3.1,-0.0163728,-0.394747,-0.0176275,0.731466,-0.00568916,0.211294,-0.00166182
3.2,-0.0169074,-0.391933,-0.0181473,0.730717,-0.00601142,0.209904,-0.0018173
3.3,-0.0174838,-0.393648,-0.0186937,0.731081,-0.00621875,0.210687,-0.00189057
3.4,-0.0180231,-0.392704,-0.0194047,0.730858,-0.00628811,0.210257,-0.00184676
3.5,-0.0185108,-0.391715,-0.0200641,0.73055,-0.00633864,0.209734,-0.00179651
3.6,-0.0185108,-0.391715,-0.0200641,0.73055,-0.00633864,0.209734,-0.00179651
3.7,-0.0197107,-0.390651,-0.0209916,0.730285,-0.00715252,0.209278,-0.00224245
3.8,-0.0201966,-0.389657,-0.0216518,0.72997,-0.00720146,0.20875,-0.00219133
3.9,-0.0207726,-0.388676,-0.0221682,0.729699,-0.00753477,0.208279,-0.00235628
4,-0.0213037,-0.388607,-0.0227238,0.729652,-0.00772479,0.208239,-0.00241718
4.1,-0.021836,-0.387602,-0.0234356,0.729326,-0.00778932,0.207705,-0.00237079
4.2,-0.0223695,-0.387583,-0.0239923,0.729367,-0.00797915,0.207761,-0.00243197
4.3,-0.0228956,-0.385664,-0.0246171,0.728816,-0.00816764,0.206797,-0.00248265
4.4,-0.0234683,-0.384675,-0.025136,0.728536,-0.00849804,0.206324,-0.00264619
4.5,-0.0240032,-0.385507,-0.0257766,0.728707,-0.00856158,0.206705,-0.00260967
4.6,-0.0245695,-0.38361,-0.0262101,0.728201,-0.00901707,0.205804,-0.00287057
4.7,-0.0251463,-0.383523,-0.0268155,0.728139,-0.00922121,0.205752,-0.0029362
4.8,-0.0251463,-0.383523,-0.0268155,0.728139,-0.00922121,0.205752,-0.0029362
4.9,-0.026149,-0.380592,-0.0281156,0.727314,-0.00945082,0.204324,-0.0029332
5,-0.0266766,-0.380511,-0.0286701,0.727255,-0.00963609,0.204275,-0.00299282
5.1,-0.0272859,-0.378597,-0.0291604,0.726731,-0.0101047,0.203368,-0.00325704
5.2,-0.0278126,-0.378514,-0.0297145,0.726667,-0.0102889,0.203316,-0.00331635
5.3,-0.0282467,-0.37668,-0.0304915,0.726226,-0.0101836,0.202484,-0.00314552
5.4,-0.0288527,-0.37476,-0.0309852,0.725694,-0.0106494,0.201577,-0.00340826
5.5,-0.0293276,-0.373748,-0.0316485,0.725348,-0.0106859,0.201037,-0.00335116
5.6,-0.0298524,-0.373662,-0.0322019,0.725281,-0.0108673,0.200984,-0.00340976
5.7,-0.0304555,-0.371738,-0.0326992,0.724741,-0.0113305,0.200076,-0.00367101
5.8,-0.0309284,-0.370723,-0.0333629,0.724389,-0.0113645,0.199534,-0.00361274
5.9,-0.031503,-0.371558,-0.0338054,0.724598,-0.0116897,0.199962,-0.00378694
6,-0.032013,-0.368726,-0.0346094,0.723804,-0.0117335,0.198592,-0.00371744
6.1,-0.0325262,-0.367725,-0.0350865,0.723498,-0.0120356,0.198114,-0.00387017
6.2,-0.0330064,-0.36762,-0.0358248,0.723373,-0.0119436,0.197992,-0.00371613
6.3,-0.0335602,-0.365748,-0.0362801,0.722916,-0.0123859,0.197184,-0.00396965
6.4,-0.0340664,-0.363802,-0.0369218,0.722312,-0.0125547,0.196212,-0.00400893
6.5,-0.0346393,-0.364632,-0.0373615,0.722517,-0.0128774,0.196634,-0.00418337
6.6,-0.0346393,-0.364632,-0.0373615,0.722517,-0.0128774,0.196634,-0.00418337
6.7,-0.0356398,-0.359805,-0.0385883,0.721133,-0.0133402,0.194339,-0.00436016
6.8,-0.0361061,-0.35878,-0.0392526,0.720762,-0.0133651,0.193792,-0.00429767
6.9,-0.0366608,-0.35776,-0.0397841,0.720432,-0.0136766,0.193304,-0.0044528
7,-0.037082,-0.355906,-0.0405674,0.719948,-0.0135517,0.192462,-0.00427127
7.1,-0.0376351,-0.354884,-0.0410997,0.719617,-0.0138614,0.191975,-0.00442563
7.2,-0.0376351,-0.354884,-0.0410997,0.719617,-0.0138614,0.191975,-0.00442563
7.3,-0.0386492,-0.352779,-0.0423019,0.718889,-0.0141931,0.190918,-0.00451778
7.4,-0.0391883,-0.350843,-0.0427687,0.718312,-0.0146238,0.190014,-0.00476468
7.5,-0.0397265,-0.348905,-0.0432369,0.71773,-0.0150532,0.18911,-0.00501098
7.6,-0.0401565,-0.347965,-0.0440855,0.71747,-0.0147987,0.188682,-0.00473316
7.7,-0.0406927,-0.346025,-0.0445558,0.716884,-0.015226,0.187779,-0.00497834
7.8,-0.0412404,-0.344994,-0.0450914,0.716535,-0.015529,0.187287,-0.00512985
7.9,-0.0416995,-0.343961,-0.0457557,0.716141,-0.0155425,0.186735,-0.00506222
8,-0.0421472,-0.341161,-0.04653,0.715374,-0.0155415,0.185465,-0.00497069
8.1,-0.042646,-0.34014,-0.0470168,0.715031,-0.0158262,0.184981,-0.00511588
8.2,-0.0431907,-0.339106,-0.0475541,0.714676,-0.0161252,0.184489,-0.00526567
8.3,-0.0436337,-0.337152,-0.0481584,0.714028,-0.0162558,0.183523,-0.0052876
8.4,-0.0440783,-0.334347,-0.0489356,0.713246,-0.0162478,0.182255,-0.00519217
8.5,-0.0445519,-0.331461,-0.0495322,0.712333,-0.0165115,0.180873,-0.00530918
8.6,-0.0451146,-0.332276,-0.0499629,0.71253,-0.0168221,0.181272,-0.00548358
8.7,-0.0455868,-0.329387,-0.0505624,0.711609,-0.0170837,0.179889,-0.00559907
8.8,-0.0461321,-0.328393,-0.051105,0.711328,-0.0173765,0.179485,-0.0057469
8.9,-0.0465388,-0.327364,-0.0517179,0.710924,-0.0173635,0.178938,-0.00566909
9,-0.046924,-0.323619,-0.052618,0.709813,-0.0171886,0.177194,-0.00544221
9.1,-0.0475014,-0.322601,-0.0529879,0.709495,-0.0177529,0.176773,-0.00580282
9.2,-0.0479836,-0.320626,-0.0536469,0.708809,-0.0178844,0.175802,-0.00582275
9.3,-0.0484251,-0.318708,-0.0542594,0.70822,-0.0180013,0.17493,-0.0058382
9.4,-0.0484251,-0.318708,-0.0542594,0.70822,-0.0180013,0.17493,-0.0058382
9.5,-0.0494794,-0.315657,-0.0552983,0.707187,-0.0186951,0.173523,-0.00622047
9.6,-0.0498555,-0.314711,-0.0560831,0.706898,-0.0183986,0.17309,-0.00592535
9.7,-0.0503738,-0.312749,-0.0565767,0.706253,-0.0188011,0.172191,-0.00615798
9.8,-0.050837,-0.309847,-0.05719,0.705289,-0.0190445,0.170815,-0.00626314
9.9,-0.0513056,-0.306988,-0.0578075,0.704408,-0.0192867,0.16953,-0.00636815
10,-0.0517584,-0.305985,-0.0584702,0.704059,-0.0192733,0.169062,-0.00628928
10.1,-0.0522734,-0.304019,-0.0589686,0.703399,-0.0196697,0.168164,-0.00651891
10.2,-0.0523892,-0.304008,-0.0586876,0.703405,-0.0202374,0.168207,-0.00695396
10.3,-0.0526418,-0.305876,-0.058008,0.704017,-0.0213934,0.169189,-0.00785557
10.4,-0.052875,-0.305895,-0.057441,0.704045,-0.0225286,0.169295,-0.00872602
10.5,-0.0530881,-0.306812,-0.0570905,0.704357,-0.0232648,0.169803,-0.0092914
10.6,-0.0532699,-0.305883,-0.0566396,0.704069,-0.0242446,0.169432,-0.0100358
10.7,-0.0535026,-0.305902,-0.0560724,0.704103,-0.0253798,0.169538,-0.0109063
10.8,-0.0537352,-0.305921,-0.0555051,0.704139,-0.0265149,0.169645,-0.0117767
10.9,-0.0539358,-0.305936,-0.0551076,0.704199,-0.0273731,0.169757,-0.0124321
11,-0.054083,-0.30592,-0.0546554,0.704189,-0.028217,0.169792,-0.0130818
11.1,-0.0543731,-0.307777,-0.0540148,0.704803,-0.0293804,0.170765,-0.0139864
11.2,-0.0545571,-0.306849,-0.0535642,0.704526,-0.0303614,0.170396,-0.0147309
11.3,-0.0547214,-0.307775,-0.0531613,0.704861,-0.0310823,0.170913,-0.0152916
11.4,-0.0549918,-0.306887,-0.0525951,0.704639,-0.0323556,0.170617,-0.0162575
11.5,-0.0551926,-0.308709,-0.0520637,0.70521,-0.0332267,0.171519,-0.0169421
11.6,-0.0554257,-0.308728,-0.0514919,0.705263,-0.0343605,0.171627,-0.0178119
11.7,-0.0556586,-0.308747,-0.05092,0.705317,-0.0354942,0.171736,-0.0186817
11.8,-0.05578,-0.309642,-0.0506757,0.70559,-0.0359361,0.172175,-0.0190265
11.9,-0.0560133,-0.309661,-0.0501024,0.705648,-0.0370694,0.172284,-0.0198961
12,-0.0562465,-0.30968,-0.0495291,0.705708,-0.0382026,0.172393,-0.0207657
12.1,-0.056434,-0.308752,-0.0490785,0.705447,-0.0391851,0.172026,-0.0215102
12.2,-0.0566812,-0.309707,-0.0485569,0.705842,-0.0401931,0.17261,-0.0222902
12.3,-0.0568693,-0.308779,-0.0481069,0.705585,-0.0411761,0.172244,-0.0230347
12.4,-0.0570605,-0.3106,-0.0475647,0.706172,-0.0420412,0.173145,-0.023718
12.5,-0.0572938,-0.310619,-0.0469899,0.706242,-0.0431739,0.173256,-0.0245873
12.6,-0.0574972,-0.310632,-0.0465895,0.706319,-0.044031,0.173365,-0.025242
12.7,-0.0577302,-0.310651,-0.0460146,0.706394,-0.0451636,0.173476,-0.0261114
12.8,-0.0579195,-0.310623,-0.0456018,0.70639,-0.0460185,0.173498,-0.0267643
12.9,-0.0580783,-0.311548,-0.0451906,0.706745,-0.0467338,0.174016,-0.0273239
13,-0.0582695,-0.310619,-0.0447403,0.7065,-0.0477177,0.173651,-0.0280683
13.1,-0.0585412,-0.312474,-0.0440759,0.707149,-0.0488676,0.17462,-0.0289698
13.2,-0.058661,-0.311558,-0.0437542,0.706942,-0.0495624,0.174278,-0.0294949
13.3,-0.058661,-0.311558,-0.0437542,0.706942,-0.0495624,0.174278,-0.0294949
13.4,-0.0590835,-0.311673,-0.0427553,0.707067,-0.0515493,0.174469,-0.0310186
13.5,-0.0592642,-0.313493,-0.0421999,0.707673,-0.052407,0.175371,-0.0317001
13.6,-0.0595234,-0.311693,-0.0417772,0.707243,-0.0535396,0.174684,-0.0325431
13.7,-0.0597017,-0.313514,-0.0412199,0.707854,-0.0543961,0.175586,-0.0332245
13.8,-0.0598966,-0.312585,-0.0407698,0.707622,-0.0553812,0.175225,-0.0339688
13.9,-0.0600523,-0.31351,-0.0403541,0.707991,-0.0560932,0.175742,-0.0345275
14,-0.0603366,-0.31262,-0.0397893,0.707814,-0.0573705,0.175448,-0.0354931
14.1,-0.0604732,-0.313505,-0.039356,0.708106,-0.0580791,0.17588,-0.0360498
14.2,-0.0607257,-0.313564,-0.0387945,0.70829,-0.0592126,0.176079,-0.0369203
14.3,-0.0609127,-0.313534,-0.0383755,0.708304,-0.060066,0.176101,-0.0375725
14.4,-0.0610947,-0.314461,-0.0377811,0.708692,-0.06105,0.176624,-0.0383445
14.5,-0.0613012,-0.314472,-0.037379,0.708787,-0.061906,0.17673,-0.0389986
14.6,-0.0614995,-0.313543,-0.0369304,0.708569,-0.0628924,0.176372,-0.0397429
14.7,-0.0617335,-0.313562,-0.0363519,0.708683,-0.0640229,0.176488,-0.0406113
14.8,-0.0618507,-0.31355,-0.0360643,0.708735,-0.0645881,0.176536,-0.0410452
14.9,-0.0620847,-0.313568,-0.035486,0.708853,-0.0657185,0.176652,-0.0419136
15,-0.0622703,-0.313539,-0.0350656,0.708876,-0.0665715,0.176674,-0.0425655
15.1,-0.0625255,-0.313598,-0.0345076,0.709075,-0.0677049,0.176873,-0.0434362
15.2,-0.0627107,-0.313568,-0.0340869,0.709101,-0.0685578,0.176895,-0.0440881
15.3,-0.0628554,-0.313554,-0.0336223,0.709178,-0.0693969,0.176952,-0.0447359
15.4,-0.0630623,-0.313564,-0.0332224,0.709281,-0.070253,0.177056,-0.0453901
15.5,-0.0632797,-0.314476,-0.0326682,0.709645,-0.0712473,0.177547,-0.0461655
15.6,-0.0634473,-0.314502,-0.0322245,0.709802,-0.0720894,0.177686,-0.0468154
15.7,-0.063632,-0.314472,-0.0318019,0.709835,-0.0729417,0.177709,-0.047467
15.8,-0.0638669,-0.31449,-0.0312231,0.70997,-0.0740712,0.177826,-0.0483351
15.9,-0.0639846,-0.314478,-0.0309353,0.710033,-0.074636,0.177876,-0.0487687
16,-0.0641887,-0.31355,-0.0304915,0.709834,-0.0756252,0.177525,-0.0495133
16.1,-0.0641887,-0.31355,-0.0304915,0.709834,-0.0756252,0.177525,-0.0495133
16.2,-0.0646044,-0.316467,-0.0291952,0.711014,-0.0777259,0.17907,-0.0511771
16.3,-0.0647529,-0.314594,-0.0290663,0.710453,-0.0783005,0.178239,-0.0515826
16.4,-0.0649883,-0.314612,-0.028488,0.7106,-0.0794296,0.178358,-0.0524505
16.5,-0.0651584,-0.314639,-0.0280471,0.710771,-0.0802715,0.1785,-0.0531004
16.6,-0.0653938,-0.314657,-0.0274688,0.710922,-0.0814004,0.178619,-0.0539682
16.7,-0.0653938,-0.314657,-0.0274688,0.710922,-0.0814004,0.178619,-0.0539682
16.8,-0.0657218,-0.315628,-0.0266157,0.711399,-0.082953,0.179191,-0.0551758
16.9,-0.0659918,-0.312874,-0.0263619,0.710648,-0.0839634,0.178041,-0.0558974
17,-0.0661105,-0.313758,-0.0259138,0.710992,-0.0846628,0.178476,-0.056452
17.1,-0.0663724,-0.314722,-0.0252003,0.711494,-0.0859284,0.179063,-0.0574423
17.2,-0.0664907,-0.314711,-0.0249133,0.711569,-0.0864928,0.179114,-0.0578758
17.3,-0.0667647,-0.313779,-0.0243343,0.711372,-0.0877721,0.17875,-0.0588389
17.4,-0.0669088,-0.314703,-0.0239104,0.71179,-0.0884741,0.179261,-0.0593958
17.5,-0.067082,-0.31473,-0.0234729,0.711976,-0.0893157,0.179406,-0.0600457
17.6,-0.0673296,-0.313783,-0.0230741,0.711736,-0.0903219,0.179019,-0.0607944
17.7,-0.0674752,-0.313771,-0.0226106,0.711859,-0.0911592,0.179088,-0.0614416
17.8,-0.0677154,-0.312883,-0.0222025,0.711751,-0.0921567,0.178822,-0.0621894
17.9,-0.0678607,-0.312871,-0.0217403,0.711878,-0.0929941,0.178892,-0.0628366
18,-0.0680142,-0.312841,-0.0214932,0.711893,-0.0935726,0.178898,-0.0632741
18.1,-0.0682729,-0.313805,-0.0207805,0.712419,-0.0948357,0.179483,-0.064264
18.2,-0.0684189,-0.313792,-0.0203176,0.712552,-0.0956725,0.179555,-0.064911
18.3,-0.0686973,-0.312886,-0.0199502,0.712379,-0.0966852,0.179243,-0.0656628
18.4,-0.0688431,-0.312874,-0.0194885,0.712516,-0.0975222,0.179316,-0.06631
18.5,-0.0690528,-0.312882,-0.0190936,0.712646,-0.0983782,0.179414,-0.0669639
18.6,-0.0690528,-0.312882,-0.0190936,0.712646,-0.0983782,0.179414,-0.0669639
18.7,-0.0693766,-0.312933,-0.0181994,0.712887,-0.100065,0.179555,-0.0682632
18.8,-0.0693766,-0.312933,-0.0181994,0.712887,-0.100065,0.179555,-0.0682632
18.9,-0.0697306,-0.313023,-0.0173351,0.713194,-0.101756,0.179769,-0.0695653
19,-0.0700304,-0.310269,-0.0171084,0.712433,-0.102783,0.178635,-0.0702895
19.1,-0.0702142,-0.312138,-0.0163695,0.713288,-0.103885,0.179622,-0.071181
19.2,-0.0705046,-0.310295,-0.0159719,0.712824,-0.105041,0.178881,-0.0720253
19.3,-0.0706234,-0.310284,-0.01569,0.712917,-0.105606,0.178934,-0.0724591
19.4,-0.0707473,-0.312104,-0.0150942,0.713661,-0.10643,0.179822,-0.0731344
19.5,-0.0710542,-0.30935,-0.0148742,0.712897,-0.10746,0.178693,-0.0738593
19.6,-0.0711761,-0.31117,-0.0142785,0.713646,-0.108284,0.179579,-0.0745347
19.7,-0.0713653,-0.310264,-0.0138194,0.713572,-0.109267,0.179302,-0.0752766
19.8,-0.0713653,-0.310264,-0.0138194,0.713572,-0.109267,0.179302,-0.0752766
19.9,-0.0718674,-0.308555,-0.0130236,0.713292,-0.111285,0.178718,-0.076781
20,-0.0720136,-0.308546,-0.0125694,0.713459,-0.112123,0.178799,-0.0774286
20.1,-0.072169,-0.307678,-0.012503,0.713193,-0.112545,0.178443,-0.0777253
20.2,-0.0717263,-0.309974,-0.0115835,0.713741,-0.112838,0.179004,-0.0780436
20.3,-0.0712369,-0.311361,-0.0109715,0.713875,-0.112725,0.179112,-0.0780264
20.4,-0.0706593,-0.314614,-0.0101541,0.714763,-0.112573,0.180123,-0.0780328
20.5,-0.0701516,-0.315073,-0.00968169,0.714538,-0.112327,0.17979,-0.0778917
20.6,-0.0697257,-0.316477,-0.00893136,0.71478,-0.11249,0.179978,-0.0780892
20.7,-0.069235,-0.317859,-0.00831886,0.71491,-0.112376,0.180084,-0.0780711
20.8,-0.0687282,-0.320119,-0.00753374,0.715342,-0.112386,0.180559,-0.0781712
20.9,-0.0681447,-0.321571,-0.00702887,0.715571,-0.111973,0.180765,-0.0779342
21,-0.067638,-0.323828,-0.00624398,0.715997,-0.111982,0.181239,-0.0780333
21.1,-0.0671951,-0.324298,-0.0056302,0.715882,-0.112012,0.180983,-0.0781079
21.2,-0.0667029,-0.325673,-0.00501732,0.716008,-0.111896,0.181086,-0.0780887
21.3,-0.0662121,-0.328848,-0.00409325,0.716787,-0.112031,0.181998,-0.0783067
21.4,-0.0656861,-0.328441,-0.00376063,0.71634,-0.111646,0.181347,-0.0780441
21.5,-0.0651777,-0.330691,-0.00297555,0.716764,-0.111651,0.181819,-0.0781413
21.6,-0.0647509,-0.330274,-0.0025329,0.716347,-0.111557,0.181188,-0.0780984
21.7,-0.0647509,-0.330274,-0.0025329,0.716347,-0.111557,0.181188,-0.0780984
21.8,-0.063656,-0.335621,-0.000955198,0.717499,-0.111405,0.182495,-0.0781912
21.9,-0.0632294,-0.3352,-0.000510753,0.717082,-0.111312,0.181862,-0.0781488
22,-0.0625846,-0.339262,0.000297691,0.718058,-0.111008,0.183104,-0.0780523
22.1,-0.0621429,-0.339722,0.000916715,0.717938,-0.111036,0.182841,-0.0781263
22.2,-0.0621429,-0.339722,0.000916715,0.717938,-0.111036,0.182841,-0.0781263
22.3,-0.0610918,-0.342368,0.0021984,0.718188,-0.110774,0.182995,-0.0780752
22.4,-0.0606115,-0.342851,0.00263906,0.718007,-0.110533,0.182723,-0.0779382
22.5,-0.0606115,-0.342851,0.00263906,0.718007,-0.110533,0.182723,-0.0779382
22.6,-0.0596001,-0.345471,0.00409616,0.718308,-0.110539,0.182878,-0.078096
22.7,-0.0591191,-0.345952,0.00453719,0.718127,-0.110298,0.182606,-0.0779592
22.8,-0.0586073,-0.348186,0.00532057,0.71854,-0.110297,0.183071,-0.0780517
22.9,-0.0579904,-0.350419,0.00599227,0.718916,-0.110008,0.183516,-0.0779274
23,-0.0575662,-0.349989,0.00644228,0.718494,-0.109915,0.182876,-0.077887
23.1,-0.0570538,-0.35222,0.00722496,0.718903,-0.109913,0.183339,-0.0779785
23.2,-0.0565405,-0.354448,0.00800849,0.719312,-0.109909,0.183803,-0.0780695
23.3,-0.0561415,-0.351247,0.00819518,0.717948,-0.109717,0.18191,-0.0778911
23.4,-0.0555563,-0.355308,0.00913178,0.719022,-0.109675,0.183224,-0.0779977
23.5,-0.0550249,-0.356612,0.00977887,0.71908,-0.109547,0.183248,-0.0779718
23.6,-0.0545246,-0.356162,0.0100845,0.718544,-0.109182,0.182535,-0.0777187
23.7,-0.0540404,-0.357513,0.0109114,0.718793,-0.109313,0.182688,-0.0779026
23.8,-0.0535089,-0.358815,0.0115576,0.71885,-0.109186,0.182712,-0.0778766
23.9,-0.0530099,-0.360161,0.012169,0.718959,-0.109063,0.182805,-0.0778534
24,-0.0524781,-0.361461,0.0128151,0.719014,-0.108935,0.182827,-0.0778272
24.1,-0.051964,-0.361949,0.0132906,0.718904,-0.108682,0.182605,-0.0776881
24.2,-0.0515259,-0.362328,0.0139174,0.718643,-0.108718,0.182207,-0.0777633
24.3,-0.0509795,-0.364567,0.0147292,0.719125,-0.108698,0.18272,-0.0778481
24.4,-0.0505265,-0.362276,0.0149187,0.717997,-0.108362,0.181198,-0.0775796
24.5,-0.0500113,-0.364495,0.015694,0.718401,-0.108357,0.181654,-0.0776675
24.6,-0.049384,-0.366709,0.0163554,0.718768,-0.108066,0.182094,-0.0775396
24.7,-0.0490455,-0.366233,0.0169665,0.718324,-0.10826,0.181398,-0.0777175
24.8,-0.048482,-0.367548,0.0176448,0.718456,-0.108119,0.181473,-0.0776877
24.9,-0.0480792,-0.366162,0.0179394,0.717598,-0.107923,0.180336,-0.077541
25,-0.047466,-0.369289,0.0187269,0.718315,-0.107754,0.181208,-0.0775256
25.1,-0.0469025,-0.3706,0.0194044,0.718443,-0.107612,0.181281,-0.0774956
25.2,-0.0465359,-0.370078,0.0200544,0.717944,-0.107802,0.180513,-0.0776719
25.3,-0.0459367,-0.370544,0.0203823,0.71772,-0.107279,0.180226,-0.0773215
25.4,-0.0454876,-0.371865,0.0211742,0.717885,-0.107423,0.180315,-0.0775071
25.5,-0.0450084,-0.371331,0.0217095,0.717347,-0.107328,0.17953,-0.0774677
25.6,-0.0445073,-0.372667,0.0223158,0.717452,-0.107207,0.179618,-0.0774436
25.7,-0.0445073,-0.372667,0.0223158,0.717452,-0.107207,0.179618,-0.0774436
25.8,-0.0435307,-0.373417,0.0234509,0.717002,-0.106989,0.178899,-0.0773783
25.9,-0.0430858,-0.372929,0.0239526,0.716516,-0.106901,0.178184,-0.0773429
26,-0.0425529,-0.374218,0.0245929,0.716568,-0.106775,0.178202,-0.0773163
26.1,-0.0425529,-0.374218,0.0245929,0.716568,-0.106775,0.178202,-0.0773163
26.2,-0.0416508,-0.374071,0.0257545,0.715875,-0.106714,0.177117,-0.0773533
26.3,-0.0411352,-0.374483,0.0262338,0.715629,-0.106475,0.176773,-0.077218
26.4,-0.0406753,-0.374877,0.0268985,0.715442,-0.106503,0.176424,-0.077293
26.5,-0.0400248,-0.376224,0.0274213,0.715592,-0.106086,0.176555,-0.0770508
26.6,-0.0400248,-0.376224,0.0274213,0.715592,-0.106086,0.176555,-0.0770508
26.7,-0.0389659,-0.376944,0.0284089,0.715023,-0.105604,0.175773,-0.0767769
26.8,-0.0385218,-0.378264,0.0291949,0.715186,-0.105752,0.175855,-0.0769621
26.9,-0.0380874,-0.375967,0.0294204,0.714038,-0.105434,0.174341,-0.0767105
27,-0.0376442,-0.377288,0.0302044,0.714202,-0.105583,0.174422,-0.0768959
27.1,-0.0371119,-0.378574,0.0308397,0.714253,-0.105461,0.174438,-0.0768695
27.2,-0.0366747,-0.378085,0.0313485,0.713761,-0.105379,0.173723,-0.0768384
27.3,-0.0362195,-0.378479,0.0320136,0.713571,-0.10541,0.173372,-0.0769149
27.4,-0.0357054,-0.378888,0.0324933,0.713322,-0.105175,0.173028,-0.0767816
27.5,-0.0352391,-0.378355,0.0330403,0.712774,-0.10509,0.172246,-0.0767495
27.6,-0.0352391,-0.378355,0.0330403,0.712774,-0.10509,0.172246,-0.0767495
27.7,-0.0343421,-0.377277,0.0340954,0.711709,-0.104925,0.170733,-0.0766858
27.8,-0.0337504,-0.378646,0.0345412,0.711836,-0.104531,0.170881,-0.0764492
27.9,-0.0337504,-0.378646,0.0345412,0.711836,-0.104531,0.170881,-0.0764492
28,-0.03297,-0.376654,0.035598,0.710437,-0.104537,0.168947,-0.076495
28.1,-0.0324084,-0.37796,0.0362624,0.710569,-0.104407,0.169016,-0.0764664
28.2,-0.0319784,-0.377413,0.0367777,0.70994,-0.104339,0.168185,-0.0764403
28.3,-0.0314363,-0.377841,0.0372923,0.709767,-0.104097,0.167896,-0.0763062
28.4,-0.0311006,-0.377333,0.037957,0.709252,-0.104303,0.167128,-0.0764936
28.5,-0.0305586,-0.377761,0.0384721,0.709082,-0.104062,0.16684,-0.07636
28.6,-0.0301509,-0.376335,0.0388416,0.708144,-0.103884,0.165654,-0.0762298
28.7,-0.0295906,-0.377641,0.0395024,0.708278,-0.103757,0.165722,-0.0762017
28.8,-0.0291642,-0.377159,0.0400193,0.707778,-0.103685,0.165014,-0.076177
28.9,-0.0287283,-0.375751,0.0404277,0.706914,-0.103497,0.163881,-0.0760458
29,-0.0282835,-0.376154,0.0410898,0.706723,-0.103539,0.163531,-0.0761267
29.1,-0.0277642,-0.375646,0.0414619,0.706111,-0.103197,0.162772,-0.0758906
29.2,-0.0273209,-0.376051,0.0421235,0.705918,-0.10324,0.162423,-0.075972
29.3,-0.0268885,-0.374645,0.0425367,0.70505,-0.103055,0.161294,-0.0758433
29.4,-0.0264668,-0.374168,0.0430561,0.704547,-0.102988,0.16059,-0.0758213
29.5,-0.0260159,-0.373648,0.0436132,0.703988,-0.102918,0.159819,-0.0757984
29.6,-0.0255956,-0.373174,0.0441336,0.703485,-0.102852,0.159116,-0.0757773
29.7,-0.025155,-0.373584,0.044794,0.703294,-0.102899,0.15877,-0.0758602
29.8,-0.0247267,-0.372182,0.0452139,0.702423,-0.102719,0.157647,-0.0757347
29.9,-0.0241901,-0.372617,0.0457283,0.702253,-0.102487,0.157366,-0.0756047
30,-0.0241901,-0.372617,0.0457283,0.702253,-0.102487,0.157366,-0.0756047
30.1,-0.0232111,-0.372417,0.0467996,0.701367,-0.102196,0.15618,-0.0754529
30.2,-0.0232326,-0.371532,0.0466606,0.701053,-0.102084,0.155822,-0.0753497
30.3,-0.0232326,-0.371532,0.0466606,0.701053,-0.102084,0.155822,-0.0753497
30.4,-0.0232326,-0.371532,0.0466606,0.701053,-0.102084,0.155822,-0.0753497
30.5,-0.0232326,-0.371532,0.0466606,0.701053,-0.102084,0.155822,-0.0753497
30.6,-0.0232326,-0.371532,0.0466606,0.701053,-0.102084,0.155822,-0.0753497
30.7,-0.0232326,-0.371532,0.0466606,0.701053,-0.102084,0.155822,-0.0753497
30.8,-0.0232326,-0.371532,0.0466606,0.701053,-0.102084,0.155822,-0.0753497
30.9,-0.0232326,-0.371532,0.0466606,0.701053,-0.102084,0.155822,-0.0753497
31,-0.0232326,-0.371532,0.0466606,0.701053,-0.102084,0.155822,-0.0753497
31.1,-0.0232326,-0.371532,0.0466606,0.701053,-0.102084,0.155822,-0.0753497
31.2,-0.0232326,-0.371532,0.0466606,0.701053,-0.102084,0.155822,-0.0753497
31.3,-0.0232326,-0.371532,0.0466606,0.701053,-0.102084,0.155822,-0.0753497
31.4,-0.0232326,-0.371532,0.0466606,0.701053,-0.102084,0.155822,-0.0753497
31.5,-0.0232326,-0.371532,0.0466606,0.701053,-0.102084,0.155822,-0.0753497
31.6,-0.0232326,-0.371532,0.0466606,0.701053,-0.102084,0.155822,-0.0753497
31.7,-0.0232326,-0.371532,0.0466606,0.701053,-0.102084,0.155822,-0.0753497
31.8,-0.0232326,-0.371532,0.0466606,0.701053,-0.102084,0.155822,-0.0753497
31.9,-0.0232326,-0.371532,0.0466606,0.701053,-0.102084,0.155822,-0.0753497
32,-0.0232326,-0.371532,0.0466606,0.701053,-0.102084,0.155822,-0.0753497
32.1,-0.0232326,-0.371532,0.0466606,0.701053,-0.102084,0.155822,-0.0753497
32.2,-0.0232326,-0.371532,0.0466606,0.701053,-0.102084,0.155822,-0.0753497
32.3,-0.0232326,-0.371532,0.0466606,0.701053,-0.102084,0.155822,-0.0753497
32.4,-0.0232326,-0.371532,0.0466606,0.701053,-0.102084,0.155822,-0.0753497
32.5,-0.0232326,-0.371532,0.0466606,0.701053,-0.102084,0.155822,-0.0753497
32.6,-0.0232326,-0.371532,0.0466606,0.701053,-0.102084,0.155822,-0.0753497
32.7,-0.0232326,-0.371532,0.0466606,0.701053,-0.102084,0.155822,-0.0753497
32.8,-0.0232326,-0.371532,0.0466606,0.701053,-0.102084,0.155822,-0.0753497
32.9,-0.0232326,-0.371532,0.0466606,0.701053,-0.102084,0.155822,-0.0753497
33,-0.0232326,-0.371532,0.0466606,0.701053,-0.102084,0.155822,-0.0753497
33.1,-0.0232326,-0.371532,0.0466606,0.701053,-0.102084,0.155822,-0.0753497
33.2,-0.0232326,-0.371532,0.0466606,0.701053,-0.102084,0.155822,-0.0753497
33.3,-0.0232326,-0.371532,0.0466606,0.701053,-0.102084,0.155822,-0.0753497
33.4,-0.0232326,-0.371532,0.0466606,0.701053,-0.102084,0.155822,-0.0753497
33.5,-0.0232326,-0.371532,0.0466606,0.701053,-0.102084,0.155822,-0.0753497
33.6,-0.0232326,-0.371532,0.0466606,0.701053,-0.102084,0.155822,-0.0753497
33.7,-0.0232326,-0.371532,0.0466606,0.701053,-0.102084,0.155822,-0.0753497
33.8,-0.0232326,-0.371532,0.0466606,0.701053,-0.102084,0.155822,-0.0753497
33.9,-0.0232326,-0.371532,0.0466606,0.701053,-0.102084,0.155822,-0.0753497
34,-0.0232326,-0.371532,0.0466606,0.701053,-0.102084,0.155822,-0.0753497
34.1,-0.0232326,-0.371532,0.0466606,0.701053,-0.102084,0.155822,-0.0753497
34.2,-0.0232326,-0.371532,0.0466606,0.701053,-0.102084,0.155822,-0.0753497
34.3,-0.0232326,-0.371532,0.0466606,0.701053,-0.102084,0.155822,-0.0753497
34.4,-0.0232326,-0.371532,0.0466606,0.701053,-0.102084,0.155822,-0.0753497
34.5,-0.0232326,-0.371532,0.0466606,0.701053,-0.102084,0.155822,-0.0753497
34.6,-0.0232326,-0.371532,0.0466606,0.701053,-0.102084,0.155822,-0.0753497
34.7,-0.0232326,-0.371532,0.0466606,0.701053,-0.102084,0.155822,-0.0753497
34.8,-0.0232326,-0.371532,0.0466606,0.701053,-0.102084,0.155822,-0.0753497
34.9,-0.0232326,-0.371532,0.0466606,0.701053,-0.102084,0.155822,-0.0753497
35,-0.0232326,-0.371532,0.0466606,0.701053,-0.102084,0.155822,-0.0753497
35.1,-0.0232326,-0.371532,0.0466606,0.701053,-0.102084,0.155822,-0.0753497
35.2,-0.0232326,-0.371532,0.0466606,0.701053,-0.102084,0.155822,-0.0753497
35.3,-0.0232326,-0.371532,0.0466606,0.701053,-0.102084,0.155822,-0.0753497
35.4,-0.0232326,-0.371532,0.0466606,0.701053,-0.102084,0.155822,-0.0753497
35.5,-0.0232326,-0.371532,0.0466606,0.701053,-0.102084,0.155822,-0.0753497
35.6,-0.0232326,-0.371532,0.0466606,0.701053,-0.102084,0.155822,-0.0753497
35.7,-0.0232326,-0.371532,0.0466606,0.701053,-0.102084,0.155822,-0.0753497
35.8,-0.0232326,-0.371532,0.0466606,0.701053,-0.102084,0.155822,-0.0753497
35.9,-0.0232326,-0.371532,0.0466606,0.701053,-0.102084,0.155822,-0.0753497
36,-0.0232326,-0.371532,0.0466606,0.701053,-0.102084,0.155822,-0.0753497
36.1,-0.0232326,-0.371532,0.0466606,0.701053,-0.102084,0.155822,-0.0753497
36.2,-0.0232326,-0.371532,0.0466606,0.701053,-0.102084,0.155822,-0.0753497
36.3,-0.0232326,-0.371532,0.0466606,0.701053,-0.102084,0.155822,-0.0753497
36.4,-0.0232326,-0.371532,0.0466606,0.701053,-0.102084,0.155822,-0.0753497
36.5,-0.0232326,-0.371532,0.0466606,0.701053,-0.102084,0.155822,-0.0753497
36.6,-0.0232326,-0.371532,0.0466606,0.701053,-0.102084,0.155822,-0.0753497
36.7,-0.0232326,-0.371532,0.0466606,0.701053,-0.102084,0.155822,-0.0753497
36.8,-0.0232326,-0.371532,0.0466606,0.701053,-0.102084,0.155822,-0.0753497
36.9,-0.0232326,-0.371532,0.0466606,0.701053,-0.102084,0.155822,-0.0753497
37,-0.0232326,-0.371532,0.0466606,0.701053,-0.102084,0.155822,-0.0753497
37.1,-0.0232326,-0.371532,0.0466606,0.701053,-0.102084,0.155822,-0.0753497
37.2,-0.0232326,-0.371532,0.0466606,0.701053,-0.102084,0.155822,-0.0753497
37.3,-0.0232326,-0.371532,0.0466606,0.701053,-0.102084,0.155822,-0.0753497
37.4,-0.0232326,-0.371532,0.0466606,0.701053,-0.102084,0.155822,-0.0753497
37.5,-0.0232326,-0.371532,0.0466606,0.701053,-0.102084,0.155822,-0.0753497
37.6,-0.0232326,-0.371532,0.0466606,0.701053,-0.102084,0.155822,-0.0753497
37.7,-0.0232326,-0.371532,0.0466606,0.701053,-0.102084,0.155822,-0.0753497
37.8,-0.0232326,-0.371532,0.0466606,0.701053,-0.102084,0.155822,-0.0753497
37.9,-0.0232326,-0.371532,0.0466606,0.701053,-0.102084,0.155822,-0.0753497
38,-0.0232326,-0.371532,0.0466606,0.701053,-0.102084,0.155822,-0.0753497
38.1,-0.0232326,-0.371532,0.0466606,0.701053,-0.102084,0.155822,-0.0753497
38.2,-0.0232326,-0.371532,0.0466606,0.701053,-0.102084,0.155822,-0.0753497
38.3,-0.0232326,-0.371532,0.0466606,0.701053,-0.102084,0.155822,-0.0753497
38.4,-0.0232326,-0.371532,0.0466606,0.701053,-0.102084,0.155822,-0.0753497
38.5,-0.0232326,-0.371532,0.0466606,0.701053,-0.102084,0.155822,-0.0753497
38.6,-0.0232326,-0.371532,0.0466606,0.701053,-0.102084,0.155822,-0.0753497
38.7,-0.0232326,-0.371532,0.0466606,0.701053,-0.102084,0.155822,-0.0753497
38.8,-0.0232326,-0.371532,0.0466606,0.701053,-0.102084,0.155822,-0.0753497
38.9,-0.0232326,-0.371532,0.0466606,0.701053,-0.102084,0.155822,-0.0753497
39,-0.0232326,-0.371532,0.0466606,0.701053,-0.102084,0.155822,-0.0753497
39.1,-0.0232326,-0.371532,0.0466606,0.701053,-0.102084,0.155822,-0.0753497
39.2,-0.0232326,-0.371532,0.0466606,0.701053,-0.102084,0.155822,-0.0753497
39.3,-0.0232326,-0.371532,0.0466606,0.701053,-0.102084,0.155822,-0.0753497
39.4,-0.0232326,-0.371532,0.0466606,0.701053,-0.102084,0.155822,-0.0753497
39.5,-0.0232326,-0.371532,0.0466606,0.701053,-0.102084,0.155822,-0.0753497
39.6,-0.0232326,-0.371532,0.0466606,0.701053,-0.102084,0.155822,-0.0753497
39.7,-0.0232326,-0.371532,0.0466606,0.701053,-0.102084,0.155822,-0.0753497
39.8,-0.0232326,-0.371532,0.0466606,0.701053,-0.102084,0.155822,-0.0753497
39.9,-0.0232326,-0.371532,0.0466606,0.701053,-0.102084,0.155822,-0.0753497
40,-0.0232326,-0.371532,0.0466606,0.701053,-0.102084,0.155822,-0.0753497
40.1,-0.0232326,-0.371532,0.0466606,0.701053,-0.102084,0.155822,-0.0753497
40.2,-0.0240947,-0.371938,0.0466558,0.701362,-0.103284,0.156212,-0.0762274
40.3,-0.0248704,-0.373209,0.0466063,0.701907,-0.104324,0.156955,-0.0769943
40.4,-0.0258244,-0.372743,0.0466457,0.701955,-0.105686,0.156976,-0.0779836
40.5,-0.0265959,-0.373075,0.046493,0.702108,-0.106617,0.157275,-0.0786495
40.6,-0.0275572,-0.373549,0.0466344,0.702514,-0.10809,0.157719,-0.0797401
40.7,-0.0283553,-0.372977,0.046336,0.702321,-0.108914,0.157638,-0.0803048
40.8,-0.029309,-0.371557,0.0462611,0.701953,-0.110169,0.157203,-0.0811924
40.9,-0.0301537,-0.372899,0.0463926,0.702656,-0.111471,0.158032,-0.0821704
41,-0.0308656,-0.37325,0.0460485,0.702808,-0.11213,0.158407,-0.0826242
41.1,-0.0317082,-0.37365,0.0460736,0.70312,-0.113324,0.158797,-0.0835009
41.2,-0.0326719,-0.373166,0.046101,0.703095,-0.114692,0.158775,-0.0844907
41.3,-0.0335437,-0.372659,0.0459731,0.703053,-0.115782,0.158784,-0.0852662
41.4,-0.034389,-0.373052,0.0459953,0.703337,-0.116978,0.159155,-0.0861435
41.5,-0.0352846,-0.370698,0.0455982,0.702556,-0.117851,0.158356,-0.0867129
41.6,-0.0361347,-0.372024,0.0457289,0.703205,-0.119158,0.159143,-0.0876931
41.7,-0.0369117,-0.370565,0.0453277,0.702737,-0.11986,0.158747,-0.0881502
41.8,-0.0378556,-0.371024,0.0454886,0.703127,-0.121329,0.159174,-0.0892409
41.9,-0.0386121,-0.371391,0.0453535,0.70336,-0.12225,0.159557,-0.0899054
42,-0.0394636,-0.370885,0.0452448,0.703337,-0.123333,0.159584,-0.0906791
42.1,-0.0402425,-0.37042,0.0451437,0.703307,-0.124324,0.159604,-0.0913863
42.2,-0.0410402,-0.371747,0.0450802,0.703937,-0.125361,0.160449,-0.0921564
42.3,-0.0420149,-0.370346,0.0449631,0.703551,-0.126621,0.160056,-0.0930421
42.4,-0.0429652,-0.36896,0.0448708,0.703239,-0.12787,0.159713,-0.0939255
42.5,-0.0437247,-0.369314,0.0447316,0.703419,-0.128795,0.160061,-0.0945912
42.6,-0.044592,-0.368846,0.0445969,0.703463,-0.129876,0.160169,-0.0953644
42.7,-0.0455445,-0.367453,0.0444967,0.703121,-0.131128,0.159813,-0.0962478
42.8,-0.0462818,-0.367819,0.044382,0.703363,-0.132044,0.160201,-0.0969118
42.9,-0.0462818,-0.367819,0.044382,0.703363,-0.132044,0.160201,-0.0969118
43,-0.0479676,-0.36687,0.0441707,0.703285,-0.134211,0.160276,-0.0984609
43.1,-0.0488393,-0.366392,0.0440258,0.703279,-0.135296,0.160357,-0.0992348
43.2,-0.0497066,-0.364977,0.0437573,0.702871,-0.136273,0.160017,-0.0999032
43.3,-0.0505478,-0.365395,0.0437739,0.70321,-0.137464,0.160452,-0.100781
43.4,-0.0513804,-0.363941,0.0435456,0.702751,-0.138437,0.160051,-0.101448
43.5,-0.0513804,-0.363941,0.0435456,0.702751,-0.138437,0.160051,-0.101448
43.6,-0.0531008,-0.363063,0.0432727,0.702799,-0.1406,0.160283,-0.102996
43.7,-0.053939,-0.362538,0.0431617,0.702708,-0.141685,0.160283,-0.10377
43.8,-0.0547531,-0.361096,0.0429472,0.702302,-0.14265,0.159926,-0.104434
43.9,-0.0556087,-0.360619,0.0428093,0.70231,-0.14373,0.160026,-0.105207
44,-0.05646,-0.359206,0.0425446,0.701909,-0.144702,0.15971,-0.105873
44.1,-0.0572792,-0.358692,0.0424478,0.701875,-0.145779,0.159751,-0.106645
44.2,-0.058131,-0.357275,0.0421784,0.701453,-0.146752,0.159427,-0.107311
44.3,-0.0589504,-0.356757,0.0420776,0.701401,-0.14783,0.159459,-0.108083
44.4,-0.0598075,-0.356269,0.0419296,0.701361,-0.148914,0.159533,-0.108857
44.5,-0.0607602,-0.353969,0.0416559,0.700641,-0.150055,0.15886,-0.109631
44.6,-0.0615628,-0.353465,0.0415678,0.700656,-0.151124,0.158939,-0.110401
44.7,-0.0623367,-0.352965,0.0412586,0.70056,-0.151931,0.159035,-0.11096
44.8,-0.0632515,-0.350627,0.0410222,0.699787,-0.153069,0.158306,-0.111732
44.9,-0.0638453,-0.352802,0.0410729,0.700813,-0.153909,0.159496,-0.112396
45,-0.0647997,-0.350493,0.0407851,0.700039,-0.155055,0.158806,-0.113169
45.1,-0.065738,-0.348203,0.0405105,0.699347,-0.15619,0.158174,-0.11394
45.2,-0.065738,-0.348203,0.0405105,0.699347,-0.15619,0.158174,-0.11394
45.3,-0.0674065,-0.344464,0.0398329,0.698098,-0.158026,0.157181,-0.115167
45.4,-0.0674065,-0.344464,0.0398329,0.698098,-0.158026,0.157181,-0.115167
45.5,-0.0691422,-0.342678,0.0395822,0.697789,-0.160347,0.157037,-0.116824
45.6,-0.0698643,-0.342149,0.0393197,0.697685,-0.161143,0.157109,-0.11738
45.7,-0.0706873,-0.340743,0.0390479,0.697296,-0.162105,0.156848,-0.118043
45.8,-0.0715849,-0.338407,0.0387983,0.696509,-0.16324,0.156154,-0.118812
45.9,-0.0715849,-0.338407,0.0387983,0.696509,-0.16324,0.156154,-0.118812
46,-0.0732273,-0.335628,0.0382467,0.695722,-0.16517,0.15564,-0.120143
46.1,-0.0741267,-0.334221,0.0381174,0.695323,-0.166416,0.15533,-0.121023
46.2,-0.0741267,-0.334221,0.0381174,0.695323,-0.166416,0.15533,-0.121023
46.3,-0.0752804,-0.33125,0.0376251,0.694313,-0.167715,0.154534,-0.121887
46.4,-0.0764832,-0.329352,0.0371408,0.693697,-0.169061,0.154213,-0.122807
46.5,-0.0775429,-0.326207,0.0367739,0.692651,-0.170368,0.153314,-0.123684
46.6,-0.078322,-0.324752,0.0365259,0.692156,-0.17133,0.152981,-0.124346
46.7,-0.0792439,-0.323382,0.036342,0.691793,-0.172575,0.152745,-0.125226
46.8,-0.0800478,-0.321044,0.0359227,0.690946,-0.173422,0.152122,-0.125775
46.9,-0.0809597,-0.317801,0.0354744,0.689691,-0.174447,0.151111,-0.126432
47,-0.081765,-0.316387,0.0351781,0.689251,-0.175406,0.150861,-0.127093
47.1,-0.08267,-0.314096,0.0348606,0.688504,-0.176533,0.150291,-0.127861
47.2,-0.08267,-0.314096,0.0348606,0.688504,-0.176533,0.150291,-0.127861
47.3,-0.0842377,-0.311276,0.0343077,0.687617,-0.178451,0.149763,-0.129188
47.4,-0.0852444,-0.307141,0.0338242,0.685987,-0.179646,0.148427,-0.12995
47.5,-0.086,-0.305713,0.0335676,0.685591,-0.180592,0.148189,-0.130608
47.6,-0.086,-0.305713,0.0335676,0.685591,-0.180592,0.148189,-0.130608
47.7,-0.0877972,-0.300217,0.0327714,0.683562,-0.182751,0.146652,-0.132043
47.8,-0.0885552,-0.298758,0.0325008,0.68303,-0.183708,0.146338,-0.132703
47.9,-0.0885552,-0.298758,0.0325008,0.68303,-0.183708,0.146338,-0.132703
48,-0.0903395,-0.293269,0.0316899,0.681012,-0.185859,0.144846,-0.134135
48.1,-0.0911892,-0.289994,0.0312601,0.679678,-0.186871,0.143848,-0.134787
48.2,-0.091874,-0.289472,0.0309663,0.679606,-0.187649,0.143981,-0.135339
48.3,-0.091874,-0.289472,0.0309663,0.679606,-0.187649,0.143981,-0.135339
48.4,-0.0937075,-0.283076,0.0301512,0.677174,-0.189969,0.142136,-0.136879
48.5,-0.0945888,-0.279816,0.0296639,0.675766,-0.190986,0.141157,-0.13753
48.6,-0.0952925,-0.279288,0.0295451,0.67581,-0.192036,0.141272,-0.138301
48.7,-0.0962701,-0.275144,0.0290223,0.674045,-0.193223,0.139984,-0.139058
48.8,-0.0970451,-0.272804,0.0285596,0.673116,-0.194055,0.139429,-0.1396
48.9,-0.0978792,-0.269534,0.0281085,0.671759,-0.195057,0.138482,-0.140248
49,-0.0988101,-0.267257,0.0278666,0.670989,-0.19646,0.137941,-0.141232
49.1,-0.0995803,-0.263981,0.0272746,0.669548,-0.197174,0.137027,-0.141657
49.2,-0.100409,-0.261637,0.0269357,0.668611,-0.198293,0.136425,-0.14242
49.3,-0.101237,-0.259313,0.0265919,0.66776,-0.199404,0.135882,-0.143182
49.4,-0.102197,-0.254234,0.0259245,0.665481,-0.200462,0.1343,-0.143817
49.5,-0.102925,-0.252803,0.0256055,0.665038,-0.201396,0.134109,-0.144472
49.6,-0.103879,-0.248656,0.0250526,0.663195,-0.202572,0.132873,-0.145224
49.7,-0.10466,-0.246299,0.0247382,0.662302,-0.203678,0.132297,-0.145984
49.8,-0.105516,-0.24305,0.0242128,0.660866,-0.204676,0.131416,-0.146628
49.9,-0.106428,-0.237955,0.0235733,0.658597,-0.205715,0.129879,-0.147257
