Time,JointVelocitiesNormalized
0,0.5,0.5,0.5,0.5,0.5,0.5,0.5
0.1,0.396003,0.503013,0.444971,0.554963,0.482667,0.554648,0.494998
0.2,0.443936,0.509901,0.470236,0.495713,0.489887,0.494343,0.496757
0.3,0.445669,0.532307,0.470409,0.490361,0.48959,0.484522,0.496336
0.4,0.446751,0.546183,0.470395,0.486805,0.489268,0.478561,0.49595
0.5,0.448087,0.556573,0.469911,0.482697,0.489699,0.47314,0.496147
0.6,0.448476,0.561472,0.470977,0.4809,0.488097,0.471396,0.494752
0.7,0.452348,0.580568,0.46858,0.474324,0.491771,0.462093,0.497406
0.8,0.452362,0.589815,0.46949,0.471903,0.48961,0.459472,0.495574
0.9,0.454307,0.585754,0.468645,0.470896,0.492537,0.460588,0.497613
1.0,0.481367,0.472665,0.516701,0.508489,0.464597,0.515485,0.472889
1.1,0.485799,0.486423,0.516803,0.504869,0.467465,0.509037,0.474955
1.2,0.46785,0.458389,0.53877,0.5152,0.426924,0.525667,0.443581
1.3,0.480721,0.515938,0.523244,0.499005,0.453525,0.497504,0.464461
1.4,0.479983,0.497857,0.523532,0.504711,0.453728,0.505605,0.464459
1.5,0.481069,0.489035,0.524571,0.507878,0.454117,0.509231,0.464558
1.6,0.480261,0.506935,0.523396,0.503668,0.453666,0.501654,0.46449
1.7,0.480445,0.503229,0.523017,0.505302,0.454452,0.503254,0.465049
1.8,0.479922,0.517938,0.521442,0.500894,0.454662,0.496361,0.465531
1.9,0.48044,0.508618,0.52188,0.504688,0.45495,0.500788,0.465559
2.0,0.542262,0.442499,0.529691,0.507028,0.499718,0.502386,0.496588
2.1,0.550582,0.422192,0.532873,0.512075,0.503601,0.507466,0.498763
2.2,0.551745,0.445147,0.529992,0.503286,0.506869,0.497973,0.50175
2.3,0.551079,0.446496,0.530575,0.50194,0.505499,0.496616,0.500783
2.4,0.550882,0.464665,0.52892,0.495394,0.506567,0.489275,0.50202
2.5,0.54997,0.474115,0.528358,0.49163,0.50626,0.485165,0.50206
2.6,0.549304,0.47911,0.528701,0.489777,0.50539,0.482943,0.501533
2.7,0.547674,0.50177,0.527532,0.481772,0.505457,0.473921,0.502096
2.8,0.546684,0.506029,0.526849,0.479705,0.505664,0.472262,0.502451
2.9,0.544757,0.529166,0.526201,0.470902,0.505595,0.462987,0.502881
3.0,0.503596,0.488487,0.503904,0.502646,0.498533,0.502571,0.498526
3.1,0.5,0.5,0.5,0.5,0.5,0.5,0.5
3.2,0.5,0.5,0.5,0.5,0.5,0.5,0.5
3.3,0.5,0.5,0.5,0.5,0.5,0.5,0.5
3.4,0.5,0.5,0.5,0.5,0.5,0.5,0.5
3.5,0.5,0.5,0.5,0.5,0.5,0.5,0.5
3.6,0.5,0.5,0.5,0.5,0.5,0.5,0.5
3.7,0.5,0.5,0.5,0.5,0.5,0.5,0.5
3.8,0.5,0.5,0.5,0.5,0.5,0.5,0.5
3.9,0.5,0.5,0.5,0.5,0.5,0.5,0.5
4.0,0.424256,0.480152,0.499813,0.516221,0.448077,0.522882,0.461908
4.1,0.415476,0.50742,0.4957,0.503972,0.445838,0.510219,0.461007
4.2,0.413934,0.525303,0.494952,0.497557,0.444874,0.502315,0.460569
4.3,0.415908,0.539328,0.491477,0.492437,0.448563,0.496915,0.463662
4.4,0.416521,0.555569,0.488902,0.485413,0.449886,0.489764,0.465033
4.5,0.41399,0.576069,0.488046,0.479251,0.446743,0.482239,0.462962
4.6,0.5,0.5,0.5,0.5,0.5,0.5,0.5
4.7,0.390074,0.639133,0.476418,0.464285,0.433129,0.460955,0.453806
4.8,0.432461,0.60491,0.481264,0.46154,0.45982,0.465818,0.473054
