%!PS-Adobe-2.0 EPSF-1.2
%%Creator: MATLAB, The MathWorks, Inc. Version 8.3.0.532 (R2014a). Operating System: Linux 3.19.0-39-generic #44-Ubuntu SMP Tue Dec 1 14:39:05 UTC 2015 x86_64.
%%Title: ./vision_te_medium.eps
%%CreationDate: 12/17/2015  17:29:06
%%DocumentNeededFonts: Helvetica
%%DocumentProcessColors: Cyan Magenta Yellow Black
%%Extensions: CMYK
%%Pages: 1
%%BoundingBox:    51   191   551   612
%%EndComments

%%BeginProlog
% MathWorks dictionary
/MathWorks 160 dict begin
% definition operators
/bdef {bind def} bind def
/ldef {load def} bind def
/xdef {exch def} bdef
/xstore {exch store} bdef
% operator abbreviations
/c  /clip ldef
/cc /concat ldef
/cp /closepath ldef
/gr /grestore ldef
/gs /gsave ldef
/mt /moveto ldef
/np /newpath ldef
/cm /currentmatrix ldef
/sm /setmatrix ldef
/rm /rmoveto ldef
/rl /rlineto ldef
/s {show newpath} bdef
/sc {setcmykcolor} bdef
/sr /setrgbcolor ldef
/sg /setgray ldef
/w /setlinewidth ldef
/j /setlinejoin ldef
/cap /setlinecap ldef
/rc {rectclip} bdef
/rf {rectfill} bdef
% page state control
/pgsv () def
/bpage {/pgsv save def} bdef
/epage {pgsv restore} bdef
/bplot /gsave ldef
/eplot {stroke grestore} bdef
% orientation switch
/portraitMode 0 def /landscapeMode 1 def /rotateMode 2 def
% coordinate system mappings
/dpi2point 0 def
% font control
/FontSize 0 def
/FMS {/FontSize xstore findfont [FontSize 0 0 FontSize neg 0 0]
  makefont setfont} bdef
/reencode {exch dup where {pop load} {pop StandardEncoding} ifelse
  exch dup 3 1 roll findfont dup length dict begin
  { 1 index /FID ne {def}{pop pop} ifelse } forall
  /Encoding exch def currentdict end definefont pop} bdef
/isroman {findfont /CharStrings get /Agrave known} bdef
/FMSR {3 1 roll 1 index dup isroman {reencode} {pop pop} ifelse
  exch FMS} bdef
/csm {1 dpi2point div -1 dpi2point div scale neg translate
 dup landscapeMode eq {pop -90 rotate}
  {rotateMode eq {90 rotate} if} ifelse} bdef
% line types: solid, dotted, dashed, dotdash
/SO { [] 0 setdash } bdef
/DO { [.5 dpi2point mul 4 dpi2point mul] 0 setdash } bdef
/DA { [6 dpi2point mul] 0 setdash } bdef
/DD { [.5 dpi2point mul 4 dpi2point mul 6 dpi2point mul 4
  dpi2point mul] 0 setdash } bdef
% macros for lines and objects
/L {lineto stroke} bdef
/MP {3 1 roll moveto 1 sub {rlineto} repeat} bdef
/AP {{rlineto} repeat} bdef
/PDlw -1 def
/W {/PDlw currentlinewidth def setlinewidth} def
/PP {closepath eofill} bdef
/DP {closepath stroke} bdef
/MR {4 -2 roll moveto dup  0 exch rlineto exch 0 rlineto
  neg 0 exch rlineto closepath} bdef
/FR {MR stroke} bdef
/PR {MR fill} bdef
/L1i {{currentfile picstr readhexstring pop} image} bdef
/tMatrix matrix def
/MakeOval {newpath tMatrix currentmatrix pop translate scale
0 0 1 0 360 arc tMatrix setmatrix} bdef
/FO {MakeOval stroke} bdef
/PO {MakeOval fill} bdef
/PD {currentlinewidth 2 div 0 360 arc fill
   PDlw -1 eq not {PDlw w /PDlw -1 def} if} def
/FA {newpath tMatrix currentmatrix pop translate scale
  0 0 1 5 -2 roll arc tMatrix setmatrix stroke} bdef
/PA {newpath tMatrix currentmatrix pop	translate 0 0 moveto scale
  0 0 1 5 -2 roll arc closepath tMatrix setmatrix fill} bdef
/FAn {newpath tMatrix currentmatrix pop translate scale
  0 0 1 5 -2 roll arcn tMatrix setmatrix stroke} bdef
/PAn {newpath tMatrix currentmatrix pop translate 0 0 moveto scale
  0 0 1 5 -2 roll arcn closepath tMatrix setmatrix fill} bdef
/vradius 0 def /hradius 0 def /lry 0 def
/lrx 0 def /uly 0 def /ulx 0 def /rad 0 def
/MRR {/vradius xdef /hradius xdef /lry xdef /lrx xdef /uly xdef
  /ulx xdef newpath tMatrix currentmatrix pop ulx hradius add uly
  vradius add translate hradius vradius scale 0 0 1 180 270 arc 
  tMatrix setmatrix lrx hradius sub uly vradius add translate
  hradius vradius scale 0 0 1 270 360 arc tMatrix setmatrix
  lrx hradius sub lry vradius sub translate hradius vradius scale
  0 0 1 0 90 arc tMatrix setmatrix ulx hradius add lry vradius sub
  translate hradius vradius scale 0 0 1 90 180 arc tMatrix setmatrix
  closepath} bdef
/FRR {MRR stroke } bdef
/PRR {MRR fill } bdef
/MlrRR {/lry xdef /lrx xdef /uly xdef /ulx xdef /rad lry uly sub 2 div def
  newpath tMatrix currentmatrix pop ulx rad add uly rad add translate
  rad rad scale 0 0 1 90 270 arc tMatrix setmatrix lrx rad sub lry rad
  sub translate rad rad scale 0 0 1 270 90 arc tMatrix setmatrix
  closepath} bdef
/FlrRR {MlrRR stroke } bdef
/PlrRR {MlrRR fill } bdef
/MtbRR {/lry xdef /lrx xdef /uly xdef /ulx xdef /rad lrx ulx sub 2 div def
  newpath tMatrix currentmatrix pop ulx rad add uly rad add translate
  rad rad scale 0 0 1 180 360 arc tMatrix setmatrix lrx rad sub lry rad
  sub translate rad rad scale 0 0 1 0 180 arc tMatrix setmatrix
  closepath} bdef
/FtbRR {MtbRR stroke } bdef
/PtbRR {MtbRR fill } bdef
/stri 6 array def /dtri 6 array def
/smat 6 array def /dmat 6 array def
/tmat1 6 array def /tmat2 6 array def /dif 3 array def
/asub {/ind2 exch def /ind1 exch def dup dup
  ind1 get exch ind2 get sub exch } bdef
/tri_to_matrix {
  2 0 asub 3 1 asub 4 0 asub 5 1 asub
  dup 0 get exch 1 get 7 -1 roll astore } bdef
/compute_transform {
  dmat dtri tri_to_matrix tmat1 invertmatrix 
  smat stri tri_to_matrix tmat2 concatmatrix } bdef
/ds {stri astore pop} bdef
/dt {dtri astore pop} bdef
/db {2 copy /cols xdef /rows xdef mul dup 3 mul string
  currentfile exch readhexstring pop
  dup 0 3 index getinterval /rbmap xdef
  dup 2 index dup getinterval /gbmap xdef
  1 index dup 2 mul exch getinterval /bbmap xdef pop pop}bdef
/it {gs np dtri aload pop moveto lineto lineto cp c
  cols rows 8 compute_transform 
  rbmap gbmap bbmap true 3 colorimage gr}bdef
/il {newpath moveto lineto stroke}bdef
currentdict end def
%%EndProlog

%%BeginSetup
MathWorks begin

0 cap

end
%%EndSetup

%%Page: 1 1
%%BeginPageSetup
%%PageBoundingBox:    51   191   551   612
MathWorks begin
bpage
%%EndPageSetup

%%BeginObject: obj1
bplot

/dpi2point 12 def
portraitMode 0216 7344 csm

  405     0  5992  5045 MR c np
86 dict begin %Colortable dictionary
/c0 { 0.000000 0.000000 0.000000 sr} bdef
/c1 { 1.000000 1.000000 1.000000 sr} bdef
/c2 { 0.900000 0.000000 0.000000 sr} bdef
/c3 { 0.000000 0.820000 0.000000 sr} bdef
/c4 { 0.000000 0.000000 0.800000 sr} bdef
/c5 { 0.910000 0.820000 0.320000 sr} bdef
/c6 { 1.000000 0.260000 0.820000 sr} bdef
/c7 { 0.000000 0.820000 0.820000 sr} bdef
c0
1 j
1 sg
   0    0 6913 5186 PR
6 w
0 4226 5356 0 0 -4226 899 4615 4 MP
PP
-5356 0 0 4226 5356 0 0 -4226 899 4615 5 MP stroke
4 w
DO
SO
6 w
0 sg
 899 4615 mt 6255 4615 L
 899  389 mt 6255  389 L
 899 4615 mt  899  389 L
6255 4615 mt 6255  389 L
 899 4615 mt 6255 4615 L
 899 4615 mt  899  389 L
 899 4615 mt  899 4561 L
 899  389 mt  899  442 L
%%IncludeResource: font Helvetica
/Helvetica /ISOLatin1Encoding 168 FMSR

 853 4805 mt 
(0) s
1494 4615 mt 1494 4561 L
1494  389 mt 1494  442 L
1448 4805 mt 
(2) s
2089 4615 mt 2089 4561 L
2089  389 mt 2089  442 L
2043 4805 mt 
(4) s
2684 4615 mt 2684 4561 L
2684  389 mt 2684  442 L
2638 4805 mt 
(6) s
3279 4615 mt 3279 4561 L
3279  389 mt 3279  442 L
3233 4805 mt 
(8) s
3874 4615 mt 3874 4561 L
3874  389 mt 3874  442 L
3781 4805 mt 
(10) s
4469 4615 mt 4469 4561 L
4469  389 mt 4469  442 L
4376 4805 mt 
(12) s
5064 4615 mt 5064 4561 L
5064  389 mt 5064  442 L
4971 4805 mt 
(14) s
5659 4615 mt 5659 4561 L
5659  389 mt 5659  442 L
5566 4805 mt 
(16) s
6255 4615 mt 6255 4561 L
6255  389 mt 6255  442 L
6162 4805 mt 
(18) s
 899 4615 mt  952 4615 L
6255 4615 mt 6201 4615 L
 771 4677 mt 
(0) s
 899 4086 mt  952 4086 L
6255 4086 mt 6201 4086 L
 678 4148 mt 
(10) s
 899 3558 mt  952 3558 L
6255 3558 mt 6201 3558 L
 678 3620 mt 
(20) s
 899 3030 mt  952 3030 L
6255 3030 mt 6201 3030 L
 678 3092 mt 
(30) s
 899 2502 mt  952 2502 L
6255 2502 mt 6201 2502 L
 678 2564 mt 
(40) s
 899 1973 mt  952 1973 L
6255 1973 mt 6201 1973 L
 678 2035 mt 
(50) s
 899 1445 mt  952 1445 L
6255 1445 mt 6201 1445 L
 678 1507 mt 
(60) s
 899  917 mt  952  917 L
6255  917 mt 6201  917 L
 678  979 mt 
(70) s
 899  389 mt  952  389 L
6255  389 mt 6201  389 L
 678  451 mt 
(80) s
 899 4615 mt 6255 4615 L
 899  389 mt 6255  389 L
 899 4615 mt  899  389 L
6255 4615 mt 6255  389 L
gs 899 389 5357 4227 MR c np
/c8 { 0.000000 1.000000 0.000000 sr} bdef
c8
30 13 29 -2 30 44 30 749 30 -766 29 541 30 -554 30 -25 
30 -12 29 0 30 10 30 -13 30 41 29 778 30 -804 30 -15 
30 3 29 -3 30 28 30 -28 30 3 29 89 30 -89 30 12 
30 -2 29 -26 30 13 30 11 30 4 29 -28 30 0 30 -14 
30 30 30 0 29 0 30 0 30 0 30 0 29 0 30 0 
30 0 30 0 29 0 30 0 30 0 30 0 29 0 30 0 
30 0 30 0 29 0 30 0 30 0 30 0 29 0 30 0 
30 0 30 0 29 0 30 0 30 0 30 0 29 0 30 0 
30 -3 30 21 29 -21 30 -8 30 21 30 930 29 -943 30 -8 
30 8 30 -13 29 975 30 -947 30 -23 30 -5 30 5 29 -5 
30 16 30 -16 30 5 29 -19 30 42 30 -28 30 0 29 13 
30 0 30 0 30 21 29 -21 30 0 30 3 30 0 29 25 
30 58 30 -73 30 -40 2862 4615 100 MP stroke
29 14 30 5 30 8 30 -27 29 19 30 -19 30 14 30 16 
29 -16 30 0 30 0 30 0 29 5 30 0 30 -5 30 5 
29 8 30 -8 30 -19 30 0 29 0 30 30 30 0 30 0 
30 0 29 -16 30 0 30 -14 30 14 29 0 30 0 30 5 
30 49 29 754 30 -792 30 116 30 -132 29 13 30 0 30 -13 
30 0 29 13 30 -13 30 872 30 -872 29 5 30 -5 30 -14 
30 19 29 -5 30 0 30 885 30 -872 29 11 30 4 30 857 
30 -872 29 3 30 18 30 -29 30 36 29 -13 30 -28 30 5 
30 88 29 3854 899 654 67 MP stroke
/c9 { 0.000000 0.000000 1.000000 sr} bdef
c9
30 88 29 38 30 656 30 -803 30 38 29 -9 30 -8 30 -2 
30 -10 29 113 30 667 30 -655 30 703 29 -828 30 -9 30 22 
30 -19 29 0 30 -11 30 1 30 -13 29 0 30 -17 30 17 
30 13 29 -20 30 9 30 -9 30 27 29 -18 30 -19 30 -8 
30 -30 30 0 29 14 30 5 30 -5 30 0 29 5 30 -5 
30 0 30 5 29 -5 30 0 30 5 30 -5 29 0 30 5 
30 -5 30 0 29 5 30 -5 30 0 30 0 29 0 30 5 
30 -5 30 0 29 5 30 -5 30 0 30 5 29 -5 30 0 
30 28 30 949 29 -949 30 964 30 -987 30 11 29 12 30 13 
30 -36 30 34 29 -13 30 -10 30 0 30 0 30 25 29 -28 
30 15 30 13 30 -2 29 56 30 895 30 -936 30 -1 29 1 
30 -20 30 59 30 426 29 -465 30 38 30 -26 30 14 29 -13 
30 16 30 0 30 -78 2862 4596 100 MP stroke
29 0 30 -5 30 0 30 16 29 -16 30 13 30 3 30 -16 
29 16 30 -30 30 19 30 0 29 -5 30 -14 30 14 30 0 
29 13 30 0 30 -13 30 34 29 -29 30 -5 30 16 30 -16 
30 -14 29 14 30 0 30 0 30 0 29 24 30 -24 30 16 
30 10 29 13 30 107 30 739 30 -857 29 11 30 15 30 -20 
30 -18 29 37 30 -25 30 6 30 -6 29 0 30 -15 30 28 
30 -13 29 11 30 -23 30 12 30 -23 29 8 30 26 30 -39 
30 13 29 108 30 2626 30 -912 30 -937 29 -893 30 -5 30 0 
30 87 29 3860 899 654 67 MP stroke
/c10 { 1.000000 0.000000 0.000000 sr} bdef
c10
30 -88 29 -30 30 7 30 2 30 -9 29 -6 30 -4 30 10 
30 -6 29 -12 30 10 30 8 30 -29 29 23 30 -4 30 -24 
30 24 29 -11 30 3 30 -16 30 24 29 59 30 797 30 -864 
30 -16 29 5 30 19 30 0 30 10 29 -18 30 0 30 -30 
30 0 30 0 29 0 30 0 30 0 30 0 29 0 30 0 
30 0 30 0 29 0 30 0 30 0 30 0 29 0 30 0 
30 0 30 0 29 0 30 0 30 0 30 0 29 0 30 0 
30 0 30 0 29 0 30 0 30 0 30 0 29 0 30 0 
30 0 30 40 29 -26 30 13 30 964 30 -977 29 -14 30 30 
30 -11 30 -5 29 0 30 13 30 0 30 -27 30 0 29 27 
30 3 30 -11 30 0 29 8 30 -27 30 14 30 0 29 0 
30 0 30 5 30 -5 29 13 30 -27 30 14 30 0 29 0 
30 -14 30 14 30 5 2862 4596 100 MP stroke
29 0 30 0 30 -5 30 0 29 5 30 0 30 11 30 -16 
29 0 30 5 30 -19 30 19 29 0 30 -5 30 -14 30 0 
29 19 30 -19 30 14 30 -14 29 0 30 27 30 -13 30 -14 
30 0 29 14 30 16 30 -16 30 0 29 -14 30 14 30 -14 
30 30 29 0 30 25 30 368 30 -404 29 8 30 3 30 -16 
30 -14 29 27 30 15 30 0 30 -28 29 13 30 -8 30 19 
30 -11 29 -13 30 0 30 0 30 383 29 -383 30 0 30 5 
30 11 29 -11 30 0 30 -5 30 5 29 -19 30 19 30 21 
30 4129 29 -208 899 654 67 MP stroke
gr

c10
0 sg
3277 4983 mt 
(Time [s]) s
 586 3314 mt  -90 rotate
(Tracking Error [Pixels]) s
90 rotate
%%IncludeResource: font Helvetica
/Helvetica /ISOLatin1Encoding 192 FMSR

2580  251 mt 
(Tracking Error: Medium) s
%%IncludeResource: font Helvetica
/Helvetica /ISOLatin1Encoding 120 FMSR

 882 4658 mt 
( ) s
6239  431 mt 
( ) s
1 sg
0 480 672 0 0 -480 5523 929 4 MP
PP
-672 0 0 480 672 0 0 -480 5523 929 5 MP stroke
4 w
DO
SO
6 w
0 sg
5523  929 mt 6195  929 L
5523  449 mt 6195  449 L
5523  929 mt 5523  449 L
6195  929 mt 6195  449 L
5523  929 mt 6195  929 L
5523  929 mt 5523  449 L
5523  929 mt 6195  929 L
5523  449 mt 6195  449 L
5523  929 mt 5523  449 L
6195  929 mt 6195  449 L
5976  585 mt 
(1pt) s
gs 5523 449 673 481 MR c np
c8
348 0 5592 542 2 MP stroke
gr

c8
0 sg
5976  732 mt 
(2pt) s
gs 5523 449 673 481 MR c np
c9
348 0 5592 689 2 MP stroke
gr

c9
0 sg
5976  878 mt 
(3pt) s
gs 5523 449 673 481 MR c np
c10
348 0 5592 835 2 MP stroke
gr

c10

end %%Color Dict

eplot
%%EndObject

epage
end

showpage

%%Trailer
%%EOF
