Time,TrackingError
0,74.9833
0.1,78.9066
0.2,0.75
0.3,0.353553
0.4,0
0.5,0.353553
0.6,0.25
0.7,0.353553
0.8,0.353553
0.9,0.559017
1,0.353553
1.1,0.25
1.2,0.25
1.3,7.5
1.4,0.25
1.5,0.25
1.6,0.25
1.7,0.5
1.8,0.707107
1.9,0.353553
2,0.5
2.1,0.25
2.2,0.790569
2.3,0.790569
2.4,0.5
2.5,0
2.6,0.25
2.7,0.559017
2.8,0.5
2.9,0.353553
3,8
3.1,1.03078
3.2,0.559017
3.3,0.559017
3.4,0
3.5,0.25
3.6,0
3.7,0.25
3.8,0.25
3.9,0.559017
4,0.25
4.1,0
4.2,0
4.3,0.25
4.4,0.5
4.5,0
4.6,0
4.7,0.25
4.8,0
4.9,0.353553
5,0
5.1,0
5.2,0.25
5.3,0.353553
5.4,0.353553
5.5,0
5.6,0.353553
5.7,0.25
5.8,0.25
5.9,0.559017
6,0.353553
6.1,0.353553
6.2,0.25
6.3,0.25
6.4,0.353553
6.5,0.353553
6.6,0.353553
6.7,0.25
6.8,0
6.9,0.25
7,0.25
7.1,0.25
7.2,0
7.3,0.5
7.4,0.25
7.5,0.353553
7.6,0.25
7.7,0.25
7.8,0.25
7.9,0.25
8,0
8.1,0.5
8.2,0.353553
8.3,0.353553
8.4,0.559017
8.5,0.5
8.6,0
8.7,0
8.8,0.5
8.9,0.5
9,0.25
9.1,0.25
9.2,0.353553
9.3,0.559017
9.4,0
9.5,0.25
9.6,18.7417
9.7,0.5
9.8,0.25
9.9,0.75
10,0
10.1,0
10.2,0
10.3,0
10.4,0
10.5,0
10.6,0
10.7,0
10.8,0
10.9,0
11,0
11.1,0
11.2,0
11.3,0
11.4,0
11.5,0
11.6,0
11.7,0
11.8,0
11.9,0
12,0
12.1,0
12.2,0
12.3,0
12.4,0
12.5,0
12.6,0
12.7,0
12.8,0
12.9,0
13,0
13.1,0
13.2,0
13.3,0
13.4,0.559017
13.5,0.559017
13.6,0.901388
13.7,0.707107
13.8,0.707107
13.9,0.353553
14,0.25
14.1,0.559017
14.2,16.9189
14.3,1.82003
14.4,0.707107
14.5,0.25
14.6,0.559017
14.7,0.5
14.8,0.707107
14.9,0.25
15,0.707107
15.1,0.790569
15.2,0.353553
15.3,0.901388
15.4,0.75
15.5,0.559017
15.6,0.790569
15.7,0.901388
15.8,0.707107
15.9,0.790569
16,0.901388
16.1,1.06066
16.2,1.03078
16.3,0.901388
16.4,1.45774
16.5,3.13249
