%!PS-Adobe-2.0 EPSF-1.2
%%Creator: MATLAB, The MathWorks, Inc. Version 8.3.0.532 (R2014a). Operating System: Linux 3.19.0-39-generic #44-Ubuntu SMP Tue Dec 1 14:39:05 UTC 2015 x86_64.
%%Title: ./vision_te_slow.eps
%%CreationDate: 12/17/2015  17:29:06
%%DocumentNeededFonts: Helvetica
%%DocumentProcessColors: Cyan Magenta Yellow Black
%%Extensions: CMYK
%%Pages: 1
%%BoundingBox:    51   191   551   612
%%EndComments

%%BeginProlog
% MathWorks dictionary
/MathWorks 160 dict begin
% definition operators
/bdef {bind def} bind def
/ldef {load def} bind def
/xdef {exch def} bdef
/xstore {exch store} bdef
% operator abbreviations
/c  /clip ldef
/cc /concat ldef
/cp /closepath ldef
/gr /grestore ldef
/gs /gsave ldef
/mt /moveto ldef
/np /newpath ldef
/cm /currentmatrix ldef
/sm /setmatrix ldef
/rm /rmoveto ldef
/rl /rlineto ldef
/s {show newpath} bdef
/sc {setcmykcolor} bdef
/sr /setrgbcolor ldef
/sg /setgray ldef
/w /setlinewidth ldef
/j /setlinejoin ldef
/cap /setlinecap ldef
/rc {rectclip} bdef
/rf {rectfill} bdef
% page state control
/pgsv () def
/bpage {/pgsv save def} bdef
/epage {pgsv restore} bdef
/bplot /gsave ldef
/eplot {stroke grestore} bdef
% orientation switch
/portraitMode 0 def /landscapeMode 1 def /rotateMode 2 def
% coordinate system mappings
/dpi2point 0 def
% font control
/FontSize 0 def
/FMS {/FontSize xstore findfont [FontSize 0 0 FontSize neg 0 0]
  makefont setfont} bdef
/reencode {exch dup where {pop load} {pop StandardEncoding} ifelse
  exch dup 3 1 roll findfont dup length dict begin
  { 1 index /FID ne {def}{pop pop} ifelse } forall
  /Encoding exch def currentdict end definefont pop} bdef
/isroman {findfont /CharStrings get /Agrave known} bdef
/FMSR {3 1 roll 1 index dup isroman {reencode} {pop pop} ifelse
  exch FMS} bdef
/csm {1 dpi2point div -1 dpi2point div scale neg translate
 dup landscapeMode eq {pop -90 rotate}
  {rotateMode eq {90 rotate} if} ifelse} bdef
% line types: solid, dotted, dashed, dotdash
/SO { [] 0 setdash } bdef
/DO { [.5 dpi2point mul 4 dpi2point mul] 0 setdash } bdef
/DA { [6 dpi2point mul] 0 setdash } bdef
/DD { [.5 dpi2point mul 4 dpi2point mul 6 dpi2point mul 4
  dpi2point mul] 0 setdash } bdef
% macros for lines and objects
/L {lineto stroke} bdef
/MP {3 1 roll moveto 1 sub {rlineto} repeat} bdef
/AP {{rlineto} repeat} bdef
/PDlw -1 def
/W {/PDlw currentlinewidth def setlinewidth} def
/PP {closepath eofill} bdef
/DP {closepath stroke} bdef
/MR {4 -2 roll moveto dup  0 exch rlineto exch 0 rlineto
  neg 0 exch rlineto closepath} bdef
/FR {MR stroke} bdef
/PR {MR fill} bdef
/L1i {{currentfile picstr readhexstring pop} image} bdef
/tMatrix matrix def
/MakeOval {newpath tMatrix currentmatrix pop translate scale
0 0 1 0 360 arc tMatrix setmatrix} bdef
/FO {MakeOval stroke} bdef
/PO {MakeOval fill} bdef
/PD {currentlinewidth 2 div 0 360 arc fill
   PDlw -1 eq not {PDlw w /PDlw -1 def} if} def
/FA {newpath tMatrix currentmatrix pop translate scale
  0 0 1 5 -2 roll arc tMatrix setmatrix stroke} bdef
/PA {newpath tMatrix currentmatrix pop	translate 0 0 moveto scale
  0 0 1 5 -2 roll arc closepath tMatrix setmatrix fill} bdef
/FAn {newpath tMatrix currentmatrix pop translate scale
  0 0 1 5 -2 roll arcn tMatrix setmatrix stroke} bdef
/PAn {newpath tMatrix currentmatrix pop translate 0 0 moveto scale
  0 0 1 5 -2 roll arcn closepath tMatrix setmatrix fill} bdef
/vradius 0 def /hradius 0 def /lry 0 def
/lrx 0 def /uly 0 def /ulx 0 def /rad 0 def
/MRR {/vradius xdef /hradius xdef /lry xdef /lrx xdef /uly xdef
  /ulx xdef newpath tMatrix currentmatrix pop ulx hradius add uly
  vradius add translate hradius vradius scale 0 0 1 180 270 arc 
  tMatrix setmatrix lrx hradius sub uly vradius add translate
  hradius vradius scale 0 0 1 270 360 arc tMatrix setmatrix
  lrx hradius sub lry vradius sub translate hradius vradius scale
  0 0 1 0 90 arc tMatrix setmatrix ulx hradius add lry vradius sub
  translate hradius vradius scale 0 0 1 90 180 arc tMatrix setmatrix
  closepath} bdef
/FRR {MRR stroke } bdef
/PRR {MRR fill } bdef
/MlrRR {/lry xdef /lrx xdef /uly xdef /ulx xdef /rad lry uly sub 2 div def
  newpath tMatrix currentmatrix pop ulx rad add uly rad add translate
  rad rad scale 0 0 1 90 270 arc tMatrix setmatrix lrx rad sub lry rad
  sub translate rad rad scale 0 0 1 270 90 arc tMatrix setmatrix
  closepath} bdef
/FlrRR {MlrRR stroke } bdef
/PlrRR {MlrRR fill } bdef
/MtbRR {/lry xdef /lrx xdef /uly xdef /ulx xdef /rad lrx ulx sub 2 div def
  newpath tMatrix currentmatrix pop ulx rad add uly rad add translate
  rad rad scale 0 0 1 180 360 arc tMatrix setmatrix lrx rad sub lry rad
  sub translate rad rad scale 0 0 1 0 180 arc tMatrix setmatrix
  closepath} bdef
/FtbRR {MtbRR stroke } bdef
/PtbRR {MtbRR fill } bdef
/stri 6 array def /dtri 6 array def
/smat 6 array def /dmat 6 array def
/tmat1 6 array def /tmat2 6 array def /dif 3 array def
/asub {/ind2 exch def /ind1 exch def dup dup
  ind1 get exch ind2 get sub exch } bdef
/tri_to_matrix {
  2 0 asub 3 1 asub 4 0 asub 5 1 asub
  dup 0 get exch 1 get 7 -1 roll astore } bdef
/compute_transform {
  dmat dtri tri_to_matrix tmat1 invertmatrix 
  smat stri tri_to_matrix tmat2 concatmatrix } bdef
/ds {stri astore pop} bdef
/dt {dtri astore pop} bdef
/db {2 copy /cols xdef /rows xdef mul dup 3 mul string
  currentfile exch readhexstring pop
  dup 0 3 index getinterval /rbmap xdef
  dup 2 index dup getinterval /gbmap xdef
  1 index dup 2 mul exch getinterval /bbmap xdef pop pop}bdef
/it {gs np dtri aload pop moveto lineto lineto cp c
  cols rows 8 compute_transform 
  rbmap gbmap bbmap true 3 colorimage gr}bdef
/il {newpath moveto lineto stroke}bdef
currentdict end def
%%EndProlog

%%BeginSetup
MathWorks begin

0 cap

end
%%EndSetup

%%Page: 1 1
%%BeginPageSetup
%%PageBoundingBox:    51   191   551   612
MathWorks begin
bpage
%%EndPageSetup

%%BeginObject: obj1
bplot

/dpi2point 12 def
portraitMode 0216 7344 csm

  405     0  5992  5045 MR c np
86 dict begin %Colortable dictionary
/c0 { 0.000000 0.000000 0.000000 sr} bdef
/c1 { 1.000000 1.000000 1.000000 sr} bdef
/c2 { 0.900000 0.000000 0.000000 sr} bdef
/c3 { 0.000000 0.820000 0.000000 sr} bdef
/c4 { 0.000000 0.000000 0.800000 sr} bdef
/c5 { 0.910000 0.820000 0.320000 sr} bdef
/c6 { 1.000000 0.260000 0.820000 sr} bdef
/c7 { 0.000000 0.820000 0.820000 sr} bdef
c0
1 j
1 sg
   0    0 6913 5186 PR
6 w
0 4226 5356 0 0 -4226 899 4615 4 MP
PP
-5356 0 0 4226 5356 0 0 -4226 899 4615 5 MP stroke
4 w
DO
SO
6 w
0 sg
 899 4615 mt 6255 4615 L
 899  389 mt 6255  389 L
 899 4615 mt  899  389 L
6255 4615 mt 6255  389 L
 899 4615 mt 6255 4615 L
 899 4615 mt  899  389 L
 899 4615 mt  899 4561 L
 899  389 mt  899  442 L
%%IncludeResource: font Helvetica
/Helvetica /ISOLatin1Encoding 168 FMSR

 853 4805 mt 
(0) s
1970 4615 mt 1970 4561 L
1970  389 mt 1970  442 L
1877 4805 mt 
(10) s
3041 4615 mt 3041 4561 L
3041  389 mt 3041  442 L
2948 4805 mt 
(20) s
4112 4615 mt 4112 4561 L
4112  389 mt 4112  442 L
4019 4805 mt 
(30) s
5183 4615 mt 5183 4561 L
5183  389 mt 5183  442 L
5090 4805 mt 
(40) s
6255 4615 mt 6255 4561 L
6255  389 mt 6255  442 L
6162 4805 mt 
(50) s
 899 4615 mt  952 4615 L
6255 4615 mt 6201 4615 L
 771 4677 mt 
(0) s
 899 4086 mt  952 4086 L
6255 4086 mt 6201 4086 L
 678 4148 mt 
(10) s
 899 3558 mt  952 3558 L
6255 3558 mt 6201 3558 L
 678 3620 mt 
(20) s
 899 3030 mt  952 3030 L
6255 3030 mt 6201 3030 L
 678 3092 mt 
(30) s
 899 2502 mt  952 2502 L
6255 2502 mt 6201 2502 L
 678 2564 mt 
(40) s
 899 1973 mt  952 1973 L
6255 1973 mt 6201 1973 L
 678 2035 mt 
(50) s
 899 1445 mt  952 1445 L
6255 1445 mt 6201 1445 L
 678 1507 mt 
(60) s
 899  917 mt  952  917 L
6255  917 mt 6201  917 L
 678  979 mt 
(70) s
 899  389 mt  952  389 L
6255  389 mt 6201  389 L
 678  451 mt 
(80) s
 899 4615 mt 6255 4615 L
 899  389 mt 6255  389 L
 899 4615 mt  899  389 L
6255 4615 mt 6255  389 L
gs 899 389 5357 4227 MR c np
/c8 { 0.000000 1.000000 0.000000 sr} bdef
c8
11 -11 11 8 10 -27 11 14 11 0 10 5 11 8 11 -13 
11 26 10 8 11 -34 11 16 10 12 11 -12 11 248 11 -264 
10 0 11 0 11 16 10 248 11 -259 11 -19 11 30 10 10 
11 238 11 -240 10 -24 11 -14 11 14 11 5 10 -19 11 19 
11 -5 10 28 11 -23 11 8 11 -13 10 0 11 0 11 0 
10 0 11 5 11 0 11 -19 10 14 11 13 11 -13 10 0 
11 0 11 -14 11 14 10 5 11 -5 11 0 10 0 11 13 
11 3 11 10 10 -21 11 11 11 -11 10 -5 11 -14 11 30 
10 262 11 -278 11 0 11 0 10 0 11 -14 11 14 10 13 
11 -13 11 0 11 -14 10 0 11 14 11 0 10 0 11 -14 
11 291 11 -272 10 0 11 -19 11 14 10 5 11 8 11 0 
11 -13 10 0 11 0 11 0 10 0 11 5 11 -5 11 16 
10 -16 11 5 11 11 5183 4585 100 MP stroke
10 -11 11 -5 11 5 11 11 10 -11 11 -5 11 0 10 5 
11 11 11 -11 11 0 10 -5 11 5 11 11 10 -11 11 -5 
11 5 11 11 10 -11 11 -5 11 5 10 11 11 -11 11 -5 
10 5 11 11 11 -11 11 -5 10 5 11 11 11 -11 10 -5 
11 5 11 11 11 -11 10 -5 11 5 11 11 10 -11 11 -5 
11 5 11 11 10 -11 11 0 11 0 10 -5 11 5 11 0 
11 11 10 -11 11 -5 11 5 10 11 11 -11 11 -5 11 0 
10 5 11 11 11 -11 10 -5 11 5 11 11 11 -11 10 -5 
11 5 11 11 10 -11 11 -5 11 5 11 11 10 -11 11 -5 
11 5 10 11 11 -11 11 -5 11 5 10 11 11 -11 11 -5 
10 5 11 11 11 -11 11 -5 10 5 11 11 11 0 10 -11 
11 -5 11 5 10 11 11 -11 11 -5 11 5 10 11 11 -11 
11 -5 10 5 11 11 4123 4585 100 MP stroke
11 -11 11 11 10 -16 11 0 11 0 10 0 11 5 11 -5 
11 0 10 5 11 -5 11 16 10 -3 11 -13 11 0 11 16 
10 -16 11 318 11 -318 10 5 11 11 11 -3 11 -13 10 -14 
11 14 11 -14 10 27 11 -27 11 27 11 3 10 297 11 -313 
11 -14 10 14 11 313 11 -313 11 0 10 13 11 0 11 -13 
10 313 11 -313 11 306 11 -301 10 -5 11 13 11 283 10 -296 
11 0 11 318 10 -313 11 -5 11 5 11 -5 10 296 11 -296 
11 0 10 13 11 -8 11 -5 11 5 10 -19 11 0 11 14 
10 0 11 0 11 0 11 -14 10 14 11 5 11 -5 10 0 
11 0 11 5 11 -5 10 0 11 26 11 -10 10 -16 11 0 
11 0 11 0 10 -14 11 285 11 -285 10 30 11 -11 11 -5 
11 5 10 -5 11 -14 11 0 10 19 11 0 11 -5 11 -14 
10 27 11 270 11 -278 3062 4596 100 MP stroke
10 0 11 -19 11 19 11 0 10 0 11 0 11 -5 10 -14 
11 19 11 8 11 -13 10 -14 11 0 11 0 10 27 11 0 
11 -8 10 0 11 -19 11 0 11 0 10 14 11 -14 11 0 
10 14 11 28 11 -23 11 0 10 8 11 -27 11 0 10 0 
11 19 11 -19 11 19 10 0 11 -19 11 14 10 0 11 0 
11 0 11 5 10 -5 11 0 11 0 10 -14 11 0 11 0 
11 14 10 0 11 5 11 -5 10 -14 11 19 11 0 11 -5 
10 13 11 -13 11 0 10 0 11 0 11 0 11 0 10 0 
11 0 11 5 10 -5 11 0 11 16 11 -3 10 -8 11 -5 
11 13 10 -27 11 14 11 5 10 -5 11 16 11 -16 11 13 
10 0 11 -27 11 0 10 0 11 0 11 27 11 -27 10 14 
11 -14 11 0 10 0 11 0 11 14 11 16 10 -16 11 0 
11 -14 10 19 11 8 2002 4588 100 MP stroke
11 -27 11 19 10 260 11 -252 11 -13 10 26 11 252 11 -265 
11 -13 10 5 11 0 11 -5 10 0 11 0 11 5 11 259 
10 -278 11 14 11 0 10 5 11 0 11 -5 11 5 10 -5 
11 0 11 0 10 -14 11 14 11 13 11 -13 10 5 11 286 
11 -291 10 -14 11 30 11 -3 11 -13 10 290 11 -290 11 0 
10 0 11 5 11 0 10 -19 11 19 11 -19 11 0 10 27 
11 -8 11 -5 10 0 11 -14 11 19 11 286 10 -291 11 277 
11 -277 10 0 11 5 11 -19 11 14 10 -14 11 14 11 -14 
10 19 11 -5 11 0 11 0 10 -14 11 14 11 0 10 0 
11 -14 11 27 11 0 10 -13 11 0 11 16 10 -11 11 29 
11 -18 11 0 10 -16 11 16 11 287 10 -303 11 -14 11 19 
11 19 10 -19 11 180 11 -185 10 0 11 0 11 0 11 -14 
10 14 11 5 11 0 941 4596 100 MP stroke
10 0 11 -5 11 108 10 3817 899 676 5 MP stroke
/c9 { 0.000000 0.000000 1.000000 sr} bdef
c9
11 16 11 -16 10 16 11 -11 11 38 10 204 11 -213 11 -18 
11 -16 10 28 11 -42 11 19 10 -19 11 19 11 0 11 0 
10 8 11 3 11 8 10 -8 11 -30 11 48 11 250 10 -271 
11 -13 11 26 10 -26 11 26 11 -10 11 10 10 -26 11 26 
11 -26 10 28 11 -28 11 41 11 -36 10 53 11 193 11 -212 
10 238 11 -251 11 -26 11 13 10 0 11 106 11 -103 10 -16 
11 5 11 11 11 12 10 -2 11 -13 11 48 10 553 11 -319 
11 -295 11 0 10 13 11 0 11 0 10 -8 11 11 11 -11 
10 -5 11 28 11 -23 11 36 10 234 11 -262 11 -13 10 0 
11 0 11 -14 11 42 10 -23 11 -5 11 0 10 0 11 5 
11 11 11 -16 10 16 11 -11 11 8 10 3 11 -16 11 0 
11 0 10 -14 11 14 11 13 10 -13 11 -14 11 27 11 -8 
10 -5 11 5 11 -19 5183 4615 100 MP stroke
10 0 11 0 11 0 11 0 10 0 11 0 11 0 10 0 
11 0 11 0 11 0 10 0 11 0 11 0 10 0 11 0 
11 0 11 0 10 0 11 0 11 0 10 0 11 0 11 0 
10 0 11 0 11 0 11 0 10 0 11 0 11 0 10 0 
11 0 11 0 11 0 10 0 11 0 11 0 10 0 11 0 
11 0 11 0 10 0 11 0 11 0 10 0 11 0 11 0 
11 0 10 0 11 0 11 0 10 0 11 0 11 0 11 0 
10 0 11 0 11 0 10 0 11 0 11 0 11 0 10 0 
11 0 11 0 10 0 11 0 11 0 11 0 10 0 11 0 
11 0 10 0 11 0 11 0 11 0 10 0 11 0 11 0 
10 0 11 0 11 0 11 0 10 0 11 0 11 0 10 0 
11 0 11 0 10 0 11 0 11 0 11 0 10 0 11 0 
11 19 10 11 11 -11 4123 4596 100 MP stroke
11 -5 11 0 10 5 11 -5 11 334 10 -348 11 14 11 16 
11 -16 10 5 11 0 11 -19 10 27 11 -8 11 11 11 -16 
10 5 11 -5 11 5 10 0 11 -19 11 30 11 -16 10 0 
11 0 11 13 10 321 11 -348 11 19 11 8 10 -13 11 24 
11 -19 10 0 11 0 11 19 11 -38 10 14 11 13 11 -8 
10 -5 11 16 11 -11 11 0 10 11 11 -16 11 -14 10 27 
11 0 11 -13 10 13 11 -13 11 28 11 -15 10 121 11 -118 
11 303 10 -303 11 -11 11 -5 11 0 10 13 11 41 11 265 
10 -306 11 0 11 3 11 -16 10 16 11 10 11 2 10 -23 
11 36 11 -25 11 0 10 76 11 933 11 -372 10 -332 11 -293 
11 -15 11 0 10 3 11 0 11 10 10 0 11 2 11 -15 
11 28 10 280 11 -308 11 3 10 -3 11 0 11 -8 11 8 
10 13 11 -13 11 13 3062 4575 100 MP stroke
10 -10 11 0 11 -16 11 0 10 -14 11 19 11 0 10 -19 
11 14 11 -14 11 14 10 0 11 5 11 -5 10 16 11 -30 
11 30 10 -16 11 0 11 16 11 -16 10 16 11 0 11 0 
10 -16 11 5 11 -5 11 -14 10 30 11 -30 11 19 10 -19 
11 14 11 -14 11 14 10 -14 11 19 11 -19 10 14 11 5 
11 8 11 -13 10 13 11 0 11 3 10 -11 11 -5 11 0 
11 5 10 -5 11 5 11 -5 10 5 11 -5 11 -14 11 14 
10 0 11 -14 11 27 10 -13 11 0 11 0 11 0 10 -14 
11 14 11 0 10 16 11 -30 11 0 11 14 10 0 11 0 
11 5 10 -5 11 5 11 0 10 0 11 0 11 -19 11 0 
10 14 11 0 11 13 10 -8 11 0 11 0 11 -5 10 0 
11 -14 11 0 10 0 11 14 11 0 11 0 10 5 11 -5 
11 16 10 -11 11 -5 2002 4601 100 MP stroke
11 5 11 8 10 -13 11 28 11 -42 10 27 11 -13 11 0 
11 16 10 -11 11 -19 11 30 10 -16 11 13 11 15 11 262 
10 -290 11 16 11 -3 10 -13 11 16 11 -3 11 -8 10 -19 
11 19 11 11 10 0 11 -16 11 5 11 0 10 -5 11 16 
11 -11 10 0 11 8 11 -13 11 0 10 16 11 0 11 -11 
10 0 11 0 11 23 10 -23 11 -5 11 0 11 0 10 5 
11 11 11 -11 10 -5 11 0 11 13 11 0 10 -13 11 -14 
11 14 10 -14 11 30 11 -16 11 5 10 0 11 -5 11 0 
10 16 11 274 11 -304 11 14 10 0 11 0 11 5 10 -5 
11 13 11 -13 11 16 10 -16 11 -14 11 0 10 14 11 0 
11 290 11 -290 10 290 11 -290 11 16 10 -16 11 0 11 -14 
11 14 10 0 11 0 11 5 10 312 11 -317 11 39 11 -39 
10 13 11 278 11 -286 941 4596 100 MP stroke
10 -5 11 0 11 64 10 3861 899 676 5 MP stroke
/c10 { 1.000000 0.000000 0.000000 sr} bdef
c10
11 19 11 0 10 -19 11 0 11 8 10 -13 11 -14 11 0 
11 14 10 5 11 -19 11 27 10 3 11 0 11 -11 11 11 
10 240 11 -243 11 -13 10 24 11 260 11 -284 11 24 10 243 
11 -262 11 0 10 -19 11 266 11 -236 11 -16 10 5 11 -5 
11 0 10 -14 11 14 11 28 11 157 10 105 11 -285 11 -5 
10 303 11 -303 11 0 11 0 10 5 11 272 11 -277 10 277 
11 -277 11 0 11 0 10 0 11 13 11 -8 10 -5 11 0 
11 5 11 0 10 0 11 8 11 -13 10 5 11 11 11 12 
10 267 11 -279 11 -11 11 -5 10 -14 11 14 11 275 10 -275 
11 16 11 0 11 -16 10 0 11 0 11 -14 10 48 11 -48 
11 14 11 0 10 0 11 5 11 0 10 -5 11 0 11 -14 
11 0 10 0 11 19 11 -5 10 5 11 0 11 -5 11 0 
10 0 11 -14 11 0 5183 4615 100 MP stroke
10 0 11 0 11 0 11 0 10 0 11 0 11 0 10 0 
11 0 11 0 11 0 10 0 11 0 11 0 10 0 11 0 
11 0 11 0 10 0 11 0 11 0 10 0 11 0 11 0 
10 0 11 0 11 0 11 0 10 0 11 0 11 0 10 0 
11 0 11 0 11 0 10 0 11 0 11 0 10 0 11 0 
11 0 11 0 10 0 11 0 11 0 10 0 11 0 11 0 
11 0 10 0 11 0 11 0 10 0 11 0 11 0 11 0 
10 0 11 0 11 0 10 0 11 0 11 0 11 0 10 0 
11 0 11 0 10 0 11 0 11 0 11 0 10 0 11 0 
11 0 10 0 11 0 11 0 11 0 10 0 11 0 11 0 
10 0 11 0 11 0 11 0 10 0 11 0 11 0 10 0 
11 0 11 0 10 0 11 0 11 0 11 0 10 0 11 0 
11 0 10 0 11 0 4123 4615 100 MP stroke
11 14 11 332 10 -332 11 0 11 -14 10 0 11 14 11 -14 
11 14 10 -14 11 14 11 0 10 -14 11 0 11 0 11 14 
10 13 11 -8 11 -5 10 16 11 -3 11 -8 11 327 10 -327 
11 8 11 282 10 -295 11 -14 11 14 11 -14 10 0 11 0 
11 0 10 14 11 13 11 305 11 -302 10 -11 11 0 11 0 
10 303 11 -303 11 -5 11 0 10 321 11 -335 11 27 10 -8 
11 0 11 0 10 0 11 -19 11 19 11 0 10 0 11 11 
11 -16 10 0 11 -14 11 27 11 -8 10 -5 11 -14 11 14 
10 0 11 5 11 -5 11 0 10 -14 11 14 11 5 10 -5 
11 5 11 -5 11 5 10 0 11 316 11 -316 10 -19 11 335 
11 -316 11 -5 10 0 11 0 11 306 10 -306 11 -14 11 0 
11 14 10 0 11 0 11 -14 10 14 11 0 11 -14 11 0 
10 0 11 19 11 -5 3062 4601 100 MP stroke
10 -14 11 19 11 -5 11 5 10 8 11 3 11 -30 10 27 
11 -13 11 -14 11 0 10 19 11 -5 11 13 10 -8 11 -5 
11 0 10 5 11 -5 11 16 11 -11 10 8 11 -13 11 5 
10 -5 11 0 11 13 11 3 10 -11 11 11 11 -16 10 0 
11 -14 11 14 11 16 10 -3 11 -13 11 5 10 -5 11 0 
11 -14 11 19 10 -5 11 0 11 0 10 0 11 0 11 0 
11 -14 10 14 11 0 11 0 10 0 11 -14 11 0 11 0 
10 0 11 14 11 -14 10 27 11 -13 11 5 11 0 10 -19 
11 27 11 -27 10 27 11 -13 11 -14 11 14 10 -14 11 14 
11 0 10 -14 11 0 11 0 10 0 11 0 11 0 11 0 
10 14 11 13 11 -13 10 0 11 0 11 -14 11 14 10 0 
11 0 11 0 10 0 11 0 11 0 11 0 10 -14 11 0 
11 0 10 19 11 -19 2002 4615 100 MP stroke
11 0 11 14 10 0 11 0 11 0 10 5 11 -19 11 14 
11 5 10 285 11 -290 11 0 10 0 11 -14 11 0 11 19 
10 0 11 -5 11 -14 10 30 11 -11 11 0 11 -19 10 30 
11 -30 11 19 10 -5 11 -14 11 14 11 -14 10 14 11 290 
11 -290 10 0 11 -14 11 0 11 0 10 304 11 -290 11 0 
10 0 11 0 11 0 10 16 11 -16 11 5 11 -5 10 0 
11 0 11 16 10 -16 11 0 11 0 11 0 10 -14 11 291 
11 -277 10 -14 11 14 11 -14 11 27 10 -8 11 19 11 -24 
10 -14 11 0 11 19 11 286 10 -291 11 5 11 -5 10 0 
11 13 11 3 11 -16 10 -14 11 0 11 14 10 0 11 0 
11 0 11 5 10 -5 11 5 11 -5 10 0 11 0 11 0 
11 291 10 -286 11 11 11 -11 10 0 11 0 11 -19 11 19 
10 -19 11 0 11 0 941 4615 100 MP stroke
10 14 11 5 11 23 10 3897 899 676 5 MP stroke
gr

c10
0 sg
3277 4983 mt 
(Time [s]) s
 586 3314 mt  -90 rotate
(Tracking Error [Pixels]) s
90 rotate
%%IncludeResource: font Helvetica
/Helvetica /ISOLatin1Encoding 192 FMSR

2712  251 mt 
(Tracking Error: Slow) s
%%IncludeResource: font Helvetica
/Helvetica /ISOLatin1Encoding 120 FMSR

 882 4658 mt 
( ) s
6239  431 mt 
( ) s
1 sg
0 480 672 0 0 -480 5523 929 4 MP
PP
-672 0 0 480 672 0 0 -480 5523 929 5 MP stroke
4 w
DO
SO
6 w
0 sg
5523  929 mt 6195  929 L
5523  449 mt 6195  449 L
5523  929 mt 5523  449 L
6195  929 mt 6195  449 L
5523  929 mt 6195  929 L
5523  929 mt 5523  449 L
5523  929 mt 6195  929 L
5523  449 mt 6195  449 L
5523  929 mt 5523  449 L
6195  929 mt 6195  449 L
5976  585 mt 
(1pt) s
gs 5523 449 673 481 MR c np
c8
348 0 5592 542 2 MP stroke
gr

c8
0 sg
5976  732 mt 
(2pt) s
gs 5523 449 673 481 MR c np
c9
348 0 5592 689 2 MP stroke
gr

c9
0 sg
5976  878 mt 
(3pt) s
gs 5523 449 673 481 MR c np
c10
348 0 5592 835 2 MP stroke
gr

c10

end %%Color Dict

eplot
%%EndObject

epage
end

showpage

%%Trailer
%%EOF
