Time,q0,q1,q2,q3,q4,q5,q6
0,0,-0.65,0,1.8,0,0.42,0
1,-0.0154587,-0.634433,-0.0185852,1.82236,-0.00506425,0.433429,-0.000184486
2,-0.0325013,-0.635251,-0.0385732,1.82202,-0.0105192,0.433474,-0.000168193
3,-0.0494792,-0.635996,-0.0584903,1.82176,-0.0159528,0.433632,-0.000150528
4,-0.0662954,-0.636852,-0.0782146,1.82132,-0.0213319,0.433748,-0.000129321
5,-0.0829098,-0.637811,-0.0977,1.82071,-0.0266431,0.433824,-0.000104915
6,-0.0992838,-0.638865,-0.116902,1.81992,-0.0318741,0.433859,-7.76829e-05
7,-0.115383,-0.640006,-0.13578,1.81899,-0.0370134,0.433857,-4.80271e-05
8,-0.131177,-0.641225,-0.1543,1.81791,-0.0420514,0.433818,-1.63612e-05
9,-0.146639,-0.642513,-0.172431,1.81669,-0.0469797,0.433745,1.69013e-05
10,-0.161748,-0.643862,-0.190148,1.81536,-0.0517912,0.433639,5.13583e-05
11,-0.16398,-0.643978,-0.192779,1.8152,-0.0525082,0.433635,5.19673e-05
12,-0.164097,-0.643982,-0.192917,1.81519,-0.052546,0.433636,5.19688e-05
13,-0.164104,-0.643982,-0.192925,1.81519,-0.052548,0.433636,5.19688e-05
14,-0.164104,-0.643982,-0.192925,1.81519,-0.0525481,0.433636,5.19688e-05
15,-0.164104,-0.643982,-0.192925,1.81519,-0.0525481,0.433636,5.19688e-05
16,-0.164104,-0.643982,-0.192925,1.81519,-0.0525481,0.433636,5.19688e-05
17,-0.164104,-0.643982,-0.192925,1.81519,-0.0525481,0.433636,5.19688e-05
18,-0.164104,-0.643982,-0.192925,1.81519,-0.0525481,0.433636,5.19688e-05
19,-0.164104,-0.643982,-0.192925,1.81519,-0.0525481,0.433636,5.19688e-05
20,-0.164104,-0.643982,-0.192925,1.81519,-0.0525481,0.433636,5.19688e-05
21,-0.150859,-0.647788,-0.176636,1.8106,-0.0482069,0.430533,2.36796e-05
22,-0.135263,-0.652415,-0.157351,1.80512,-0.0431221,0.426914,-2.02156e-05
23,-0.119435,-0.657243,-0.137655,1.79941,-0.0379902,0.423221,-7.00613e-05
24,-0.103529,-0.662238,-0.117735,1.7935,-0.0328628,0.41948,-0.000125414
25,-0.0875988,-0.667385,-0.0976536,1.78743,-0.0277571,0.415705,-0.000186157
26,-0.0716918,-0.672666,-0.0774669,1.78121,-0.0226884,0.411913,-0.000252078
27,-0.0558556,-0.678062,-0.0572338,1.77488,-0.0176716,0.408118,-0.000322856
28,-0.0401364,-0.683552,-0.0370126,1.76846,-0.0127207,0.404338,-0.000398072
29,-0.0245784,-0.689117,-0.0168606,1.76199,-0.00784833,0.400587,-0.00047722
30,-0.00922303,-0.694734,0.00316704,1.75548,-0.00306623,0.396879,-0.000559726
31,-0.00711664,-0.695401,0.00592953,1.75463,-0.00240482,0.396386,-0.000561057
32,-0.00703689,-0.695423,0.0060342,1.7546,-0.00237975,0.39637,-0.000561059
33,-0.0070339,-0.695424,0.00603812,1.7546,-0.00237881,0.396369,-0.000561059
34,-0.00703378,-0.695424,0.00603827,1.7546,-0.00237877,0.396369,-0.000561059
35,-0.00703378,-0.695424,0.00603827,1.7546,-0.00237877,0.396369,-0.000561059
36,-0.00703378,-0.695424,0.00603827,1.7546,-0.00237877,0.396369,-0.000561059
37,-0.00703378,-0.695424,0.00603827,1.7546,-0.00237877,0.396369,-0.000561059
38,-0.00703378,-0.695424,0.00603827,1.7546,-0.00237877,0.396369,-0.000561059
39,-0.00703378,-0.695424,0.00603827,1.7546,-0.00237877,0.396369,-0.000561059
40,-0.00703378,-0.695424,0.00603827,1.7546,-0.00237877,0.396369,-0.000561059
41,-0.0202518,-0.695762,-0.011319,1.75471,-0.00653871,0.396566,-0.000555163
42,-0.0353899,-0.696256,-0.0311915,1.7548,-0.0113004,0.396844,-0.000543136
43,-0.0505204,-0.696821,-0.0510506,1.75483,-0.0160588,0.397141,-0.000527512
44,-0.0655297,-0.697457,-0.0707468,1.75477,-0.0207783,0.397446,-0.00050857
45,-0.080381,-0.698159,-0.090232,1.75464,-0.0254473,0.397756,-0.000486583
46,-0.095043,-0.698923,-0.109465,1.75442,-0.0300564,0.398071,-0.000461862
47,-0.109487,-0.699744,-0.128409,1.75414,-0.0345968,0.398388,-0.000434742
48,-0.123689,-0.700616,-0.147032,1.75378,-0.0390607,0.398707,-0.000405577
