Time,q0,q1,q2,q3,q4,q5,q6
0,0,-0.65,0,1.8,0,0.42,0
1,-0.00344225,-0.63397,-0.00414067,1.82237,-0.00112859,0.433281,-4.28841e-05
2,-0.00860063,-0.634229,-0.0101952,1.82209,-0.00278143,0.433138,-4.17091e-05
3,-0.0137488,-0.634293,-0.0162401,1.82208,-0.00443149,0.433156,-4.12528e-05
4,-0.0188923,-0.63437,-0.0222794,1.82204,-0.00607998,0.433167,-4.06759e-05
5,-0.0240303,-0.634458,-0.0283123,1.82199,-0.00772662,0.433176,-3.99885e-05
6,-0.0291616,-0.634558,-0.0343371,1.82192,-0.00937096,0.433181,-3.91914e-05
7,-0.0342847,-0.634668,-0.0403523,1.82183,-0.0110126,0.433182,-3.8286e-05
8,-0.0393984,-0.63479,-0.0463564,1.82173,-0.012651,0.43318,-3.72737e-05
9,-0.0445016,-0.634922,-0.0523481,1.82161,-0.014286,0.433175,-3.61563e-05
10,-0.0495928,-0.635065,-0.0583257,1.82147,-0.0159169,0.433166,-3.49355e-05
11,-0.0546709,-0.635218,-0.064288,1.82132,-0.0175434,0.433154,-3.36133e-05
12,-0.0597348,-0.635383,-0.0702335,1.82115,-0.0191652,0.433138,-3.2192e-05
13,-0.0647831,-0.635557,-0.0761607,1.82097,-0.0207817,0.43312,-3.06737e-05
14,-0.0698148,-0.635741,-0.0820685,1.82077,-0.0223927,0.433098,-2.90611e-05
15,-0.0748287,-0.635936,-0.0879554,1.82055,-0.0239978,0.433072,-2.73567e-05
16,-0.0798236,-0.63614,-0.0938201,1.82032,-0.0255966,0.433044,-2.55631e-05
17,-0.0847987,-0.636354,-0.0996615,1.82008,-0.0271887,0.433012,-2.36833e-05
18,-0.0897527,-0.636578,-0.105478,1.81982,-0.0287738,0.432977,-2.172e-05
19,-0.0946847,-0.636811,-0.111269,1.81954,-0.0303516,0.43294,-1.96765e-05
20,-0.0995936,-0.637052,-0.117033,1.81926,-0.0319217,0.432899,-1.75556e-05
21,-0.104479,-0.637303,-0.122769,1.81895,-0.0334838,0.432855,-1.53606e-05
22,-0.109339,-0.637563,-0.128476,1.81864,-0.0350377,0.432808,-1.30948e-05
23,-0.114173,-0.63783,-0.134153,1.81831,-0.036583,0.432759,-1.07613e-05
24,-0.118981,-0.638107,-0.139798,1.81797,-0.0381195,0.432707,-8.36345e-06
25,-0.123761,-0.638391,-0.145412,1.81762,-0.0396468,0.432652,-5.9046e-06
26,-0.128513,-0.638683,-0.150992,1.81725,-0.0411648,0.432594,-3.38808e-06
27,-0.133236,-0.638982,-0.156539,1.81687,-0.0426731,0.432534,-8.17228e-07
28,-0.137929,-0.639289,-0.162051,1.81648,-0.0441716,0.432472,1.80461e-06
29,-0.142592,-0.639603,-0.167527,1.81608,-0.0456601,0.432406,4.4741e-06
30,-0.147224,-0.639924,-0.172967,1.81567,-0.0471383,0.432339,7.18793e-06
31,-0.151825,-0.640252,-0.17837,1.81525,-0.048606,0.432269,9.94282e-06
32,-0.156393,-0.640586,-0.183736,1.81482,-0.050063,0.432198,1.27355e-05
33,-0.160928,-0.640926,-0.189063,1.81438,-0.0515093,0.432123,1.55628e-05
34,-0.164012,-0.641153,-0.192686,1.81407,-0.0524932,0.43207,1.68709e-05
35,-0.164171,-0.64116,-0.192874,1.81406,-0.0525442,0.43207,1.68739e-05
36,-0.164179,-0.641161,-0.192883,1.81406,-0.0525468,0.43207,1.68739e-05
37,-0.16418,-0.641161,-0.192884,1.81406,-0.0525469,0.43207,1.68739e-05
38,-0.16418,-0.641161,-0.192884,1.81406,-0.052547,0.43207,1.68739e-05
39,-0.16418,-0.641161,-0.192884,1.81406,-0.052547,0.43207,1.68739e-05
40,-0.16418,-0.641161,-0.192884,1.81406,-0.052547,0.43207,1.68739e-05
41,-0.16418,-0.641161,-0.192884,1.81406,-0.052547,0.43207,1.68739e-05
42,-0.16418,-0.641161,-0.192884,1.81406,-0.052547,0.43207,1.68739e-05
43,-0.16418,-0.641161,-0.192884,1.81406,-0.052547,0.43207,1.68739e-05
44,-0.16418,-0.641161,-0.192884,1.81406,-0.052547,0.43207,1.68739e-05
45,-0.16418,-0.641161,-0.192884,1.81406,-0.052547,0.43207,1.68739e-05
46,-0.16418,-0.641161,-0.192884,1.81406,-0.052547,0.43207,1.68739e-05
47,-0.16418,-0.641161,-0.192884,1.81406,-0.052547,0.43207,1.68739e-05
48,-0.16418,-0.641161,-0.192884,1.81406,-0.052547,0.43207,1.68739e-05
49,-0.16418,-0.641161,-0.192884,1.81406,-0.052547,0.43207,1.68739e-05
50,-0.16418,-0.641161,-0.192884,1.81406,-0.052547,0.43207,1.68739e-05
51,-0.16418,-0.641161,-0.192884,1.81406,-0.052547,0.43207,1.68739e-05
52,-0.16418,-0.641161,-0.192884,1.81406,-0.052547,0.43207,1.68739e-05
53,-0.16418,-0.641161,-0.192884,1.81406,-0.052547,0.43207,1.68739e-05
54,-0.16418,-0.641161,-0.192884,1.81406,-0.052547,0.43207,1.68739e-05
55,-0.16418,-0.641161,-0.192884,1.81406,-0.052547,0.43207,1.68739e-05
56,-0.16418,-0.641161,-0.192884,1.81406,-0.052547,0.43207,1.68739e-05
57,-0.16418,-0.641161,-0.192884,1.81406,-0.052547,0.43207,1.68739e-05
58,-0.16418,-0.641161,-0.192884,1.81406,-0.052547,0.43207,1.68739e-05
59,-0.16418,-0.641161,-0.192884,1.81406,-0.052547,0.43207,1.68739e-05
60,-0.16418,-0.641161,-0.192884,1.81406,-0.052547,0.43207,1.68739e-05
61,-0.16418,-0.641161,-0.192884,1.81406,-0.052547,0.43207,1.68739e-05
62,-0.16418,-0.641161,-0.192884,1.81406,-0.052547,0.43207,1.68739e-05
63,-0.16418,-0.641161,-0.192884,1.81406,-0.052547,0.43207,1.68739e-05
64,-0.16418,-0.641161,-0.192884,1.81406,-0.052547,0.43207,1.68739e-05
65,-0.16418,-0.641161,-0.192884,1.81406,-0.052547,0.43207,1.68739e-05
66,-0.16418,-0.641161,-0.192884,1.81406,-0.052547,0.43207,1.68739e-05
67,-0.16418,-0.641161,-0.192884,1.81406,-0.052547,0.43207,1.68739e-05
68,-0.159784,-0.642338,-0.187494,1.81253,-0.0511117,0.431011,1.4257e-05
69,-0.155145,-0.643585,-0.181797,1.81091,-0.0495995,0.429899,1.12667e-05
70,-0.150479,-0.64485,-0.176055,1.80927,-0.0480807,0.428778,8.1331e-06
71,-0.145796,-0.646131,-0.170283,1.80761,-0.046559,0.427649,4.86446e-06
72,-0.1411,-0.647429,-0.164483,1.80593,-0.0450352,0.426513,1.45969e-06
73,-0.13639,-0.648743,-0.158655,1.80422,-0.0435094,0.42537,-2.08251e-06
74,-0.131668,-0.650074,-0.1528,1.8025,-0.0419823,0.424221,-5.7633e-06
75,-0.126935,-0.651419,-0.146922,1.80075,-0.040454,0.423065,-9.5836e-06
76,-0.122193,-0.652781,-0.141019,1.79899,-0.0389252,0.421905,-1.35441e-05
77,-0.117442,-0.654157,-0.135095,1.79721,-0.037396,0.420739,-1.76454e-05
78,-0.112684,-0.655548,-0.129149,1.79541,-0.0358671,0.419568,-2.18876e-05
79,-0.10792,-0.656954,-0.123185,1.79359,-0.0343387,0.418393,-2.62709e-05
80,-0.103152,-0.658373,-0.117203,1.79176,-0.0328113,0.417214,-3.0795e-05
81,-0.0983795,-0.659807,-0.111204,1.78991,-0.0312853,0.416031,-3.54594e-05
82,-0.093605,-0.661254,-0.10519,1.78805,-0.0297611,0.414845,-4.02634e-05
83,-0.0888297,-0.662714,-0.0991631,1.78617,-0.0282391,0.413657,-4.52061e-05
84,-0.0840546,-0.664186,-0.0931242,1.78428,-0.0267197,0.412467,-5.02862e-05
85,-0.0792811,-0.66567,-0.0870749,1.78237,-0.0252033,0.411275,-5.55024e-05
86,-0.0745105,-0.667167,-0.081017,1.78045,-0.0236904,0.410082,-6.08527e-05
87,-0.0697441,-0.668674,-0.0749518,1.77852,-0.0221813,0.408888,-6.63354e-05
88,-0.0649831,-0.670192,-0.068881,1.77658,-0.0206763,0.407693,-7.19481e-05
89,-0.0602287,-0.671721,-0.0628062,1.77463,-0.019176,0.406499,-7.76884e-05
90,-0.0554823,-0.673259,-0.0567289,1.77267,-0.0176806,0.405306,-8.35536e-05
91,-0.0507451,-0.674806,-0.0506508,1.77071,-0.0161906,0.404113,-8.95408e-05
92,-0.0460182,-0.676363,-0.0445733,1.76873,-0.0147063,0.402922,-9.56468e-05
93,-0.0413031,-0.677927,-0.0384982,1.76675,-0.0132281,0.401733,-0.000101868
94,-0.0366007,-0.679499,-0.0324268,1.76476,-0.0117563,0.400547,-0.000108201
95,-0.0319124,-0.681079,-0.0263609,1.76277,-0.0102912,0.399363,-0.000114643
96,-0.0272393,-0.682665,-0.0203019,1.76077,-0.00883324,0.398183,-0.000121188
97,-0.0225824,-0.684257,-0.0142513,1.75877,-0.0073827,0.397006,-0.000127834
98,-0.0179431,-0.685854,-0.00821068,1.75677,-0.00593989,0.395834,-0.000134575
99,-0.0133222,-0.687457,-0.0021815,1.75477,-0.00450511,0.394666,-0.000141407
100,-0.00872098,-0.689065,0.00383477,1.75276,-0.00307865,0.393503,-0.000148327
101,-0.00708048,-0.689624,0.00598341,1.75205,-0.00256942,0.393088,-0.000149186
102,-0.00702235,-0.689641,0.0060596,1.75203,-0.00255135,0.393075,-0.000149187
103,-0.0070203,-0.689642,0.00606228,1.75203,-0.00255072,0.393075,-0.000149187
104,-0.00702023,-0.689642,0.00606238,1.75203,-0.00255069,0.393075,-0.000149187
105,-0.00702023,-0.689642,0.00606238,1.75203,-0.00255069,0.393075,-0.000149187
106,-0.00702023,-0.689642,0.00606238,1.75203,-0.00255069,0.393075,-0.000149187
107,-0.00702023,-0.689642,0.00606238,1.75203,-0.00255069,0.393075,-0.000149187
108,-0.00702023,-0.689642,0.00606238,1.75203,-0.00255069,0.393075,-0.000149187
109,-0.00702023,-0.689642,0.00606238,1.75203,-0.00255069,0.393075,-0.000149187
110,-0.00702023,-0.689642,0.00606238,1.75203,-0.00255069,0.393075,-0.000149187
111,-0.00702023,-0.689642,0.00606238,1.75203,-0.00255069,0.393075,-0.000149187
112,-0.00702023,-0.689642,0.00606238,1.75203,-0.00255069,0.393075,-0.000149187
113,-0.00702023,-0.689642,0.00606238,1.75203,-0.00255069,0.393075,-0.000149187
114,-0.00702023,-0.689642,0.00606238,1.75203,-0.00255069,0.393075,-0.000149187
115,-0.00702023,-0.689642,0.00606238,1.75203,-0.00255069,0.393075,-0.000149187
116,-0.00702023,-0.689642,0.00606238,1.75203,-0.00255069,0.393075,-0.000149187
117,-0.00702023,-0.689642,0.00606238,1.75203,-0.00255069,0.393075,-0.000149187
118,-0.00702023,-0.689642,0.00606238,1.75203,-0.00255069,0.393075,-0.000149187
119,-0.00702023,-0.689642,0.00606238,1.75203,-0.00255069,0.393075,-0.000149187
120,-0.00702023,-0.689642,0.00606238,1.75203,-0.00255069,0.393075,-0.000149187
121,-0.00702023,-0.689642,0.00606238,1.75203,-0.00255069,0.393075,-0.000149187
122,-0.00702023,-0.689642,0.00606238,1.75203,-0.00255069,0.393075,-0.000149187
123,-0.00702023,-0.689642,0.00606238,1.75203,-0.00255069,0.393075,-0.000149187
124,-0.00702023,-0.689642,0.00606238,1.75203,-0.00255069,0.393075,-0.000149187
125,-0.00702023,-0.689642,0.00606238,1.75203,-0.00255069,0.393075,-0.000149187
126,-0.00702023,-0.689642,0.00606238,1.75203,-0.00255069,0.393075,-0.000149187
127,-0.00702023,-0.689642,0.00606238,1.75203,-0.00255069,0.393075,-0.000149187
128,-0.00702023,-0.689642,0.00606238,1.75203,-0.00255069,0.393075,-0.000149187
129,-0.00702023,-0.689642,0.00606238,1.75203,-0.00255069,0.393075,-0.000149187
130,-0.00702023,-0.689642,0.00606238,1.75203,-0.00255069,0.393075,-0.000149187
131,-0.00702023,-0.689642,0.00606238,1.75203,-0.00255069,0.393075,-0.000149187
132,-0.00702023,-0.689642,0.00606238,1.75203,-0.00255069,0.393075,-0.000149187
133,-0.00702023,-0.689642,0.00606238,1.75203,-0.00255069,0.393075,-0.000149187
134,-0.00849755,-0.689645,0.00412419,1.75203,-0.00301065,0.393082,-0.000149192
135,-0.0129801,-0.689682,-0.00175645,1.75205,-0.0044062,0.393115,-0.000149022
136,-0.0175668,-0.689725,-0.00777353,1.75206,-0.00583416,0.393152,-0.000148745
137,-0.0221542,-0.689776,-0.0137915,1.75207,-0.00726237,0.39319,-0.000148366
138,-0.0267377,-0.689835,-0.0198042,1.75207,-0.00868937,0.39323,-0.000147884
139,-0.0313162,-0.6899,-0.0258101,1.75206,-0.0101148,0.393271,-0.000147301
140,-0.0358886,-0.689972,-0.0318078,1.75205,-0.0115384,0.393313,-0.000146618
141,-0.0404539,-0.690052,-0.0377961,1.75203,-0.0129597,0.393356,-0.000145835
142,-0.0450111,-0.690139,-0.0437736,1.752,-0.0143786,0.3934,-0.000144954
143,-0.0495592,-0.690232,-0.049739,1.75196,-0.0157946,0.393445,-0.000143976
144,-0.0540972,-0.690333,-0.0556911,1.75192,-0.0172075,0.393491,-0.000142904
145,-0.0586242,-0.69044,-0.0616285,1.75187,-0.018617,0.393539,-0.000141737
146,-0.0631392,-0.690554,-0.0675501,1.75181,-0.0200228,0.393587,-0.00014048
147,-0.0676414,-0.690675,-0.0734546,1.75175,-0.0214246,0.393636,-0.000139132
148,-0.0721297,-0.690802,-0.0793408,1.75168,-0.0228221,0.393686,-0.000137697
149,-0.0766033,-0.690936,-0.0852075,1.75161,-0.0242151,0.393737,-0.000136176
150,-0.0810613,-0.691076,-0.0910537,1.75153,-0.0256033,0.393789,-0.000134572
151,-0.0855029,-0.691222,-0.0968781,1.75144,-0.0269863,0.393841,-0.000132887
152,-0.0899272,-0.691374,-0.10268,1.75134,-0.0283641,0.393895,-0.000131124
153,-0.0943335,-0.691533,-0.108457,1.75124,-0.0297362,0.393949,-0.000129285
154,-0.0987209,-0.691697,-0.11421,1.75113,-0.0311025,0.394003,-0.000127372
155,-0.103089,-0.691868,-0.119937,1.75102,-0.0324627,0.394059,-0.000125389
156,-0.107436,-0.692044,-0.125637,1.7509,-0.0338167,0.394115,-0.000123338
157,-0.111762,-0.692225,-0.131309,1.75077,-0.0351641,0.394172,-0.000121222
158,-0.116067,-0.692412,-0.136953,1.75064,-0.0365047,0.394229,-0.000119043
159,-0.120349,-0.692605,-0.142567,1.75051,-0.0378385,0.394287,-0.000116805
160,-0.124608,-0.692802,-0.14815,1.75036,-0.039165,0.394346,-0.00011451
161,-0.128844,-0.693005,-0.153702,1.75022,-0.0404843,0.394405,-0.000112161
162,-0.133055,-0.693213,-0.159223,1.75006,-0.0417961,0.394464,-0.000109761
163,-0.137241,-0.693425,-0.16471,1.7499,-0.0431001,0.394524,-0.000107313
164,-0.141402,-0.693642,-0.170164,1.74974,-0.0443964,0.394584,-0.000104819
165,-0.145537,-0.693864,-0.175585,1.74957,-0.0456846,0.394645,-0.000102283
