Time,TrackingError
1,0.440743
0.95,0.440743
0.9,0.440743
0.85,0.440743
0.8,0.440743
0.75,0.440743
0.7,0.440743
0.65,0.440743
0.6,0.440743
0.55,0.440743
0.5,0.440743
0.45,0.440743
0.4,0.440743
0.35,0.440743
0.3,0.440743
0.25,0.440743
0.2,0.440743
0.15,0.440743
0.1,0.440743
0.05,0.440743
