Time,q0,q1,q2,q3,q4,q5,q6
0,0,-0.65,0,1.8,0,0.42,0
1,-0.0167602,-0.646087,-0.0156063,1.82653,-0.00934419,0.440957,-0.00385919
2,-0.0334848,-0.633488,-0.0359069,1.82133,-0.0181097,0.432966,-0.00813468
3,-0.0493667,-0.614762,-0.0564635,1.81358,-0.026907,0.421309,-0.013096
4,-0.0646088,-0.59176,-0.0776456,1.80365,-0.0350892,0.407028,-0.0178976
5,-0.0791888,-0.564586,-0.0994676,1.79149,-0.0425306,0.390279,-0.0224094
6,-0.0930898,-0.533231,-0.121956,1.77694,-0.0490547,0.371126,-0.0264563
7,-0.106326,-0.497657,-0.145129,1.75981,-0.0544621,0.349634,-0.029838
8,-0.11895,-0.45779,-0.168999,1.73991,-0.0585226,0.325854,-0.032321
9,-0.131069,-0.413504,-0.193569,1.71698,-0.060967,0.299822,-0.033631
10,-0.142852,-0.36461,-0.218828,1.69072,-0.0614762,0.271552,-0.0334408
11,-0.149175,-0.385076,-0.205369,1.70104,-0.107796,0.283588,-0.0797317
12,-0.155182,-0.387163,-0.191043,1.70273,-0.160584,0.286396,-0.133096
13,-0.161279,-0.38886,-0.177327,1.70473,-0.212174,0.288979,-0.18523
14,-0.167368,-0.393463,-0.163271,1.70866,-0.263333,0.292971,-0.236951
15,-0.173417,-0.400215,-0.14883,1.71424,-0.31405,0.298006,-0.288289
16,-0.179415,-0.408733,-0.134058,1.72126,-0.364085,0.30387,-0.33903
17,-0.185351,-0.418731,-0.118983,1.72958,-0.413271,0.310403,-0.389025
18,-0.191221,-0.429871,-0.103649,1.73903,-0.461491,0.317429,-0.438172
19,-0.197025,-0.441797,-0.0881115,1.74939,-0.508672,0.324775,-0.486408
20,-0.202771,-0.45415,-0.0724356,1.76047,-0.554787,0.332271,-0.533704
21,-0.188542,-0.472973,-0.0550565,1.76421,-0.549615,0.331684,-0.531434
22,-0.172204,-0.496508,-0.0361624,1.76957,-0.541049,0.332056,-0.526229
23,-0.155778,-0.516819,-0.0175793,1.77263,-0.532558,0.330811,-0.520963
24,-0.139255,-0.534019,0.000716928,1.77371,-0.524099,0.328116,-0.515605
25,-0.122696,-0.548004,0.018712,1.77278,-0.515759,0.323934,-0.51022
26,-0.106174,-0.558762,0.0364188,1.76986,-0.507638,0.318279,-0.504895
27,-0.0897653,-0.566283,0.053857,1.76497,-0.499826,0.311173,-0.49971
28,-0.07355,-0.570566,0.0710524,1.75812,-0.492409,0.302641,-0.494745
29,-0.0576081,-0.571616,0.0880368,1.74934,-0.485468,0.292717,-0.490075
30,-0.0420167,-0.569447,0.104847,1.73861,-0.479077,0.281442,-0.485774
31,-0.0414145,-0.56953,0.107011,1.73791,-0.481255,0.280523,-0.488161
32,-0.0415131,-0.569395,0.107048,1.73787,-0.481538,0.280483,-0.488443
33,-0.041512,-0.569391,0.107046,1.73787,-0.481533,0.28048,-0.488438
34,-0.041512,-0.569391,0.107046,1.73787,-0.481533,0.280481,-0.488438
35,-0.041512,-0.569391,0.107046,1.73787,-0.481533,0.280481,-0.488438
36,-0.041512,-0.569391,0.107046,1.73787,-0.481533,0.280481,-0.488438
37,-0.041512,-0.569391,0.107046,1.73787,-0.481533,0.280481,-0.488438
38,-0.041512,-0.569391,0.107046,1.73787,-0.481533,0.280481,-0.488438
39,-0.041512,-0.569391,0.107046,1.73787,-0.481533,0.280481,-0.488438
40,-0.041512,-0.569391,0.107046,1.73787,-0.481533,0.280481,-0.488438
41,-0.0668027,-0.561436,0.103836,1.73734,-0.53342,0.282463,-0.539121
42,-0.0944555,-0.550466,0.099289,1.7334,-0.58955,0.283174,-0.593759
43,-0.121527,-0.541154,0.0950328,1.73029,-0.64504,0.284952,-0.647812
44,-0.148017,-0.533599,0.0910779,1.72862,-0.699719,0.288038,-0.701162
45,-0.173826,-0.527158,0.0872294,1.72796,-0.753034,0.292042,-0.753237
46,-0.198874,-0.52107,0.0833034,1.7278,-0.804548,0.296546,-0.803568
47,-0.223168,-0.514226,0.0790525,1.72733,-0.854025,0.301016,-0.851848
48,-0.246785,-0.505324,0.074187,1.7256,-0.901424,0.304858,-0.897928
