Time,dq0,dq1,dq2,dq3,dq4,dq5,dq6
0,-0.0011753,-0.00694126,0.001041,0.0302408,-0.000266402,0.0278272,0.000832606
1,-0.00186609,-0.00201232,-0.00173026,0.00075533,-0.000978165,0.00125316,-0.000310401
2,-0.0017297,0.000825035,-0.00188961,-0.000306866,-0.000966643,-0.000510998,-0.000449098
3,-0.00172454,0.000868399,-0.00189197,-0.000325487,-0.000961761,-0.000538028,-0.000447643
4,-0.00172157,0.0009104,-0.0018955,-0.000343934,-0.000959746,-0.000564413,-0.000448466
5,-0.00171851,0.000952317,-0.00189909,-0.000362424,-0.000957619,-0.000590728,-0.000449195
6,-0.00171536,0.000994218,-0.00190273,-0.000380974,-0.000955377,-0.000617007,-0.000449829
7,-0.00171212,0.0010361,-0.00190642,-0.000399585,-0.000953021,-0.000643248,-0.000450368
8,-0.00170878,0.00107797,-0.00191016,-0.000418259,-0.000950549,-0.00066945,-0.000450811
9,-0.00170536,0.00111982,-0.00191395,-0.000436999,-0.00094796,-0.000695609,-0.000451157
10,-0.00170184,0.00116165,-0.0019178,-0.000455806,-0.000945254,-0.000721726,-0.000451405
11,-0.00169824,0.00120347,-0.00192169,-0.000474682,-0.00094243,-0.000747797,-0.000451553
12,-0.00169455,0.00124526,-0.00192564,-0.00049363,-0.000939486,-0.000773822,-0.0004516
13,-0.00169077,0.00128704,-0.00192963,-0.000512652,-0.000936423,-0.000799799,-0.000451546
14,-0.00168691,0.00132879,-0.00193367,-0.000531748,-0.000933238,-0.000825726,-0.000451388
15,-0.00168296,0.00137052,-0.00193777,-0.000550922,-0.000929932,-0.000851602,-0.000451127
16,-0.00167894,0.00141223,-0.00194191,-0.000570176,-0.000926502,-0.000877425,-0.000450759
17,-0.00167483,0.00145392,-0.00194609,-0.00058951,-0.000922949,-0.000903193,-0.000450286
18,-0.00167064,0.00149559,-0.00195033,-0.000608928,-0.000919271,-0.000928906,-0.000449704
19,-0.00166637,0.00153724,-0.00195461,-0.000628431,-0.000915466,-0.000954562,-0.000449013
20,-0.00166203,0.00157886,-0.00195893,-0.000648021,-0.000911534,-0.000980159,-0.000448211
21,-0.00165761,0.00162046,-0.0019633,-0.0006677,-0.000907474,-0.0010057,-0.000447298
22,-0.00165312,0.00166204,-0.00196772,-0.00068747,-0.000903285,-0.00103117,-0.00044627
23,-0.00164855,0.0017036,-0.00197217,-0.000707333,-0.000898965,-0.00105659,-0.000445128
24,-0.00164391,0.00174513,-0.00197668,-0.000727291,-0.000894513,-0.00108194,-0.00044387
25,-0.0016392,0.00178664,-0.00198122,-0.000747346,-0.000889928,-0.00110723,-0.000442494
26,-0.00163443,0.00182812,-0.00198581,-0.0007675,-0.000885208,-0.00113245,-0.000440999
27,-0.00162959,0.00186959,-0.00199043,-0.000787754,-0.000880353,-0.0011576,-0.000439383
28,-0.00162468,0.00191103,-0.0019951,-0.000808111,-0.000875361,-0.00118269,-0.000437645
29,-0.00161971,0.00195245,-0.00199981,-0.000828573,-0.00087023,-0.00120771,-0.000435782
30,-0.00161468,0.00199385,-0.00200456,-0.000849142,-0.000864959,-0.00123266,-0.000433794
31,-0.00160959,0.00203523,-0.00200935,-0.000869819,-0.000859547,-0.00125754,-0.000431679
32,-0.00160445,0.00207659,-0.00201418,-0.000890607,-0.000853993,-0.00128234,-0.000429435
33,-0.00159924,0.00211792,-0.00201904,-0.000911507,-0.000848294,-0.00130708,-0.00042706
34,-0.00159399,0.00215924,-0.00202394,-0.000932522,-0.000842449,-0.00133174,-0.000424553
35,-0.00158868,0.00220054,-0.00202888,-0.000953654,-0.000836456,-0.00135633,-0.000421912
36,-0.00158333,0.00224182,-0.00203386,-0.000974904,-0.000830315,-0.00138085,-0.000419135
37,-0.00157793,0.00228308,-0.00203887,-0.000996275,-0.000824023,-0.00140529,-0.00041622
38,-0.00157248,0.00232433,-0.00204392,-0.00101777,-0.000817579,-0.00142966,-0.000413165
39,-0.00156699,0.00236556,-0.002049,-0.00103939,-0.00081098,-0.00145396,-0.000409969
40,-0.00156146,0.00240677,-0.00205411,-0.00106113,-0.000804226,-0.00147817,-0.000406629
41,-0.00155589,0.00244798,-0.00205926,-0.001083,-0.000797314,-0.00150231,-0.000403144
42,-0.00155029,0.00248916,-0.00206444,-0.00110501,-0.000790242,-0.00152638,-0.000399511
43,-0.00154466,0.00253034,-0.00206965,-0.00112714,-0.000783009,-0.00155037,-0.000395728
44,-0.00153899,0.00257151,-0.00207489,-0.00114942,-0.000775613,-0.00157428,-0.000391794
45,-0.00153329,0.00261267,-0.00208016,-0.00117182,-0.000768052,-0.00159812,-0.000387705
46,-0.00152757,0.00265382,-0.00208547,-0.00119437,-0.000760323,-0.00162188,-0.000383461
47,-0.00152183,0.00269497,-0.0020908,-0.00121706,-0.000752425,-0.00164556,-0.000379058
48,-0.00151607,0.00273611,-0.00209616,-0.0012399,-0.000744355,-0.00166916,-0.000374495
49,-0.00151029,0.00277726,-0.00210155,-0.00126287,-0.000736112,-0.00169269,-0.000369769
50,-0.00150449,0.0028184,-0.00210697,-0.001286,-0.000727693,-0.00171614,-0.000364878
51,-0.00149869,0.00285954,-0.00211241,-0.00130928,-0.000719096,-0.00173952,-0.000359819
52,-0.00149287,0.00290068,-0.00211788,-0.00133271,-0.000710319,-0.00176282,-0.00035459
53,-0.00148705,0.00294183,-0.00212337,-0.00135629,-0.000701359,-0.00178605,-0.000349188
54,-0.00148123,0.00298299,-0.00212889,-0.00138004,-0.000692214,-0.0018092,-0.000343611
55,-0.00147541,0.00302416,-0.00213444,-0.00140394,-0.000682881,-0.00183227,-0.000337856
56,-0.00146959,0.00306534,-0.00214,-0.001428,-0.000673359,-0.00185527,-0.000331921
57,-0.00146378,0.00310654,-0.00214559,-0.00145223,-0.000663644,-0.0018782,-0.000325803
58,-0.00145798,0.00314775,-0.0021512,-0.00147663,-0.000653733,-0.00190105,-0.000319499
59,-0.00145219,0.00318898,-0.00215683,-0.00150119,-0.000643625,-0.00192383,-0.000313006
60,-0.00144642,0.00323023,-0.00216248,-0.00152593,-0.000633316,-0.00194654,-0.000306322
61,-0.00144068,0.00327151,-0.00216816,-0.00155084,-0.000622804,-0.00196917,-0.000299442
62,-0.00143496,0.00331282,-0.00217384,-0.00157593,-0.000612086,-0.00199174,-0.000292366
63,-0.00142926,0.00335416,-0.00217955,-0.0016012,-0.000601158,-0.00201424,-0.000285089
64,-0.0014236,0.00339553,-0.00218528,-0.00162666,-0.000590018,-0.00203666,-0.000277608
65,-0.00141798,0.00343694,-0.00219102,-0.0016523,-0.000578663,-0.00205902,-0.00026992
66,-0.0014124,0.00347839,-0.00219677,-0.00167813,-0.00056709,-0.00208132,-0.000262021
67,-0.00140686,0.00351989,-0.00220254,-0.00170415,-0.000555295,-0.00210355,-0.00025391
68,-0.00140137,0.00356143,-0.00220832,-0.00173036,-0.000543275,-0.00212571,-0.000245581
69,-0.00139594,0.00360302,-0.00221412,-0.00175678,-0.000531027,-0.00214781,-0.000237031
70,-0.00139056,0.00364467,-0.00221992,-0.0017834,-0.000518548,-0.00216985,-0.000228258
71,-0.00138524,0.00368637,-0.00222574,-0.00181022,-0.000505833,-0.00219182,-0.000219257
72,-0.00138,0.00372814,-0.00223156,-0.00183724,-0.00049288,-0.00221374,-0.000210024
73,-0.00137482,0.00376998,-0.0022374,-0.00186448,-0.000479684,-0.0022356,-0.000200557
74,-0.00136972,0.00381188,-0.00224324,-0.00189194,-0.000466242,-0.0022574,-0.00019085
75,-0.00136471,0.00385386,-0.00224908,-0.00191961,-0.00045255,-0.00227914,-0.0001809
76,-0.00135978,0.00389592,-0.00225493,-0.00194751,-0.000438604,-0.00230083,-0.000170702
77,-0.00135494,0.00393806,-0.00226079,-0.00197563,-0.0004244,-0.00232247,-0.000160254
78,-0.0013502,0.00398029,-0.00226664,-0.00200398,-0.000409934,-0.00234406,-0.000149549
79,-0.00134557,0.00402261,-0.0022725,-0.00203256,-0.000395201,-0.0023656,-0.000138585
80,-0.00134104,0.00406503,-0.00227835,-0.00206139,-0.000380198,-0.00238709,-0.000127356
81,-0.00133663,0.00410755,-0.0022842,-0.00209045,-0.00036492,-0.00240853,-0.000115859
82,-0.00133234,0.00415018,-0.00229005,-0.00211976,-0.000349362,-0.00242993,-0.000104087
83,-0.00132817,0.00419292,-0.00229589,-0.00214932,-0.00033352,-0.00245129,-9.20372e-05
84,-0.00132414,0.00423578,-0.00230172,-0.00217914,-0.000317389,-0.0024726,-7.97039e-05
85,-0.00132025,0.00427876,-0.00230754,-0.00220921,-0.000300964,-0.00249388,-6.70821e-05
86,-0.00131651,0.00432187,-0.00231335,-0.00223955,-0.00028424,-0.00251512,-5.41669e-05
87,-0.00131292,0.00436511,-0.00231915,-0.00227016,-0.000267213,-0.00253632,-4.09529e-05
88,-0.00130949,0.00440849,-0.00232493,-0.00230104,-0.000249876,-0.00255749,-2.74347e-05
89,-0.00130622,0.00445202,-0.00233069,-0.0023322,-0.000232225,-0.00257863,-1.3607e-05
90,-0.00130314,0.00449569,-0.00233643,-0.00236365,-0.000214254,-0.00259973,5.36019e-07
91,-0.00130023,0.00453952,-0.00234215,-0.00239539,-0.000195957,-0.00262081,1.5e-05
92,-0.00129752,0.00458352,-0.00234785,-0.00242742,-0.000177329,-0.00264186,2.97909e-05
93,-0.001295,0.00462768,-0.00235351,-0.00245975,-0.000158365,-0.00266289,4.49147e-05
94,-0.00129269,0.00467201,-0.00235915,-0.00249238,-0.000139057,-0.0026839,6.03775e-05
95,-0.0012906,0.00471652,-0.00236475,-0.00252533,-0.0001194,-0.00270489,7.61858e-05
96,-0.00128873,0.00476122,-0.00237031,-0.0025586,-9.93886e-05,-0.00272585,9.23458e-05
97,-0.0012871,0.00480612,-0.00237584,-0.00259219,-7.9015e-05,-0.00274681,0.000108864
98,-0.00128571,0.00485121,-0.00238132,-0.00262612,-5.82733e-05,-0.00276774,0.000125748
99,-0.00128457,0.0048965,-0.00238675,-0.00266038,-3.71569e-05,-0.00278867,0.000143004
100,-0.00128369,0.00494201,-0.00239213,-0.00269498,-1.56588e-05,-0.00280958,0.000160639
101,-0.000560748,-0.00207413,0.00170673,0.00105326,-0.00521114,0.00129035,-0.00524775
102,-0.000573946,0.000513512,0.00127193,-0.000242059,-0.00519472,-0.000110679,-0.00525791
103,-0.000579197,0.000264836,0.00128633,-0.000124928,-0.00515239,1.41822e-05,-0.0052103
104,-0.000579843,0.0002414,0.00129228,-0.00010681,-0.0051638,2.84855e-05,-0.00522152
105,-0.000580655,0.00021943,0.00129427,-9.14617e-05,-0.00516622,4.02608e-05,-0.00522349
106,-0.000581471,0.000194807,0.00129695,-7.4595e-05,-0.00516906,5.35454e-05,-0.00522589
107,-0.00058225,0.000170429,0.00129965,-5.78053e-05,-0.00517168,6.66638e-05,-0.00522811
108,-0.000583,0.000145975,0.00130242,-4.09354e-05,-0.00517406,7.97854e-05,-0.00523011
109,-0.00058372,0.000121468,0.00130525,-2.39954e-05,-0.0051762,9.28993e-05,-0.00523191
110,-0.00058441,9.69202e-05,0.00130814,-6.99183e-06,-0.00517812,0.000105999,-0.00523351
111,-0.000585069,7.23405e-05,0.00131108,1.00702e-05,-0.0051798,0.00011908,-0.00523491
112,-0.000585698,4.7739e-05,0.00131409,2.7185e-05,-0.00518124,0.000132136,-0.00523609
113,-0.000586297,2.31258e-05,0.00131715,4.43471e-05,-0.00518244,0.000145163,-0.00523706
114,-0.000586866,-1.48924e-06,0.00132026,6.1551e-05,-0.0051834,0.000158155,-0.00523783
115,-0.000587405,-2.60961e-05,0.00132342,7.87909e-05,-0.00518411,0.000171107,-0.00523838
116,-0.000587914,-5.06849e-05,0.00132664,9.60612e-05,-0.00518459,0.000184013,-0.00523871
117,-0.000588394,-7.52456e-05,0.0013299,0.000113356,-0.00518481,0.000196869,-0.00523884
118,-0.000588844,-9.97685e-05,0.00133321,0.00013067,-0.00518479,0.00020967,-0.00523874
119,-0.000589265,-0.000124244,0.00133656,0.000147997,-0.00518453,0.000222411,-0.00523843
120,-0.000589657,-0.000148661,0.00133995,0.000165332,-0.00518401,0.000235087,-0.00523791
121,-0.00059002,-0.000173011,0.00134339,0.000182669,-0.00518325,0.000247692,-0.00523717
122,-0.000590354,-0.000197285,0.00134686,0.000200001,-0.00518224,0.000260223,-0.00523621
123,-0.00059066,-0.000221471,0.00135037,0.000217324,-0.00518098,0.000272674,-0.00523503
124,-0.000590939,-0.000245562,0.00135391,0.000234631,-0.00517948,0.000285041,-0.00523364
125,-0.000591189,-0.000269547,0.00135749,0.000251917,-0.00517773,0.000297319,-0.00523203
126,-0.000591413,-0.000293417,0.00136109,0.000269176,-0.00517573,0.000309504,-0.00523021
127,-0.000591609,-0.000317163,0.00136472,0.000286403,-0.00517348,0.000321591,-0.00522817
128,-0.00059178,-0.000340776,0.00136838,0.000303591,-0.00517099,0.000333577,-0.00522591
129,-0.000591923,-0.000364246,0.00137206,0.000320736,-0.00516825,0.000345456,-0.00522345
130,-0.000592042,-0.000387565,0.00137577,0.000337831,-0.00516528,0.000357226,-0.00522077
131,-0.000592134,-0.000410725,0.00137949,0.000354872,-0.00516206,0.00036888,-0.00521787
132,-0.000592202,-0.000433716,0.00138323,0.000371852,-0.0051586,0.000380417,-0.00521477
133,-0.000592246,-0.000456529,0.00138698,0.000388767,-0.0051549,0.000391832,-0.00521146
134,-0.000592265,-0.000479158,0.00139075,0.000405611,-0.00515096,0.000403121,-0.00520795
135,-0.000592261,-0.000501593,0.00139453,0.000422379,-0.00514679,0.000414281,-0.00520422
136,-0.000592233,-0.000523827,0.00139832,0.000439065,-0.00514239,0.000425308,-0.0052003
137,-0.000592183,-0.000545851,0.00140211,0.000455665,-0.00513776,0.000436199,-0.00519617
138,-0.000592111,-0.000567658,0.00140591,0.000472173,-0.0051329,0.00044695,-0.00519185
139,-0.000592017,-0.000589241,0.00140971,0.000488584,-0.00512782,0.000457559,-0.00518733
140,-0.000591902,-0.000610591,0.00141351,0.000504895,-0.00512251,0.000468022,-0.00518261
141,-0.000591766,-0.000631703,0.00141731,0.000521099,-0.00511698,0.000478337,-0.00517771
142,-0.000591609,-0.000652569,0.0014211,0.000537192,-0.00511124,0.0004885,-0.00517261
143,-0.000591434,-0.000673181,0.00142488,0.00055317,-0.00510529,0.000498509,-0.00516733
144,-0.000591238,-0.000693535,0.00142866,0.000569028,-0.00509912,0.000508361,-0.00516187
145,-0.000591024,-0.000713623,0.00143243,0.000584762,-0.00509275,0.000518054,-0.00515622
146,-0.000590792,-0.000733438,0.00143618,0.000600367,-0.00508617,0.000527585,-0.0051504
147,-0.000590542,-0.000752976,0.00143992,0.000615839,-0.0050794,0.000536952,-0.0051444
148,-0.000590275,-0.000772229,0.00144364,0.000631174,-0.00507243,0.000546153,-0.00513824
149,-0.000589991,-0.000791194,0.00144734,0.000646368,-0.00506526,0.000555187,-0.0051319
150,-0.000589692,-0.000809863,0.00145103,0.000661417,-0.00505791,0.00056405,-0.0051254
151,-0.000589376,-0.000828232,0.00145469,0.000676318,-0.00505038,0.000572741,-0.00511874
152,-0.000589045,-0.000846296,0.00145832,0.000691067,-0.00504266,0.000581259,-0.00511193
153,-0.0005887,-0.000864049,0.00146193,0.000705659,-0.00503477,0.000589602,-0.00510496
154,-0.000588341,-0.000881488,0.0014655,0.000720093,-0.00502671,0.000597769,-0.00509784
155,-0.000587968,-0.000898608,0.00146905,0.000734364,-0.00501848,0.000605757,-0.00509057
156,-0.000587582,-0.000915404,0.00147257,0.000748469,-0.00501008,0.000613567,-0.00508316
157,-0.000587183,-0.000931873,0.00147605,0.000762405,-0.00500153,0.000621196,-0.00507562
158,-0.000586773,-0.00094801,0.00147949,0.000776169,-0.00499282,0.000628644,-0.00506794
159,-0.000586351,-0.000963813,0.0014829,0.000789758,-0.00498397,0.000635909,-0.00506012
160,-0.000585918,-0.000979276,0.00148627,0.000803169,-0.00497497,0.000642991,-0.00505219
161,-0.000585475,-0.000994398,0.0014896,0.0008164,-0.00496582,0.00064989,-0.00504412
162,-0.000585022,-0.00100917,0.00149288,0.000829449,-0.00495654,0.000656604,-0.00503594
163,-0.00058456,-0.0010236,0.00149612,0.000842311,-0.00494713,0.000663132,-0.00502765
164,-0.000584089,-0.00103768,0.00149931,0.000854987,-0.0049376,0.000669475,-0.00501924
165,-0.000583609,-0.00105141,0.00150246,0.000867472,-0.00492794,0.000675632,-0.00501073
166,-0.000583122,-0.00106477,0.00150556,0.000879765,-0.00491816,0.000681603,-0.00500211
167,-0.000582628,-0.00107778,0.0015086,0.000891863,-0.00490827,0.000687387,-0.0049934
168,-0.000582127,-0.00109043,0.0015116,0.000903766,-0.00489827,0.000692985,-0.00498459
169,-0.00058162,-0.00110272,0.00151454,0.00091547,-0.00488817,0.000698396,-0.00497568
170,-0.000581108,-0.00111465,0.00151743,0.000926975,-0.00487798,0.00070362,-0.0049667
171,-0.00058059,-0.00112621,0.00152026,0.000938278,-0.00486768,0.000708657,-0.00495763
172,-0.000580069,-0.0011374,0.00152303,0.000949379,-0.0048573,0.000713508,-0.00494848
173,-0.000579543,-0.00114822,0.00152574,0.000960274,-0.00484684,0.000718173,-0.00493926
174,-0.000579014,-0.00115868,0.0015284,0.000970964,-0.00483629,0.000722652,-0.00492996
175,-0.000578482,-0.00116876,0.00153099,0.000981447,-0.00482567,0.000726946,-0.00492061
176,-0.000577948,-0.00117847,0.00153352,0.000991721,-0.00481498,0.000731054,-0.00491118
177,-0.000577413,-0.00118781,0.00153599,0.00100179,-0.00480423,0.000734978,-0.0049017
178,-0.000576876,-0.00119678,0.00153839,0.00101164,-0.00479342,0.000738718,-0.00489217
179,-0.000576339,-0.00120538,0.00154073,0.00102128,-0.00478255,0.000742275,-0.00488258
180,-0.000575803,-0.0012136,0.001543,0.00103071,-0.00477162,0.000745649,-0.00487295
181,-0.000575267,-0.00122144,0.0015452,0.00103993,-0.00476065,0.00074884,-0.00486327
182,-0.000574732,-0.00122892,0.00154734,0.00104893,-0.00474964,0.000751851,-0.00485356
183,-0.000574199,-0.00123602,0.00154941,0.00105772,-0.0047386,0.000754681,-0.00484381
184,-0.000573669,-0.00124274,0.0015514,0.00106629,-0.00472751,0.000757331,-0.00483403
185,-0.000573142,-0.00124909,0.00155333,0.00107465,-0.0047164,0.000759803,-0.00482422
186,-0.000572618,-0.00125507,0.00155518,0.00108279,-0.00470527,0.000762097,-0.00481438
187,-0.000572099,-0.00126068,0.00155696,0.00109071,-0.00469412,0.000764214,-0.00480453
188,-0.000571585,-0.00126591,0.00155867,0.00109841,-0.00468295,0.000766156,-0.00479465
189,-0.000571077,-0.00127077,0.0015603,0.0011059,-0.00467177,0.000767923,-0.00478477
190,-0.000570575,-0.00127526,0.00156186,0.00111317,-0.00466058,0.000769516,-0.00477487
191,-0.00057008,-0.00127938,0.00156334,0.00112022,-0.00464939,0.000770937,-0.00476497
192,-0.000569593,-0.00128312,0.00156475,0.00112706,-0.0046382,0.000772187,-0.00475507
193,-0.000569113,-0.0012865,0.00156608,0.00113367,-0.00462702,0.000773266,-0.00474516
194,-0.000568643,-0.00128951,0.00156733,0.00114007,-0.00461585,0.000774177,-0.00473526
195,-0.000568182,-0.00129216,0.00156851,0.00114625,-0.00460469,0.00077492,-0.00472536
196,-0.000567732,-0.00129444,0.00156961,0.00115221,-0.00459355,0.000775496,-0.00471548
197,-0.000567293,-0.00129635,0.00157063,0.00115795,-0.00458243,0.000775908,-0.00470561
198,-0.000566865,-0.0012979,0.00157157,0.00116347,-0.00457134,0.000776155,-0.00469575
199,-0.00056645,-0.00129909,0.00157243,0.00116878,-0.00456028,0.00077624,-0.00468592
200,-0.000566048,-0.00129991,0.00157321,0.00117386,-0.00454925,0.000776164,-0.0046761
201,0.00165573,-0.00269859,0.00189439,0.000680169,0.00110711,0.000218699,0.000789746
202,0.00158421,-0.00274669,0.00195716,0.00075845,0.000797331,0.000277993,0.000477089
203,0.0015874,-0.00270573,0.00195163,0.000731301,0.000805598,0.000257176,0.00048632
204,0.0015893,-0.00267534,0.00194852,0.000710604,0.00080839,0.000241623,0.00048974
205,0.00159124,-0.0026448,0.00194536,0.00068989,0.000811198,0.000225999,0.000493197
206,0.00159317,-0.00261421,0.00194218,0.000669209,0.000813888,0.000210355,0.000496556
207,0.00159508,-0.00258358,0.00193896,0.000648568,0.000816464,0.000194698,0.00049982
208,0.00159697,-0.00255291,0.00193573,0.000627965,0.000818925,0.000179027,0.00050299
209,0.00159884,-0.0025222,0.00193247,0.000607399,0.000821273,0.000163342,0.000506066
210,0.00160069,-0.00249146,0.00192919,0.000586872,0.000823507,0.000147646,0.000509048
211,0.00160251,-0.00246067,0.00192588,0.000566381,0.000825628,0.000131937,0.000511936
212,0.00160432,-0.00242985,0.00192256,0.000545928,0.000827636,0.000116217,0.000514729
213,0.00160609,-0.00239899,0.00191922,0.000525512,0.000829532,0.000100487,0.000517429
214,0.00160784,-0.00236809,0.00191586,0.000505132,0.000831315,8.47474e-05,0.000520036
215,0.00160955,-0.00233716,0.00191248,0.000484788,0.000832987,6.89987e-05,0.000522549
216,0.00161124,-0.00230619,0.00190909,0.00046448,0.000834548,5.32417e-05,0.000524968
217,0.00161289,-0.00227518,0.00190568,0.000444207,0.000835998,3.74773e-05,0.000527294
218,0.00161451,-0.00224413,0.00190225,0.00042397,0.000837337,2.17061e-05,0.000529527
219,0.00161609,-0.00221305,0.00189882,0.000403767,0.000838566,5.9289e-06,0.000531667
220,0.00161764,-0.00218194,0.00189537,0.000383599,0.000839685,-9.85362e-06,0.000533715
221,0.00161914,-0.00215079,0.00189192,0.000363464,0.000840695,-2.56407e-05,0.000535669
222,0.00162061,-0.0021196,0.00188845,0.000343364,0.000841596,-4.14315e-05,0.000537532
223,0.00162203,-0.00208838,0.00188497,0.000323297,0.000842389,-5.72254e-05,0.000539302
224,0.00162341,-0.00205713,0.00188149,0.000303263,0.000843073,-7.30215e-05,0.00054098
225,0.00162474,-0.00202584,0.001878,0.000283261,0.00084365,-8.88191e-05,0.000542566
226,0.00162603,-0.00199452,0.0018745,0.000263292,0.00084412,-0.000104617,0.000544061
227,0.00162727,-0.00196317,0.001871,0.000243354,0.000844483,-0.000120416,0.000545464
228,0.00162847,-0.00193179,0.00186749,0.000223448,0.00084474,-0.000136213,0.000546776
229,0.00162961,-0.00190037,0.00186398,0.000203573,0.000844891,-0.000152009,0.000547996
230,0.0016307,-0.00186893,0.00186047,0.000183729,0.000844937,-0.000167803,0.000549126
231,0.00163174,-0.00183745,0.00185696,0.000163915,0.000844878,-0.000183593,0.000550166
232,0.00163273,-0.00180594,0.00185345,0.000144131,0.000844714,-0.000199379,0.000551115
233,0.00163366,-0.00177441,0.00184994,0.000124375,0.000844447,-0.000215161,0.000551974
234,0.00163454,-0.00174284,0.00184643,0.000104649,0.000844077,-0.000230937,0.000552743
235,0.00163536,-0.00171125,0.00184292,8.49516e-05,0.000843603,-0.000246706,0.000553422
236,0.00163612,-0.00167963,0.00183942,6.52819e-05,0.000843028,-0.000262469,0.000554012
237,0.00163683,-0.00164798,0.00183592,4.56398e-05,0.00084235,-0.000278223,0.000554513
238,0.00163747,-0.0016163,0.00183242,2.60247e-05,0.000841571,-0.000293969,0.000554925
239,0.00163806,-0.0015846,0.00182894,6.43625e-06,0.000840691,-0.000309705,0.000555248
240,0.00163858,-0.00155288,0.00182545,-1.31261e-05,0.000839711,-0.00032543,0.000555483
241,0.00163904,-0.00152113,0.00182198,-3.26628e-05,0.000838631,-0.000341145,0.000555629
242,0.00163944,-0.00148936,0.00181852,-5.21744e-05,0.000837452,-0.000356847,0.000555688
243,0.00163977,-0.00145756,0.00181506,-7.16613e-05,0.000836174,-0.000372537,0.000555659
244,0.00164004,-0.00142574,0.00181161,-9.11242e-05,0.000834798,-0.000388213,0.000555543
245,0.00164024,-0.0013939,0.00180818,-0.000110563,0.000833324,-0.000403874,0.00055534
246,0.00164038,-0.00136203,0.00180476,-0.00012998,0.000831753,-0.000419521,0.00055505
247,0.00164045,-0.00133015,0.00180135,-0.000149373,0.000830086,-0.000435151,0.000554674
248,0.00164045,-0.00129825,0.00179795,-0.000168745,0.000828322,-0.000450764,0.000554211
249,0.00164038,-0.00126633,0.00179457,-0.000188095,0.000826463,-0.000466359,0.000553662
250,0.00164025,-0.00123438,0.0017912,-0.000207424,0.000824508,-0.000481936,0.000553028
251,0.00164004,-0.00120243,0.00178785,-0.000226733,0.000822459,-0.000497494,0.000552308
252,0.00163977,-0.00117045,0.00178451,-0.000246022,0.000820317,-0.000513032,0.000551503
253,0.00163942,-0.00113846,0.00178119,-0.000265292,0.000818081,-0.000528548,0.000550614
254,0.001639,-0.00110645,0.00177789,-0.000284543,0.000815752,-0.000544043,0.00054964
255,0.00163851,-0.00107443,0.00177461,-0.000303776,0.00081333,-0.000559515,0.000548582
256,0.00163795,-0.00104239,0.00177135,-0.000322992,0.000810817,-0.000574964,0.00054744
257,0.00163731,-0.00101034,0.00176811,-0.000342191,0.000808213,-0.000590389,0.000546214
258,0.00163661,-0.000978278,0.00176489,-0.000361374,0.000805518,-0.000605789,0.000544905
259,0.00163582,-0.000946203,0.00176169,-0.000380541,0.000802733,-0.000621163,0.000543513
260,0.00163497,-0.000914118,0.00175852,-0.000399693,0.000799859,-0.00063651,0.000542038
261,0.00163404,-0.000882022,0.00175536,-0.00041883,0.000796895,-0.000651831,0.000540481
262,0.00163303,-0.000849916,0.00175223,-0.000437954,0.000793843,-0.000667123,0.000538842
263,0.00163195,-0.000817801,0.00174913,-0.000457065,0.000790703,-0.000682386,0.000537121
264,0.0016308,-0.000785679,0.00174605,-0.000476164,0.000787476,-0.00069762,0.000535319
265,0.00162957,-0.000753549,0.001743,-0.00049525,0.000784162,-0.000712823,0.000533435
266,0.00162826,-0.000721412,0.00173997,-0.000514326,0.000780762,-0.000727995,0.00053147
267,0.00162688,-0.00068927,0.00173697,-0.000533391,0.000777275,-0.000743135,0.000529425
268,0.00162542,-0.000657122,0.001734,-0.000552446,0.000773704,-0.000758242,0.0005273
269,0.00162389,-0.00062497,0.00173106,-0.000571492,0.000770048,-0.000773316,0.000525094
270,0.00162228,-0.000592815,0.00172814,-0.00059053,0.000766308,-0.000788356,0.000522809
271,0.0016206,-0.000560657,0.00172526,-0.00060956,0.000762484,-0.000803361,0.000520444
272,0.00161884,-0.000528497,0.00172241,-0.000628582,0.000758577,-0.00081833,0.000518001
273,0.001617,-0.000496335,0.00171958,-0.000647599,0.000754587,-0.000833263,0.000515478
274,0.00161509,-0.000464173,0.00171679,-0.00066661,0.000750515,-0.000848158,0.000512877
275,0.0016131,-0.000432011,0.00171404,-0.000685616,0.000746362,-0.000863016,0.000510198
276,0.00161103,-0.00039985,0.00171131,-0.000704618,0.000742128,-0.000877835,0.00050744
277,0.00160889,-0.000367691,0.00170862,-0.000723616,0.000737813,-0.000892615,0.000504606
278,0.00160668,-0.000335534,0.00170597,-0.000742612,0.000733418,-0.000907355,0.000501693
279,0.00160439,-0.00030338,0.00170334,-0.000761605,0.000728944,-0.000922055,0.000498704
280,0.00160202,-0.00027123,0.00170076,-0.000780598,0.00072439,-0.000936713,0.000495637
281,0.00159958,-0.000239084,0.00169821,-0.000799589,0.000719758,-0.000951329,0.000492494
282,0.00159706,-0.000206943,0.0016957,-0.000818582,0.000715048,-0.000965902,0.000489275
283,0.00159447,-0.000174809,0.00169322,-0.000837575,0.00071026,-0.000980432,0.00048598
284,0.0015918,-0.00014268,0.00169078,-0.00085657,0.000705396,-0.000994918,0.000482609
285,0.00158907,-0.000110559,0.00168838,-0.000875567,0.000700454,-0.00100936,0.000479162
286,0.00158625,-7.84457e-05,0.00168602,-0.000894568,0.000695436,-0.00102376,0.00047564
287,0.00158337,-4.63407e-05,0.0016837,-0.000913573,0.000690342,-0.00103811,0.000472043
288,0.00158041,-1.42448e-05,0.00168142,-0.000932583,0.000685173,-0.00105241,0.000468372
289,0.00157738,1.78414e-05,0.00167918,-0.000951599,0.00067993,-0.00106667,0.000464625
290,0.00157427,4.99174e-05,0.00167698,-0.000970621,0.000674611,-0.00108088,0.000460805
291,0.0015711,8.19825e-05,0.00167483,-0.00098965,0.000669219,-0.00109504,0.00045691
292,0.00156785,0.000114036,0.00167271,-0.00100869,0.000663753,-0.00110915,0.000452941
293,0.00156454,0.000146078,0.00167064,-0.00102773,0.000658213,-0.00112321,0.000448899
294,0.00156115,0.000178107,0.00166862,-0.00104679,0.000652601,-0.00113723,0.000444783
295,0.0015577,0.000210123,0.00166663,-0.00106586,0.000646916,-0.00115119,0.000440594
296,0.00155418,0.000242126,0.00166469,-0.00108494,0.000641159,-0.0011651,0.000436332
297,0.00155058,0.000274114,0.0016628,-0.00110403,0.00063533,-0.00117896,0.000431997
298,0.00154693,0.000306088,0.00166095,-0.00112313,0.00062943,-0.00119277,0.000427589
299,0.0015432,0.000338047,0.00165915,-0.00114225,0.000623459,-0.00120652,0.000423109
300,0.00153941,0.000369991,0.0016574,-0.00116138,0.000617417,-0.00122022,0.000418556
301,-0.000110737,0.000116109,3.9139e-05,-2.91936e-05,-0.00031154,-3.40508e-05,-0.000310368
302,1.39798e-06,2.19904e-06,-1.46656e-06,-2.5707e-06,5.04127e-06,-1.64388e-06,5.20119e-06
303,9.8722e-09,-3.03048e-07,5.85335e-08,2.14054e-07,-3.88995e-08,1.578e-07,-5.00703e-08
304,-1.75514e-09,1.51828e-08,-1.97368e-09,-9.75711e-09,-2.2245e-09,-7.43439e-09,-1.74441e-09
305,8.79138e-11,-5.67197e-10,5.62893e-11,3.46729e-10,1.57708e-10,2.69085e-10,1.41264e-10
306,-3.26714e-12,1.75721e-11,-1.31668e-12,-1.03055e-11,-6.70468e-12,-8.12422e-12,-6.23203e-12
307,1.00737e-13,-4.55602e-13,2.16003e-14,2.54524e-13,2.27401e-13,2.04492e-13,2.16215e-13
308,-2.62352e-15,9.52874e-15,-5.82118e-17,-4.83839e-15,-6.45618e-15,-4.02968e-15,-6.25989e-15
309,6.47048e-17,-4.44156e-16,4.38826e-17,1.90729e-16,1.04484e-16,1.6168e-16,9.64361e-17
310,-2.8369e-17,3.25709e-16,-6.81816e-17,-2.54317e-16,7.95595e-18,-1.82054e-16,2.288e-17
311,1.45445e-17,1.2585e-16,2.16312e-18,2.87576e-17,3.01968e-17,-6.45733e-19,2.44422e-17
312,-9.55536e-18,-1.78397e-16,2.47465e-17,1.59679e-17,-5.52892e-17,2.88147e-17,-5.37803e-17
313,3.2023e-17,2.23022e-16,-5.42502e-17,-1.91512e-16,1.28596e-16,-1.37207e-16,1.37627e-16
314,2.05942e-17,-6.39294e-16,1.36265e-16,7.02197e-16,-7.11515e-17,4.83294e-16,-1.1018e-16
315,-2.67011e-17,5.735e-18,-4.05511e-17,-1.25368e-16,-1.05772e-17,-6.67689e-17,1.99325e-18
316,-4.6287e-18,3.77639e-16,-7.43724e-18,-8.58527e-17,-1.54569e-17,-1.00774e-16,-1.88218e-17
317,-2.38902e-17,-2.03215e-17,1.78983e-18,-8.78024e-17,-6.62347e-17,-4.96766e-17,-5.95854e-17
318,7.29134e-18,-8.88544e-18,1.33612e-17,-1.2016e-16,-2.01153e-17,-7.56269e-17,-1.48607e-17
319,2.57829e-17,-6.1455e-17,4.8013e-18,1.46445e-16,6.87188e-17,9.48353e-17,5.99779e-17
320,-5.88876e-17,2.23251e-16,-2.24722e-17,-1.82141e-16,-1.20854e-16,-1.32066e-16,-1.1038e-16
321,6.91682e-17,4.44141e-17,-4.49279e-17,-9.9425e-17,2.10249e-16,-6.17637e-17,2.15377e-16
322,-3.67813e-17,4.4123e-16,-2.87246e-17,-3.29732e-16,-8.44576e-17,-2.51431e-16,-7.15922e-17
323,-1.96289e-17,-5.98113e-16,6.75041e-17,4.32215e-16,-8.57174e-17,3.30468e-16,-1.0124e-16
324,6.98135e-17,-4.36856e-16,8.74962e-18,1.4538e-16,1.65508e-16,1.40224e-16,1.63101e-16
325,-1.84058e-17,2.66343e-16,-1.41165e-17,-1.69572e-16,-4.39947e-17,-1.34727e-16,-3.84383e-17
326,-5.83772e-17,5.16735e-16,-6.5534e-17,-3.03931e-16,-7.17559e-17,-2.36274e-16,-5.72522e-17
327,2.9064e-17,-1.44985e-16,2.60195e-17,-2.06932e-17,2.26179e-17,-9.82919e-19,2.30529e-17
328,3.20802e-17,1.02579e-16,-1.63585e-17,2.3831e-17,9.79156e-17,2.21959e-18,9.38775e-17
329,-3.70694e-17,-5.00322e-17,-1.05511e-17,-6.85566e-17,-7.28232e-17,-3.03886e-17,-6.45394e-17
330,2.54208e-17,-7.49749e-16,8.42801e-17,5.11813e-16,-4.647e-19,3.92536e-16,-2.10456e-17
331,-2.53921e-17,2.95091e-16,1.41796e-17,-1.7816e-16,-1.05736e-16,-1.49418e-16,-1.02853e-16
332,3.50714e-17,-4.65412e-17,-3.70433e-17,-9.85323e-18,1.35437e-16,5.73066e-18,1.3887e-16
333,-5.14498e-17,2.45227e-16,-3.27705e-17,-1.86445e-16,-8.90664e-17,-1.35913e-16,-7.82711e-17
334,1.33316e-17,4.34079e-16,-4.63443e-17,-3.09601e-16,5.65206e-17,-2.37852e-16,6.73404e-17
335,3.81181e-17,-6.79306e-16,7.91148e-17,4.96046e-16,3.25457e-17,3.73765e-16,1.09307e-17
336,-4.92715e-17,2.18737e-16,-4.82018e-17,-1.79285e-16,-5.85013e-17,-1.24836e-16,-4.60305e-17
337,1.13497e-17,3.64551e-16,8.6157e-18,-2.68757e-16,-2.85474e-17,-2.15363e-16,-2.37706e-17
338,2.18122e-17,-6.4679e-16,4.69469e-17,5.19796e-16,5.00019e-17,3.92021e-16,3.04229e-17
339,-1.47535e-17,4.51872e-16,-3.75971e-17,-2.9116e-16,-1.71752e-17,-2.28891e-16,-7.11488e-18
340,-8.98775e-18,-5.35586e-18,1.95764e-17,1.09521e-16,-3.68717e-17,6.40336e-17,-4.44022e-17
341,5.43347e-17,-7.42522e-17,1.38061e-17,1.19819e-16,1.14227e-16,7.6347e-17,1.04769e-16
342,-3.5613e-17,-2.28261e-16,-2.22036e-17,7.68283e-18,-3.86194e-17,4.23197e-17,-2.9198e-17
343,1.97112e-18,1.2556e-16,9.21123e-18,-1.27521e-16,-2.84016e-17,-9.6747e-17,-2.52973e-17
344,3.73094e-17,2.42502e-16,-1.0734e-17,2.95593e-18,9.56064e-17,-3.07264e-17,8.84609e-17
345,-2.65411e-17,-3.72333e-16,3.44949e-17,3.19435e-16,-6.6641e-17,2.39118e-16,-7.75788e-17
346,-4.68641e-17,4.40748e-16,-2.0747e-17,-3.24403e-16,-1.18623e-16,-2.49133e-16,-1.06277e-16
347,2.45263e-17,-4.17139e-17,1.71077e-17,-7.83099e-17,1.77565e-17,-4.76906e-17,2.00842e-17
348,-5.21401e-18,-1.85651e-16,-5.8703e-18,2.55811e-17,4.07507e-18,4.1957e-17,8.05874e-18
349,2.09177e-17,6.12446e-17,-2.02256e-17,-7.0326e-17,6.82231e-17,-4.82063e-17,7.15527e-17
350,-6.53912e-18,6.91673e-17,-1.76315e-17,6.04921e-17,2.00084e-17,3.20173e-17,1.70443e-17
351,2.70563e-18,-2.04406e-16,1.33765e-18,1.77984e-17,9.4409e-18,3.75931e-17,1.31449e-17
352,5.15678e-18,3.06093e-16,-3.20214e-17,-2.40924e-16,2.66057e-17,-1.81384e-16,3.56906e-17
353,-1.65628e-17,-4.77428e-16,8.83142e-17,4.08886e-16,-1.16826e-16,2.95456e-16,-1.36255e-16
354,6.26461e-17,-3.57818e-16,-2.72873e-18,9.34952e-17,1.60035e-16,1.00978e-16,1.60198e-16
355,-5.66646e-18,2.62071e-16,1.88556e-17,2.52978e-17,-4.34309e-17,-2.30821e-17,-5.28535e-17
356,-7.00216e-17,5.16132e-16,-8.69073e-17,-3.94609e-16,-7.50264e-17,-2.86183e-16,-5.25546e-17
357,3.57916e-17,-2.58005e-16,5.81291e-17,2.45308e-16,2.20659e-17,1.69195e-16,6.58623e-18
358,-3.24096e-17,3.4252e-16,-5.9833e-17,-3.10707e-16,-2.15615e-17,-2.20267e-16,-4.46873e-18
359,4.10967e-17,-3.46722e-16,6.25248e-17,2.47963e-16,2.85863e-17,1.81304e-16,1.43807e-17
360,-2.82966e-17,1.59539e-16,-3.05357e-17,-3.42686e-17,-2.09589e-17,-3.36157e-17,-1.82271e-17
361,2.76202e-17,-4.48461e-16,3.35773e-17,1.17466e-16,2.98954e-17,1.2228e-16,2.92545e-17
362,-5.43499e-17,1.1998e-16,-1.35604e-17,-1.24525e-16,-1.15993e-16,-8.5358e-17,-1.07411e-16
363,1.76998e-17,3.97839e-16,-3.85779e-17,-9.40572e-17,8.16724e-17,-1.03305e-16,8.01458e-17
364,9.63304e-18,-4.75914e-16,3.41011e-17,1.35284e-16,-7.86958e-18,1.37954e-16,-7.87405e-18
365,-2.45052e-17,3.69492e-16,-5.23792e-17,-3.23196e-16,-1.79616e-17,-2.33642e-16,-2.02478e-18
366,4.91191e-17,-6.23105e-16,1.06887e-16,4.69641e-16,8.56914e-18,3.434e-16,-1.63559e-17
367,-5.35388e-17,4.23022e-16,-7.88903e-17,-2.93091e-16,-3.70476e-17,-2.14637e-16,-1.97933e-17
368,8.64316e-18,4.96184e-16,-9.55221e-17,-4.01103e-16,1.1146e-16,-2.91092e-16,1.31169e-16
369,3.39428e-17,-6.76614e-16,1.49752e-16,5.25024e-16,-8.48533e-17,3.76166e-16,-1.15063e-16
370,8.56477e-18,2.88847e-16,-9.81422e-17,-2.1494e-16,1.42346e-16,-1.49186e-16,1.56859e-16
371,-5.51493e-17,-1.6632e-16,9.03986e-17,2.45266e-16,-2.30916e-16,1.56315e-16,-2.46704e-16
372,3.84989e-17,-9.92099e-17,-3.94845e-17,-6.11346e-17,1.4124e-16,-1.8308e-17,1.48915e-16
373,-3.00288e-18,1.32379e-16,-1.79442e-17,-1.6754e-16,-1.54336e-18,-1.15905e-16,6.68291e-18
374,-3.04142e-17,3.11782e-18,-1.60875e-17,-2.26043e-17,-4.44603e-17,-8.64833e-18,-3.98989e-17
375,-3.59264e-17,2.43885e-16,4.15936e-18,-1.5994e-16,-1.09948e-16,-1.28581e-16,-1.05231e-16
376,9.77545e-17,-7.79806e-16,1.36191e-16,8.15038e-16,1.15549e-16,5.65604e-16,6.91758e-17
377,-4.58137e-17,7.46121e-17,-5.11346e-17,-2.21155e-16,-4.91673e-17,-1.30853e-16,-3.0702e-17
378,1.30613e-17,3.33065e-16,-2.45676e-17,-2.53412e-16,3.02056e-17,-1.94759e-16,3.81345e-17
379,-3.18402e-18,1.82669e-16,-5.77186e-17,-2.10838e-16,5.47254e-17,-1.40459e-16,6.81955e-17
380,-8.13278e-18,-2.027e-16,5.24604e-17,2.79314e-16,-6.23616e-17,1.86884e-16,-7.80413e-17
381,-1.80748e-17,1.84445e-16,-3.68763e-17,-2.06937e-16,-1.0616e-17,-1.41776e-16,1.3364e-18
382,-2.287e-18,-8.93897e-17,1.33027e-17,1.69592e-16,-3.21113e-18,1.12807e-16,-1.18351e-17
383,5.45749e-18,3.15651e-16,-5.42895e-17,-2.877e-16,5.64526e-17,-2.06455e-16,7.01808e-17
384,-2.22679e-17,-2.03112e-16,3.01576e-17,2.70285e-17,-9.00656e-17,3.85751e-17,-8.83988e-17
385,6.11382e-17,-4.15912e-16,4.46868e-17,4.0935e-16,1.22504e-16,2.9158e-16,1.01513e-16
386,-6.5865e-19,1.01326e-16,6.64474e-18,-1.21789e-16,-2.9013e-17,-8.9285e-17,-2.52313e-17
387,-7.50866e-17,7.97319e-16,-1.12588e-16,-4.62864e-16,-5.87636e-17,-3.59407e-16,-3.64275e-17
388,4.80965e-17,-7.844e-16,1.32934e-16,5.85497e-16,-1.7639e-17,4.30103e-16,-4.77454e-17
389,-1.9682e-17,3.21507e-16,-6.54898e-17,-3.17062e-16,1.49808e-17,-2.21016e-16,3.2792e-17
390,2.35189e-17,-2.48738e-16,4.2909e-17,4.22526e-17,-6.68572e-18,4.80231e-17,-8.66306e-18
391,5.39427e-18,6.25864e-17,-5.71554e-17,-9.68313e-17,8.91043e-17,-5.55383e-17,9.85129e-17
392,-3.32511e-17,1.30935e-16,5.98855e-18,-1.51553e-16,-1.04038e-16,-1.0901e-16,-9.73708e-17
393,3.66162e-17,-3.63894e-16,9.15046e-17,4.05689e-16,-6.95583e-18,2.74024e-16,-3.23373e-17
394,-6.01011e-18,2.54453e-16,-9.98138e-17,-2.5311e-16,1.08617e-16,-1.66563e-16,1.27132e-16
395,-2.31683e-17,1.31416e-16,-1.98903e-18,-1.56882e-16,-6.98734e-17,-1.11308e-16,-6.26862e-17
396,1.46624e-17,-1.77504e-16,3.90717e-17,2.62924e-16,6.57975e-18,1.74825e-16,-8.73829e-18
397,1.83031e-17,-8.7167e-18,-2.30378e-17,-5.98885e-17,6.93777e-17,-3.17333e-17,7.4261e-17
398,-1.53119e-17,-1.40404e-16,2.35304e-18,2.62042e-17,-3.18559e-17,3.52444e-17,-2.9268e-17
399,-2.35736e-17,8.05156e-16,-7.69517e-17,-4.67288e-16,-2.34889e-18,-3.74411e-16,1.35115e-17
400,4.95225e-17,-8.71173e-16,1.21773e-16,6.52324e-16,1.3033e-17,4.84789e-16,-1.76884e-17
401,-0.00287258,0.0013974,-0.000451654,-0.000562195,-0.00572761,-0.000224014,-0.00552676
402,-0.00278022,0.00118429,-0.000464469,-0.000479798,-0.005496,-0.000143721,-0.00529842
403,-0.00278193,0.00117655,-0.000460797,-0.000469917,-0.00551093,-0.000131874,-0.00531432
404,-0.00278234,0.00117726,-0.000460595,-0.000468708,-0.00551872,-0.000125781,-0.0053225
405,-0.00278239,0.00117556,-0.000460062,-0.000465898,-0.00552601,-0.000118533,-0.00533028
406,-0.00278224,0.00117291,-0.000459436,-0.000462472,-0.0055329,-0.000110861,-0.00533768
407,-0.00278186,0.00116925,-0.000458714,-0.000458401,-0.00553933,-0.00010275,-0.00534466
408,-0.00278126,0.00116461,-0.0004579,-0.000453696,-0.0055453,-9.42181e-05,-0.00535122
409,-0.00278044,0.00115903,-0.000456995,-0.000448375,-0.00555079,-8.52852e-05,-0.00535735
410,-0.00277939,0.00115254,-0.000456005,-0.000442451,-0.0055558,-7.59705e-05,-0.00536301
411,-0.0027781,0.00114518,-0.000454932,-0.000435943,-0.00556029,-6.6294e-05,-0.00536822
412,-0.00277659,0.00113698,-0.000453782,-0.000428868,-0.00556428,-5.62761e-05,-0.00537295
413,-0.00277485,0.00112798,-0.000452559,-0.000421245,-0.00556773,-4.59375e-05,-0.00537718
414,-0.00277288,0.00111821,-0.000451268,-0.000413094,-0.00557065,-3.52994e-05,-0.00538092
415,-0.00277068,0.00110771,-0.000449913,-0.000404438,-0.00557301,-2.43832e-05,-0.00538415
416,-0.00276825,0.00109654,-0.000448499,-0.000395298,-0.00557482,-1.32108e-05,-0.00538685
417,-0.00276559,0.00108471,-0.000447033,-0.000385697,-0.00557606,-1.80401e-06,-0.00538903
418,-0.0027627,0.00107229,-0.00044552,-0.000375659,-0.00557672,9.81472e-06,-0.00539066
419,-0.00275959,0.0010593,-0.000443965,-0.000365212,-0.0055768,2.16229e-05,-0.00539175
420,-0.00275625,0.00104581,-0.000442374,-0.000354379,-0.00557628,3.35979e-05,-0.00539228
421,-0.00275269,0.00103184,-0.000440755,-0.00034319,-0.00557516,4.57168e-05,-0.00539225
422,-0.0027489,0.00101745,-0.000439112,-0.000331671,-0.00557344,5.79566e-05,-0.00539164
423,-0.0027449,0.00100267,-0.000437453,-0.000319853,-0.00557112,7.02944e-05,-0.00539046
424,-0.00274068,0.000987574,-0.000435784,-0.000307764,-0.00556818,8.2707e-05,-0.0053887
425,-0.00273625,0.000972189,-0.000434112,-0.000295436,-0.00556462,9.51714e-05,-0.00538636
426,-0.00273161,0.00095657,-0.000432444,-0.0002829,-0.00556045,0.000107664,-0.00538342
427,-0.00272676,0.000940763,-0.000430787,-0.000270188,-0.00555565,0.000120163,-0.00537989
428,-0.00272171,0.000924819,-0.000429148,-0.000257332,-0.00555024,0.000132644,-0.00537577
429,-0.00271647,0.000908786,-0.000427535,-0.000244366,-0.00554421,0.000145085,-0.00537105
430,-0.00271103,0.000892714,-0.000425954,-0.000231324,-0.00553756,0.000157463,-0.00536574
431,-0.00270541,0.000876652,-0.000424413,-0.00021824,-0.0055303,0.000169756,-0.00535983
432,-0.0026996,0.000860651,-0.00042292,-0.000205148,-0.00552243,0.000181942,-0.00535333
433,-0.00269361,0.000844758,-0.000421481,-0.000192084,-0.00551395,0.000193998,-0.00534623
434,-0.00268746,0.000829025,-0.000420105,-0.000179082,-0.00550487,0.000205902,-0.00533854
435,-0.00268114,0.0008135,-0.000418799,-0.00016618,-0.00549519,0.000217634,-0.00533027
436,-0.00267466,0.000798233,-0.00041757,-0.000153411,-0.00548492,0.000229173,-0.00532141
437,-0.00266802,0.000783273,-0.000416427,-0.000140813,-0.00547408,0.000240497,-0.00531198
438,-0.00266124,0.000768667,-0.000415376,-0.00012842,-0.00546266,0.000251587,-0.00530197
439,-0.00265432,0.000754465,-0.000414425,-0.00011627,-0.00545068,0.000262422,-0.0052914
440,-0.00264727,0.000740713,-0.000413581,-0.000104397,-0.00543815,0.000272984,-0.00528027
441,-0.00264009,0.000727459,-0.000412852,-9.28375e-05,-0.00542509,0.000283254,-0.00526859
442,-0.00263279,0.000714748,-0.000412245,-8.16271e-05,-0.00541149,0.000293212,-0.00525637
443,-0.00262538,0.000702627,-0.000411768,-7.08009e-05,-0.00539738,0.000302843,-0.00524362
444,-0.00261787,0.00069114,-0.000411426,-6.0394e-05,-0.00538277,0.000312128,-0.00523035
445,-0.00261026,0.000680331,-0.000411229,-5.04409e-05,-0.00536767,0.00032105,-0.00521656
446,-0.00260257,0.000670243,-0.000411181,-4.09758e-05,-0.0053521,0.000329595,-0.00520228
447,-0.00259479,0.000660918,-0.000411291,-3.20325e-05,-0.00533608,0.000337745,-0.00518751
448,-0.00258694,0.000652398,-0.000411565,-2.36443e-05,-0.00531961,0.000345488,-0.00517226
449,-0.00257903,0.000644721,-0.000412009,-1.58437e-05,-0.00530273,0.000352807,-0.00515655
450,-0.00257106,0.000637928,-0.00041263,-8.66301e-06,-0.00528544,0.000359691,-0.00514039
451,-0.00256304,0.000632055,-0.000413433,-2.1335e-06,-0.00526777,0.000366125,-0.0051238
452,-0.00255497,0.00062714,-0.000414426,3.71401e-06,-0.00524972,0.000372099,-0.00510679
453,-0.00254688,0.000623218,-0.000415613,8.84951e-06,-0.00523133,0.0003776,-0.00508937
454,-0.00253876,0.000620323,-0.000417,1.32437e-05,-0.00521261,0.000382618,-0.00507156
455,-0.00253062,0.000618487,-0.000418593,1.68681e-05,-0.00519359,0.000387143,-0.00505338
456,-0.00252248,0.000617742,-0.000420397,1.9695e-05,-0.00517427,0.000391164,-0.00503484
457,-0.00251433,0.000618119,-0.000422417,2.16977e-05,-0.00515468,0.000394675,-0.00501595
458,-0.00250618,0.000619646,-0.000424658,2.28501e-05,-0.00513485,0.000397665,-0.00499674
459,-0.00249805,0.00062235,-0.000427125,2.31271e-05,-0.00511479,0.00040013,-0.00497722
460,-0.00248994,0.000626258,-0.000429821,2.25046e-05,-0.00509452,0.00040206,-0.00495741
461,-0.00248186,0.000631394,-0.00043275,2.09593e-05,-0.00507407,0.000403452,-0.00493732
462,-0.00247381,0.000637781,-0.000435918,1.84689e-05,-0.00505345,0.000404298,-0.00491697
463,-0.00246581,0.000645442,-0.000439326,1.5012e-05,-0.00503269,0.000404596,-0.00489638
464,-0.00245785,0.000654397,-0.000442979,1.05682e-05,-0.00501181,0.000404341,-0.00487556
465,-0.00244995,0.000664664,-0.00044688,5.11802e-06,-0.00499082,0.000403529,-0.00485454
466,-0.00244211,0.000676261,-0.000451031,-1.35704e-06,-0.00496976,0.000402159,-0.00483332
467,-0.00243434,0.000689204,-0.000455436,-8.87453e-06,-0.00494864,0.000400228,-0.00481194
468,-0.00242665,0.000703509,-0.000460095,-1.7451e-05,-0.00492747,0.000397735,-0.00479039
469,-0.00241903,0.000719188,-0.000465012,-2.71021e-05,-0.0049063,0.000394679,-0.00476871
470,-0.00241151,0.000736253,-0.000470187,-3.78425e-05,-0.00488512,0.00039106,-0.0047469
471,-0.00240407,0.000754715,-0.000475624,-4.96859e-05,-0.00486397,0.000386879,-0.00472498
472,-0.00239673,0.000774583,-0.000481321,-6.26451e-05,-0.00484286,0.000382137,-0.00470298
473,-0.00238949,0.000795866,-0.000487282,-7.67318e-05,-0.00482181,0.000376836,-0.0046809
474,-0.00238236,0.000818568,-0.000493505,-9.1957e-05,-0.00480085,0.000370978,-0.00465876
475,-0.00237534,0.000842697,-0.000499993,-0.000108331,-0.00477998,0.000364565,-0.00463659
476,-0.00236843,0.000868255,-0.000506743,-0.000125862,-0.00475924,0.000357602,-0.00461438
477,-0.00236165,0.000895245,-0.000513757,-0.000144559,-0.00473863,0.000350092,-0.00459217
478,-0.00235499,0.000923669,-0.000521034,-0.000164429,-0.00471818,0.00034204,-0.00456996
479,-0.00234845,0.000953527,-0.000528573,-0.000185479,-0.0046979,0.00033345,-0.00454777
480,-0.00234205,0.000984817,-0.000536373,-0.000207713,-0.00467781,0.000324329,-0.00452562
481,-0.00233578,0.00101754,-0.000544432,-0.000231138,-0.00465793,0.000314681,-0.00450351
482,-0.00232964,0.00105168,-0.00055275,-0.000255756,-0.00463827,0.000304515,-0.00448146
483,-0.00232365,0.00108725,-0.000561323,-0.000281571,-0.00461885,0.000293835,-0.0044595
484,-0.00231779,0.00112424,-0.000570151,-0.000308586,-0.00459969,0.00028265,-0.00443762
485,-0.00231208,0.00116263,-0.00057923,-0.000336802,-0.00458079,0.000270968,-0.00441585
486,-0.00230651,0.00120243,-0.000588558,-0.000366219,-0.00456217,0.000258796,-0.00439419
487,-0.00230109,0.00124362,-0.000598132,-0.000396838,-0.00454385,0.000246143,-0.00437266
488,-0.00229581,0.00128619,-0.000607948,-0.000428658,-0.00452584,0.000233018,-0.00435127
489,-0.00229068,0.00133013,-0.000618004,-0.000461678,-0.00450815,0.000219431,-0.00433003
490,-0.0022857,0.00137543,-0.000628295,-0.000495896,-0.0044908,0.000205391,-0.00430896
491,-0.00228087,0.00142208,-0.000638818,-0.000531309,-0.00447379,0.000190908,-0.00428806
492,-0.00227619,0.00147005,-0.000649568,-0.000567914,-0.00445714,0.000175993,-0.00426735
493,-0.00227165,0.00151935,-0.000660541,-0.000605707,-0.00444085,0.000160656,-0.00424683
494,-0.00226727,0.00156994,-0.000671733,-0.000644682,-0.00442494,0.000144908,-0.00422652
495,-0.00226303,0.00162182,-0.000683137,-0.000684836,-0.00440943,0.000128762,-0.00420643
496,-0.00225894,0.00167496,-0.00069475,-0.000726162,-0.0043943,0.000112228,-0.00418656
497,-0.002255,0.00172935,-0.000706566,-0.000768653,-0.00437959,9.53181e-05,-0.00416693
498,-0.0022512,0.00178497,-0.00071858,-0.000812303,-0.00436528,7.80451e-05,-0.00414755
499,-0.00224754,0.00184179,-0.000730785,-0.000857103,-0.0043514,6.04213e-05,-0.00412841
